%YAML 1.1
%TAG !u! tag:unity3d.com,2011:
--- !u!29 &1
OcclusionCullingSettings:
  m_ObjectHideFlags: 0
  serializedVersion: 2
  m_OcclusionBakeSettings:
    smallestOccluder: 5
    smallestHole: 0.25
    backfaceThreshold: 100
  m_SceneGUID: 00000000000000000000000000000000
  m_OcclusionCullingData: {fileID: 0}
--- !u!104 &2
RenderSettings:
  m_ObjectHideFlags: 0
  serializedVersion: 9
  m_Fog: 0
  m_FogColor: {r: 0.5, g: 0.5, b: 0.5, a: 1}
  m_FogMode: 3
  m_FogDensity: 0.01
  m_LinearFogStart: 0
  m_LinearFogEnd: 300
  m_AmbientSkyColor: {r: 0.5330188, g: 0.77269334, b: 1, a: 1}
  m_AmbientEquatorColor: {r: 0.44766438, g: 0.49343756, b: 0.66176474, a: 1}
  m_AmbientGroundColor: {r: 0.44766438, g: 0.49343756, b: 0.66176474, a: 1}
  m_AmbientIntensity: 1
  m_AmbientMode: 3
  m_SubtractiveShadowColor: {r: 0.42, g: 0.478, b: 0.627, a: 1}
  m_SkyboxMaterial: {fileID: 0}
  m_HaloStrength: 0.5
  m_FlareStrength: 1
  m_FlareFadeSpeed: 3
  m_HaloTexture: {fileID: 0}
  m_SpotCookie: {fileID: 10001, guid: 0000000000000000e000000000000000, type: 0}
  m_DefaultReflectionMode: 0
  m_DefaultReflectionResolution: 128
  m_ReflectionBounces: 1
  m_ReflectionIntensity: 1
  m_CustomReflection: {fileID: 0}
  m_Sun: {fileID: 0}
  m_IndirectSpecularColor: {r: 0, g: 0, b: 0, a: 1}
  m_UseRadianceAmbientProbe: 0
--- !u!157 &4
LightmapSettings:
  m_ObjectHideFlags: 0
  serializedVersion: 11
  m_GIWorkflowMode: 1
  m_GISettings:
    serializedVersion: 2
    m_BounceScale: 1
    m_IndirectOutputScale: 1
    m_AlbedoBoost: 1
    m_EnvironmentLightingMode: 0
    m_EnableBakedLightmaps: 0
    m_EnableRealtimeLightmaps: 0
  m_LightmapEditorSettings:
    serializedVersion: 10
    m_Resolution: 1
    m_BakeResolution: 50
    m_AtlasSize: 1024
    m_AO: 1
    m_AOMaxDistance: 1
    m_CompAOExponent: 1
    m_CompAOExponentDirect: 0
    m_Padding: 2
    m_LightmapParameters: {fileID: 0}
    m_LightmapsBakeMode: 1
    m_TextureCompression: 0
    m_FinalGather: 0
    m_FinalGatherFiltering: 1
    m_FinalGatherRayCount: 256
    m_ReflectionCompression: 2
    m_MixedBakeMode: 1
    m_BakeBackend: 0
    m_PVRSampling: 1
    m_PVRDirectSampleCount: 32
    m_PVRSampleCount: 500
    m_PVRBounces: 2
    m_PVRFilterTypeDirect: 0
    m_PVRFilterTypeIndirect: 0
    m_PVRFilterTypeAO: 0
    m_PVRFilteringMode: 0
    m_PVRCulling: 1
    m_PVRFilteringGaussRadiusDirect: 1
    m_PVRFilteringGaussRadiusIndirect: 5
    m_PVRFilteringGaussRadiusAO: 2
    m_PVRFilteringAtrousPositionSigmaDirect: 0.5
    m_PVRFilteringAtrousPositionSigmaIndirect: 2
    m_PVRFilteringAtrousPositionSigmaAO: 1
    m_ShowResolutionOverlay: 1
  m_LightingDataAsset: {fileID: 0}
  m_UseShadowmask: 0
--- !u!196 &5
NavMeshSettings:
  serializedVersion: 2
  m_ObjectHideFlags: 0
  m_BuildSettings:
    serializedVersion: 2
    agentTypeID: 0
    agentRadius: 0.5
    agentHeight: 2
    agentSlope: 45
    agentClimb: 0.4
    ledgeDropHeight: 0
    maxJumpAcrossDistance: 0
    minRegionArea: 2
    manualCellSize: 0
    cellSize: 0.16666666
    manualTileSize: 0
    tileSize: 256
    accuratePlacement: 0
    debug:
      m_Flags: 0
  m_NavMeshData: {fileID: 0}
--- !u!1001 &328529699
PrefabInstance:
  m_ObjectHideFlags: 0
  serializedVersion: 2
  m_Modification:
    m_TransformParent: {fileID: 1781273953}
    m_Modifications:
    - target: {fileID: 100000, guid: 74469f9cdc90b2b4ba4bf63a12966630, type: 3}
      propertyPath: m_IsActive
      value: 1
      objectReference: {fileID: 0}
    - target: {fileID: 100000, guid: 74469f9cdc90b2b4ba4bf63a12966630, type: 3}
      propertyPath: m_StaticEditorFlags
      value: 4294967295
      objectReference: {fileID: 0}
    - target: {fileID: 400000, guid: 74469f9cdc90b2b4ba4bf63a12966630, type: 3}
      propertyPath: m_LocalPosition.x
      value: -.176410183
      objectReference: {fileID: 0}
    - target: {fileID: 400000, guid: 74469f9cdc90b2b4ba4bf63a12966630, type: 3}
      propertyPath: m_LocalPosition.y
      value: -.0743254945
      objectReference: {fileID: 0}
    - target: {fileID: 400000, guid: 74469f9cdc90b2b4ba4bf63a12966630, type: 3}
      propertyPath: m_LocalPosition.z
      value: -.0701203346
      objectReference: {fileID: 0}
    - target: {fileID: 400000, guid: 74469f9cdc90b2b4ba4bf63a12966630, type: 3}
      propertyPath: m_LocalRotation.x
      value: 3.09086232e-08
      objectReference: {fileID: 0}
    - target: {fileID: 400000, guid: 74469f9cdc90b2b4ba4bf63a12966630, type: 3}
      propertyPath: m_LocalRotation.y
      value: .707106829
      objectReference: {fileID: 0}
    - target: {fileID: 400000, guid: 74469f9cdc90b2b4ba4bf63a12966630, type: 3}
      propertyPath: m_LocalRotation.z
      value: .707106829
      objectReference: {fileID: 0}
    - target: {fileID: 400000, guid: 74469f9cdc90b2b4ba4bf63a12966630, type: 3}
      propertyPath: m_LocalRotation.w
      value: -3.09086232e-08
      objectReference: {fileID: 0}
    - target: {fileID: 400000, guid: 74469f9cdc90b2b4ba4bf63a12966630, type: 3}
      propertyPath: m_RootMapOrder
      value: 
      objectReference: {fileID: 0}
    - target: {fileID: 400000, guid: 74469f9cdc90b2b4ba4bf63a12966630, type: 3}
      propertyPath: m_RootOrder
      value: 3
      objectReference: {fileID: 0}
    - target: {fileID: 400000, guid: 74469f9cdc90b2b4ba4bf63a12966630, type: 3}
      propertyPath: m_LocalScale.y
      value: 1.93110657
      objectReference: {fileID: 0}
    - target: {fileID: 400000, guid: 74469f9cdc90b2b4ba4bf63a12966630, type: 3}
      propertyPath: m_LocalScale.x
      value: 2.57277989
      objectReference: {fileID: 0}
    - target: {fileID: 400000, guid: 74469f9cdc90b2b4ba4bf63a12966630, type: 3}
      propertyPath: m_LocalScale.z
      value: 2.0695622
      objectReference: {fileID: 0}
    - target: {fileID: 2300000, guid: 74469f9cdc90b2b4ba4bf63a12966630, type: 3}
      propertyPath: m_Materials.Array.data[0]
      value: 
      objectReference: {fileID: 2100000, guid: 220b02c2040cb384aa7961840f74a581, type: 2}
    - target: {fileID: 2300000, guid: 74469f9cdc90b2b4ba4bf63a12966630, type: 3}
      propertyPath: m_CastShadows
      value: 0
      objectReference: {fileID: 0}
    m_RemovedComponents: []
  m_SourcePrefab: {fileID: 100100000, guid: 74469f9cdc90b2b4ba4bf63a12966630, type: 3}
--- !u!1001 &1274003481
PrefabInstance:
  m_ObjectHideFlags: 0
  serializedVersion: 2
  m_Modification:
    m_TransformParent: {fileID: 1915019288}
    m_Modifications:
    - target: {fileID: 100000, guid: 0a0c79d9debe3794cb3a8f167ae966cf, type: 3}
      propertyPath: m_Name
      value: ts_sencen
      objectReference: {fileID: 0}
    - target: {fileID: 400006, guid: 0a0c79d9debe3794cb3a8f167ae966cf, type: 3}
      propertyPath: m_LocalPosition.x
      value: 0.20834412
      objectReference: {fileID: 0}
    - target: {fileID: 400006, guid: 0a0c79d9debe3794cb3a8f167ae966cf, type: 3}
      propertyPath: m_LocalPosition.y
      value: -0.15564685
      objectReference: {fileID: 0}
    - target: {fileID: 2300000, guid: 0a0c79d9debe3794cb3a8f167ae966cf, type: 3}
      propertyPath: m_CastShadows
      value: 0
      objectReference: {fileID: 0}
    - target: {fileID: 2300000, guid: 0a0c79d9debe3794cb3a8f167ae966cf, type: 3}
      propertyPath: m_ReceiveShadows
      value: 0
      objectReference: {fileID: 0}
    - target: {fileID: 100002, guid: 0a0c79d9debe3794cb3a8f167ae966cf, type: 3}
      propertyPath: m_IsActive
      value: 0
      objectReference: {fileID: 0}
    - target: {fileID: 400002, guid: 0a0c79d9debe3794cb3a8f167ae966cf, type: 3}
      propertyPath: m_LocalPosition.x
      value: 0.226855
      objectReference: {fileID: 0}
    - target: {fileID: 400002, guid: 0a0c79d9debe3794cb3a8f167ae966cf, type: 3}
      propertyPath: m_LocalPosition.z
      value: 1.2093308
      objectReference: {fileID: 0}
    - target: {fileID: 400002, guid: 0a0c79d9debe3794cb3a8f167ae966cf, type: 3}
      propertyPath: m_LocalRotation.x
      value: 0.4496329
      objectReference: {fileID: 0}
    - target: {fileID: 400002, guid: 0a0c79d9debe3794cb3a8f167ae966cf, type: 3}
      propertyPath: m_LocalRotation.w
      value: 0.5974434
      objectReference: {fileID: 0}
    - target: {fileID: 400002, guid: 0a0c79d9debe3794cb3a8f167ae966cf, type: 3}
      propertyPath: m_LocalRotation.y
      value: -0.6510277
      objectReference: {fileID: 0}
    - target: {fileID: 400002, guid: 0a0c79d9debe3794cb3a8f167ae966cf, type: 3}
      propertyPath: m_LocalRotation.z
      value: 0.13059315
      objectReference: {fileID: 0}
    - target: {fileID: 400002, guid: 0a0c79d9debe3794cb3a8f167ae966cf, type: 3}
      propertyPath: m_LocalPosition.y
      value: 1.7432106
      objectReference: {fileID: 0}
    - target: {fileID: 10800000, guid: 0a0c79d9debe3794cb3a8f167ae966cf, type: 3}
      propertyPath: m_Type
      value: 1
      objectReference: {fileID: 0}
    - target: {fileID: 10800000, guid: 0a0c79d9debe3794cb3a8f167ae966cf, type: 3}
      propertyPath: m_Intensity
      value: 1.03
      objectReference: {fileID: 0}
    - target: {fileID: 10800000, guid: 0a0c79d9debe3794cb3a8f167ae966cf, type: 3}
      propertyPath: m_Shadows.m_Type
      value: 1
      objectReference: {fileID: 0}
    - target: {fileID: 10800000, guid: 0a0c79d9debe3794cb3a8f167ae966cf, type: 3}
      propertyPath: m_Shadows.m_Strength
      value: 0.87
      objectReference: {fileID: 0}
    - target: {fileID: 10800000, guid: 0a0c79d9debe3794cb3a8f167ae966cf, type: 3}
      propertyPath: m_Shadows.m_Bias
      value: 0
      objectReference: {fileID: 0}
    - target: {fileID: 10800000, guid: 0a0c79d9debe3794cb3a8f167ae966cf, type: 3}
      propertyPath: m_Color.r
      value: 0.63234246
      objectReference: {fileID: 0}
    - target: {fileID: 10800000, guid: 0a0c79d9debe3794cb3a8f167ae966cf, type: 3}
      propertyPath: m_Color.g
      value: 0.70809436
      objectReference: {fileID: 0}
    - target: {fileID: 10800000, guid: 0a0c79d9debe3794cb3a8f167ae966cf, type: 3}
      propertyPath: m_Color.b
      value: 0.9245283
      objectReference: {fileID: 0}
    - target: {fileID: 10800000, guid: 0a0c79d9debe3794cb3a8f167ae966cf, type: 3}
      propertyPath: m_Lightmapping
      value: 2
      objectReference: {fileID: 0}
    - target: {fileID: 400000, guid: 0a0c79d9debe3794cb3a8f167ae966cf, type: 3}
      propertyPath: m_LocalPosition.x
      value: 0.510787
      objectReference: {fileID: 0}
    - target: {fileID: 400000, guid: 0a0c79d9debe3794cb3a8f167ae966cf, type: 3}
      propertyPath: m_LocalPosition.y
      value: 0
      objectReference: {fileID: 0}
    - target: {fileID: 400000, guid: 0a0c79d9debe3794cb3a8f167ae966cf, type: 3}
      propertyPath: m_LocalPosition.z
      value: -3.1336064
      objectReference: {fileID: 0}
    - target: {fileID: 400000, guid: 0a0c79d9debe3794cb3a8f167ae966cf, type: 3}
      propertyPath: m_LocalRotation.x
      value: 0
      objectReference: {fileID: 0}
    - target: {fileID: 400000, guid: 0a0c79d9debe3794cb3a8f167ae966cf, type: 3}
      propertyPath: m_LocalRotation.y
      value: 0
      objectReference: {fileID: 0}
    - target: {fileID: 400000, guid: 0a0c79d9debe3794cb3a8f167ae966cf, type: 3}
      propertyPath: m_LocalRotation.z
      value: 0
      objectReference: {fileID: 0}
    - target: {fileID: 400000, guid: 0a0c79d9debe3794cb3a8f167ae966cf, type: 3}
      propertyPath: m_LocalRotation.w
      value: 1
      objectReference: {fileID: 0}
    - target: {fileID: 400000, guid: 0a0c79d9debe3794cb3a8f167ae966cf, type: 3}
      propertyPath: m_LocalScale.x
      value: 1.1534739
      objectReference: {fileID: 0}
    - target: {fileID: 400000, guid: 0a0c79d9debe3794cb3a8f167ae966cf, type: 3}
      propertyPath: m_LocalScale.y
      value: 1.216782
      objectReference: {fileID: 0}
    - target: {fileID: 100004, guid: 0a0c79d9debe3794cb3a8f167ae966cf, type: 3}
      propertyPath: m_IsActive
      value: 0
      objectReference: {fileID: 0}
    - target: {fileID: 10800002, guid: 0a0c79d9debe3794cb3a8f167ae966cf, type: 3}
      propertyPath: m_Intensity
      value: 0.45
      objectReference: {fileID: 0}
    - target: {fileID: 10800002, guid: 0a0c79d9debe3794cb3a8f167ae966cf, type: 3}
      propertyPath: m_Lightmapping
      value: 2
      objectReference: {fileID: 0}
    m_RemovedComponents: []
  m_SourcePrefab: {fileID: 100100000, guid: 0a0c79d9debe3794cb3a8f167ae966cf, type: 3}
--- !u!4 &1781273953 stripped
Transform:
  m_CorrespondingSourceObject: {fileID: 400000, guid: 0a0c79d9debe3794cb3a8f167ae966cf,
    type: 3}
  m_PrefabInstance: {fileID: 1274003481}
  m_PrefabAsset: {fileID: 0}
--- !u!1 &1915019287
GameObject:
  m_ObjectHideFlags: 0
  m_CorrespondingSourceObject: {fileID: 0}
  m_PrefabInstance: {fileID: 0}
  m_PrefabAsset: {fileID: 0}
  serializedVersion: 6
  m_Component:
  - component: {fileID: 1915019288}
  - component: {fileID: 1915019289}
  m_Layer: 0
  m_Name: ts_shex002
  m_TagString: Untagged
  m_Icon: {fileID: 0}
  m_NavMeshLayer: 0
  m_StaticEditorFlags: 0
  m_IsActive: 1
--- !u!4 &1915019288
Transform:
  m_ObjectHideFlags: 0
  m_CorrespondingSourceObject: {fileID: 0}
  m_PrefabInstance: {fileID: 0}
  m_PrefabAsset: {fileID: 0}
  m_GameObject: {fileID: 1915019287}
  m_LocalRotation: {x: 0, y: 0, z: 0, w: 1}
  m_LocalPosition: {x: 0, y: 0, z: 0}
  m_LocalScale: {x: 1, y: 1, z: 1}
  m_Children:
  - {fileID: 1781273953}
  m_Father: {fileID: 0}
  m_RootOrder: 0
  m_LocalEulerAnglesHint: {x: 0, y: 0, z: 0}
--- !u!114 &1915019289
MonoBehaviour:
  m_ObjectHideFlags: 0
  m_CorrespondingSourceObject: {fileID: 0}
  m_PrefabInstance: {fileID: 0}
  m_PrefabAsset: {fileID: 0}
  m_GameObject: {fileID: 1915019287}
  m_Enabled: 1
  m_EditorHideFlags: 0
  m_Script: {fileID: 11500000, guid: 509ceed1215c0df428d0cb9dd64e666c, type: 3}
  m_Name: 
  m_EditorClassIdentifier: 
  m_Fog: 0
  m_Fog_Color: {r: 0, g: 0, b: 0, a: 0}
  m_Fog_Mode: 0
  m_FogDensity: 0
  m_linear_fog_start: 0
  m_linear_fog_end: 0
  m_Ambient_Light: {r: 0.49803922, g: 0.54509807, b: 0.7058824, a: 1}
  m_skybox: {fileID: 0}
  m_add_scene: 1
  m_directs: []
