%YAML 1.1
%TAG !u! tag:unity3d.com,2011:
--- !u!29 &1
OcclusionCullingSettings:
  m_ObjectHideFlags: 0
  serializedVersion: 2
  m_OcclusionBakeSettings:
    smallestOccluder: 5
    smallestHole: 0.25
    backfaceThreshold: 100
  m_SceneGUID: 00000000000000000000000000000000
  m_OcclusionCullingData: {fileID: 0}
--- !u!104 &2
RenderSettings:
  m_ObjectHideFlags: 0
  serializedVersion: 9
  m_Fog: 0
  m_FogColor: {r: 0.5, g: 0.5, b: 0.5, a: 1}
  m_FogMode: 3
  m_FogDensity: 0.01
  m_LinearFogStart: 0
  m_LinearFogEnd: 300
  m_AmbientSkyColor: {r: 0.7647059, g: 0.69102734, b: 0.62413496, a: 1}
  m_AmbientEquatorColor: {r: 0.7647059, g: 0.69102734, b: 0.62413496, a: 1}
  m_AmbientGroundColor: {r: 0.7647059, g: 0.69102734, b: 0.62413496, a: 1}
  m_AmbientIntensity: 1
  m_AmbientMode: 3
  m_SubtractiveShadowColor: {r: 0.42, g: 0.478, b: 0.627, a: 1}
  m_SkyboxMaterial: {fileID: 0}
  m_HaloStrength: 0.5
  m_FlareStrength: 1
  m_FlareFadeSpeed: 3
  m_HaloTexture: {fileID: 0}
  m_SpotCookie: {fileID: 10001, guid: 0000000000000000e000000000000000, type: 0}
  m_DefaultReflectionMode: 0
  m_DefaultReflectionResolution: 128
  m_ReflectionBounces: 1
  m_ReflectionIntensity: 1
  m_CustomReflection: {fileID: 0}
  m_Sun: {fileID: 0}
  m_IndirectSpecularColor: {r: 0, g: 0, b: 0, a: 1}
  m_UseRadianceAmbientProbe: 0
--- !u!157 &4
LightmapSettings:
  m_ObjectHideFlags: 0
  serializedVersion: 11
  m_GIWorkflowMode: 1
  m_GISettings:
    serializedVersion: 2
    m_BounceScale: 1
    m_IndirectOutputScale: 1
    m_AlbedoBoost: 1
    m_EnvironmentLightingMode: 0
    m_EnableBakedLightmaps: 0
    m_EnableRealtimeLightmaps: 0
  m_LightmapEditorSettings:
    serializedVersion: 10
    m_Resolution: 1
    m_BakeResolution: 5
    m_AtlasSize: 1024
    m_AO: 1
    m_AOMaxDistance: 1
    m_CompAOExponent: 1
    m_CompAOExponentDirect: 0
    m_Padding: 2
    m_LightmapParameters: {fileID: 0}
    m_LightmapsBakeMode: 0
    m_TextureCompression: 0
    m_FinalGather: 0
    m_FinalGatherFiltering: 1
    m_FinalGatherRayCount: 256
    m_ReflectionCompression: 2
    m_MixedBakeMode: 1
    m_BakeBackend: 0
    m_PVRSampling: 1
    m_PVRDirectSampleCount: 32
    m_PVRSampleCount: 500
    m_PVRBounces: 2
    m_PVRFilterTypeDirect: 0
    m_PVRFilterTypeIndirect: 0
    m_PVRFilterTypeAO: 0
    m_PVRFilteringMode: 0
    m_PVRCulling: 1
    m_PVRFilteringGaussRadiusDirect: 1
    m_PVRFilteringGaussRadiusIndirect: 5
    m_PVRFilteringGaussRadiusAO: 2
    m_PVRFilteringAtrousPositionSigmaDirect: 0.5
    m_PVRFilteringAtrousPositionSigmaIndirect: 2
    m_PVRFilteringAtrousPositionSigmaAO: 1
    m_ShowResolutionOverlay: 1
  m_LightingDataAsset: {fileID: 0}
  m_UseShadowmask: 0
--- !u!196 &5
NavMeshSettings:
  serializedVersion: 2
  m_ObjectHideFlags: 0
  m_BuildSettings:
    serializedVersion: 2
    agentTypeID: 0
    agentRadius: 0.5
    agentHeight: 2
    agentSlope: 45
    agentClimb: 0.4
    ledgeDropHeight: 0
    maxJumpAcrossDistance: 0
    minRegionArea: 2
    manualCellSize: 0
    cellSize: 0.16666666
    manualTileSize: 0
    tileSize: 256
    accuratePlacement: 0
    debug:
      m_Flags: 0
  m_NavMeshData: {fileID: 0}
--- !u!1001 &502636295
PrefabInstance:
  m_ObjectHideFlags: 0
  serializedVersion: 2
  m_Modification:
    m_TransformParent: {fileID: 0}
    m_Modifications:
    - target: {fileID: 400006, guid: dbe032264ea114241808166705622ed3, type: 3}
      propertyPath: m_LocalPosition.y
      value: .0500302427
      objectReference: {fileID: 0}
    - target: {fileID: 400006, guid: dbe032264ea114241808166705622ed3, type: 3}
      propertyPath: m_LocalRotation.x
      value: -.29823342
      objectReference: {fileID: 0}
    - target: {fileID: 400006, guid: dbe032264ea114241808166705622ed3, type: 3}
      propertyPath: m_LocalRotation.y
      value: -.641137064
      objectReference: {fileID: 0}
    - target: {fileID: 400006, guid: dbe032264ea114241808166705622ed3, type: 3}
      propertyPath: m_LocalRotation.z
      value: -.641137242
      objectReference: {fileID: 0}
    - target: {fileID: 400006, guid: dbe032264ea114241808166705622ed3, type: 3}
      propertyPath: m_LocalRotation.w
      value: .298233628
      objectReference: {fileID: 0}
    - target: {fileID: 400006, guid: dbe032264ea114241808166705622ed3, type: 3}
      propertyPath: m_LocalScale.x
      value: .0353860483
      objectReference: {fileID: 0}
    - target: {fileID: 400006, guid: dbe032264ea114241808166705622ed3, type: 3}
      propertyPath: m_LocalScale.y
      value: .0353860557
      objectReference: {fileID: 0}
    - target: {fileID: 400006, guid: dbe032264ea114241808166705622ed3, type: 3}
      propertyPath: m_LocalScale.z
      value: .0277034156
      objectReference: {fileID: 0}
    - target: {fileID: 400006, guid: dbe032264ea114241808166705622ed3, type: 3}
      propertyPath: m_RootOrder
      value: 4
      objectReference: {fileID: 0}
    - target: {fileID: 400006, guid: dbe032264ea114241808166705622ed3, type: 3}
      propertyPath: m_LocalPosition.x
      value: 5.75584316
      objectReference: {fileID: 0}
    - target: {fileID: 400006, guid: dbe032264ea114241808166705622ed3, type: 3}
      propertyPath: m_LocalPosition.z
      value: 91.2048721
      objectReference: {fileID: 0}
    - target: {fileID: 400008, guid: dbe032264ea114241808166705622ed3, type: 3}
      propertyPath: m_RootOrder
      value: 3
      objectReference: {fileID: 0}
    - target: {fileID: 400010, guid: dbe032264ea114241808166705622ed3, type: 3}
      propertyPath: m_LocalPosition.x
      value: 0
      objectReference: {fileID: 0}
    - target: {fileID: 400010, guid: dbe032264ea114241808166705622ed3, type: 3}
      propertyPath: m_LocalPosition.y
      value: -.112379551
      objectReference: {fileID: 0}
    - target: {fileID: 400010, guid: dbe032264ea114241808166705622ed3, type: 3}
      propertyPath: m_LocalPosition.z
      value: 0
      objectReference: {fileID: 0}
    - target: {fileID: 400010, guid: dbe032264ea114241808166705622ed3, type: 3}
      propertyPath: m_LocalRotation.x
      value: 0
      objectReference: {fileID: 0}
    - target: {fileID: 400010, guid: dbe032264ea114241808166705622ed3, type: 3}
      propertyPath: m_LocalRotation.y
      value: 0
      objectReference: {fileID: 0}
    - target: {fileID: 400010, guid: dbe032264ea114241808166705622ed3, type: 3}
      propertyPath: m_LocalRotation.z
      value: 0
      objectReference: {fileID: 0}
    - target: {fileID: 400010, guid: dbe032264ea114241808166705622ed3, type: 3}
      propertyPath: m_LocalRotation.w
      value: 1
      objectReference: {fileID: 0}
    - target: {fileID: 400012, guid: dbe032264ea114241808166705622ed3, type: 3}
      propertyPath: m_LocalPosition.x
      value: 76.4844742
      objectReference: {fileID: 0}
    - target: {fileID: 400012, guid: dbe032264ea114241808166705622ed3, type: 3}
      propertyPath: m_LocalPosition.y
      value: 36.9742813
      objectReference: {fileID: 0}
    - target: {fileID: 400012, guid: dbe032264ea114241808166705622ed3, type: 3}
      propertyPath: m_LocalPosition.z
      value: -134.532654
      objectReference: {fileID: 0}
    - target: {fileID: 400000, guid: dbe032264ea114241808166705622ed3, type: 3}
      propertyPath: m_LocalPosition.x
      value: -88.3188019
      objectReference: {fileID: 0}
    - target: {fileID: 400000, guid: dbe032264ea114241808166705622ed3, type: 3}
      propertyPath: m_LocalPosition.y
      value: 33.4166489
      objectReference: {fileID: 0}
    - target: {fileID: 400000, guid: dbe032264ea114241808166705622ed3, type: 3}
      propertyPath: m_LocalPosition.z
      value: -189.732742
      objectReference: {fileID: 0}
    - target: {fileID: 400004, guid: dbe032264ea114241808166705622ed3, type: 3}
      propertyPath: m_LocalPosition.x
      value: -99.8829803
      objectReference: {fileID: 0}
    - target: {fileID: 400004, guid: dbe032264ea114241808166705622ed3, type: 3}
      propertyPath: m_LocalPosition.y
      value: 43.0195923
      objectReference: {fileID: 0}
    - target: {fileID: 400004, guid: dbe032264ea114241808166705622ed3, type: 3}
      propertyPath: m_LocalPosition.z
      value: -115.004509
      objectReference: {fileID: 0}
    - target: {fileID: 400014, guid: dbe032264ea114241808166705622ed3, type: 3}
      propertyPath: m_LocalPosition.x
      value: 54.3240128
      objectReference: {fileID: 0}
    - target: {fileID: 400014, guid: dbe032264ea114241808166705622ed3, type: 3}
      propertyPath: m_LocalPosition.y
      value: 26.1641026
      objectReference: {fileID: 0}
    - target: {fileID: 400014, guid: dbe032264ea114241808166705622ed3, type: 3}
      propertyPath: m_LocalPosition.z
      value: -211.160919
      objectReference: {fileID: 0}
    - target: {fileID: 400002, guid: dbe032264ea114241808166705622ed3, type: 3}
      propertyPath: m_LocalPosition.x
      value: 57.534584
      objectReference: {fileID: 0}
    - target: {fileID: 400002, guid: dbe032264ea114241808166705622ed3, type: 3}
      propertyPath: m_LocalPosition.y
      value: 55.1225891
      objectReference: {fileID: 0}
    - target: {fileID: 400002, guid: dbe032264ea114241808166705622ed3, type: 3}
      propertyPath: m_LocalPosition.z
      value: -142.424179
      objectReference: {fileID: 0}
    - target: {fileID: 100016, guid: dbe032264ea114241808166705622ed3, type: 3}
      propertyPath: m_IsActive
      value: 0
      objectReference: {fileID: 0}
    m_RemovedComponents: []
  m_SourcePrefab: {fileID: 100100000, guid: dbe032264ea114241808166705622ed3, type: 3}
--- !u!1001 &1060560961
PrefabInstance:
  m_ObjectHideFlags: 0
  serializedVersion: 2
  m_Modification:
    m_TransformParent: {fileID: 1138137051}
    m_Modifications:
    - target: {fileID: 400000, guid: bd8948346c246fe4393bbfa4e54ef693, type: 3}
      propertyPath: m_LocalPosition.x
      value: .0241116285
      objectReference: {fileID: 0}
    - target: {fileID: 400000, guid: bd8948346c246fe4393bbfa4e54ef693, type: 3}
      propertyPath: m_LocalPosition.y
      value: .0923881531
      objectReference: {fileID: 0}
    - target: {fileID: 400000, guid: bd8948346c246fe4393bbfa4e54ef693, type: 3}
      propertyPath: m_LocalPosition.z
      value: -.115908623
      objectReference: {fileID: 0}
    - target: {fileID: 400000, guid: bd8948346c246fe4393bbfa4e54ef693, type: 3}
      propertyPath: m_LocalRotation.x
      value: 0
      objectReference: {fileID: 0}
    - target: {fileID: 400000, guid: bd8948346c246fe4393bbfa4e54ef693, type: 3}
      propertyPath: m_LocalRotation.y
      value: 0
      objectReference: {fileID: 0}
    - target: {fileID: 400000, guid: bd8948346c246fe4393bbfa4e54ef693, type: 3}
      propertyPath: m_LocalRotation.z
      value: 0
      objectReference: {fileID: 0}
    - target: {fileID: 400000, guid: bd8948346c246fe4393bbfa4e54ef693, type: 3}
      propertyPath: m_LocalRotation.w
      value: 1
      objectReference: {fileID: 0}
    - target: {fileID: 400000, guid: bd8948346c246fe4393bbfa4e54ef693, type: 3}
      propertyPath: m_LocalScale.x
      value: 55.8230667
      objectReference: {fileID: 0}
    - target: {fileID: 400000, guid: bd8948346c246fe4393bbfa4e54ef693, type: 3}
      propertyPath: m_LocalScale.y
      value: 21.4704151
      objectReference: {fileID: 0}
    - target: {fileID: 400000, guid: bd8948346c246fe4393bbfa4e54ef693, type: 3}
      propertyPath: m_LocalScale.z
      value: 56.2525215
      objectReference: {fileID: 0}
    - target: {fileID: 400000, guid: bd8948346c246fe4393bbfa4e54ef693, type: 3}
      propertyPath: m_RootOrder
      value: 2
      objectReference: {fileID: 0}
    m_RemovedComponents: []
  m_SourcePrefab: {fileID: 100100000, guid: bd8948346c246fe4393bbfa4e54ef693, type: 3}
--- !u!4 &1138137051 stripped
Transform:
  m_CorrespondingSourceObject: {fileID: 400010, guid: dbe032264ea114241808166705622ed3,
    type: 3}
  m_PrefabInstance: {fileID: 502636295}
  m_PrefabAsset: {fileID: 0}
