%YAML 1.1
%TAG !u! tag:unity3d.com,2011:
--- !u!21 &2100000
Material:
  serializedVersion: 6
  m_ObjectHideFlags: 0
  m_CorrespondingSourceObject: {fileID: 0}
  m_PrefabInternal: {fileID: 0}
  m_Name: tsx_mjdgall
  m_Shader: {fileID: 4800000, guid: 93e01b1d56ab32c4bbd1abcd867b9712, type: 3}
  m_ShaderKeywords: 
  m_LightmapFlags: 4
  m_EnableInstancingVariants: 0
  m_DoubleSidedGI: 0
  m_CustomRenderQueue: -1
  stringTagMap: {}
  disabledShaderPasses: []
  m_SavedProperties:
    serializedVersion: 3
    m_TexEnvs:
    - _BlendTex:
        m_Texture: {fileID: 2800000, guid: 47f6365aabc7a4f45af7d957d6c84b29, type: 3}
        m_Scale: {x: 1, y: 1}
        m_Offset: {x: 0, y: 0}
    - _LightTex:
        m_Texture: {fileID: 0}
        m_Scale: {x: 1, y: 1}
        m_Offset: {x: 0, y: 0}
    - _MainTex:
        m_Texture: {fileID: 2800000, guid: a740fc63d4b282d4682be857b531a4f4, type: 3}
        m_Scale: {x: 1, y: 1}
        m_Offset: {x: 0, y: 0}
    m_Floats:
    - _alpha: 1
    - _back: 0
    - _level: 1
    - _light: 1
    - _uv_x: 1
    - _uv_y: 1
    - _while: 0
    m_Colors:
    - _BackColor: {r: 1, g: 1, b: 1, a: 0}
    - _Color: {r: 0.5882353, g: 0.5882353, b: 0.5882353, a: 1}
