%YAML 1.1
%TAG !u! tag:unity3d.com,2011:
--- !u!29 &1
OcclusionCullingSettings:
  m_ObjectHideFlags: 0
  serializedVersion: 2
  m_OcclusionBakeSettings:
    smallestOccluder: 5
    smallestHole: 0.25
    backfaceThreshold: 100
  m_SceneGUID: 00000000000000000000000000000000
  m_OcclusionCullingData: {fileID: 0}
--- !u!104 &2
RenderSettings:
  m_ObjectHideFlags: 0
  serializedVersion: 9
  m_Fog: 0
  m_FogColor: {r: 0.5, g: 0.5, b: 0.5, a: 1}
  m_FogMode: 3
  m_FogDensity: 0.01
  m_LinearFogStart: 0
  m_LinearFogEnd: 300
  m_AmbientSkyColor: {r: 0.24962151, g: 0.3808503, b: 0.5955882, a: 1}
  m_AmbientEquatorColor: {r: 0.24962151, g: 0.3808503, b: 0.5955882, a: 1}
  m_AmbientGroundColor: {r: 0.24962151, g: 0.3808503, b: 0.5955882, a: 1}
  m_AmbientIntensity: 1
  m_AmbientMode: 3
  m_SubtractiveShadowColor: {r: 0.42, g: 0.478, b: 0.627, a: 1}
  m_SkyboxMaterial: {fileID: 2100000, guid: 27c219abfc167084f932dac27efeb803, type: 2}
  m_HaloStrength: 0.5
  m_FlareStrength: 1
  m_FlareFadeSpeed: 3
  m_HaloTexture: {fileID: 0}
  m_SpotCookie: {fileID: 10001, guid: 0000000000000000e000000000000000, type: 0}
  m_DefaultReflectionMode: 0
  m_DefaultReflectionResolution: 128
  m_ReflectionBounces: 1
  m_ReflectionIntensity: 1
  m_CustomReflection: {fileID: 0}
  m_Sun: {fileID: 0}
  m_IndirectSpecularColor: {r: 0, g: 0, b: 0, a: 1}
  m_UseRadianceAmbientProbe: 0
--- !u!157 &4
LightmapSettings:
  m_ObjectHideFlags: 0
  serializedVersion: 11
  m_GIWorkflowMode: 1
  m_GISettings:
    serializedVersion: 2
    m_BounceScale: 1
    m_IndirectOutputScale: 1
    m_AlbedoBoost: 1
    m_EnvironmentLightingMode: 0
    m_EnableBakedLightmaps: 0
    m_EnableRealtimeLightmaps: 0
  m_LightmapEditorSettings:
    serializedVersion: 10
    m_Resolution: 1
    m_BakeResolution: 50
    m_AtlasSize: 1024
    m_AO: 1
    m_AOMaxDistance: 1
    m_CompAOExponent: 1
    m_CompAOExponentDirect: 0
    m_Padding: 2
    m_LightmapParameters: {fileID: 0}
    m_LightmapsBakeMode: 1
    m_TextureCompression: 0
    m_FinalGather: 0
    m_FinalGatherFiltering: 1
    m_FinalGatherRayCount: 256
    m_ReflectionCompression: 2
    m_MixedBakeMode: 1
    m_BakeBackend: 0
    m_PVRSampling: 1
    m_PVRDirectSampleCount: 32
    m_PVRSampleCount: 500
    m_PVRBounces: 2
    m_PVRFilterTypeDirect: 0
    m_PVRFilterTypeIndirect: 0
    m_PVRFilterTypeAO: 0
    m_PVRFilteringMode: 0
    m_PVRCulling: 1
    m_PVRFilteringGaussRadiusDirect: 1
    m_PVRFilteringGaussRadiusIndirect: 5
    m_PVRFilteringGaussRadiusAO: 2
    m_PVRFilteringAtrousPositionSigmaDirect: 0.5
    m_PVRFilteringAtrousPositionSigmaIndirect: 2
    m_PVRFilteringAtrousPositionSigmaAO: 1
    m_ShowResolutionOverlay: 1
  m_LightingDataAsset: {fileID: 0}
  m_UseShadowmask: 0
--- !u!196 &5
NavMeshSettings:
  serializedVersion: 2
  m_ObjectHideFlags: 0
  m_BuildSettings:
    serializedVersion: 2
    agentTypeID: 0
    agentRadius: 0.5
    agentHeight: 2
    agentSlope: 45
    agentClimb: 0.4
    ledgeDropHeight: 0
    maxJumpAcrossDistance: 0
    minRegionArea: 2
    manualCellSize: 0
    cellSize: 0.16666666
    manualTileSize: 0
    tileSize: 256
    accuratePlacement: 0
    debug:
      m_Flags: 0
  m_NavMeshData: {fileID: 0}
--- !u!1001 &13066473
PrefabInstance:
  m_ObjectHideFlags: 0
  serializedVersion: 2
  m_Modification:
    m_TransformParent: {fileID: 332598691}
    m_Modifications:
    - target: {fileID: 100000, guid: 0e8f6fbe9d745ac42bb7cd06cd46fa98, type: 3}
      propertyPath: m_IsActive
      value: 0
      objectReference: {fileID: 0}
    - target: {fileID: 400000, guid: 0e8f6fbe9d745ac42bb7cd06cd46fa98, type: 3}
      propertyPath: m_LocalPosition.x
      value: 0
      objectReference: {fileID: 0}
    - target: {fileID: 400000, guid: 0e8f6fbe9d745ac42bb7cd06cd46fa98, type: 3}
      propertyPath: m_LocalPosition.y
      value: 0
      objectReference: {fileID: 0}
    - target: {fileID: 400000, guid: 0e8f6fbe9d745ac42bb7cd06cd46fa98, type: 3}
      propertyPath: m_LocalPosition.z
      value: 0
      objectReference: {fileID: 0}
    - target: {fileID: 400000, guid: 0e8f6fbe9d745ac42bb7cd06cd46fa98, type: 3}
      propertyPath: m_LocalRotation.x
      value: -.707106829
      objectReference: {fileID: 0}
    - target: {fileID: 400000, guid: 0e8f6fbe9d745ac42bb7cd06cd46fa98, type: 3}
      propertyPath: m_LocalRotation.y
      value: 0
      objectReference: {fileID: 0}
    - target: {fileID: 400000, guid: 0e8f6fbe9d745ac42bb7cd06cd46fa98, type: 3}
      propertyPath: m_LocalRotation.z
      value: -0
      objectReference: {fileID: 0}
    - target: {fileID: 400000, guid: 0e8f6fbe9d745ac42bb7cd06cd46fa98, type: 3}
      propertyPath: m_LocalRotation.w
      value: .707106829
      objectReference: {fileID: 0}
    - target: {fileID: 400000, guid: 0e8f6fbe9d745ac42bb7cd06cd46fa98, type: 3}
      propertyPath: m_RootOrder
      value: 9
      objectReference: {fileID: 0}
    m_RemovedComponents: []
  m_SourcePrefab: {fileID: 100100000, guid: 0e8f6fbe9d745ac42bb7cd06cd46fa98, type: 3}
--- !u!1001 &22168605
PrefabInstance:
  m_ObjectHideFlags: 0
  serializedVersion: 2
  m_Modification:
    m_TransformParent: {fileID: 332598691}
    m_Modifications:
    - target: {fileID: 418788, guid: 6dd6008c456d3544eb6460e04a650360, type: 3}
      propertyPath: m_LocalPosition.x
      value: 0
      objectReference: {fileID: 0}
    - target: {fileID: 418788, guid: 6dd6008c456d3544eb6460e04a650360, type: 3}
      propertyPath: m_LocalPosition.y
      value: 0
      objectReference: {fileID: 0}
    - target: {fileID: 418788, guid: 6dd6008c456d3544eb6460e04a650360, type: 3}
      propertyPath: m_LocalPosition.z
      value: 0
      objectReference: {fileID: 0}
    - target: {fileID: 418788, guid: 6dd6008c456d3544eb6460e04a650360, type: 3}
      propertyPath: m_LocalRotation.x
      value: -.5
      objectReference: {fileID: 0}
    - target: {fileID: 418788, guid: 6dd6008c456d3544eb6460e04a650360, type: 3}
      propertyPath: m_LocalRotation.y
      value: .5
      objectReference: {fileID: 0}
    - target: {fileID: 418788, guid: 6dd6008c456d3544eb6460e04a650360, type: 3}
      propertyPath: m_LocalRotation.z
      value: .5
      objectReference: {fileID: 0}
    - target: {fileID: 418788, guid: 6dd6008c456d3544eb6460e04a650360, type: 3}
      propertyPath: m_LocalRotation.w
      value: .5
      objectReference: {fileID: 0}
    - target: {fileID: 418788, guid: 6dd6008c456d3544eb6460e04a650360, type: 3}
      propertyPath: m_RootOrder
      value: 5
      objectReference: {fileID: 0}
    m_RemovedComponents: []
  m_SourcePrefab: {fileID: 100100000, guid: 6dd6008c456d3544eb6460e04a650360, type: 3}
--- !u!1 &77255122
GameObject:
  m_ObjectHideFlags: 0
  m_CorrespondingSourceObject: {fileID: 0}
  m_PrefabInstance: {fileID: 0}
  m_PrefabAsset: {fileID: 0}
  serializedVersion: 6
  m_Component:
  - component: {fileID: 77255124}
  - component: {fileID: 77255123}
  m_Layer: 0
  m_Name: Directional light
  m_TagString: Untagged
  m_Icon: {fileID: 0}
  m_NavMeshLayer: 0
  m_StaticEditorFlags: 0
  m_IsActive: 1
--- !u!108 &77255123
Light:
  m_ObjectHideFlags: 0
  m_CorrespondingSourceObject: {fileID: 0}
  m_PrefabInstance: {fileID: 0}
  m_PrefabAsset: {fileID: 0}
  m_GameObject: {fileID: 77255122}
  m_Enabled: 1
  serializedVersion: 8
  m_Type: 1
  m_Color: {r: 0.07698962, g: 0.22433174, b: 0.6544118, a: 1}
  m_Intensity: 1.42
  m_Range: 10
  m_SpotAngle: 30
  m_CookieSize: 10
  m_Shadows:
    m_Type: 0
    m_Resolution: -1
    m_CustomResolution: -1
    m_Strength: 1
    m_Bias: 0.05
    m_NormalBias: 0.4
    m_NearPlane: 0.2
  m_Cookie: {fileID: 0}
  m_DrawHalo: 0
  m_Flare: {fileID: 0}
  m_RenderMode: 0
  m_CullingMask:
    serializedVersion: 2
    m_Bits: 4294967295
  m_Lightmapping: 1
  m_LightShadowCasterMode: 0
  m_AreaSize: {x: 1, y: 1}
  m_BounceIntensity: 1
  m_ColorTemperature: 6570
  m_UseColorTemperature: 0
  m_ShadowRadius: 0
  m_ShadowAngle: 0
--- !u!4 &77255124
Transform:
  m_ObjectHideFlags: 0
  m_CorrespondingSourceObject: {fileID: 0}
  m_PrefabInstance: {fileID: 0}
  m_PrefabAsset: {fileID: 0}
  m_GameObject: {fileID: 77255122}
  m_LocalRotation: {x: -0.33216402, y: -0.70506495, z: -0.4017008, w: 0.48081917}
  m_LocalPosition: {x: 3.3984327, y: 0.85600233, z: 0.4774015}
  m_LocalScale: {x: 1, y: 1, z: 1}
  m_Children: []
  m_Father: {fileID: 332598691}
  m_RootOrder: 0
  m_LocalEulerAnglesHint: {x: 0, y: 0, z: 0}
--- !u!1001 &84442376
PrefabInstance:
  m_ObjectHideFlags: 0
  serializedVersion: 2
  m_Modification:
    m_TransformParent: {fileID: 332598691}
    m_Modifications:
    - target: {fileID: 100000, guid: 8a08045ef4b071d4c9ec5ed0a4f34bbe, type: 3}
      propertyPath: m_IsActive
      value: 0
      objectReference: {fileID: 0}
    - target: {fileID: 400000, guid: 8a08045ef4b071d4c9ec5ed0a4f34bbe, type: 3}
      propertyPath: m_LocalPosition.x
      value: 0
      objectReference: {fileID: 0}
    - target: {fileID: 400000, guid: 8a08045ef4b071d4c9ec5ed0a4f34bbe, type: 3}
      propertyPath: m_LocalPosition.y
      value: 0
      objectReference: {fileID: 0}
    - target: {fileID: 400000, guid: 8a08045ef4b071d4c9ec5ed0a4f34bbe, type: 3}
      propertyPath: m_LocalPosition.z
      value: 0
      objectReference: {fileID: 0}
    - target: {fileID: 400000, guid: 8a08045ef4b071d4c9ec5ed0a4f34bbe, type: 3}
      propertyPath: m_LocalRotation.x
      value: -.707106829
      objectReference: {fileID: 0}
    - target: {fileID: 400000, guid: 8a08045ef4b071d4c9ec5ed0a4f34bbe, type: 3}
      propertyPath: m_LocalRotation.y
      value: 0
      objectReference: {fileID: 0}
    - target: {fileID: 400000, guid: 8a08045ef4b071d4c9ec5ed0a4f34bbe, type: 3}
      propertyPath: m_LocalRotation.z
      value: -0
      objectReference: {fileID: 0}
    - target: {fileID: 400000, guid: 8a08045ef4b071d4c9ec5ed0a4f34bbe, type: 3}
      propertyPath: m_LocalRotation.w
      value: .707106829
      objectReference: {fileID: 0}
    - target: {fileID: 400000, guid: 8a08045ef4b071d4c9ec5ed0a4f34bbe, type: 3}
      propertyPath: m_RootOrder
      value: 6
      objectReference: {fileID: 0}
    m_RemovedComponents: []
  m_SourcePrefab: {fileID: 100100000, guid: 8a08045ef4b071d4c9ec5ed0a4f34bbe, type: 3}
--- !u!1 &141463313
GameObject:
  m_ObjectHideFlags: 0
  m_CorrespondingSourceObject: {fileID: 0}
  m_PrefabInstance: {fileID: 0}
  m_PrefabAsset: {fileID: 0}
  serializedVersion: 6
  m_Component:
  - component: {fileID: 141463318}
  - component: {fileID: 141463317}
  - component: {fileID: 141463316}
  - component: {fileID: 141463315}
  - component: {fileID: 141463314}
  m_Layer: 0
  m_Name: Camera
  m_TagString: MainCamera
  m_Icon: {fileID: 0}
  m_NavMeshLayer: 0
  m_StaticEditorFlags: 0
  m_IsActive: 1
--- !u!81 &141463314
AudioListener:
  m_ObjectHideFlags: 0
  m_CorrespondingSourceObject: {fileID: 0}
  m_PrefabInstance: {fileID: 0}
  m_PrefabAsset: {fileID: 0}
  m_GameObject: {fileID: 141463313}
  m_Enabled: 0
--- !u!124 &141463315
Behaviour:
  m_ObjectHideFlags: 0
  m_CorrespondingSourceObject: {fileID: 0}
  m_PrefabInstance: {fileID: 0}
  m_PrefabAsset: {fileID: 0}
  m_GameObject: {fileID: 141463313}
  m_Enabled: 0
--- !u!92 &141463316
Behaviour:
  m_ObjectHideFlags: 0
  m_CorrespondingSourceObject: {fileID: 0}
  m_PrefabInstance: {fileID: 0}
  m_PrefabAsset: {fileID: 0}
  m_GameObject: {fileID: 141463313}
  m_Enabled: 0
--- !u!20 &141463317
Camera:
  m_ObjectHideFlags: 0
  m_CorrespondingSourceObject: {fileID: 0}
  m_PrefabInstance: {fileID: 0}
  m_PrefabAsset: {fileID: 0}
  m_GameObject: {fileID: 141463313}
  m_Enabled: 1
  serializedVersion: 2
  m_ClearFlags: 1
  m_BackGroundColor: {r: 0, g: 0, b: 0, a: 0.019607844}
  m_projectionMatrixMode: 1
  m_SensorSize: {x: 36, y: 24}
  m_LensShift: {x: 0, y: 0}
  m_GateFitMode: 2
  m_FocalLength: 50
  m_NormalizedViewPortRect:
    serializedVersion: 2
    x: 0
    y: 0
    width: 1
    height: 1
  near clip plane: 0.3
  far clip plane: 1000
  field of view: 53
  orthographic: 0
  orthographic size: 5
  m_Depth: -1
  m_CullingMask:
    serializedVersion: 2
    m_Bits: 4294967295
  m_RenderingPath: -1
  m_TargetTexture: {fileID: 0}
  m_TargetDisplay: 0
  m_TargetEye: 3
  m_HDR: 0
  m_AllowMSAA: 1
  m_AllowDynamicResolution: 0
  m_ForceIntoRT: 0
  m_OcclusionCulling: 1
  m_StereoConvergence: 10
  m_StereoSeparation: 0.022
--- !u!4 &141463318
Transform:
  m_ObjectHideFlags: 0
  m_CorrespondingSourceObject: {fileID: 0}
  m_PrefabInstance: {fileID: 0}
  m_PrefabAsset: {fileID: 0}
  m_GameObject: {fileID: 141463313}
  m_LocalRotation: {x: -0.2591555, y: 0.6579046, z: -0.2591555, w: -0.6579046}
  m_LocalPosition: {x: 8.1, y: 12, z: 6.4}
  m_LocalScale: {x: 1, y: 1, z: 1}
  m_Children: []
  m_Father: {fileID: 0}
  m_RootOrder: 0
  m_LocalEulerAnglesHint: {x: 0, y: 0, z: 0}
--- !u!1 &196263286 stripped
GameObject:
  m_CorrespondingSourceObject: {fileID: 100000, guid: e3455a38900592c4fb8428c5f0f73c7e,
    type: 3}
  m_PrefabInstance: {fileID: 1381251712}
  m_PrefabAsset: {fileID: 0}
--- !u!4 &196263287 stripped
Transform:
  m_CorrespondingSourceObject: {fileID: 400000, guid: e3455a38900592c4fb8428c5f0f73c7e,
    type: 3}
  m_PrefabInstance: {fileID: 1381251712}
  m_PrefabAsset: {fileID: 0}
--- !u!1 &303327578 stripped
GameObject:
  m_CorrespondingSourceObject: {fileID: 100014, guid: 88943f024dc99fb4ba49fcd2d029c5aa,
    type: 3}
  m_PrefabInstance: {fileID: 801948552}
  m_PrefabAsset: {fileID: 0}
--- !u!4 &303327579 stripped
Transform:
  m_CorrespondingSourceObject: {fileID: 400014, guid: 88943f024dc99fb4ba49fcd2d029c5aa,
    type: 3}
  m_PrefabInstance: {fileID: 801948552}
  m_PrefabAsset: {fileID: 0}
--- !u!1 &332598690
GameObject:
  m_ObjectHideFlags: 0
  m_CorrespondingSourceObject: {fileID: 0}
  m_PrefabInstance: {fileID: 0}
  m_PrefabAsset: {fileID: 0}
  serializedVersion: 6
  m_Component:
  - component: {fileID: 332598691}
  m_Layer: 0
  m_Name: scene_root
  m_TagString: Untagged
  m_Icon: {fileID: 0}
  m_NavMeshLayer: 0
  m_StaticEditorFlags: 0
  m_IsActive: 1
--- !u!4 &332598691
Transform:
  m_ObjectHideFlags: 0
  m_CorrespondingSourceObject: {fileID: 0}
  m_PrefabInstance: {fileID: 0}
  m_PrefabAsset: {fileID: 0}
  m_GameObject: {fileID: 332598690}
  m_LocalRotation: {x: 0, y: 0, z: 0, w: 1}
  m_LocalPosition: {x: 0, y: 0, z: 0}
  m_LocalScale: {x: 1, y: 1, z: 1}
  m_Children:
  - {fileID: 77255124}
  - {fileID: 1649225348}
  - {fileID: 303327579}
  - {fileID: 1651547081}
  - {fileID: 2020058105}
  - {fileID: 2072894104}
  - {fileID: 1064316389}
  - {fileID: 1433552651}
  - {fileID: 890482410}
  - {fileID: 1161520099}
  - {fileID: 196263287}
  - {fileID: 1364096143}
  m_Father: {fileID: 0}
  m_RootOrder: 2
  m_LocalEulerAnglesHint: {x: 0, y: 0, z: 0}
--- !u!1 &374661665
GameObject:
  m_ObjectHideFlags: 0
  m_CorrespondingSourceObject: {fileID: 0}
  m_PrefabInstance: {fileID: 0}
  m_PrefabAsset: {fileID: 0}
  serializedVersion: 6
  m_Component:
  - component: {fileID: 374661666}
  m_Layer: 0
  m_Name: battle_root
  m_TagString: Untagged
  m_Icon: {fileID: 0}
  m_NavMeshLayer: 0
  m_StaticEditorFlags: 0
  m_IsActive: 0
--- !u!4 &374661666
Transform:
  m_ObjectHideFlags: 0
  m_CorrespondingSourceObject: {fileID: 0}
  m_PrefabInstance: {fileID: 0}
  m_PrefabAsset: {fileID: 0}
  m_GameObject: {fileID: 374661665}
  m_LocalRotation: {x: 0, y: 0, z: 0, w: 1}
  m_LocalPosition: {x: 0, y: 0, z: 0}
  m_LocalScale: {x: 1, y: 1, z: 1}
  m_Children:
  - {fileID: 929840796}
  m_Father: {fileID: 0}
  m_RootOrder: 3
  m_LocalEulerAnglesHint: {x: 0, y: 0, z: 0}
--- !u!1 &411730554 stripped
GameObject:
  m_CorrespondingSourceObject: {fileID: 100016, guid: 88943f024dc99fb4ba49fcd2d029c5aa,
    type: 3}
  m_PrefabInstance: {fileID: 801948552}
  m_PrefabAsset: {fileID: 0}
--- !u!1001 &429064743
PrefabInstance:
  m_ObjectHideFlags: 0
  serializedVersion: 2
  m_Modification:
    m_TransformParent: {fileID: 332598691}
    m_Modifications:
    - target: {fileID: 100000, guid: 019e8f21331696146ad3e0ac095405ff, type: 3}
      propertyPath: m_IsActive
      value: 0
      objectReference: {fileID: 0}
    - target: {fileID: 400000, guid: 019e8f21331696146ad3e0ac095405ff, type: 3}
      propertyPath: m_LocalPosition.x
      value: 0
      objectReference: {fileID: 0}
    - target: {fileID: 400000, guid: 019e8f21331696146ad3e0ac095405ff, type: 3}
      propertyPath: m_LocalPosition.y
      value: 0
      objectReference: {fileID: 0}
    - target: {fileID: 400000, guid: 019e8f21331696146ad3e0ac095405ff, type: 3}
      propertyPath: m_LocalPosition.z
      value: 0
      objectReference: {fileID: 0}
    - target: {fileID: 400000, guid: 019e8f21331696146ad3e0ac095405ff, type: 3}
      propertyPath: m_LocalRotation.x
      value: -.707106829
      objectReference: {fileID: 0}
    - target: {fileID: 400000, guid: 019e8f21331696146ad3e0ac095405ff, type: 3}
      propertyPath: m_LocalRotation.y
      value: 0
      objectReference: {fileID: 0}
    - target: {fileID: 400000, guid: 019e8f21331696146ad3e0ac095405ff, type: 3}
      propertyPath: m_LocalRotation.z
      value: -0
      objectReference: {fileID: 0}
    - target: {fileID: 400000, guid: 019e8f21331696146ad3e0ac095405ff, type: 3}
      propertyPath: m_LocalRotation.w
      value: .707106829
      objectReference: {fileID: 0}
    - target: {fileID: 400000, guid: 019e8f21331696146ad3e0ac095405ff, type: 3}
      propertyPath: m_RootOrder
      value: 10
      objectReference: {fileID: 0}
    m_RemovedComponents: []
  m_SourcePrefab: {fileID: 100100000, guid: 019e8f21331696146ad3e0ac095405ff, type: 3}
--- !u!1001 &587295390
PrefabInstance:
  m_ObjectHideFlags: 0
  serializedVersion: 2
  m_Modification:
    m_TransformParent: {fileID: 1354717966}
    m_Modifications:
    - target: {fileID: 400000, guid: 4ddde1fa0893aa74cb3ee96e6856b3a0, type: 3}
      propertyPath: m_LocalPosition.x
      value: 0
      objectReference: {fileID: 0}
    - target: {fileID: 400000, guid: 4ddde1fa0893aa74cb3ee96e6856b3a0, type: 3}
      propertyPath: m_LocalPosition.y
      value: 0
      objectReference: {fileID: 0}
    - target: {fileID: 400000, guid: 4ddde1fa0893aa74cb3ee96e6856b3a0, type: 3}
      propertyPath: m_LocalPosition.z
      value: 0
      objectReference: {fileID: 0}
    - target: {fileID: 400000, guid: 4ddde1fa0893aa74cb3ee96e6856b3a0, type: 3}
      propertyPath: m_LocalRotation.x
      value: 0
      objectReference: {fileID: 0}
    - target: {fileID: 400000, guid: 4ddde1fa0893aa74cb3ee96e6856b3a0, type: 3}
      propertyPath: m_LocalRotation.y
      value: 0
      objectReference: {fileID: 0}
    - target: {fileID: 400000, guid: 4ddde1fa0893aa74cb3ee96e6856b3a0, type: 3}
      propertyPath: m_LocalRotation.z
      value: 0
      objectReference: {fileID: 0}
    - target: {fileID: 400000, guid: 4ddde1fa0893aa74cb3ee96e6856b3a0, type: 3}
      propertyPath: m_LocalRotation.w
      value: 1
      objectReference: {fileID: 0}
    - target: {fileID: 400000, guid: 4ddde1fa0893aa74cb3ee96e6856b3a0, type: 3}
      propertyPath: m_RootOrder
      value: 0
      objectReference: {fileID: 0}
    m_RemovedComponents: []
  m_SourcePrefab: {fileID: 100100000, guid: 4ddde1fa0893aa74cb3ee96e6856b3a0, type: 3}
--- !u!1 &701522459 stripped
GameObject:
  m_CorrespondingSourceObject: {fileID: 100010, guid: 88943f024dc99fb4ba49fcd2d029c5aa,
    type: 3}
  m_PrefabInstance: {fileID: 801948552}
  m_PrefabAsset: {fileID: 0}
--- !u!4 &737580968 stripped
Transform:
  m_CorrespondingSourceObject: {fileID: 400000, guid: 4ddde1fa0893aa74cb3ee96e6856b3a0,
    type: 3}
  m_PrefabInstance: {fileID: 587295390}
  m_PrefabAsset: {fileID: 0}
--- !u!1001 &775661638
PrefabInstance:
  m_ObjectHideFlags: 0
  serializedVersion: 2
  m_Modification:
    m_TransformParent: {fileID: 332598691}
    m_Modifications:
    - target: {fileID: 100000, guid: 317234adf2da40d4da8237017a8442c3, type: 3}
      propertyPath: m_IsActive
      value: 0
      objectReference: {fileID: 0}
    - target: {fileID: 400000, guid: 317234adf2da40d4da8237017a8442c3, type: 3}
      propertyPath: m_LocalPosition.x
      value: 0
      objectReference: {fileID: 0}
    - target: {fileID: 400000, guid: 317234adf2da40d4da8237017a8442c3, type: 3}
      propertyPath: m_LocalPosition.y
      value: 0
      objectReference: {fileID: 0}
    - target: {fileID: 400000, guid: 317234adf2da40d4da8237017a8442c3, type: 3}
      propertyPath: m_LocalPosition.z
      value: 0
      objectReference: {fileID: 0}
    - target: {fileID: 400000, guid: 317234adf2da40d4da8237017a8442c3, type: 3}
      propertyPath: m_LocalRotation.x
      value: -.707106829
      objectReference: {fileID: 0}
    - target: {fileID: 400000, guid: 317234adf2da40d4da8237017a8442c3, type: 3}
      propertyPath: m_LocalRotation.y
      value: 0
      objectReference: {fileID: 0}
    - target: {fileID: 400000, guid: 317234adf2da40d4da8237017a8442c3, type: 3}
      propertyPath: m_LocalRotation.z
      value: -0
      objectReference: {fileID: 0}
    - target: {fileID: 400000, guid: 317234adf2da40d4da8237017a8442c3, type: 3}
      propertyPath: m_LocalRotation.w
      value: .707106829
      objectReference: {fileID: 0}
    - target: {fileID: 400000, guid: 317234adf2da40d4da8237017a8442c3, type: 3}
      propertyPath: m_RootOrder
      value: 7
      objectReference: {fileID: 0}
    m_RemovedComponents: []
  m_SourcePrefab: {fileID: 100100000, guid: 317234adf2da40d4da8237017a8442c3, type: 3}
--- !u!1001 &801948552
PrefabInstance:
  m_ObjectHideFlags: 0
  serializedVersion: 2
  m_Modification:
    m_TransformParent: {fileID: 332598691}
    m_Modifications:
    - target: {fileID: 100014, guid: 88943f024dc99fb4ba49fcd2d029c5aa, type: 3}
      propertyPath: m_IsActive
      value: 1
      objectReference: {fileID: 0}
    - target: {fileID: 400014, guid: 88943f024dc99fb4ba49fcd2d029c5aa, type: 3}
      propertyPath: m_LocalPosition.x
      value: 0
      objectReference: {fileID: 0}
    - target: {fileID: 400014, guid: 88943f024dc99fb4ba49fcd2d029c5aa, type: 3}
      propertyPath: m_LocalPosition.y
      value: -1
      objectReference: {fileID: 0}
    - target: {fileID: 400014, guid: 88943f024dc99fb4ba49fcd2d029c5aa, type: 3}
      propertyPath: m_LocalPosition.z
      value: 0
      objectReference: {fileID: 0}
    - target: {fileID: 400014, guid: 88943f024dc99fb4ba49fcd2d029c5aa, type: 3}
      propertyPath: m_LocalRotation.x
      value: 0
      objectReference: {fileID: 0}
    - target: {fileID: 400014, guid: 88943f024dc99fb4ba49fcd2d029c5aa, type: 3}
      propertyPath: m_LocalRotation.y
      value: 0
      objectReference: {fileID: 0}
    - target: {fileID: 400014, guid: 88943f024dc99fb4ba49fcd2d029c5aa, type: 3}
      propertyPath: m_LocalRotation.z
      value: 0
      objectReference: {fileID: 0}
    - target: {fileID: 400014, guid: 88943f024dc99fb4ba49fcd2d029c5aa, type: 3}
      propertyPath: m_LocalRotation.w
      value: 1
      objectReference: {fileID: 0}
    - target: {fileID: 400014, guid: 88943f024dc99fb4ba49fcd2d029c5aa, type: 3}
      propertyPath: m_RootOrder
      value: 2
      objectReference: {fileID: 0}
    - target: {fileID: 100016, guid: 88943f024dc99fb4ba49fcd2d029c5aa, type: 3}
      propertyPath: m_IsActive
      value: 0
      objectReference: {fileID: 0}
    - target: {fileID: 100010, guid: 88943f024dc99fb4ba49fcd2d029c5aa, type: 3}
      propertyPath: m_IsActive
      value: 0
      objectReference: {fileID: 0}
    - target: {fileID: 100004, guid: 88943f024dc99fb4ba49fcd2d029c5aa, type: 3}
      propertyPath: m_IsActive
      value: 0
      objectReference: {fileID: 0}
    - target: {fileID: 100006, guid: 88943f024dc99fb4ba49fcd2d029c5aa, type: 3}
      propertyPath: m_IsActive
      value: 0
      objectReference: {fileID: 0}
    m_RemovedComponents: []
  m_SourcePrefab: {fileID: 100100000, guid: 88943f024dc99fb4ba49fcd2d029c5aa, type: 3}
--- !u!1 &837636332
GameObject:
  m_ObjectHideFlags: 0
  m_CorrespondingSourceObject: {fileID: 0}
  m_PrefabInstance: {fileID: 0}
  m_PrefabAsset: {fileID: 0}
  serializedVersion: 6
  m_Component:
  - component: {fileID: 837636333}
  - component: {fileID: 837636334}
  m_Layer: 0
  m_Name: fight_light
  m_TagString: Untagged
  m_Icon: {fileID: 0}
  m_NavMeshLayer: 0
  m_StaticEditorFlags: 0
  m_IsActive: 1
--- !u!4 &837636333
Transform:
  m_ObjectHideFlags: 0
  m_CorrespondingSourceObject: {fileID: 0}
  m_PrefabInstance: {fileID: 0}
  m_PrefabAsset: {fileID: 0}
  m_GameObject: {fileID: 837636332}
  m_LocalRotation: {x: -0.104322344, y: 0.2966419, z: -0.4891676, w: -0.81353277}
  m_LocalPosition: {x: -0.1955266, y: 1.7636294, z: 0.4774015}
  m_LocalScale: {x: 1, y: 1, z: 1}
  m_Children: []
  m_Father: {fileID: 929840796}
  m_RootOrder: 0
  m_LocalEulerAnglesHint: {x: 0, y: 0, z: 0}
--- !u!108 &837636334
Light:
  m_ObjectHideFlags: 0
  m_CorrespondingSourceObject: {fileID: 0}
  m_PrefabInstance: {fileID: 0}
  m_PrefabAsset: {fileID: 0}
  m_GameObject: {fileID: 837636332}
  m_Enabled: 1
  serializedVersion: 8
  m_Type: 1
  m_Color: {r: 0.2530277, g: 0.51962775, b: 0.9558824, a: 1}
  m_Intensity: 1.2
  m_Range: 10
  m_SpotAngle: 30
  m_CookieSize: 10
  m_Shadows:
    m_Type: 0
    m_Resolution: -1
    m_CustomResolution: -1
    m_Strength: 1
    m_Bias: 0.05
    m_NormalBias: 0.4
    m_NearPlane: 0.2
  m_Cookie: {fileID: 0}
  m_DrawHalo: 0
  m_Flare: {fileID: 0}
  m_RenderMode: 0
  m_CullingMask:
    serializedVersion: 2
    m_Bits: 4294967295
  m_Lightmapping: 1
  m_LightShadowCasterMode: 0
  m_AreaSize: {x: 1, y: 1}
  m_BounceIntensity: 1
  m_ColorTemperature: 6570
  m_UseColorTemperature: 0
  m_ShadowRadius: 0
  m_ShadowAngle: 0
--- !u!1 &886553331 stripped
GameObject:
  m_CorrespondingSourceObject: {fileID: 100004, guid: 88943f024dc99fb4ba49fcd2d029c5aa,
    type: 3}
  m_PrefabInstance: {fileID: 801948552}
  m_PrefabAsset: {fileID: 0}
--- !u!1 &890482409 stripped
GameObject:
  m_CorrespondingSourceObject: {fileID: 100000, guid: 0e8f6fbe9d745ac42bb7cd06cd46fa98,
    type: 3}
  m_PrefabInstance: {fileID: 13066473}
  m_PrefabAsset: {fileID: 0}
--- !u!4 &890482410 stripped
Transform:
  m_CorrespondingSourceObject: {fileID: 400000, guid: 0e8f6fbe9d745ac42bb7cd06cd46fa98,
    type: 3}
  m_PrefabInstance: {fileID: 13066473}
  m_PrefabAsset: {fileID: 0}
--- !u!1 &929840795
GameObject:
  m_ObjectHideFlags: 0
  m_CorrespondingSourceObject: {fileID: 0}
  m_PrefabInstance: {fileID: 0}
  m_PrefabAsset: {fileID: 0}
  serializedVersion: 6
  m_Component:
  - component: {fileID: 929840796}
  m_Layer: 0
  m_Name: ts_zdptbz001
  m_TagString: Untagged
  m_Icon: {fileID: 0}
  m_NavMeshLayer: 0
  m_StaticEditorFlags: 0
  m_IsActive: 1
--- !u!4 &929840796
Transform:
  m_ObjectHideFlags: 0
  m_CorrespondingSourceObject: {fileID: 0}
  m_PrefabInstance: {fileID: 0}
  m_PrefabAsset: {fileID: 0}
  m_GameObject: {fileID: 929840795}
  m_LocalRotation: {x: 0, y: 0, z: 0, w: 1}
  m_LocalPosition: {x: 0, y: 0, z: 0}
  m_LocalScale: {x: 1, y: 1, z: 1}
  m_Children:
  - {fileID: 837636333}
  - {fileID: 1867058145}
  m_Father: {fileID: 374661666}
  m_RootOrder: 0
  m_LocalEulerAnglesHint: {x: 0, y: 0, z: 0}
--- !u!1 &1064316388 stripped
GameObject:
  m_CorrespondingSourceObject: {fileID: 100000, guid: 8a08045ef4b071d4c9ec5ed0a4f34bbe,
    type: 3}
  m_PrefabInstance: {fileID: 84442376}
  m_PrefabAsset: {fileID: 0}
--- !u!4 &1064316389 stripped
Transform:
  m_CorrespondingSourceObject: {fileID: 400000, guid: 8a08045ef4b071d4c9ec5ed0a4f34bbe,
    type: 3}
  m_PrefabInstance: {fileID: 84442376}
  m_PrefabAsset: {fileID: 0}
--- !u!1 &1161520098 stripped
GameObject:
  m_CorrespondingSourceObject: {fileID: 100000, guid: 019e8f21331696146ad3e0ac095405ff,
    type: 3}
  m_PrefabInstance: {fileID: 429064743}
  m_PrefabAsset: {fileID: 0}
--- !u!4 &1161520099 stripped
Transform:
  m_CorrespondingSourceObject: {fileID: 400000, guid: 019e8f21331696146ad3e0ac095405ff,
    type: 3}
  m_PrefabInstance: {fileID: 429064743}
  m_PrefabAsset: {fileID: 0}
--- !u!1 &1174989710
GameObject:
  m_ObjectHideFlags: 0
  m_CorrespondingSourceObject: {fileID: 100092, guid: d5c9c42489e80bf4aa79fc27555369d3,
    type: 3}
  m_PrefabInstance: {fileID: 0}
  m_PrefabAsset: {fileID: 0}
  serializedVersion: 6
  m_Component:
  - component: {fileID: 1174989711}
  - component: {fileID: 1174989712}
  m_Layer: 0
  m_Name: sp
  m_TagString: Untagged
  m_Icon: {fileID: 0}
  m_NavMeshLayer: 0
  m_StaticEditorFlags: 0
  m_IsActive: 1
--- !u!4 &1174989711
Transform:
  m_ObjectHideFlags: 0
  m_CorrespondingSourceObject: {fileID: 400092, guid: d5c9c42489e80bf4aa79fc27555369d3,
    type: 3}
  m_PrefabInstance: {fileID: 0}
  m_PrefabAsset: {fileID: 0}
  m_GameObject: {fileID: 1174989710}
  m_LocalRotation: {x: 0, y: 0, z: 0, w: 1}
  m_LocalPosition: {x: 0, y: 0, z: 0}
  m_LocalScale: {x: 1, y: 1, z: 1}
  m_Children: []
  m_Father: {fileID: 0}
  m_RootOrder: 1
  m_LocalEulerAnglesHint: {x: 0, y: 0, z: 0}
--- !u!114 &1174989712
MonoBehaviour:
  m_ObjectHideFlags: 0
  m_CorrespondingSourceObject: {fileID: 0}
  m_PrefabInstance: {fileID: 0}
  m_PrefabAsset: {fileID: 0}
  m_GameObject: {fileID: 1174989710}
  m_Enabled: 1
  m_EditorHideFlags: 0
  m_Script: {fileID: 11500000, guid: af829dbd7b6a3e34d893e7a321885051, type: 3}
  m_Name: 
  m_EditorClassIdentifier: 
  m_root: {fileID: 1651547080}
  m_cam: {fileID: 141463317}
  m_title: {fileID: 2020058104}
  m_scene_root: {fileID: 332598690}
  m_effs:
  - {fileID: 2072894103}
  - {fileID: 1064316388}
  - {fileID: 1433552650}
  - {fileID: 890482409}
  - {fileID: 1161520098}
  - {fileID: 196263286}
  - {fileID: 1364096142}
  pos: []
  m_jians:
  - {fileID: 411730554}
  - {fileID: 701522459}
  - {fileID: 886553331}
  - {fileID: 1558034117}
  m_jian: {fileID: 303327578}
  is_press: 0
--- !u!1 &1354717965
GameObject:
  m_ObjectHideFlags: 0
  m_CorrespondingSourceObject: {fileID: 0}
  m_PrefabInstance: {fileID: 0}
  m_PrefabAsset: {fileID: 0}
  serializedVersion: 6
  m_Component:
  - component: {fileID: 1354717966}
  m_Layer: 0
  m_Name: GameObject
  m_TagString: Untagged
  m_Icon: {fileID: 0}
  m_NavMeshLayer: 0
  m_StaticEditorFlags: 0
  m_IsActive: 1
--- !u!4 &1354717966
Transform:
  m_ObjectHideFlags: 0
  m_CorrespondingSourceObject: {fileID: 0}
  m_PrefabInstance: {fileID: 0}
  m_PrefabAsset: {fileID: 0}
  m_GameObject: {fileID: 1354717965}
  m_LocalRotation: {x: 0, y: 0, z: 0, w: 1}
  m_LocalPosition: {x: 0, y: 0, z: 0}
  m_LocalScale: {x: 1, y: 1, z: 1}
  m_Children:
  - {fileID: 737580968}
  m_Father: {fileID: 2020058105}
  m_RootOrder: 0
  m_LocalEulerAnglesHint: {x: 0, y: 0, z: 0}
--- !u!1 &1364096142 stripped
GameObject:
  m_CorrespondingSourceObject: {fileID: 100000, guid: 4b1f7299d5f9420448f8645f387bad01,
    type: 3}
  m_PrefabInstance: {fileID: 2115046271}
  m_PrefabAsset: {fileID: 0}
--- !u!4 &1364096143 stripped
Transform:
  m_CorrespondingSourceObject: {fileID: 400000, guid: 4b1f7299d5f9420448f8645f387bad01,
    type: 3}
  m_PrefabInstance: {fileID: 2115046271}
  m_PrefabAsset: {fileID: 0}
--- !u!1001 &1381251712
PrefabInstance:
  m_ObjectHideFlags: 0
  serializedVersion: 2
  m_Modification:
    m_TransformParent: {fileID: 332598691}
    m_Modifications:
    - target: {fileID: 100000, guid: e3455a38900592c4fb8428c5f0f73c7e, type: 3}
      propertyPath: m_IsActive
      value: 0
      objectReference: {fileID: 0}
    - target: {fileID: 400000, guid: e3455a38900592c4fb8428c5f0f73c7e, type: 3}
      propertyPath: m_LocalPosition.x
      value: 0
      objectReference: {fileID: 0}
    - target: {fileID: 400000, guid: e3455a38900592c4fb8428c5f0f73c7e, type: 3}
      propertyPath: m_LocalPosition.y
      value: 0
      objectReference: {fileID: 0}
    - target: {fileID: 400000, guid: e3455a38900592c4fb8428c5f0f73c7e, type: 3}
      propertyPath: m_LocalPosition.z
      value: 0
      objectReference: {fileID: 0}
    - target: {fileID: 400000, guid: e3455a38900592c4fb8428c5f0f73c7e, type: 3}
      propertyPath: m_LocalRotation.x
      value: -.707106829
      objectReference: {fileID: 0}
    - target: {fileID: 400000, guid: e3455a38900592c4fb8428c5f0f73c7e, type: 3}
      propertyPath: m_LocalRotation.y
      value: 0
      objectReference: {fileID: 0}
    - target: {fileID: 400000, guid: e3455a38900592c4fb8428c5f0f73c7e, type: 3}
      propertyPath: m_LocalRotation.z
      value: -0
      objectReference: {fileID: 0}
    - target: {fileID: 400000, guid: e3455a38900592c4fb8428c5f0f73c7e, type: 3}
      propertyPath: m_LocalRotation.w
      value: .707106829
      objectReference: {fileID: 0}
    - target: {fileID: 400000, guid: e3455a38900592c4fb8428c5f0f73c7e, type: 3}
      propertyPath: m_RootOrder
      value: 11
      objectReference: {fileID: 0}
    m_RemovedComponents: []
  m_SourcePrefab: {fileID: 100100000, guid: e3455a38900592c4fb8428c5f0f73c7e, type: 3}
--- !u!1 &1433552650 stripped
GameObject:
  m_CorrespondingSourceObject: {fileID: 100000, guid: 317234adf2da40d4da8237017a8442c3,
    type: 3}
  m_PrefabInstance: {fileID: 775661638}
  m_PrefabAsset: {fileID: 0}
--- !u!4 &1433552651 stripped
Transform:
  m_CorrespondingSourceObject: {fileID: 400000, guid: 317234adf2da40d4da8237017a8442c3,
    type: 3}
  m_PrefabInstance: {fileID: 775661638}
  m_PrefabAsset: {fileID: 0}
--- !u!1 &1558034117 stripped
GameObject:
  m_CorrespondingSourceObject: {fileID: 100006, guid: 88943f024dc99fb4ba49fcd2d029c5aa,
    type: 3}
  m_PrefabInstance: {fileID: 801948552}
  m_PrefabAsset: {fileID: 0}
--- !u!1 &1649225346
GameObject:
  m_ObjectHideFlags: 0
  m_CorrespondingSourceObject: {fileID: 0}
  m_PrefabInstance: {fileID: 0}
  m_PrefabAsset: {fileID: 0}
  serializedVersion: 6
  m_Component:
  - component: {fileID: 1649225348}
  - component: {fileID: 1649225347}
  m_Layer: 0
  m_Name: Directional light
  m_TagString: Untagged
  m_Icon: {fileID: 0}
  m_NavMeshLayer: 0
  m_StaticEditorFlags: 0
  m_IsActive: 1
--- !u!108 &1649225347
Light:
  m_ObjectHideFlags: 0
  m_CorrespondingSourceObject: {fileID: 0}
  m_PrefabInstance: {fileID: 0}
  m_PrefabAsset: {fileID: 0}
  m_GameObject: {fileID: 1649225346}
  m_Enabled: 1
  serializedVersion: 8
  m_Type: 1
  m_Color: {r: 0.13105536, g: 0.43896025, b: 0.74264705, a: 1}
  m_Intensity: 1.1
  m_Range: 10
  m_SpotAngle: 30
  m_CookieSize: 10
  m_Shadows:
    m_Type: 0
    m_Resolution: -1
    m_CustomResolution: -1
    m_Strength: 1
    m_Bias: 0.05
    m_NormalBias: 0.4
    m_NearPlane: 0.2
  m_Cookie: {fileID: 0}
  m_DrawHalo: 0
  m_Flare: {fileID: 0}
  m_RenderMode: 0
  m_CullingMask:
    serializedVersion: 2
    m_Bits: 4294967295
  m_Lightmapping: 1
  m_LightShadowCasterMode: 0
  m_AreaSize: {x: 1, y: 1}
  m_BounceIntensity: 1
  m_ColorTemperature: 6570
  m_UseColorTemperature: 0
  m_ShadowRadius: 0
  m_ShadowAngle: 0
--- !u!4 &1649225348
Transform:
  m_ObjectHideFlags: 0
  m_CorrespondingSourceObject: {fileID: 0}
  m_PrefabInstance: {fileID: 0}
  m_PrefabAsset: {fileID: 0}
  m_GameObject: {fileID: 1649225346}
  m_LocalRotation: {x: -0.24058789, y: 0.7451156, z: -0.34745312, w: -0.5159424}
  m_LocalPosition: {x: -0.1955266, y: 1.7636294, z: 0.4774015}
  m_LocalScale: {x: 1, y: 1, z: 1}
  m_Children: []
  m_Father: {fileID: 332598691}
  m_RootOrder: 1
  m_LocalEulerAnglesHint: {x: 0, y: 0, z: 0}
--- !u!1 &1651547080
GameObject:
  m_ObjectHideFlags: 0
  m_CorrespondingSourceObject: {fileID: 0}
  m_PrefabInstance: {fileID: 0}
  m_PrefabAsset: {fileID: 0}
  serializedVersion: 6
  m_Component:
  - component: {fileID: 1651547081}
  m_Layer: 0
  m_Name: root
  m_TagString: Untagged
  m_Icon: {fileID: 0}
  m_NavMeshLayer: 0
  m_StaticEditorFlags: 0
  m_IsActive: 1
--- !u!4 &1651547081
Transform:
  m_ObjectHideFlags: 0
  m_CorrespondingSourceObject: {fileID: 0}
  m_PrefabInstance: {fileID: 0}
  m_PrefabAsset: {fileID: 0}
  m_GameObject: {fileID: 1651547080}
  m_LocalRotation: {x: 0, y: 0, z: 0, w: 1}
  m_LocalPosition: {x: 0.35, y: 0, z: 0}
  m_LocalScale: {x: 1, y: 1, z: 1}
  m_Children: []
  m_Father: {fileID: 332598691}
  m_RootOrder: 3
  m_LocalEulerAnglesHint: {x: 0, y: 0, z: 0}
--- !u!1001 &1801752692
PrefabInstance:
  m_ObjectHideFlags: 0
  serializedVersion: 2
  m_Modification:
    m_TransformParent: {fileID: 929840796}
    m_Modifications:
    - target: {fileID: 400004, guid: 2d6d4b97cff89c94f8c647eb9faab9f5, type: 3}
      propertyPath: m_LocalRotation.x
      value: 3.09086232e-08
      objectReference: {fileID: 0}
    - target: {fileID: 400004, guid: 2d6d4b97cff89c94f8c647eb9faab9f5, type: 3}
      propertyPath: m_LocalRotation.y
      value: .707106829
      objectReference: {fileID: 0}
    - target: {fileID: 400004, guid: 2d6d4b97cff89c94f8c647eb9faab9f5, type: 3}
      propertyPath: m_LocalRotation.z
      value: .707106829
      objectReference: {fileID: 0}
    - target: {fileID: 400004, guid: 2d6d4b97cff89c94f8c647eb9faab9f5, type: 3}
      propertyPath: m_LocalRotation.w
      value: -3.09086232e-08
      objectReference: {fileID: 0}
    - target: {fileID: 400004, guid: 2d6d4b97cff89c94f8c647eb9faab9f5, type: 3}
      propertyPath: m_LocalPosition.x
      value: -2.19432383e-08
      objectReference: {fileID: 0}
    - target: {fileID: 400004, guid: 2d6d4b97cff89c94f8c647eb9faab9f5, type: 3}
      propertyPath: m_LocalPosition.y
      value: 2.99216936e-08
      objectReference: {fileID: 0}
    - target: {fileID: 400004, guid: 2d6d4b97cff89c94f8c647eb9faab9f5, type: 3}
      propertyPath: m_LocalPosition.z
      value: -.251001388
      objectReference: {fileID: 0}
    - target: {fileID: 400000, guid: 2d6d4b97cff89c94f8c647eb9faab9f5, type: 3}
      propertyPath: m_LocalPosition.x
      value: 0
      objectReference: {fileID: 0}
    - target: {fileID: 400000, guid: 2d6d4b97cff89c94f8c647eb9faab9f5, type: 3}
      propertyPath: m_LocalPosition.y
      value: 0
      objectReference: {fileID: 0}
    - target: {fileID: 400000, guid: 2d6d4b97cff89c94f8c647eb9faab9f5, type: 3}
      propertyPath: m_LocalPosition.z
      value: 0
      objectReference: {fileID: 0}
    - target: {fileID: 400000, guid: 2d6d4b97cff89c94f8c647eb9faab9f5, type: 3}
      propertyPath: m_LocalRotation.x
      value: 0
      objectReference: {fileID: 0}
    - target: {fileID: 400000, guid: 2d6d4b97cff89c94f8c647eb9faab9f5, type: 3}
      propertyPath: m_LocalRotation.y
      value: 0
      objectReference: {fileID: 0}
    - target: {fileID: 400000, guid: 2d6d4b97cff89c94f8c647eb9faab9f5, type: 3}
      propertyPath: m_LocalRotation.z
      value: 0
      objectReference: {fileID: 0}
    - target: {fileID: 400000, guid: 2d6d4b97cff89c94f8c647eb9faab9f5, type: 3}
      propertyPath: m_LocalRotation.w
      value: 1
      objectReference: {fileID: 0}
    - target: {fileID: 400000, guid: 2d6d4b97cff89c94f8c647eb9faab9f5, type: 3}
      propertyPath: m_RootMapOrder
      value: 
      objectReference: {fileID: 0}
    - target: {fileID: 400000, guid: 2d6d4b97cff89c94f8c647eb9faab9f5, type: 3}
      propertyPath: m_RootOrder
      value: 1
      objectReference: {fileID: 0}
    - target: {fileID: 400000, guid: 2d6d4b97cff89c94f8c647eb9faab9f5, type: 3}
      propertyPath: m_LocalScale.x
      value: 1.20000005
      objectReference: {fileID: 0}
    - target: {fileID: 400000, guid: 2d6d4b97cff89c94f8c647eb9faab9f5, type: 3}
      propertyPath: m_LocalScale.y
      value: .800000012
      objectReference: {fileID: 0}
    - target: {fileID: 400000, guid: 2d6d4b97cff89c94f8c647eb9faab9f5, type: 3}
      propertyPath: m_LocalScale.z
      value: 1.20000005
      objectReference: {fileID: 0}
    m_RemovedComponents: []
  m_SourcePrefab: {fileID: 100100000, guid: 2d6d4b97cff89c94f8c647eb9faab9f5, type: 3}
--- !u!4 &1867058145 stripped
Transform:
  m_CorrespondingSourceObject: {fileID: 400000, guid: 2d6d4b97cff89c94f8c647eb9faab9f5,
    type: 3}
  m_PrefabInstance: {fileID: 1801752692}
  m_PrefabAsset: {fileID: 0}
--- !u!1 &2020058104
GameObject:
  m_ObjectHideFlags: 0
  m_CorrespondingSourceObject: {fileID: 0}
  m_PrefabInstance: {fileID: 0}
  m_PrefabAsset: {fileID: 0}
  serializedVersion: 6
  m_Component:
  - component: {fileID: 2020058105}
  - component: {fileID: 2020058107}
  - component: {fileID: 2020058106}
  m_Layer: 0
  m_Name: floor
  m_TagString: Untagged
  m_Icon: {fileID: 0}
  m_NavMeshLayer: 0
  m_StaticEditorFlags: 0
  m_IsActive: 0
--- !u!4 &2020058105
Transform:
  m_ObjectHideFlags: 0
  m_CorrespondingSourceObject: {fileID: 0}
  m_PrefabInstance: {fileID: 0}
  m_PrefabAsset: {fileID: 0}
  m_GameObject: {fileID: 2020058104}
  m_LocalRotation: {x: 0, y: 0, z: 0, w: 1}
  m_LocalPosition: {x: 0, y: 0, z: 0}
  m_LocalScale: {x: 1, y: 1, z: 1}
  m_Children:
  - {fileID: 1354717966}
  m_Father: {fileID: 332598691}
  m_RootOrder: 4
  m_LocalEulerAnglesHint: {x: 0, y: 0, z: 0}
--- !u!114 &2020058106
MonoBehaviour:
  m_ObjectHideFlags: 0
  m_CorrespondingSourceObject: {fileID: 0}
  m_PrefabInstance: {fileID: 0}
  m_PrefabAsset: {fileID: 0}
  m_GameObject: {fileID: 2020058104}
  m_Enabled: 1
  m_EditorHideFlags: 0
  m_Script: {fileID: 11500000, guid: 7c27e2d5ffd403a40ba9c6c9c4ae9fb0, type: 3}
  m_Name: 
  m_EditorClassIdentifier: 
  m_target_alpha: 1
  m_down_time: 0
  m_up_time: 0
--- !u!65 &2020058107
BoxCollider:
  m_ObjectHideFlags: 0
  m_CorrespondingSourceObject: {fileID: 0}
  m_PrefabInstance: {fileID: 0}
  m_PrefabAsset: {fileID: 0}
  m_GameObject: {fileID: 2020058104}
  m_Material: {fileID: 0}
  m_IsTrigger: 1
  m_Enabled: 1
  serializedVersion: 2
  m_Size: {x: 2.68, y: 1.53, z: 2.5}
  m_Center: {x: 0, y: -0.79, z: 0}
--- !u!1 &2072894103 stripped
GameObject:
  m_CorrespondingSourceObject: {fileID: 118788, guid: 6dd6008c456d3544eb6460e04a650360,
    type: 3}
  m_PrefabInstance: {fileID: 22168605}
  m_PrefabAsset: {fileID: 0}
--- !u!4 &2072894104 stripped
Transform:
  m_CorrespondingSourceObject: {fileID: 418788, guid: 6dd6008c456d3544eb6460e04a650360,
    type: 3}
  m_PrefabInstance: {fileID: 22168605}
  m_PrefabAsset: {fileID: 0}
--- !u!1001 &2115046271
PrefabInstance:
  m_ObjectHideFlags: 0
  serializedVersion: 2
  m_Modification:
    m_TransformParent: {fileID: 332598691}
    m_Modifications:
    - target: {fileID: 100000, guid: 4b1f7299d5f9420448f8645f387bad01, type: 3}
      propertyPath: m_IsActive
      value: 0
      objectReference: {fileID: 0}
    - target: {fileID: 400000, guid: 4b1f7299d5f9420448f8645f387bad01, type: 3}
      propertyPath: m_LocalPosition.x
      value: 0
      objectReference: {fileID: 0}
    - target: {fileID: 400000, guid: 4b1f7299d5f9420448f8645f387bad01, type: 3}
      propertyPath: m_LocalPosition.y
      value: 0
      objectReference: {fileID: 0}
    - target: {fileID: 400000, guid: 4b1f7299d5f9420448f8645f387bad01, type: 3}
      propertyPath: m_LocalPosition.z
      value: 0
      objectReference: {fileID: 0}
    - target: {fileID: 400000, guid: 4b1f7299d5f9420448f8645f387bad01, type: 3}
      propertyPath: m_LocalRotation.x
      value: -.707106829
      objectReference: {fileID: 0}
    - target: {fileID: 400000, guid: 4b1f7299d5f9420448f8645f387bad01, type: 3}
      propertyPath: m_LocalRotation.y
      value: 0
      objectReference: {fileID: 0}
    - target: {fileID: 400000, guid: 4b1f7299d5f9420448f8645f387bad01, type: 3}
      propertyPath: m_LocalRotation.z
      value: -0
      objectReference: {fileID: 0}
    - target: {fileID: 400000, guid: 4b1f7299d5f9420448f8645f387bad01, type: 3}
      propertyPath: m_LocalRotation.w
      value: .707106829
      objectReference: {fileID: 0}
    - target: {fileID: 400000, guid: 4b1f7299d5f9420448f8645f387bad01, type: 3}
      propertyPath: m_RootOrder
      value: 12
      objectReference: {fileID: 0}
    m_RemovedComponents: []
  m_SourcePrefab: {fileID: 100100000, guid: 4b1f7299d5f9420448f8645f387bad01, type: 3}
