%YAML 1.1
%TAG !u! tag:unity3d.com,2011:
--- !u!21 &2100000
Material:
  serializedVersion: 3
  m_ObjectHideFlags: 0
  m_PrefabParentObject: {fileID: 0}
  m_PrefabInternal: {fileID: 0}
  m_Name: float001
  m_Shader: {fileID: 4800000, guid: 114145f3bdc131b4499ac059e3325ed9, type: 3}
  m_ShaderKeywords: []
  m_CustomRenderQueue: -1
  m_SavedProperties:
    serializedVersion: 2
    m_TexEnvs:
      data:
        first:
          name: _MainTex
        second:
          m_Texture: {fileID: 0}
          m_Scale: {x: 1, y: 1}
          m_Offset: {x: 0, y: 0}
      data:
        first:
          name: _Tex01
        second:
          m_Texture: {fileID: 2800000, guid: b3313ba184c30d148ab52392f3c2feb5, type: 3}
          m_Scale: {x: 1, y: 1}
          m_Offset: {x: 0, y: 0}
    m_Floats:
      data:
        first:
          name: _Gloss
        second: 1
      data:
        first:
          name: _RimPow
        second: 1.5
      data:
        first:
          name: _shininess
        second: 10
    m_Colors:
      data:
        first:
          name: _Color
        second: {r: 1, g: 1, b: 1, a: 1}
      data:
        first:
          name: _RimColor
        second: {r: .679104447, g: .679104447, b: .679104447, a: 1}
      data:
        first:
          name: _Tex01Color
        second: {r: 1, g: 1, b: 1, a: 1}
