INT	INT	INT	FLOAT	INT	INT
level	品质	价格	强化系数	需要碎片	需要金币
0	1	0	0.1		
0	2	0	0.1		
0	3	0	0.1		
0	4	0	0.1		
1	4	1500	0.12	20	1000000
2	4	3000	0.15	40	2000000
3	4	4500	0.19	60	3000000
0	5	0	0.1		
1	5	1500	0.12	30	1500000
2	5	3000	0.15	60	3000000
3	5	4500	0.19	90	4500000
4	5	6000	0.24	120	6000000
5	5	7500	0.3	180	9000000
