INT	STRING	INT	INT	INT	INT	INT	INT
ID	道具	类型 1罕见 2稀有 3普通	type	value1	value2	value3	rate
1001	星界石	1	2	110010001	50	0	100
1002	蓝色宠物进阶箱	1	2	10010124	1	0	100
1003	顶级饲料	1	2	110020003	3	0	100
1004	金币	1	1	1	300000	0	100
2001	星界石	2	2	110010001	10	0	150
2002	绿色宠物进阶箱	2	2	10010123	2	0	150
2003	高级饲料	2	2	110020002	1	0	150
2004	金币	2	1	1	80000	0	150
3001	星界石	3	2	110010001	5	0	200
3002	白色宠物进阶箱	3	2	10010122	3	0	200
3003	普通饲料	3	2	110020001	3	0	200
3004	金币	3	1	1	30000	0	200
