INT	STRING	INT	INT	INT	INT	INT	INT
商店id	名字	商品type	value1	value2	value3	价格	限购次数
1001	机械制裁者碎片	2	100013001	1	0	40	50
1002	天空守护者碎片	2	100013002	1	0	40	50
1003	银河武士碎片	2	100012001	1	0	30	100
1004	自由仙女碎片	2	100012002	1	0	30	100
1005	数码芯片	1	27	5	0	1	
1006	星界石	2	110010001	10	0	2	200
1007	普通饲料	2	110020001	1	0	2	
1008	高级饲料	2	110020002	1	0	10	
1009	顶级饲料	2	110020003	1	0	20	
1010	白色宠物进阶箱	2	10010122	1	0	2	
1011	绿色宠物进阶箱	2	10010123	1	0	6	
1012	蓝色宠物进阶箱	2	10010124	1	0	30	
