%YAML 1.1
%TAG !u! tag:unity3d.com,2011:
--- !u!21 &2100000
Material:
  serializedVersion: 6
  m_ObjectHideFlags: 0
  m_CorrespondingSourceObject: {fileID: 0}
  m_PrefabInternal: {fileID: 0}
  m_Name: atk2_a01
  m_Shader: {fileID: 4800000, guid: 98451ebed53ca884a8b2f6c624b206bc, type: 3}
  m_ShaderKeywords: 
  m_LightmapFlags: 4
  m_EnableInstancingVariants: 0
  m_DoubleSidedGI: 0
  m_CustomRenderQueue: -1
  stringTagMap: {}
  disabledShaderPasses: []
  m_SavedProperties:
    serializedVersion: 3
    m_TexEnvs:
    - _LightTex:
        m_Texture: {fileID: 0}
        m_Scale: {x: 1, y: 1}
        m_Offset: {x: 0, y: 0}
    - _MainTex:
        m_Texture: {fileID: 2800000, guid: 96a50a171ce542f45b90b914917c1f62, type: 3}
        m_Scale: {x: 1, y: 1}
        m_Offset: {x: 0, y: 0}
    m_Floats:
    - _InvFade: 1
    - _alpha: 1
    - _back: 10
    - _level: 1
    - _light: 0.5
    - _uv_x: 1
    - _uv_y: 1
    - _while: 0.5
    m_Colors:
    - _BackColor: {r: 0.014489633, g: 0.061355907, b: 0.9852941, a: 0}
    - _Color: {r: 1, g: 1, b: 1, a: 1}
    - _TintColor: {r: 0.5661765, g: 0.5661765, b: 0.5661765, a: 1}
