%YAML 1.1
%TAG !u! tag:unity3d.com,2011:
--- !u!21 &2100000
Material:
  serializedVersion: 6
  m_ObjectHideFlags: 0
  m_CorrespondingSourceObject: {fileID: 0}
  m_PrefabInternal: {fileID: 0}
  m_Name: SJ_02a 6
  m_Shader: {fileID: 200, guid: 0000000000000000f000000000000000, type: 0}
  m_ShaderKeywords: 
  m_LightmapFlags: 4
  m_EnableInstancingVariants: 0
  m_DoubleSidedGI: 0
  m_CustomRenderQueue: -1
  stringTagMap: {}
  disabledShaderPasses: []
  m_SavedProperties:
    serializedVersion: 3
    m_TexEnvs:
    - _DisT01:
        m_Texture: {fileID: 2800000, guid: 899c5fd66853a0a4a976e047fe41bfd7, type: 3}
        m_Scale: {x: 1, y: 1}
        m_Offset: {x: 0, y: 0}
    - _MainTex:
        m_Texture: {fileID: 2800000, guid: a966fb1f0e849034dbd07d3b9b62ba74, type: 3}
        m_Scale: {x: 1, y: 1}
        m_Offset: {x: 0, y: 0}
    - _Mask:
        m_Texture: {fileID: 2800000, guid: 175a382331999f547907b52efeef290b, type: 3}
        m_Scale: {x: 1, y: 1}
        m_Offset: {x: 0, y: 0}
    - _Tex01:
        m_Texture: {fileID: 2800000, guid: 6a49564304695e0409991cb6be46a481, type: 3}
        m_Scale: {x: 1, y: 1}
        m_Offset: {x: 0, y: 0}
    - _Tex02:
        m_Texture: {fileID: 2800000, guid: 09f21275fc62c6543838d51934771876, type: 3}
        m_Scale: {x: 1, y: 1}
        m_Offset: {x: 0, y: 0}
    m_Floats:
    - _DisT01Power: 0
    - _Intensity_Mask: 1
    - _InvFade: 1
    - _PanY_DisT01: 1
    - _PanY_T02: 1
    - _Shininess: 0.7
    m_Colors:
    - _Color: {r: 1, g: 1, b: 1, a: 1}
    - _Color_T01: {r: 0.9264706, g: 0.7622241, b: 0.40873703, a: 1}
    - _Color_T02: {r: 1, g: 0.7969574, b: 0.43382353, a: 1}
    - _Emission: {r: 0, g: 0, b: 0, a: 0}
    - _SpecColor: {r: 1, g: 1, b: 1, a: 1}
    - _TintColor: {r: 0.9117647, g: 0.9050605, b: 0.9050605, a: 0.74509805}
