%YAML 1.1
%TAG !u! tag:unity3d.com,2011:
--- !u!21 &2100000
Material:
  serializedVersion: 6
  m_ObjectHideFlags: 0
  m_CorrespondingSourceObject: {fileID: 0}
  m_PrefabInternal: {fileID: 0}
  m_Name: wuqi
  m_Shader: {fileID: 4800000, guid: fcf729baf7219704e96ae6df7c0a1633, type: 3}
  m_ShaderKeywords: 
  m_LightmapFlags: 4
  m_EnableInstancingVariants: 0
  m_DoubleSidedGI: 0
  m_CustomRenderQueue: -1
  stringTagMap: {}
  disabledShaderPasses: []
  m_SavedProperties:
    serializedVersion: 3
    m_TexEnvs:
    - _BlendTex:
        m_Texture: {fileID: 2800000, guid: 03989893aba5e574684705a75b4b850d, type: 3}
        m_Scale: {x: 1, y: 1}
        m_Offset: {x: 0, y: 0}
    - _MainTex:
        m_Texture: {fileID: 2800000, guid: aed509fd9127146459c0194cead54bb3, type: 3}
        m_Scale: {x: 1, y: 1}
        m_Offset: {x: 0, y: 0}
    m_Floats:
    - _alpha: 1.4
    - _back: 3.26
    - _level: 0.76
    - _while: 0
    m_Colors:
    - _BackColor: {r: 0.7794118, g: 0.2750865, b: 0.2750865, a: 0}
    - _Color: {r: 0.588, g: 0.588, b: 0.588, a: 1}
