%YAML 1.1
%TAG !u! tag:unity3d.com,2011:
--- !u!21 &2100000
Material:
  serializedVersion: 6
  m_ObjectHideFlags: 0
  m_CorrespondingSourceObject: {fileID: 0}
  m_PrefabInternal: {fileID: 0}
  m_Name: a01
  m_Shader: {fileID: 4800000, guid: 39724c96a1f38cd4ba13337cd9d6dab1, type: 3}
  m_ShaderKeywords: 
  m_LightmapFlags: 4
  m_EnableInstancingVariants: 0
  m_DoubleSidedGI: 0
  m_CustomRenderQueue: -1
  stringTagMap: {}
  disabledShaderPasses: []
  m_SavedProperties:
    serializedVersion: 3
    m_TexEnvs:
    - _DisE01:
        m_Texture: {fileID: 0}
        m_Scale: {x: 1, y: 1}
        m_Offset: {x: 0, y: 0}
    - _E01:
        m_Texture: {fileID: 2800000, guid: ce67c9b8995f49547b1b4b4cb7587848, type: 3}
        m_Scale: {x: 1, y: 1}
        m_Offset: {x: 0, y: 0}
    - _MainTex:
        m_Texture: {fileID: 0}
        m_Scale: {x: 1, y: 1}
        m_Offset: {x: 0, y: 0}
    - _MaskE01:
        m_Texture: {fileID: 2800000, guid: 5d6319eb8f423534da3483d592e7c895, type: 3}
        m_Scale: {x: 1, y: 1}
        m_Offset: {x: 0, y: 0}
    m_Floats:
    - _AlphaClip: 0.05
    - _DisE01_UVpan: 0
    - _DisE01_UVpan_Speed: 0
    - _DisE01_value: 0
    - _E01_Bright: 1
    - _E01_UVangle: 0
    - _Glow_Bright: 1
    - _MaskE01_UVangle: 0
    m_Colors:
    - _Color: {r: 1, g: 1, b: 1, a: 1}
    - _E01_Color: {r: 0.1892301, g: 0.554528, b: 0.7352941, a: 1}
