%YAML 1.1
%TAG !u! tag:unity3d.com,2011:
--- !u!21 &2100000
Material:
  serializedVersion: 6
  m_ObjectHideFlags: 0
  m_CorrespondingSourceObject: {fileID: 0}
  m_PrefabInternal: {fileID: 0}
  m_Name: a04
  m_Shader: {fileID: 4800000, guid: 82ea86bfe301b0547a484e360b67823c, type: 3}
  m_ShaderKeywords: _E01_UVPAN_ON _E01_UVPAN_TIMEVERTEXALPHA_ON _OPACITY_ONOFF_ON
  m_LightmapFlags: 4
  m_EnableInstancingVariants: 0
  m_DoubleSidedGI: 0
  m_CustomRenderQueue: -1
  stringTagMap: {}
  disabledShaderPasses: []
  m_SavedProperties:
    serializedVersion: 3
    m_TexEnvs:
    - _Alpha01:
        m_Texture: {fileID: 2800000, guid: da8f7db63011f644dbb6e4d912d5bbf5, type: 3}
        m_Scale: {x: 1, y: 1}
        m_Offset: {x: 0, y: 0}
    - _DisE01:
        m_Texture: {fileID: 0}
        m_Scale: {x: 1, y: 1}
        m_Offset: {x: 0, y: 0}
    - _E01:
        m_Texture: {fileID: 2800000, guid: 57f026276d218354cb263d93757fa4c4, type: 3}
        m_Scale: {x: 1, y: 1}
        m_Offset: {x: 0, y: 0}
    - _MainTex:
        m_Texture: {fileID: 0}
        m_Scale: {x: 1, y: 1}
        m_Offset: {x: 0, y: 0}
    - _MaskE01:
        m_Texture: {fileID: 2800000, guid: 5d6319eb8f423534da3483d592e7c895, type: 3}
        m_Scale: {x: 1, y: 1}
        m_Offset: {x: 0, y: 0}
    m_Floats:
    - _Alpha01_Bright: 1
    - _Alpha01_UVangle: 0
    - _AlphaClip: 0.01
    - _Cutoff: 0.5
    - _DisE01_UVpan: 0
    - _DisE01_UVpan_Speed: 0
    - _DisE01_value: 0
    - _E01_Bright: 5
    - _E01_UVangle: 0
    - _E01_UVpan: 1
    - _E01_UVpan_Speed: 5
    - _E01_UVpan_TimeVertexAlpha: 1
    - _Glow_Bright: 10
    - _MaskE01_UVangle: 0
    - _Opacity_ONOff: 1
    m_Colors:
    - _Color: {r: 1, g: 1, b: 1, a: 1}
    - _E01_Color: {r: 1, g: 1, b: 1, a: 1}
