%YAML 1.1
%TAG !u! tag:unity3d.com,2011:
--- !u!21 &2100000
Material:
  serializedVersion: 6
  m_ObjectHideFlags: 0
  m_CorrespondingSourceObject: {fileID: 0}
  m_PrefabInternal: {fileID: 0}
  m_Name: MemoryRoom_Table
  m_Shader: {fileID: 4800000, guid: 3a49d572e585272429ef3052c5191c91, type: 3}
  m_ShaderKeywords: 
  m_LightmapFlags: 4
  m_EnableInstancingVariants: 0
  m_DoubleSidedGI: 0
  m_CustomRenderQueue: -1
  stringTagMap: {}
  disabledShaderPasses: []
  m_SavedProperties:
    serializedVersion: 3
    m_TexEnvs:
    - _DisEmiss:
        m_Texture: {fileID: 2800000, guid: 4e51f181444356f458eac091f4ee2144, type: 3}
        m_Scale: {x: 2, y: 2}
        m_Offset: {x: 0, y: 0}
    - _E01:
        m_Texture: {fileID: 2800000, guid: d7696bb480b50ee4a8cae176c2e190d2, type: 3}
        m_Scale: {x: 1, y: 1}
        m_Offset: {x: 0, y: 0}
    - _E02:
        m_Texture: {fileID: 2800000, guid: 4e51f181444356f458eac091f4ee2144, type: 3}
        m_Scale: {x: 0.5, y: 1}
        m_Offset: {x: 0, y: 0}
    - _MainTex:
        m_Texture: {fileID: 2800000, guid: a7273633b1d7ff24ba82e830a24e4010, type: 3}
        m_Scale: {x: 6, y: 4}
        m_Offset: {x: 0, y: 0}
    - _MaskTex:
        m_Texture: {fileID: 2800000, guid: b6761969ac40a3140a8d2bb6a20ccf57, type: 3}
        m_Scale: {x: 1, y: 1}
        m_Offset: {x: 0, y: 0}
    m_Floats:
    - _Cutoff: 0.5
    - _DisE01_Value: 0.1
    - _DisE02_Value: 0.1
    - _E01_UVangle: 0
    - _E01_UVpan: 0
    - _E01_UVpan_Speed: 0.2
    - _E02_UVangle: 0.5
    - _E02_UVpan: 0
    - _E02_UVpan_Speed: 0.2
    - _InvFade: 1
    - _RimPower_max: 1.7142857
    - _RimPower_min: -4.821429
    - _Tex_Bright: 1
    m_Colors:
    - _Color: {r: 1, g: 1, b: 1, a: 1}
    - _E01_Color: {r: 0, g: 0.25380313, b: 0.4044118, a: 1}
    - _E02_Color: {r: 0, g: 0.24594331, b: 0.36764705, a: 1}
    - _RimColor: {r: 0, g: 0.25517225, b: 1, a: 1}
    - _TintColor: {r: 0, g: 0.751724, b: 1, a: 0.5019608}
