%YAML 1.1
%TAG !u! tag:unity3d.com,2011:
--- !u!1 &100000
GameObject:
  m_ObjectHideFlags: 0
  m_CorrespondingSourceObject: {fileID: 0}
  m_PrefabInternal: {fileID: 100100000}
  serializedVersion: 6
  m_Component:
  - component: {fileID: 400000}
  - component: {fileID: 11400000}
  m_Layer: 0
  m_Name: button
  m_TagString: Untagged
  m_Icon: {fileID: 0}
  m_NavMeshLayer: 0
  m_StaticEditorFlags: 0
  m_IsActive: 1
--- !u!4 &400000
Transform:
  m_ObjectHideFlags: 1
  m_CorrespondingSourceObject: {fileID: 0}
  m_PrefabInternal: {fileID: 100100000}
  m_GameObject: {fileID: 100000}
  m_LocalRotation: {x: 0, y: 0, z: 0, w: 1}
  m_LocalPosition: {x: 0, y: 0, z: 0}
  m_LocalScale: {x: 1, y: 1, z: 1}
  m_Children: []
  m_Father: {fileID: 0}
  m_RootOrder: 0
  m_LocalEulerAnglesHint: {x: 0, y: 0, z: 0}
--- !u!114 &11400000
MonoBehaviour:
  m_ObjectHideFlags: 1
  m_CorrespondingSourceObject: {fileID: 0}
  m_PrefabInternal: {fileID: 100100000}
  m_GameObject: {fileID: 100000}
  m_Enabled: 1
  m_EditorHideFlags: 0
  m_Script: {fileID: 11500000, guid: 4d0c51bb0b6e93049af5e88f93826e3b, type: 3}
  m_Name: 
  m_EditorClassIdentifier: 
  material: {fileID: 2100000, guid: 5f90577a26fc43f488fdb9a0eb5cadde, type: 2}
  mSprites:
  - name: an_tongyong01a
    x: 2
    y: 245
    width: 120
    height: 53
    borderLeft: 36
    borderRight: 36
    borderTop: 0
    borderBottom: 0
    paddingLeft: 0
    paddingRight: 0
    paddingTop: 0
    paddingBottom: 2
  - name: an_tongyong01b
    x: 124
    y: 240
    width: 120
    height: 53
    borderLeft: 36
    borderRight: 36
    borderTop: 0
    borderBottom: 0
    paddingLeft: 0
    paddingRight: 0
    paddingTop: 0
    paddingBottom: 2
  - name: an_tongyong01c
    x: 2
    y: 190
    width: 120
    height: 53
    borderLeft: 27
    borderRight: 27
    borderTop: 0
    borderBottom: 0
    paddingLeft: 0
    paddingRight: 0
    paddingTop: 0
    paddingBottom: 2
  - name: an_tongyong01d
    x: 130
    y: 185
    width: 120
    height: 53
    borderLeft: 36
    borderRight: 36
    borderTop: 0
    borderBottom: 0
    paddingLeft: 0
    paddingRight: 0
    paddingTop: 0
    paddingBottom: 2
  - name: an_tongyong01e
    x: 130
    y: 130
    width: 120
    height: 53
    borderLeft: 36
    borderRight: 36
    borderTop: 0
    borderBottom: 0
    paddingLeft: 0
    paddingRight: 0
    paddingTop: 0
    paddingBottom: 2
  - name: atyan_hs01
    x: 346
    y: 121
    width: 137
    height: 57
    borderLeft: 40
    borderRight: 40
    borderTop: 0
    borderBottom: 0
    paddingLeft: 0
    paddingRight: 0
    paddingTop: 0
    paddingBottom: 0
  - name: atyan_ls01
    x: 366
    y: 62
    width: 137
    height: 57
    borderLeft: 40
    borderRight: 40
    borderTop: 0
    borderBottom: 0
    paddingLeft: 0
    paddingRight: 0
    paddingTop: 0
    paddingBottom: 0
  - name: bbfy_glzt001
    x: 366
    y: 2
    width: 138
    height: 58
    borderLeft: 0
    borderRight: 0
    borderTop: 0
    borderBottom: 0
    paddingLeft: 0
    paddingRight: 0
    paddingTop: 0
    paddingBottom: 0
  - name: bbfy_ptzt001
    x: 2
    y: 130
    width: 126
    height: 58
    borderLeft: 0
    borderRight: 0
    borderTop: 0
    borderBottom: 0
    paddingLeft: 7
    paddingRight: 5
    paddingTop: 0
    paddingBottom: 0
  - name: bz_ironanniu01
    x: 282
    y: 241
    width: 34
    height: 85
    borderLeft: 0
    borderRight: 0
    borderTop: 0
    borderBottom: 0
    paddingLeft: 0
    paddingRight: 0
    paddingTop: 0
    paddingBottom: 0
  - name: bz_ironanniu01_ft
    x: 246
    y: 241
    width: 34
    height: 85
    borderLeft: 0
    borderRight: 0
    borderTop: 0
    borderBottom: 0
    paddingLeft: 0
    paddingRight: 0
    paddingTop: 0
    paddingBottom: 0
  - name: bz_ironanniu01a
    x: 454
    y: 267
    width: 34
    height: 85
    borderLeft: 0
    borderRight: 0
    borderTop: 0
    borderBottom: 0
    paddingLeft: 0
    paddingRight: 0
    paddingTop: 0
    paddingBottom: 0
  - name: bz_ironanniu01b
    x: 454
    y: 180
    width: 34
    height: 85
    borderLeft: 0
    borderRight: 0
    borderTop: 0
    borderBottom: 0
    paddingLeft: 0
    paddingRight: 0
    paddingTop: 0
    paddingBottom: 0
  - name: bz_ironframe02_b01
    x: 2
    y: 407
    width: 110
    height: 45
    borderLeft: 40
    borderRight: 40
    borderTop: 10
    borderBottom: 30
    paddingLeft: 0
    paddingRight: 0
    paddingTop: 4
    paddingBottom: 0
  - name: bz_ironframe02_b02
    x: 2
    y: 360
    width: 110
    height: 45
    borderLeft: 0
    borderRight: 0
    borderTop: 0
    borderBottom: 0
    paddingLeft: 0
    paddingRight: 0
    paddingTop: 1
    paddingBottom: 3
  - name: dx_rq_dp01_button_01
    x: 210
    y: 389
    width: 100
    height: 32
    borderLeft: 0
    borderRight: 0
    borderTop: 0
    borderBottom: 0
    paddingLeft: 0
    paddingRight: 0
    paddingTop: 0
    paddingBottom: 0
  - name: dx_rq_dp01_button_02
    x: 410
    y: 385
    width: 96
    height: 28
    borderLeft: 0
    borderRight: 0
    borderTop: 0
    borderBottom: 0
    paddingLeft: 1
    paddingRight: 3
    paddingTop: 1
    paddingBottom: 3
  - name: dx_rq_dp01_button_02_1
    x: 312
    y: 385
    width: 96
    height: 28
    borderLeft: 0
    borderRight: 0
    borderTop: 0
    borderBottom: 0
    paddingLeft: 1
    paddingRight: 3
    paddingTop: 1
    paddingBottom: 3
  - name: dx_rq_dp01_button_03
    x: 388
    y: 355
    width: 96
    height: 28
    borderLeft: 0
    borderRight: 0
    borderTop: 0
    borderBottom: 0
    paddingLeft: 1
    paddingRight: 3
    paddingTop: 1
    paddingBottom: 3
  - name: dx_rq_dp01_button_03_1
    x: 290
    y: 423
    width: 96
    height: 28
    borderLeft: 0
    borderRight: 0
    borderTop: 0
    borderBottom: 0
    paddingLeft: 1
    paddingRight: 3
    paddingTop: 1
    paddingBottom: 3
  - name: dx_rq_dp02_button_01
    x: 210
    y: 355
    width: 100
    height: 32
    borderLeft: 0
    borderRight: 0
    borderTop: 0
    borderBottom: 0
    paddingLeft: 0
    paddingRight: 0
    paddingTop: 0
    paddingBottom: 0
  - name: dx_rq_dp03_button_01
    x: 194
    y: 466
    width: 100
    height: 32
    borderLeft: 0
    borderRight: 0
    borderTop: 0
    borderBottom: 0
    paddingLeft: 0
    paddingRight: 0
    paddingTop: 0
    paddingBottom: 0
  - name: jgmf_tbbm
    x: 252
    y: 154
    width: 82
    height: 85
    borderLeft: 0
    borderRight: 0
    borderTop: 0
    borderBottom: 0
    paddingLeft: 0
    paddingRight: 0
    paddingTop: 0
    paddingBottom: 0
  - name: szjm_jsxan
    x: 194
    y: 429
    width: 94
    height: 35
    borderLeft: 0
    borderRight: 0
    borderTop: 0
    borderBottom: 0
    paddingLeft: 0
    paddingRight: 0
    paddingTop: 0
    paddingBottom: 0
  - name: szjm_tyxan_ft
    x: 114
    y: 392
    width: 94
    height: 35
    borderLeft: 0
    borderRight: 0
    borderTop: 0
    borderBottom: 0
    paddingLeft: 0
    paddingRight: 0
    paddingTop: 0
    paddingBottom: 0
  - name: szjm_yzbxan
    x: 114
    y: 355
    width: 94
    height: 35
    borderLeft: 0
    borderRight: 0
    borderTop: 0
    borderBottom: 0
    paddingLeft: 0
    paddingRight: 0
    paddingTop: 0
    paddingBottom: 0
  - name: szjm_zbxan
    x: 98
    y: 454
    width: 94
    height: 35
    borderLeft: 40
    borderRight: 40
    borderTop: 8
    borderBottom: 25
    paddingLeft: 0
    paddingRight: 0
    paddingTop: 0
    paddingBottom: 0
  - name: szjm_zsxan
    x: 2
    y: 454
    width: 94
    height: 35
    borderLeft: 15
    borderRight: 15
    borderTop: 15
    borderBottom: 15
    paddingLeft: 0
    paddingRight: 0
    paddingTop: 0
    paddingBottom: 0
  - name: xiean_lt001a
    x: 156
    y: 67
    width: 152
    height: 61
    borderLeft: 0
    borderRight: 0
    borderTop: 0
    borderBottom: 0
    paddingLeft: 6
    paddingRight: 2
    paddingTop: 0
    paddingBottom: 4
  - name: xiean_lt001b
    x: 2
    y: 67
    width: 152
    height: 61
    borderLeft: 0
    borderRight: 0
    borderTop: 0
    borderBottom: 0
    paddingLeft: 6
    paddingRight: 2
    paddingTop: 0
    paddingBottom: 4
  - name: xsdan_aan001
    x: 318
    y: 295
    width: 110
    height: 58
    borderLeft: 35
    borderRight: 35
    borderTop: 20
    borderBottom: 20
    paddingLeft: 0
    paddingRight: 0
    paddingTop: 0
    paddingBottom: 0
  - name: xsdan_aan002
    x: 2
    y: 300
    width: 110
    height: 58
    borderLeft: 35
    borderRight: 35
    borderTop: 20
    borderBottom: 20
    paddingLeft: 0
    paddingRight: 0
    paddingTop: 0
    paddingBottom: 0
  - name: xsdan_aan003f
    x: 124
    y: 295
    width: 110
    height: 58
    borderLeft: 0
    borderRight: 0
    borderTop: 0
    borderBottom: 0
    paddingLeft: 0
    paddingRight: 0
    paddingTop: 0
    paddingBottom: 0
  - name: yjxx_an
    x: 310
    y: 67
    width: 34
    height: 85
    borderLeft: 0
    borderRight: 0
    borderTop: 0
    borderBottom: 0
    paddingLeft: 0
    paddingRight: 0
    paddingTop: 0
    paddingBottom: 0
  - name: zbcq_an_xin
    x: 184
    y: 2
    width: 180
    height: 63
    borderLeft: 0
    borderRight: 0
    borderTop: 0
    borderBottom: 0
    paddingLeft: 0
    paddingRight: 0
    paddingTop: 0
    paddingBottom: 0
  - name: zbcq_an_xin002
    x: 336
    y: 180
    width: 116
    height: 113
    borderLeft: 0
    borderRight: 0
    borderTop: 0
    borderBottom: 0
    paddingLeft: 1
    paddingRight: 1
    paddingTop: 1
    paddingBottom: 1
  - name: zbcq_an_xin01
    x: 2
    y: 2
    width: 180
    height: 63
    borderLeft: 0
    borderRight: 0
    borderTop: 0
    borderBottom: 0
    paddingLeft: 0
    paddingRight: 0
    paddingTop: 0
    paddingBottom: 0
  mPixelSize: 1
  mReplacement: {fileID: 0}
  mCoordinates: 0
  sprites: []
--- !u!1001 &100100000
Prefab:
  m_ObjectHideFlags: 1
  serializedVersion: 2
  m_Modification:
    m_TransformParent: {fileID: 0}
    m_Modifications: []
    m_RemovedComponents: []
  m_SourcePrefab: {fileID: 0}
  m_RootGameObject: {fileID: 100000}
  m_IsPrefabAsset: 1
