%YAML 1.1
%TAG !u! tag:unity3d.com,2011:
--- !u!1 &100000
GameObject:
  m_ObjectHideFlags: 0
  m_CorrespondingSourceObject: {fileID: 0}
  m_PrefabInternal: {fileID: 100100000}
  serializedVersion: 6
  m_Component:
  - component: {fileID: 400000}
  - component: {fileID: 11400000}
  m_Layer: 0
  m_Name: gui_002
  m_TagString: Untagged
  m_Icon: {fileID: 0}
  m_NavMeshLayer: 0
  m_StaticEditorFlags: 0
  m_IsActive: 1
--- !u!4 &400000
Transform:
  m_ObjectHideFlags: 1
  m_CorrespondingSourceObject: {fileID: 0}
  m_PrefabInternal: {fileID: 100100000}
  m_GameObject: {fileID: 100000}
  m_LocalRotation: {x: 0, y: 0, z: 0, w: 1}
  m_LocalPosition: {x: 0, y: 0, z: 0}
  m_LocalScale: {x: 1, y: 1, z: 1}
  m_Children: []
  m_Father: {fileID: 0}
  m_RootOrder: 0
  m_LocalEulerAnglesHint: {x: 0, y: 0, z: 0}
--- !u!114 &11400000
MonoBehaviour:
  m_ObjectHideFlags: 1
  m_CorrespondingSourceObject: {fileID: 0}
  m_PrefabInternal: {fileID: 100100000}
  m_GameObject: {fileID: 100000}
  m_Enabled: 1
  m_EditorHideFlags: 0
  m_Script: {fileID: 11500000, guid: 4d0c51bb0b6e93049af5e88f93826e3b, type: 3}
  m_Name: 
  m_EditorClassIdentifier: 
  material: {fileID: 2100000, guid: ba2c3f39ecf3fcf40a421cd9fd84e6f5, type: 2}
  mSprites:
  - name: bb_nfyan001
    x: 2
    y: 170
    width: 131
    height: 58
    borderLeft: 0
    borderRight: 0
    borderTop: 0
    borderBottom: 0
    paddingLeft: 0
    paddingRight: 0
    paddingTop: 0
    paddingBottom: 0
  - name: bb_nfyan002
    x: 272
    y: 152
    width: 131
    height: 58
    borderLeft: 0
    borderRight: 0
    borderTop: 0
    borderBottom: 0
    paddingLeft: 0
    paddingRight: 0
    paddingTop: 0
    paddingBottom: 0
  - name: bz_ironframe01b
    x: 2
    y: 37
    width: 152
    height: 55
    borderLeft: 0
    borderRight: 0
    borderTop: 0
    borderBottom: 0
    paddingLeft: 0
    paddingRight: 0
    paddingTop: 0
    paddingBottom: 0
  - name: cha
    x: 364
    y: 244
    width: 30
    height: 30
    borderLeft: 0
    borderRight: 0
    borderTop: 0
    borderBottom: 0
    paddingLeft: 0
    paddingRight: 0
    paddingTop: 0
    paddingBottom: 0
  - name: close01
    x: 47
    y: 290
    width: 86
    height: 84
    borderLeft: 0
    borderRight: 0
    borderTop: 0
    borderBottom: 0
    paddingLeft: 4
    paddingRight: 0
    paddingTop: 6
    paddingBottom: 0
  - name: crow_xx01
    x: 461
    y: 135
    width: 45
    height: 40
    borderLeft: 0
    borderRight: 0
    borderTop: 0
    borderBottom: 0
    paddingLeft: 0
    paddingRight: 0
    paddingTop: 0
    paddingBottom: 0
  - name: crow_xx02
    x: 461
    y: 93
    width: 45
    height: 40
    borderLeft: 0
    borderRight: 0
    borderTop: 0
    borderBottom: 0
    paddingLeft: 0
    paddingRight: 0
    paddingTop: 0
    paddingBottom: 0
  - name: crow_xx03
    x: 461
    y: 51
    width: 45
    height: 40
    borderLeft: 0
    borderRight: 0
    borderTop: 0
    borderBottom: 0
    paddingLeft: 0
    paddingRight: 0
    paddingTop: 0
    paddingBottom: 0
  - name: dbqbi_sl
    x: 213
    y: 361
    width: 81
    height: 85
    borderLeft: 0
    borderRight: 0
    borderTop: 0
    borderBottom: 0
    paddingLeft: 2
    paddingRight: 2
    paddingTop: 0
    paddingBottom: 0
  - name: djhc_xjh
    x: 364
    y: 276
    width: 30
    height: 29
    borderLeft: 0
    borderRight: 0
    borderTop: 0
    borderBottom: 0
    paddingLeft: 0
    paddingRight: 0
    paddingTop: 0
    paddingBottom: 0
  - name: ggbof_an01
    x: 296
    y: 325
    width: 76
    height: 77
    borderLeft: 0
    borderRight: 0
    borderTop: 0
    borderBottom: 0
    paddingLeft: 0
    paddingRight: 0
    paddingTop: 0
    paddingBottom: 0
  - name: jb_suoding001
    x: 461
    y: 2
    width: 47
    height: 47
    borderLeft: 0
    borderRight: 0
    borderTop: 0
    borderBottom: 0
    paddingLeft: 0
    paddingRight: 0
    paddingTop: 0
    paddingBottom: 0
  - name: jt
    x: 418
    y: 112
    width: 41
    height: 41
    borderLeft: 0
    borderRight: 0
    borderTop: 0
    borderBottom: 0
    paddingLeft: 0
    paddingRight: 2
    paddingTop: 0
    paddingBottom: 2
  - name: kfkh_bjqgbt00
    x: 272
    y: 112
    width: 144
    height: 38
    borderLeft: 60
    borderRight: 60
    borderTop: 0
    borderBottom: 0
    paddingLeft: 0
    paddingRight: 0
    paddingTop: 0
    paddingBottom: 0
  - name: klq_word01
    x: 274
    y: 2
    width: 185
    height: 108
    borderLeft: 0
    borderRight: 0
    borderTop: 0
    borderBottom: 0
    paddingLeft: 0
    paddingRight: 0
    paddingTop: 0
    paddingBottom: 0
  - name: ld_lodt001
    x: 2
    y: 230
    width: 109
    height: 21
    borderLeft: 36
    borderRight: 36
    borderTop: 0
    borderBottom: 0
    paddingLeft: 2
    paddingRight: 4
    paddingTop: 0
    paddingBottom: 0
  - name: ld_lodt002
    x: 266
    y: 212
    width: 107
    height: 13
    borderLeft: 7
    borderRight: 7
    borderTop: 0
    borderBottom: 0
    paddingLeft: 3
    paddingRight: 5
    paddingTop: 4
    paddingBottom: 4
  - name: lo_bg
    x: 46
    y: 253
    width: 87
    height: 35
    borderLeft: 15
    borderRight: 49
    borderTop: 17
    borderBottom: 0
    paddingLeft: 0
    paddingRight: 0
    paddingTop: 0
    paddingBottom: 0
  - name: mwyqkx_001
    x: 375
    y: 212
    width: 28
    height: 30
    borderLeft: 0
    borderRight: 0
    borderTop: 0
    borderBottom: 0
    paddingLeft: 1
    paddingRight: 1
    paddingTop: 0
    paddingBottom: 0
  - name: nsjjm_tx001
    x: 365
    y: 404
    width: 67
    height: 73
    borderLeft: 0
    borderRight: 0
    borderTop: 0
    borderBottom: 0
    paddingLeft: 0
    paddingRight: 0
    paddingTop: 0
    paddingBottom: 0
  - name: nsjjm_tx002
    x: 296
    y: 404
    width: 67
    height: 73
    borderLeft: 0
    borderRight: 0
    borderTop: 0
    borderBottom: 0
    paddingLeft: 0
    paddingRight: 0
    paddingTop: 0
    paddingBottom: 0
  - name: qp_bgframe
    x: 2
    y: 94
    width: 145
    height: 74
    borderLeft: 75
    borderRight: 25
    borderTop: 26
    borderBottom: 15
    paddingLeft: 0
    paddingRight: 0
    paddingTop: 0
    paddingBottom: 0
  - name: sd_num_framebg
    x: 2
    y: 2
    width: 270
    height: 33
    borderLeft: 0
    borderRight: 0
    borderTop: 11
    borderBottom: 7
    paddingLeft: 4
    paddingRight: 0
    paddingTop: 0
    paddingBottom: 0
  - name: szjm_xandk
    x: 135
    y: 208
    width: 129
    height: 43
    borderLeft: 0
    borderRight: 0
    borderTop: 0
    borderBottom: 0
    paddingLeft: 0
    paddingRight: 0
    paddingTop: 0
    paddingBottom: 0
  - name: tdzx_mqz001
    x: 25
    y: 376
    width: 96
    height: 96
    borderLeft: 0
    borderRight: 0
    borderTop: 0
    borderBottom: 0
    paddingLeft: 0
    paddingRight: 0
    paddingTop: 0
    paddingBottom: 0
  - name: tdzx_mqz002
    x: 135
    y: 253
    width: 96
    height: 96
    borderLeft: 0
    borderRight: 0
    borderTop: 0
    borderBottom: 0
    paddingLeft: 0
    paddingRight: 0
    paddingTop: 0
    paddingBottom: 0
  - name: tdzx_mqz003
    x: 396
    y: 263
    width: 96
    height: 96
    borderLeft: 0
    borderRight: 0
    borderTop: 0
    borderBottom: 0
    paddingLeft: 0
    paddingRight: 0
    paddingTop: 0
    paddingBottom: 0
  - name: tdzx_mqz004
    x: 266
    y: 227
    width: 96
    height: 96
    borderLeft: 0
    borderRight: 0
    borderTop: 0
    borderBottom: 0
    paddingLeft: 0
    paddingRight: 0
    paddingTop: 0
    paddingBottom: 0
  - name: tp_xxxdb000
    x: 2
    y: 361
    width: 21
    height: 148
    borderLeft: 14
    borderRight: 13
    borderTop: 76
    borderBottom: 37
    paddingLeft: 0
    paddingRight: 0
    paddingTop: 0
    paddingBottom: 0
  - name: tx_bb
    x: 123
    y: 376
    width: 88
    height: 88
    borderLeft: 0
    borderRight: 0
    borderTop: 0
    borderBottom: 0
    paddingLeft: 0
    paddingRight: 0
    paddingTop: 0
    paddingBottom: 0
  - name: xdl_yblbdb001
    x: 405
    y: 220
    width: 102
    height: 41
    borderLeft: 30
    borderRight: 30
    borderTop: 0
    borderBottom: 0
    paddingLeft: 0
    paddingRight: 0
    paddingTop: 0
    paddingBottom: 0
  - name: xdl_yblbdb002
    x: 405
    y: 177
    width: 102
    height: 41
    borderLeft: 30
    borderRight: 30
    borderTop: 0
    borderBottom: 0
    paddingLeft: 0
    paddingRight: 0
    paddingTop: 0
    paddingBottom: 0
  - name: xdl_yblbdb003
    x: 149
    y: 138
    width: 121
    height: 68
    borderLeft: 30
    borderRight: 30
    borderTop: 26
    borderBottom: 26
    paddingLeft: 0
    paddingRight: 0
    paddingTop: 0
    paddingBottom: 0
  - name: yban_kj00
    x: 25
    y: 474
    width: 43
    height: 34
    borderLeft: 0
    borderRight: 0
    borderTop: 0
    borderBottom: 0
    paddingLeft: 0
    paddingRight: 0
    paddingTop: 0
    paddingBottom: 0
  - name: yban_tg00
    x: 2
    y: 325
    width: 43
    height: 34
    borderLeft: 0
    borderRight: 0
    borderTop: 0
    borderBottom: 0
    paddingLeft: 0
    paddingRight: 0
    paddingTop: 0
    paddingBottom: 0
  - name: yqh_tjaj001
    x: 2
    y: 253
    width: 42
    height: 42
    borderLeft: 0
    borderRight: 0
    borderTop: 0
    borderBottom: 0
    paddingLeft: 0
    paddingRight: 0
    paddingTop: 0
    paddingBottom: 0
  - name: zb_zbsjdb001
    x: 156
    y: 37
    width: 114
    height: 99
    borderLeft: 0
    borderRight: 0
    borderTop: 0
    borderBottom: 0
    paddingLeft: 0
    paddingRight: 0
    paddingTop: 0
    paddingBottom: 0
  mPixelSize: 1
  mReplacement: {fileID: 0}
  mCoordinates: 0
  sprites: []
--- !u!1001 &100100000
Prefab:
  m_ObjectHideFlags: 1
  serializedVersion: 2
  m_Modification:
    m_TransformParent: {fileID: 0}
    m_Modifications: []
    m_RemovedComponents: []
  m_SourcePrefab: {fileID: 0}
  m_RootGameObject: {fileID: 100000}
  m_IsPrefabAsset: 1
