%YAML 1.1
%TAG !u! tag:unity3d.com,2011:
--- !u!1 &100000
GameObject:
  m_ObjectHideFlags: 0
  m_CorrespondingSourceObject: {fileID: 0}
  m_PrefabInternal: {fileID: 100100000}
  serializedVersion: 6
  m_Component:
  - component: {fileID: 400000}
  - component: {fileID: 11400000}
  m_Layer: 0
  m_Name: juntuan_gui
  m_TagString: Untagged
  m_Icon: {fileID: 0}
  m_NavMeshLayer: 0
  m_StaticEditorFlags: 0
  m_IsActive: 1
--- !u!4 &400000
Transform:
  m_ObjectHideFlags: 1
  m_CorrespondingSourceObject: {fileID: 0}
  m_PrefabInternal: {fileID: 100100000}
  m_GameObject: {fileID: 100000}
  m_LocalRotation: {x: 0, y: 0, z: 0, w: 1}
  m_LocalPosition: {x: 0, y: 0, z: 0}
  m_LocalScale: {x: 1, y: 1, z: 1}
  m_Children: []
  m_Father: {fileID: 0}
  m_RootOrder: 0
  m_LocalEulerAnglesHint: {x: 0, y: 0, z: 0}
--- !u!114 &11400000
MonoBehaviour:
  m_ObjectHideFlags: 1
  m_CorrespondingSourceObject: {fileID: 0}
  m_PrefabInternal: {fileID: 100100000}
  m_GameObject: {fileID: 100000}
  m_Enabled: 1
  m_EditorHideFlags: 0
  m_Script: {fileID: 11500000, guid: 4d0c51bb0b6e93049af5e88f93826e3b, type: 3}
  m_Name: 
  m_EditorClassIdentifier: 
  material: {fileID: 2100000, guid: 20891d9125289094f85e78a13664d79c, type: 2}
  mSprites:
  - name: bz_ironframe03_b01
    x: 674
    y: 145
    width: 133
    height: 46
    borderLeft: 0
    borderRight: 0
    borderTop: 0
    borderBottom: 0
    paddingLeft: 0
    paddingRight: 0
    paddingTop: 3
    paddingBottom: 0
  - name: bz_ironframe03_b01a
    x: 766
    y: 85
    width: 110
    height: 46
    borderLeft: 0
    borderRight: 0
    borderTop: 0
    borderBottom: 0
    paddingLeft: 0
    paddingRight: 0
    paddingTop: 3
    paddingBottom: 0
  - name: dwtb_001
    x: 878
    y: 85
    width: 136
    height: 136
    borderLeft: 0
    borderRight: 0
    borderTop: 0
    borderBottom: 0
    paddingLeft: 4
    paddingRight: 1
    paddingTop: 7
    paddingBottom: 2
  - name: dwtb_001t
    x: 646
    y: 360
    width: 216
    height: 43
    borderLeft: 0
    borderRight: 0
    borderTop: 0
    borderBottom: 0
    paddingLeft: 0
    paddingRight: 0
    paddingTop: 0
    paddingBottom: 0
  - name: dwtb_001x
    x: 169
    y: 1002
    width: 21
    height: 20
    borderLeft: 0
    borderRight: 0
    borderTop: 0
    borderBottom: 0
    paddingLeft: 0
    paddingRight: 0
    paddingTop: 0
    paddingBottom: 0
  - name: dwtb_002
    x: 314
    y: 300
    width: 136
    height: 141
    borderLeft: 0
    borderRight: 0
    borderTop: 0
    borderBottom: 0
    paddingLeft: 4
    paddingRight: 1
    paddingTop: 2
    paddingBottom: 2
  - name: dwtb_002t
    x: 646
    y: 405
    width: 216
    height: 43
    borderLeft: 0
    borderRight: 0
    borderTop: 0
    borderBottom: 0
    paddingLeft: 0
    paddingRight: 0
    paddingTop: 0
    paddingBottom: 0
  - name: dwtb_002x
    x: 192
    y: 1002
    width: 21
    height: 20
    borderLeft: 0
    borderRight: 0
    borderTop: 0
    borderBottom: 0
    paddingLeft: 0
    paddingRight: 0
    paddingTop: 0
    paddingBottom: 0
  - name: dwtb_003
    x: 452
    y: 299
    width: 136
    height: 141
    borderLeft: 0
    borderRight: 0
    borderTop: 0
    borderBottom: 0
    paddingLeft: 4
    paddingRight: 1
    paddingTop: 2
    paddingBottom: 2
  - name: dwtb_003t
    x: 646
    y: 450
    width: 216
    height: 43
    borderLeft: 0
    borderRight: 0
    borderTop: 0
    borderBottom: 0
    paddingLeft: 0
    paddingRight: 0
    paddingTop: 0
    paddingBottom: 0
  - name: dwtb_003x
    x: 215
    y: 1002
    width: 21
    height: 20
    borderLeft: 0
    borderRight: 0
    borderTop: 0
    borderBottom: 0
    paddingLeft: 0
    paddingRight: 0
    paddingTop: 0
    paddingBottom: 0
  - name: dwtb_004
    x: 628
    y: 2
    width: 136
    height: 141
    borderLeft: 0
    borderRight: 0
    borderTop: 0
    borderBottom: 0
    paddingLeft: 4
    paddingRight: 1
    paddingTop: 2
    paddingBottom: 2
  - name: dwtb_004t
    x: 646
    y: 495
    width: 216
    height: 43
    borderLeft: 0
    borderRight: 0
    borderTop: 0
    borderBottom: 0
    paddingLeft: 0
    paddingRight: 0
    paddingTop: 0
    paddingBottom: 0
  - name: dwtb_004x
    x: 238
    y: 1002
    width: 21
    height: 20
    borderLeft: 0
    borderRight: 0
    borderTop: 0
    borderBottom: 0
    paddingLeft: 0
    paddingRight: 0
    paddingTop: 0
    paddingBottom: 0
  - name: dwtb_005
    x: 348
    y: 2
    width: 140
    height: 143
    borderLeft: 0
    borderRight: 0
    borderTop: 0
    borderBottom: 0
    paddingLeft: 0
    paddingRight: 1
    paddingTop: 0
    paddingBottom: 2
  - name: dwtb_005t
    x: 646
    y: 540
    width: 216
    height: 43
    borderLeft: 0
    borderRight: 0
    borderTop: 0
    borderBottom: 0
    paddingLeft: 0
    paddingRight: 0
    paddingTop: 0
    paddingBottom: 0
  - name: dwtb_005x
    x: 261
    y: 1002
    width: 21
    height: 20
    borderLeft: 0
    borderRight: 0
    borderTop: 0
    borderBottom: 0
    paddingLeft: 0
    paddingRight: 0
    paddingTop: 0
    paddingBottom: 0
  - name: dwtb_006
    x: 876
    y: 223
    width: 136
    height: 136
    borderLeft: 0
    borderRight: 0
    borderTop: 0
    borderBottom: 0
    paddingLeft: 4
    paddingRight: 1
    paddingTop: 7
    paddingBottom: 2
  - name: dwtb_006t
    x: 543
    y: 732
    width: 216
    height: 43
    borderLeft: 0
    borderRight: 0
    borderTop: 0
    borderBottom: 0
    paddingLeft: 0
    paddingRight: 0
    paddingTop: 0
    paddingBottom: 0
  - name: dwtb_006x
    x: 284
    y: 1002
    width: 21
    height: 20
    borderLeft: 0
    borderRight: 0
    borderTop: 0
    borderBottom: 0
    paddingLeft: 0
    paddingRight: 0
    paddingTop: 0
    paddingBottom: 0
  - name: dwtb_007
    x: 490
    y: 2
    width: 136
    height: 143
    borderLeft: 0
    borderRight: 0
    borderTop: 0
    borderBottom: 0
    paddingLeft: 4
    paddingRight: 1
    paddingTop: 0
    paddingBottom: 2
  - name: dwtb_007t
    x: 761
    y: 585
    width: 216
    height: 43
    borderLeft: 0
    borderRight: 0
    borderTop: 0
    borderBottom: 0
    paddingLeft: 0
    paddingRight: 0
    paddingTop: 0
    paddingBottom: 0
  - name: dwtb_007x
    x: 388
    y: 798
    width: 21
    height: 20
    borderLeft: 0
    borderRight: 0
    borderTop: 0
    borderBottom: 0
    paddingLeft: 0
    paddingRight: 0
    paddingTop: 0
    paddingBottom: 0
  - name: goldlight_gd01
    x: 209
    y: 207
    width: 91
    height: 91
    borderLeft: 0
    borderRight: 0
    borderTop: 0
    borderBottom: 0
    paddingLeft: 0
    paddingRight: 0
    paddingTop: 0
    paddingBottom: 0
  - name: goldlight_gd02
    x: 302
    y: 207
    width: 91
    height: 91
    borderLeft: 0
    borderRight: 0
    borderTop: 0
    borderBottom: 0
    paddingLeft: 0
    paddingRight: 0
    paddingTop: 0
    paddingBottom: 0
  - name: goldlight_gd03
    x: 586
    y: 197
    width: 91
    height: 91
    borderLeft: 0
    borderRight: 0
    borderTop: 0
    borderBottom: 0
    paddingLeft: 0
    paddingRight: 0
    paddingTop: 0
    paddingBottom: 0
  - name: goldlight_gd04
    x: 864
    y: 361
    width: 91
    height: 91
    borderLeft: 0
    borderRight: 0
    borderTop: 0
    borderBottom: 0
    paddingLeft: 0
    paddingRight: 0
    paddingTop: 0
    paddingBottom: 0
  - name: goldlight_gd05
    x: 864
    y: 454
    width: 91
    height: 91
    borderLeft: 0
    borderRight: 0
    borderTop: 0
    borderBottom: 0
    paddingLeft: 0
    paddingRight: 0
    paddingTop: 0
    paddingBottom: 0
  - name: goldlight_gd06
    x: 543
    y: 546
    width: 91
    height: 91
    borderLeft: 0
    borderRight: 0
    borderTop: 0
    borderBottom: 0
    paddingLeft: 0
    paddingRight: 0
    paddingTop: 0
    paddingBottom: 0
  - name: goldlight_gd07
    x: 543
    y: 639
    width: 91
    height: 91
    borderLeft: 0
    borderRight: 0
    borderTop: 0
    borderBottom: 0
    paddingLeft: 0
    paddingRight: 0
    paddingTop: 0
    paddingBottom: 0
  - name: goldlight_gd08
    x: 636
    y: 630
    width: 91
    height: 91
    borderLeft: 0
    borderRight: 0
    borderTop: 0
    borderBottom: 0
    paddingLeft: 0
    paddingRight: 0
    paddingTop: 0
    paddingBottom: 0
  - name: icon_slbxg
    x: 903
    y: 630
    width: 91
    height: 76
    borderLeft: 0
    borderRight: 0
    borderTop: 0
    borderBottom: 0
    paddingLeft: 5
    paddingRight: 4
    paddingTop: 24
    paddingBottom: 0
  - name: icon_slbxk
    x: 395
    y: 197
    width: 89
    height: 100
    borderLeft: 0
    borderRight: 0
    borderTop: 0
    borderBottom: 0
    paddingLeft: 6
    paddingRight: 5
    paddingTop: 0
    paddingBottom: 0
  - name: icon_xzkg
    x: 486
    y: 197
    width: 98
    height: 98
    borderLeft: 0
    borderRight: 0
    borderTop: 0
    borderBottom: 0
    paddingLeft: 6
    paddingRight: 6
    paddingTop: 6
    paddingBottom: 6
  - name: icon_xzkk
    x: 679
    y: 193
    width: 110
    height: 110
    borderLeft: 0
    borderRight: 0
    borderTop: 0
    borderBottom: 0
    paddingLeft: 0
    paddingRight: 0
    paddingTop: 0
    paddingBottom: 0
  - name: jlicon_cyzj001
    x: 809
    y: 133
    width: 67
    height: 76
    borderLeft: 0
    borderRight: 0
    borderTop: 0
    borderBottom: 0
    paddingLeft: 0
    paddingRight: 0
    paddingTop: 0
    paddingBottom: 0
  - name: njt_jdtdb001
    x: 646
    y: 290
    width: 31
    height: 38
    borderLeft: 0
    borderRight: 0
    borderTop: 0
    borderBottom: 0
    paddingLeft: 0
    paddingRight: 0
    paddingTop: 0
    paddingBottom: 0
  - name: njt_jdtdb002
    x: 109
    y: 1002
    width: 58
    height: 20
    borderLeft: 25
    borderRight: 25
    borderTop: 0
    borderBottom: 0
    paddingLeft: 0
    paddingRight: 0
    paddingTop: 3
    paddingBottom: 3
  - name: njt_jdtdb003
    x: 236
    y: 551
    width: 46
    height: 26
    borderLeft: 2
    borderRight: 2
    borderTop: 0
    borderBottom: 0
    paddingLeft: 7
    paddingRight: 5
    paddingTop: 0
    paddingBottom: 0
  - name: nnssl_gkbg
    x: 766
    y: 2
    width: 251
    height: 81
    borderLeft: 0
    borderRight: 0
    borderTop: 0
    borderBottom: 0
    paddingLeft: 0
    paddingRight: 4
    paddingTop: 0
    paddingBottom: 0
  - name: nnssl_hb_b
    x: 307
    y: 988
    width: 168
    height: 31
    borderLeft: 0
    borderRight: 0
    borderTop: 0
    borderBottom: 0
    paddingLeft: 0
    paddingRight: 0
    paddingTop: 0
    paddingBottom: 0
  - name: nnssl_hb_bg
    x: 2
    y: 2
    width: 205
    height: 299
    borderLeft: 0
    borderRight: 0
    borderTop: 0
    borderBottom: 0
    paddingLeft: 0
    paddingRight: 0
    paddingTop: 0
    paddingBottom: 0
  - name: nnssl_hb_g
    x: 761
    y: 713
    width: 168
    height: 31
    borderLeft: 0
    borderRight: 0
    borderTop: 0
    borderBottom: 0
    paddingLeft: 0
    paddingRight: 0
    paddingTop: 0
    paddingBottom: 0
  - name: nnssl_hb_r
    x: 761
    y: 746
    width: 168
    height: 31
    borderLeft: 0
    borderRight: 0
    borderTop: 0
    borderBottom: 0
    paddingLeft: 0
    paddingRight: 0
    paddingTop: 0
    paddingBottom: 0
  - name: nnssl_sxbh
    x: 173
    y: 551
    width: 61
    height: 26
    borderLeft: 22
    borderRight: 22
    borderTop: 7
    borderBottom: 9
    paddingLeft: 0
    paddingRight: 0
    paddingTop: 0
    paddingBottom: 0
  - name: nnssl_xkp001a
    x: 510
    y: 442
    width: 58
    height: 102
    borderLeft: 23
    borderRight: 23
    borderTop: 19
    borderBottom: 19
    paddingLeft: 0
    paddingRight: 0
    paddingTop: 0
    paddingBottom: 0
  - name: nnssl_xkp004
    x: 348
    y: 147
    width: 161
    height: 48
    borderLeft: 0
    borderRight: 0
    borderTop: 0
    borderBottom: 0
    paddingLeft: 0
    paddingRight: 0
    paddingTop: 0
    paddingBottom: 0
  - name: nnssl_xkp005
    x: 511
    y: 147
    width: 161
    height: 48
    borderLeft: 0
    borderRight: 0
    borderTop: 0
    borderBottom: 0
    paddingLeft: 0
    paddingRight: 0
    paddingTop: 0
    paddingBottom: 0
  - name: nnssl_xkp005a
    x: 284
    y: 551
    width: 125
    height: 25
    borderLeft: 0
    borderRight: 0
    borderTop: 0
    borderBottom: 0
    paddingLeft: 0
    paddingRight: 0
    paddingTop: 0
    paddingBottom: 0
  - name: nxhmj_gwxs002
    x: 729
    y: 630
    width: 172
    height: 81
    borderLeft: 0
    borderRight: 0
    borderTop: 0
    borderBottom: 0
    paddingLeft: 0
    paddingRight: 0
    paddingTop: 0
    paddingBottom: 0
  - name: small_i1001
    x: 791
    y: 298
    width: 75
    height: 60
    borderLeft: 0
    borderRight: 0
    borderTop: 0
    borderBottom: 0
    paddingLeft: 4
    paddingRight: 6
    paddingTop: 12
    paddingBottom: 13
  - name: small_jthb
    x: 791
    y: 211
    width: 83
    height: 85
    borderLeft: 0
    borderRight: 0
    borderTop: 0
    borderBottom: 0
    paddingLeft: 2
    paddingRight: 0
    paddingTop: 0
    paddingBottom: 0
  - name: zxjt_btmdb001
    x: 570
    y: 442
    width: 68
    height: 62
    borderLeft: 15
    borderRight: 15
    borderTop: 15
    borderBottom: 15
    paddingLeft: 0
    paddingRight: 0
    paddingTop: 0
    paddingBottom: 0
  - name: zxjt_dt_001
    x: 109
    y: 838
    width: 194
    height: 162
    borderLeft: 0
    borderRight: 0
    borderTop: 0
    borderBottom: 0
    paddingLeft: 0
    paddingRight: 0
    paddingTop: 0
    paddingBottom: 0
  - name: zxjt_dt_002
    x: 176
    y: 579
    width: 210
    height: 244
    borderLeft: 0
    borderRight: 0
    borderTop: 0
    borderBottom: 0
    paddingLeft: 0
    paddingRight: 0
    paddingTop: 0
    paddingBottom: 0
  - name: zxjt_ghz_001
    x: 411
    y: 443
    width: 97
    height: 129
    borderLeft: 0
    borderRight: 0
    borderTop: 0
    borderBottom: 0
    paddingLeft: 0
    paddingRight: 0
    paddingTop: 0
    paddingBottom: 0
  - name: zxjt_ghz_002
    x: 173
    y: 303
    width: 139
    height: 246
    borderLeft: 0
    borderRight: 0
    borderTop: 0
    borderBottom: 0
    paddingLeft: 0
    paddingRight: 0
    paddingTop: 0
    paddingBottom: 0
  - name: zxjt_hd_001
    x: 388
    y: 578
    width: 153
    height: 218
    borderLeft: 0
    borderRight: 0
    borderTop: 0
    borderBottom: 0
    paddingLeft: 0
    paddingRight: 0
    paddingTop: 0
    paddingBottom: 0
  - name: zxjt_hd_002
    x: 2
    y: 582
    width: 172
    height: 254
    borderLeft: 0
    borderRight: 0
    borderTop: 0
    borderBottom: 0
    paddingLeft: 0
    paddingRight: 0
    paddingTop: 0
    paddingBottom: 0
  - name: zxjt_jtkj_001
    x: 314
    y: 443
    width: 82
    height: 104
    borderLeft: 0
    borderRight: 0
    borderTop: 0
    borderBottom: 0
    paddingLeft: 0
    paddingRight: 0
    paddingTop: 0
    paddingBottom: 0
  - name: zxjt_jtkj_002
    x: 2
    y: 838
    width: 105
    height: 171
    borderLeft: 0
    borderRight: 0
    borderTop: 0
    borderBottom: 0
    paddingLeft: 0
    paddingRight: 0
    paddingTop: 0
    paddingBottom: 0
  - name: zxjt_mb_001
    x: 477
    y: 798
    width: 167
    height: 211
    borderLeft: 0
    borderRight: 0
    borderTop: 0
    borderBottom: 0
    paddingLeft: 0
    paddingRight: 0
    paddingTop: 0
    paddingBottom: 0
  - name: zxjt_mb_002
    x: 2
    y: 303
    width: 169
    height: 277
    borderLeft: 0
    borderRight: 0
    borderTop: 0
    borderBottom: 0
    paddingLeft: 0
    paddingRight: 0
    paddingTop: 0
    paddingBottom: 0
  - name: zxjt_sd_001
    x: 305
    y: 825
    width: 142
    height: 161
    borderLeft: 0
    borderRight: 0
    borderTop: 0
    borderBottom: 0
    paddingLeft: 0
    paddingRight: 0
    paddingTop: 0
    paddingBottom: 0
  - name: zxjt_sd_002
    x: 209
    y: 2
    width: 137
    height: 203
    borderLeft: 0
    borderRight: 0
    borderTop: 0
    borderBottom: 0
    paddingLeft: 0
    paddingRight: 0
    paddingTop: 0
    paddingBottom: 0
  mPixelSize: 1
  mReplacement: {fileID: 0}
  mCoordinates: 0
  sprites: []
--- !u!1001 &100100000
Prefab:
  m_ObjectHideFlags: 1
  serializedVersion: 2
  m_Modification:
    m_TransformParent: {fileID: 0}
    m_Modifications: []
    m_RemovedComponents: []
  m_SourcePrefab: {fileID: 0}
  m_RootGameObject: {fileID: 100000}
  m_IsPrefabAsset: 1
