%YAML 1.1
%TAG !u! tag:unity3d.com,2011:
--- !u!1 &138252
GameObject:
  m_ObjectHideFlags: 0
  m_CorrespondingSourceObject: {fileID: 0}
  m_PrefabInternal: {fileID: 100100000}
  serializedVersion: 6
  m_Component:
  - component: {fileID: 438252}
  - component: {fileID: 11438252}
  m_Layer: 0
  m_Name: main_effect
  m_TagString: Untagged
  m_Icon: {fileID: 0}
  m_NavMeshLayer: 0
  m_StaticEditorFlags: 0
  m_IsActive: 1
--- !u!4 &438252
Transform:
  m_ObjectHideFlags: 1
  m_CorrespondingSourceObject: {fileID: 0}
  m_PrefabInternal: {fileID: 100100000}
  m_GameObject: {fileID: 138252}
  m_LocalRotation: {x: 0, y: 0, z: 0, w: 1}
  m_LocalPosition: {x: 0, y: 0, z: 0}
  m_LocalScale: {x: 1, y: 1, z: 1}
  m_Children: []
  m_Father: {fileID: 0}
  m_RootOrder: 0
  m_LocalEulerAnglesHint: {x: 0, y: 0, z: 0}
--- !u!114 &11438252
MonoBehaviour:
  m_ObjectHideFlags: 1
  m_CorrespondingSourceObject: {fileID: 0}
  m_PrefabInternal: {fileID: 100100000}
  m_GameObject: {fileID: 138252}
  m_Enabled: 1
  m_EditorHideFlags: 0
  m_Script: {fileID: 11500000, guid: 4d0c51bb0b6e93049af5e88f93826e3b, type: 3}
  m_Name: 
  m_EditorClassIdentifier: 
  material: {fileID: 2100000, guid: bd2cd5b15bdfc114da94ed8e8b4289d9, type: 2}
  mSprites:
  - name: cwjbtb_001
    x: 2
    y: 458
    width: 39
    height: 39
    borderLeft: 0
    borderRight: 0
    borderTop: 0
    borderBottom: 0
    paddingLeft: 0
    paddingRight: 0
    paddingTop: 0
    paddingBottom: 0
  - name: sjjtb_001
    x: 121
    y: 182
    width: 36
    height: 30
    borderLeft: 0
    borderRight: 0
    borderTop: 0
    borderBottom: 0
    paddingLeft: 2
    paddingRight: 1
    paddingTop: 5
    paddingBottom: 4
  - name: sjjtb_002
    x: 93
    y: 223
    width: 37
    height: 31
    borderLeft: 0
    borderRight: 0
    borderTop: 0
    borderBottom: 0
    paddingLeft: 1
    paddingRight: 1
    paddingTop: 5
    paddingBottom: 3
  - name: sjjtb_003
    x: 93
    y: 102
    width: 33
    height: 37
    borderLeft: 0
    borderRight: 0
    borderTop: 0
    borderBottom: 0
    paddingLeft: 4
    paddingRight: 2
    paddingTop: 2
    paddingBottom: 0
  - name: sjjtb_004
    x: 52
    y: 184
    width: 30
    height: 39
    borderLeft: 0
    borderRight: 0
    borderTop: 0
    borderBottom: 0
    paddingLeft: 7
    paddingRight: 2
    paddingTop: 0
    paddingBottom: 0
  - name: szsjbi_001
    x: 84
    y: 184
    width: 35
    height: 37
    borderLeft: 0
    borderRight: 0
    borderTop: 0
    borderBottom: 0
    paddingLeft: 2
    paddingRight: 2
    paddingTop: 2
    paddingBottom: 0
  - name: szsjbi_002
    x: 88
    y: 143
    width: 35
    height: 37
    borderLeft: 0
    borderRight: 0
    borderTop: 0
    borderBottom: 0
    paddingLeft: 0
    paddingRight: 4
    paddingTop: 0
    paddingBottom: 2
  - name: szsjbi_003
    x: 52
    y: 303
    width: 26
    height: 37
    borderLeft: 0
    borderRight: 0
    borderTop: 0
    borderBottom: 0
    paddingLeft: 7
    paddingRight: 6
    paddingTop: 0
    paddingBottom: 2
  - name: szsxtb_001
    x: 43
    y: 458
    width: 39
    height: 39
    borderLeft: 0
    borderRight: 0
    borderTop: 0
    borderBottom: 0
    paddingLeft: 0
    paddingRight: 0
    paddingTop: 0
    paddingBottom: 0
  - name: szsxtb_002
    x: 52
    y: 102
    width: 39
    height: 39
    borderLeft: 0
    borderRight: 0
    borderTop: 0
    borderBottom: 0
    paddingLeft: 0
    paddingRight: 0
    paddingTop: 0
    paddingBottom: 0
  - name: szsxtb_003
    x: 80
    y: 303
    width: 32
    height: 35
    borderLeft: 0
    borderRight: 0
    borderTop: 0
    borderBottom: 0
    paddingLeft: 4
    paddingRight: 3
    paddingTop: 2
    paddingBottom: 2
  - name: szzjsj_001
    x: 52
    y: 342
    width: 32
    height: 36
    borderLeft: 0
    borderRight: 0
    borderTop: 0
    borderBottom: 0
    paddingLeft: 4
    paddingRight: 3
    paddingTop: 2
    paddingBottom: 1
  - name: tstb_duzoa
    x: 2
    y: 2
    width: 55
    height: 54
    borderLeft: 0
    borderRight: 0
    borderTop: 0
    borderBottom: 0
    paddingLeft: 0
    paddingRight: 0
    paddingTop: 0
    paddingBottom: 1
  - name: zdbftb_attach
    x: 59
    y: 2
    width: 48
    height: 48
    borderLeft: 0
    borderRight: 0
    borderTop: 0
    borderBottom: 0
    paddingLeft: 0
    paddingRight: 0
    paddingTop: 0
    paddingBottom: 0
  - name: zdbftb_attach_b
    x: 109
    y: 2
    width: 48
    height: 48
    borderLeft: 0
    borderRight: 0
    borderTop: 0
    borderBottom: 0
    paddingLeft: 0
    paddingRight: 0
    paddingTop: 0
    paddingBottom: 0
  - name: zdbftb_crit
    x: 159
    y: 2
    width: 48
    height: 48
    borderLeft: 0
    borderRight: 0
    borderTop: 0
    borderBottom: 0
    paddingLeft: 0
    paddingRight: 0
    paddingTop: 0
    paddingBottom: 0
  - name: zdbftb_crit_b
    x: 209
    y: 2
    width: 48
    height: 48
    borderLeft: 0
    borderRight: 0
    borderTop: 0
    borderBottom: 0
    paddingLeft: 0
    paddingRight: 0
    paddingTop: 0
    paddingBottom: 0
  - name: zdbftb_dizzy
    x: 259
    y: 2
    width: 48
    height: 48
    borderLeft: 0
    borderRight: 0
    borderTop: 0
    borderBottom: 0
    paddingLeft: 0
    paddingRight: 0
    paddingTop: 0
    paddingBottom: 0
  - name: zdbftb_dizzy_b
    x: 309
    y: 2
    width: 48
    height: 48
    borderLeft: 0
    borderRight: 0
    borderTop: 0
    borderBottom: 0
    paddingLeft: 0
    paddingRight: 0
    paddingTop: 0
    paddingBottom: 0
  - name: zdbftb_dodge
    x: 359
    y: 2
    width: 48
    height: 48
    borderLeft: 0
    borderRight: 0
    borderTop: 0
    borderBottom: 0
    paddingLeft: 0
    paddingRight: 0
    paddingTop: 0
    paddingBottom: 0
  - name: zdbftb_dodge_b
    x: 409
    y: 2
    width: 48
    height: 48
    borderLeft: 0
    borderRight: 0
    borderTop: 0
    borderBottom: 0
    paddingLeft: 0
    paddingRight: 0
    paddingTop: 0
    paddingBottom: 0
  - name: zdbftb_fangs
    x: 459
    y: 2
    width: 48
    height: 48
    borderLeft: 0
    borderRight: 0
    borderTop: 0
    borderBottom: 0
    paddingLeft: 0
    paddingRight: 0
    paddingTop: 0
    paddingBottom: 0
  - name: zdbftb_fangs_b
    x: 59
    y: 52
    width: 48
    height: 48
    borderLeft: 0
    borderRight: 0
    borderTop: 0
    borderBottom: 0
    paddingLeft: 0
    paddingRight: 0
    paddingTop: 0
    paddingBottom: 0
  - name: zdbftb_heal
    x: 2
    y: 58
    width: 48
    height: 48
    borderLeft: 0
    borderRight: 0
    borderTop: 0
    borderBottom: 0
    paddingLeft: 0
    paddingRight: 0
    paddingTop: 0
    paddingBottom: 0
  - name: zdbftb_heal_b
    x: 109
    y: 52
    width: 48
    height: 48
    borderLeft: 0
    borderRight: 0
    borderTop: 0
    borderBottom: 0
    paddingLeft: 0
    paddingRight: 0
    paddingTop: 0
    paddingBottom: 0
  - name: zdbftb_hp
    x: 159
    y: 52
    width: 48
    height: 48
    borderLeft: 0
    borderRight: 0
    borderTop: 0
    borderBottom: 0
    paddingLeft: 0
    paddingRight: 0
    paddingTop: 0
    paddingBottom: 0
  - name: zdbftb_hp_b
    x: 209
    y: 52
    width: 48
    height: 48
    borderLeft: 0
    borderRight: 0
    borderTop: 0
    borderBottom: 0
    paddingLeft: 0
    paddingRight: 0
    paddingTop: 0
    paddingBottom: 0
  - name: zdbftb_immunity
    x: 259
    y: 52
    width: 48
    height: 48
    borderLeft: 0
    borderRight: 0
    borderTop: 0
    borderBottom: 0
    paddingLeft: 0
    paddingRight: 0
    paddingTop: 0
    paddingBottom: 0
  - name: zdbftb_immunity_b
    x: 309
    y: 52
    width: 48
    height: 48
    borderLeft: 0
    borderRight: 0
    borderTop: 0
    borderBottom: 0
    paddingLeft: 0
    paddingRight: 0
    paddingTop: 0
    paddingBottom: 0
  - name: zdbftb_injury
    x: 359
    y: 52
    width: 48
    height: 48
    borderLeft: 0
    borderRight: 0
    borderTop: 0
    borderBottom: 0
    paddingLeft: 0
    paddingRight: 0
    paddingTop: 0
    paddingBottom: 0
  - name: zdbftb_injury_b
    x: 409
    y: 52
    width: 48
    height: 48
    borderLeft: 0
    borderRight: 0
    borderTop: 0
    borderBottom: 0
    paddingLeft: 0
    paddingRight: 0
    paddingTop: 0
    paddingBottom: 0
  - name: zdbftb_parry
    x: 459
    y: 52
    width: 48
    height: 48
    borderLeft: 0
    borderRight: 0
    borderTop: 0
    borderBottom: 0
    paddingLeft: 0
    paddingRight: 0
    paddingTop: 0
    paddingBottom: 0
  - name: zdbftb_parry_b
    x: 2
    y: 108
    width: 48
    height: 48
    borderLeft: 0
    borderRight: 0
    borderTop: 0
    borderBottom: 0
    paddingLeft: 0
    paddingRight: 0
    paddingTop: 0
    paddingBottom: 0
  - name: zdbftb_renetration
    x: 2
    y: 158
    width: 48
    height: 48
    borderLeft: 0
    borderRight: 0
    borderTop: 0
    borderBottom: 0
    paddingLeft: 0
    paddingRight: 0
    paddingTop: 0
    paddingBottom: 0
  - name: zdbftb_renetration_b
    x: 2
    y: 208
    width: 48
    height: 48
    borderLeft: 0
    borderRight: 0
    borderTop: 0
    borderBottom: 0
    paddingLeft: 0
    paddingRight: 0
    paddingTop: 0
    paddingBottom: 0
  - name: zdbftb_resistance
    x: 2
    y: 258
    width: 48
    height: 48
    borderLeft: 0
    borderRight: 0
    borderTop: 0
    borderBottom: 0
    paddingLeft: 0
    paddingRight: 0
    paddingTop: 0
    paddingBottom: 0
  - name: zdbftb_resistance_b
    x: 2
    y: 308
    width: 48
    height: 48
    borderLeft: 0
    borderRight: 0
    borderTop: 0
    borderBottom: 0
    paddingLeft: 0
    paddingRight: 0
    paddingTop: 0
    paddingBottom: 0
  - name: zdbftb_speed
    x: 2
    y: 358
    width: 48
    height: 48
    borderLeft: 0
    borderRight: 0
    borderTop: 0
    borderBottom: 0
    paddingLeft: 0
    paddingRight: 0
    paddingTop: 0
    paddingBottom: 0
  - name: zdbftb_speed_b
    x: 2
    y: 408
    width: 48
    height: 48
    borderLeft: 0
    borderRight: 0
    borderTop: 0
    borderBottom: 0
    paddingLeft: 0
    paddingRight: 0
    paddingTop: 0
    paddingBottom: 0
  - name: zsdtb_001
    x: 87
    y: 264
    width: 38
    height: 31
    borderLeft: 0
    borderRight: 0
    borderTop: 0
    borderBottom: 0
    paddingLeft: 1
    paddingRight: 0
    paddingTop: 5
    paddingBottom: 3
  - name: zsdtb_002
    x: 52
    y: 143
    width: 34
    height: 39
    borderLeft: 0
    borderRight: 0
    borderTop: 0
    borderBottom: 0
    paddingLeft: 3
    paddingRight: 2
    paddingTop: 0
    paddingBottom: 0
  - name: zsdtb_003
    x: 52
    y: 264
    width: 33
    height: 37
    borderLeft: 0
    borderRight: 0
    borderTop: 0
    borderBottom: 0
    paddingLeft: 3
    paddingRight: 3
    paddingTop: 1
    paddingBottom: 1
  - name: zsdtb_004
    x: 52
    y: 225
    width: 39
    height: 37
    borderLeft: 0
    borderRight: 0
    borderTop: 0
    borderBottom: 0
    paddingLeft: 0
    paddingRight: 0
    paddingTop: 2
    paddingBottom: 0
  mPixelSize: 1
  mReplacement: {fileID: 0}
  mCoordinates: 0
  sprites: []
--- !u!1001 &100100000
Prefab:
  m_ObjectHideFlags: 1
  serializedVersion: 2
  m_Modification:
    m_TransformParent: {fileID: 0}
    m_Modifications: []
    m_RemovedComponents: []
  m_SourcePrefab: {fileID: 0}
  m_RootGameObject: {fileID: 138252}
  m_IsPrefabAsset: 1
