%YAML 1.1
%TAG !u! tag:unity3d.com,2011:
--- !u!1 &100000
GameObject:
  m_ObjectHideFlags: 0
  m_CorrespondingSourceObject: {fileID: 0}
  m_PrefabInternal: {fileID: 100100000}
  serializedVersion: 6
  m_Component:
  - component: {fileID: 400000}
  - component: {fileID: 11400000}
  m_Layer: 0
  m_Name: memory_gui
  m_TagString: Untagged
  m_Icon: {fileID: 0}
  m_NavMeshLayer: 0
  m_StaticEditorFlags: 0
  m_IsActive: 1
--- !u!4 &400000
Transform:
  m_ObjectHideFlags: 1
  m_CorrespondingSourceObject: {fileID: 0}
  m_PrefabInternal: {fileID: 100100000}
  m_GameObject: {fileID: 100000}
  m_LocalRotation: {x: 0, y: 0, z: 0, w: 1}
  m_LocalPosition: {x: 0, y: 0, z: 0}
  m_LocalScale: {x: 1, y: 1, z: 1}
  m_Children: []
  m_Father: {fileID: 0}
  m_RootOrder: 0
  m_LocalEulerAnglesHint: {x: 0, y: 0, z: 0}
--- !u!114 &11400000
MonoBehaviour:
  m_ObjectHideFlags: 1
  m_CorrespondingSourceObject: {fileID: 0}
  m_PrefabInternal: {fileID: 100100000}
  m_GameObject: {fileID: 100000}
  m_Enabled: 1
  m_EditorHideFlags: 0
  m_Script: {fileID: 11500000, guid: 4d0c51bb0b6e93049af5e88f93826e3b, type: 3}
  m_Name: 
  m_EditorClassIdentifier: 
  material: {fileID: 2100000, guid: ccea08aae7429634b81c7bb2b3fd5955, type: 2}
  mSprites:
  - name: cwdzzz_sjsj
    x: 2
    y: 133
    width: 667
    height: 129
    borderLeft: 502
    borderRight: 148
    borderTop: 0
    borderBottom: 0
    paddingLeft: 0
    paddingRight: 0
    paddingTop: 0
    paddingBottom: 0
  - name: cwdzzz_sx
    x: 2
    y: 264
    width: 477
    height: 114
    borderLeft: 305
    borderRight: 154
    borderTop: 0
    borderBottom: 0
    paddingLeft: 0
    paddingRight: 0
    paddingTop: 0
    paddingBottom: 0
  - name: cwdzzz_wy
    x: 2
    y: 2
    width: 766
    height: 129
    borderLeft: 600
    borderRight: 143
    borderTop: 0
    borderBottom: 0
    paddingLeft: 0
    paddingRight: 0
    paddingTop: 0
    paddingBottom: 0
  - name: cwtb_dk
    x: 671
    y: 133
    width: 93
    height: 95
    borderLeft: 22
    borderRight: 22
    borderTop: 22
    borderBottom: 22
    paddingLeft: 1
    paddingRight: 1
    paddingTop: 0
    paddingBottom: 0
  - name: cwzjm_zjzn
    x: 2
    y: 981
    width: 104
    height: 27
    borderLeft: 0
    borderRight: 0
    borderTop: 0
    borderBottom: 0
    paddingLeft: 0
    paddingRight: 0
    paddingTop: 0
    paddingBottom: 0
  - name: huiyi_autumn
    x: 669
    y: 446
    width: 78
    height: 14
    borderLeft: 0
    borderRight: 0
    borderTop: 0
    borderBottom: 0
    paddingLeft: 6
    paddingRight: 8
    paddingTop: 0
    paddingBottom: 0
  - name: huiyi_autumn_s.jpg
    x: 190
    y: 747
    width: 192
    height: 234
    borderLeft: 0
    borderRight: 0
    borderTop: 0
    borderBottom: 0
    paddingLeft: 0
    paddingRight: 0
    paddingTop: 0
    paddingBottom: 0
  - name: huiyi_bg
    x: 2
    y: 415
    width: 167
    height: 315
    borderLeft: 70
    borderRight: 70
    borderTop: 51
    borderBottom: 35
    paddingLeft: 0
    paddingRight: 0
    paddingTop: 0
    paddingBottom: 0
  - name: huiyi_deng1
    x: 964
    y: 48
    width: 22
    height: 22
    borderLeft: 0
    borderRight: 0
    borderTop: 0
    borderBottom: 0
    paddingLeft: 0
    paddingRight: 0
    paddingTop: 0
    paddingBottom: 0
  - name: huiyi_deng2
    x: 988
    y: 48
    width: 18
    height: 18
    borderLeft: 0
    borderRight: 0
    borderTop: 0
    borderBottom: 0
    paddingLeft: 2
    paddingRight: 2
    paddingTop: 2
    paddingBottom: 2
  - name: huiyi_lock
    x: 474
    y: 511
    width: 192
    height: 234
    borderLeft: 0
    borderRight: 0
    borderTop: 0
    borderBottom: 0
    paddingLeft: 0
    paddingRight: 0
    paddingTop: 0
    paddingBottom: 0
  - name: huiyi_paibei
    x: 2
    y: 734
    width: 186
    height: 245
    borderLeft: 0
    borderRight: 0
    borderTop: 0
    borderBottom: 0
    paddingLeft: 0
    paddingRight: 0
    paddingTop: 0
    paddingBottom: 0
  - name: huiyi_paimian
    x: 481
    y: 264
    width: 186
    height: 245
    borderLeft: 0
    borderRight: 0
    borderTop: 0
    borderBottom: 0
    paddingLeft: 0
    paddingRight: 0
    paddingTop: 0
    paddingBottom: 0
  - name: huiyi_spring
    x: 669
    y: 398
    width: 79
    height: 14
    borderLeft: 0
    borderRight: 0
    borderTop: 0
    borderBottom: 0
    paddingLeft: 7
    paddingRight: 7
    paddingTop: 0
    paddingBottom: 0
  - name: huiyi_spring_s.jpg
    x: 746
    y: 474
    width: 192
    height: 234
    borderLeft: 0
    borderRight: 0
    borderTop: 0
    borderBottom: 0
    paddingLeft: 0
    paddingRight: 0
    paddingTop: 0
    paddingBottom: 0
  - name: huiyi_summer
    x: 669
    y: 430
    width: 78
    height: 14
    borderLeft: 0
    borderRight: 0
    borderTop: 0
    borderBottom: 0
    paddingLeft: 8
    paddingRight: 6
    paddingTop: 0
    paddingBottom: 0
  - name: huiyi_summer_s.jpg
    x: 758
    y: 238
    width: 192
    height: 234
    borderLeft: 0
    borderRight: 0
    borderTop: 0
    borderBottom: 0
    paddingLeft: 0
    paddingRight: 0
    paddingTop: 0
    paddingBottom: 0
  - name: huiyi_winter
    x: 669
    y: 414
    width: 78
    height: 14
    borderLeft: 0
    borderRight: 0
    borderTop: 0
    borderBottom: 0
    paddingLeft: 5
    paddingRight: 9
    paddingTop: 0
    paddingBottom: 0
  - name: huiyi_winter_s.jpg
    x: 770
    y: 2
    width: 192
    height: 234
    borderLeft: 0
    borderRight: 0
    borderTop: 0
    borderBottom: 0
    paddingLeft: 0
    paddingRight: 0
    paddingTop: 0
    paddingBottom: 0
  - name: huiyi_zhizhen_biban
    x: 190
    y: 415
    width: 282
    height: 100
    borderLeft: 152
    borderRight: 151
    borderTop: 54
    borderBottom: 55
    paddingLeft: 0
    paddingRight: 0
    paddingTop: 0
    paddingBottom: 0
  - name: huiyi_zhizheng_top
    x: 2
    y: 380
    width: 406
    height: 33
    borderLeft: 211
    borderRight: 211
    borderTop: 0
    borderBottom: 0
    paddingLeft: 0
    paddingRight: 0
    paddingTop: 0
    paddingBottom: 0
  - name: refresh
    x: 964
    y: 2
    width: 42
    height: 44
    borderLeft: 0
    borderRight: 0
    borderTop: 0
    borderBottom: 0
    paddingLeft: 1
    paddingRight: 1
    paddingTop: 0
    paddingBottom: 0
  - name: small_hyl001
    x: 669
    y: 313
    width: 79
    height: 83
    borderLeft: 0
    borderRight: 0
    borderTop: 0
    borderBottom: 0
    paddingLeft: 2
    paddingRight: 4
    paddingTop: 0
    paddingBottom: 2
  - name: small_isxzl
    x: 671
    y: 230
    width: 85
    height: 81
    borderLeft: 0
    borderRight: 0
    borderTop: 0
    borderBottom: 0
    paddingLeft: 0
    paddingRight: 0
    paddingTop: 0
    paddingBottom: 4
  - name: xzrjm_pytsan006
    x: 668
    y: 591
    width: 71
    height: 71
    borderLeft: 0
    borderRight: 0
    borderTop: 0
    borderBottom: 0
    paddingLeft: 0
    paddingRight: 0
    paddingTop: 0
    paddingBottom: 0
  - name: xzrjm_pytsan007
    x: 668
    y: 518
    width: 71
    height: 71
    borderLeft: 0
    borderRight: 0
    borderTop: 0
    borderBottom: 0
    paddingLeft: 0
    paddingRight: 0
    paddingTop: 0
    paddingBottom: 0
  - name: zrjmtz_cwan001
    x: 940
    y: 684
    width: 73
    height: 48
    borderLeft: 0
    borderRight: 0
    borderTop: 0
    borderBottom: 0
    paddingLeft: 2
    paddingRight: 0
    paddingTop: 6
    paddingBottom: 0
  - name: zrjmtz_cwan002
    x: 940
    y: 578
    width: 73
    height: 54
    borderLeft: 0
    borderRight: 0
    borderTop: 0
    borderBottom: 0
    paddingLeft: 2
    paddingRight: 0
    paddingTop: 0
    paddingBottom: 0
  - name: zrjmtz_cwan003
    x: 940
    y: 634
    width: 73
    height: 48
    borderLeft: 0
    borderRight: 0
    borderTop: 0
    borderBottom: 0
    paddingLeft: 2
    paddingRight: 0
    paddingTop: 6
    paddingBottom: 0
  - name: zrjmtz_tjan001
    x: 940
    y: 526
    width: 75
    height: 50
    borderLeft: 0
    borderRight: 0
    borderTop: 0
    borderBottom: 0
    paddingLeft: 0
    paddingRight: 0
    paddingTop: 4
    paddingBottom: 0
  - name: zrjmtz_tjan002
    x: 669
    y: 462
    width: 75
    height: 54
    borderLeft: 0
    borderRight: 0
    borderTop: 0
    borderBottom: 0
    paddingLeft: 0
    paddingRight: 0
    paddingTop: 0
    paddingBottom: 0
  - name: zrjmtz_tjan003
    x: 940
    y: 474
    width: 75
    height: 50
    borderLeft: 0
    borderRight: 0
    borderTop: 0
    borderBottom: 0
    paddingLeft: 0
    paddingRight: 0
    paddingTop: 4
    paddingBottom: 0
  mPixelSize: 1
  mReplacement: {fileID: 0}
  mCoordinates: 0
  sprites: []
--- !u!1001 &100100000
Prefab:
  m_ObjectHideFlags: 1
  serializedVersion: 2
  m_Modification:
    m_TransformParent: {fileID: 0}
    m_Modifications: []
    m_RemovedComponents: []
  m_SourcePrefab: {fileID: 0}
  m_RootGameObject: {fileID: 100000}
  m_IsPrefabAsset: 1
