%YAML 1.1
%TAG !u! tag:unity3d.com,2011:
--- !u!1 &196016
GameObject:
  m_ObjectHideFlags: 0
  m_CorrespondingSourceObject: {fileID: 0}
  m_PrefabInternal: {fileID: 100100000}
  serializedVersion: 6
  m_Component:
  - component: {fileID: 496016}
  - component: {fileID: 11496016}
  m_Layer: 0
  m_Name: role_dress_gui
  m_TagString: Untagged
  m_Icon: {fileID: 0}
  m_NavMeshLayer: 0
  m_StaticEditorFlags: 0
  m_IsActive: 1
--- !u!4 &496016
Transform:
  m_ObjectHideFlags: 1
  m_CorrespondingSourceObject: {fileID: 0}
  m_PrefabInternal: {fileID: 100100000}
  m_GameObject: {fileID: 196016}
  m_LocalRotation: {x: 0, y: 0, z: 0, w: 1}
  m_LocalPosition: {x: 0, y: 0, z: 0}
  m_LocalScale: {x: 1, y: 1, z: 1}
  m_Children: []
  m_Father: {fileID: 0}
  m_RootOrder: 0
  m_LocalEulerAnglesHint: {x: 0, y: 0, z: 0}
--- !u!114 &11496016
MonoBehaviour:
  m_ObjectHideFlags: 1
  m_CorrespondingSourceObject: {fileID: 0}
  m_PrefabInternal: {fileID: 100100000}
  m_GameObject: {fileID: 196016}
  m_Enabled: 1
  m_EditorHideFlags: 0
  m_Script: {fileID: 11500000, guid: 4d0c51bb0b6e93049af5e88f93826e3b, type: 3}
  m_Name: 
  m_EditorClassIdentifier: 
  material: {fileID: 2100000, guid: 956a9b6fe69bd544497dd12df960e053, type: 2}
  mSprites:
  - name: ts_hbsz_001a
    x: 797
    y: 780
    width: 95
    height: 156
    borderLeft: 0
    borderRight: 0
    borderTop: 0
    borderBottom: 0
    paddingLeft: 31
    paddingRight: 29
    paddingTop: 4
    paddingBottom: 0
  - name: ts_hbsz_001b
    x: 131
    y: 800
    width: 119
    height: 154
    borderLeft: 0
    borderRight: 0
    borderTop: 0
    borderBottom: 0
    paddingLeft: 20
    paddingRight: 16
    paddingTop: 6
    paddingBottom: 0
  - name: ts_hbsz_002a
    x: 490
    y: 314
    width: 105
    height: 156
    borderLeft: 0
    borderRight: 0
    borderTop: 0
    borderBottom: 0
    paddingLeft: 23
    paddingRight: 27
    paddingTop: 4
    paddingBottom: 0
  - name: ts_hbsz_002b
    x: 896
    y: 630
    width: 97
    height: 154
    borderLeft: 0
    borderRight: 0
    borderTop: 0
    borderBottom: 0
    paddingLeft: 27
    paddingRight: 31
    paddingTop: 6
    paddingBottom: 0
  - name: ts_hbsz_002c
    x: 492
    y: 472
    width: 103
    height: 154
    borderLeft: 0
    borderRight: 0
    borderTop: 0
    borderBottom: 0
    paddingLeft: 24
    paddingRight: 28
    paddingTop: 6
    paddingBottom: 0
  - name: ts_hbsz_003a
    x: 379
    y: 318
    width: 109
    height: 158
    borderLeft: 0
    borderRight: 0
    borderTop: 0
    borderBottom: 0
    paddingLeft: 27
    paddingRight: 19
    paddingTop: 2
    paddingBottom: 0
  - name: ts_hbsz_003b
    x: 490
    y: 158
    width: 107
    height: 154
    borderLeft: 0
    borderRight: 0
    borderTop: 0
    borderBottom: 0
    paddingLeft: 24
    paddingRight: 24
    paddingTop: 6
    paddingBottom: 0
  - name: ts_hbsz_003c
    x: 805
    y: 158
    width: 101
    height: 154
    borderLeft: 0
    borderRight: 0
    borderTop: 0
    borderBottom: 0
    paddingLeft: 31
    paddingRight: 23
    paddingTop: 6
    paddingBottom: 0
  - name: ts_hbsz_004a
    x: 141
    y: 164
    width: 121
    height: 152
    borderLeft: 0
    borderRight: 0
    borderTop: 0
    borderBottom: 0
    paddingLeft: 16
    paddingRight: 18
    paddingTop: 8
    paddingBottom: 0
  - name: ts_hbsz_004b
    x: 805
    y: 2
    width: 101
    height: 154
    borderLeft: 0
    borderRight: 0
    borderTop: 0
    borderBottom: 0
    paddingLeft: 25
    paddingRight: 29
    paddingTop: 6
    paddingBottom: 0
  - name: ts_hbsz_004c
    x: 383
    y: 158
    width: 105
    height: 158
    borderLeft: 0
    borderRight: 0
    borderTop: 0
    borderBottom: 0
    paddingLeft: 30
    paddingRight: 20
    paddingTop: 2
    paddingBottom: 0
  - name: ts_hbsz_005a
    x: 597
    y: 468
    width: 99
    height: 158
    borderLeft: 0
    borderRight: 0
    borderTop: 0
    borderBottom: 0
    paddingLeft: 27
    paddingRight: 29
    paddingTop: 2
    paddingBottom: 0
  - name: ts_hbsz_005b
    x: 365
    y: 798
    width: 109
    height: 160
    borderLeft: 0
    borderRight: 0
    borderTop: 0
    borderBottom: 0
    paddingLeft: 22
    paddingRight: 24
    paddingTop: 0
    paddingBottom: 0
  - name: ts_hbsz_005c
    x: 401
    y: 2
    width: 107
    height: 154
    borderLeft: 0
    borderRight: 0
    borderTop: 0
    borderBottom: 0
    paddingLeft: 25
    paddingRight: 23
    paddingTop: 6
    paddingBottom: 0
  - name: ts_hbsz_006a
    x: 131
    y: 482
    width: 125
    height: 156
    borderLeft: 0
    borderRight: 0
    borderTop: 0
    borderBottom: 0
    paddingLeft: 14
    paddingRight: 16
    paddingTop: 4
    paddingBottom: 0
  - name: ts_hbsz_006b
    x: 476
    y: 792
    width: 109
    height: 158
    borderLeft: 0
    borderRight: 0
    borderTop: 0
    borderBottom: 0
    paddingLeft: 25
    paddingRight: 21
    paddingTop: 2
    paddingBottom: 0
  - name: ts_hbsz_006c
    x: 597
    y: 314
    width: 103
    height: 152
    borderLeft: 0
    borderRight: 0
    borderTop: 0
    borderBottom: 0
    paddingLeft: 27
    paddingRight: 25
    paddingTop: 8
    paddingBottom: 0
  - name: ts_hbsz_007a
    x: 131
    y: 640
    width: 117
    height: 158
    borderLeft: 0
    borderRight: 0
    borderTop: 0
    borderBottom: 0
    paddingLeft: 19
    paddingRight: 19
    paddingTop: 2
    paddingBottom: 0
  - name: ts_hbsz_007b
    x: 2
    y: 2
    width: 155
    height: 160
    borderLeft: 0
    borderRight: 0
    borderTop: 0
    borderBottom: 0
    paddingLeft: 0
    paddingRight: 0
    paddingTop: 0
    paddingBottom: 0
  - name: ts_hbsz_007c
    x: 801
    y: 468
    width: 101
    height: 154
    borderLeft: 0
    borderRight: 0
    borderTop: 0
    borderBottom: 0
    paddingLeft: 27
    paddingRight: 27
    paddingTop: 6
    paddingBottom: 0
  - name: ts_hbsz_008a
    x: 159
    y: 2
    width: 121
    height: 158
    borderLeft: 0
    borderRight: 0
    borderTop: 0
    borderBottom: 0
    paddingLeft: 19
    paddingRight: 15
    paddingTop: 2
    paddingBottom: 0
  - name: ts_hbsz_008b
    x: 908
    y: 158
    width: 99
    height: 154
    borderLeft: 0
    borderRight: 0
    borderTop: 0
    borderBottom: 0
    paddingLeft: 31
    paddingRight: 25
    paddingTop: 6
    paddingBottom: 0
  - name: ts_hbsz_008c
    x: 797
    y: 624
    width: 97
    height: 154
    borderLeft: 0
    borderRight: 0
    borderTop: 0
    borderBottom: 0
    paddingLeft: 31
    paddingRight: 27
    paddingTop: 6
    paddingBottom: 0
  - name: ts_hbsz_009a
    x: 2
    y: 482
    width: 127
    height: 156
    borderLeft: 0
    borderRight: 0
    borderTop: 0
    borderBottom: 0
    paddingLeft: 13
    paddingRight: 15
    paddingTop: 4
    paddingBottom: 0
  - name: ts_hbsz_009b
    x: 698
    y: 624
    width: 97
    height: 156
    borderLeft: 0
    borderRight: 0
    borderTop: 0
    borderBottom: 0
    paddingLeft: 37
    paddingRight: 21
    paddingTop: 4
    paddingBottom: 0
  - name: ts_hbsz_009c
    x: 702
    y: 312
    width: 101
    height: 154
    borderLeft: 0
    borderRight: 0
    borderTop: 0
    borderBottom: 0
    paddingLeft: 29
    paddingRight: 25
    paddingTop: 6
    paddingBottom: 0
  - name: ts_hbsz_010a
    x: 282
    y: 2
    width: 117
    height: 154
    borderLeft: 0
    borderRight: 0
    borderTop: 0
    borderBottom: 0
    paddingLeft: 17
    paddingRight: 21
    paddingTop: 6
    paddingBottom: 0
  - name: ts_hbsz_010b
    x: 264
    y: 162
    width: 117
    height: 154
    borderLeft: 0
    borderRight: 0
    borderTop: 0
    borderBottom: 0
    paddingLeft: 22
    paddingRight: 16
    paddingTop: 6
    paddingBottom: 0
  - name: ts_hbsz_010c
    x: 702
    y: 156
    width: 101
    height: 154
    borderLeft: 0
    borderRight: 0
    borderTop: 0
    borderBottom: 0
    paddingLeft: 29
    paddingRight: 25
    paddingTop: 6
    paddingBottom: 0
  - name: ts_hbsz_011a
    x: 369
    y: 636
    width: 113
    height: 154
    borderLeft: 0
    borderRight: 0
    borderTop: 0
    borderBottom: 0
    paddingLeft: 25
    paddingRight: 17
    paddingTop: 6
    paddingBottom: 0
  - name: ts_hbsz_011b
    x: 698
    y: 468
    width: 101
    height: 154
    borderLeft: 0
    borderRight: 0
    borderTop: 0
    borderBottom: 0
    paddingLeft: 28
    paddingRight: 26
    paddingTop: 6
    paddingBottom: 0
  - name: ts_hbsz_011c
    x: 617
    y: 2
    width: 93
    height: 152
    borderLeft: 0
    borderRight: 0
    borderTop: 0
    borderBottom: 0
    paddingLeft: 34
    paddingRight: 28
    paddingTop: 8
    paddingBottom: 0
  - name: ts_hbsz_012a
    x: 2
    y: 322
    width: 133
    height: 158
    borderLeft: 0
    borderRight: 0
    borderTop: 0
    borderBottom: 0
    paddingLeft: 17
    paddingRight: 5
    paddingTop: 2
    paddingBottom: 0
  - name: ts_hbsz_012b
    x: 2
    y: 796
    width: 127
    height: 154
    borderLeft: 0
    borderRight: 0
    borderTop: 0
    borderBottom: 0
    paddingLeft: 17
    paddingRight: 11
    paddingTop: 6
    paddingBottom: 0
  - name: ts_hbsz_012c
    x: 258
    y: 482
    width: 119
    height: 152
    borderLeft: 0
    borderRight: 0
    borderTop: 0
    borderBottom: 0
    paddingLeft: 19
    paddingRight: 17
    paddingTop: 8
    paddingBottom: 0
  - name: ts_hbsz_013a
    x: 260
    y: 318
    width: 117
    height: 154
    borderLeft: 0
    borderRight: 0
    borderTop: 0
    borderBottom: 0
    paddingLeft: 22
    paddingRight: 16
    paddingTop: 6
    paddingBottom: 0
  - name: ts_hbsz_013b
    x: 2
    y: 640
    width: 127
    height: 154
    borderLeft: 0
    borderRight: 0
    borderTop: 0
    borderBottom: 0
    paddingLeft: 14
    paddingRight: 14
    paddingTop: 6
    paddingBottom: 0
  - name: ts_hbsz_013c
    x: 908
    y: 2
    width: 99
    height: 154
    borderLeft: 0
    borderRight: 0
    borderTop: 0
    borderBottom: 0
    paddingLeft: 30
    paddingRight: 26
    paddingTop: 6
    paddingBottom: 0
  - name: ts_hbsz_014a
    x: 595
    y: 628
    width: 101
    height: 156
    borderLeft: 0
    borderRight: 0
    borderTop: 0
    borderBottom: 0
    paddingLeft: 24
    paddingRight: 30
    paddingTop: 4
    paddingBottom: 0
  - name: ts_hbsz_014b
    x: 252
    y: 798
    width: 111
    height: 158
    borderLeft: 0
    borderRight: 0
    borderTop: 0
    borderBottom: 0
    paddingLeft: 22
    paddingRight: 22
    paddingTop: 2
    paddingBottom: 0
  - name: ts_hbsz_014c
    x: 599
    y: 156
    width: 101
    height: 154
    borderLeft: 0
    borderRight: 0
    borderTop: 0
    borderBottom: 0
    paddingLeft: 29
    paddingRight: 25
    paddingTop: 6
    paddingBottom: 0
  - name: ts_hbsz_015a
    x: 250
    y: 640
    width: 117
    height: 156
    borderLeft: 0
    borderRight: 0
    borderTop: 0
    borderBottom: 0
    paddingLeft: 24
    paddingRight: 14
    paddingTop: 4
    paddingBottom: 0
  - name: ts_hbsz_015b
    x: 379
    y: 478
    width: 111
    height: 154
    borderLeft: 0
    borderRight: 0
    borderTop: 0
    borderBottom: 0
    paddingLeft: 22
    paddingRight: 22
    paddingTop: 6
    paddingBottom: 0
  - name: ts_hbsz_015c
    x: 904
    y: 314
    width: 99
    height: 156
    borderLeft: 0
    borderRight: 0
    borderTop: 0
    borderBottom: 0
    paddingLeft: 30
    paddingRight: 26
    paddingTop: 4
    paddingBottom: 0
  - name: ts_hbsz_016a
    x: 137
    y: 322
    width: 121
    height: 158
    borderLeft: 0
    borderRight: 0
    borderTop: 0
    borderBottom: 0
    paddingLeft: 12
    paddingRight: 22
    paddingTop: 2
    paddingBottom: 0
  - name: ts_hbsz_016b
    x: 904
    y: 472
    width: 97
    height: 156
    borderLeft: 0
    borderRight: 0
    borderTop: 0
    borderBottom: 0
    paddingLeft: 32
    paddingRight: 26
    paddingTop: 4
    paddingBottom: 0
  - name: ts_hbsz_016c
    x: 510
    y: 2
    width: 105
    height: 152
    borderLeft: 0
    borderRight: 0
    borderTop: 0
    borderBottom: 0
    paddingLeft: 26
    paddingRight: 24
    paddingTop: 8
    paddingBottom: 0
  - name: ts_hbsz_017a
    x: 587
    y: 792
    width: 109
    height: 154
    borderLeft: 0
    borderRight: 0
    borderTop: 0
    borderBottom: 0
    paddingLeft: 23
    paddingRight: 23
    paddingTop: 6
    paddingBottom: 0
  - name: ts_hbsz_017b
    x: 698
    y: 782
    width: 95
    height: 154
    borderLeft: 0
    borderRight: 0
    borderTop: 0
    borderBottom: 0
    paddingLeft: 31
    paddingRight: 29
    paddingTop: 6
    paddingBottom: 0
  - name: ts_hbsz_017c
    x: 712
    y: 2
    width: 91
    height: 152
    borderLeft: 0
    borderRight: 0
    borderTop: 0
    borderBottom: 0
    paddingLeft: 32
    paddingRight: 32
    paddingTop: 8
    paddingBottom: 0
  - name: ts_hbsz_018a
    x: 2
    y: 164
    width: 137
    height: 156
    borderLeft: 0
    borderRight: 0
    borderTop: 0
    borderBottom: 0
    paddingLeft: 8
    paddingRight: 10
    paddingTop: 4
    paddingBottom: 0
  - name: ts_hbsz_018b
    x: 484
    y: 634
    width: 109
    height: 156
    borderLeft: 0
    borderRight: 0
    borderTop: 0
    borderBottom: 0
    paddingLeft: 24
    paddingRight: 22
    paddingTop: 4
    paddingBottom: 0
  - name: ts_hbsz_019d
    x: 894
    y: 786
    width: 89
    height: 154
    borderLeft: 0
    borderRight: 0
    borderTop: 0
    borderBottom: 0
    paddingLeft: 32
    paddingRight: 34
    paddingTop: 6
    paddingBottom: 0
  mPixelSize: 1
  mReplacement: {fileID: 0}
  mCoordinates: 0
  sprites: []
--- !u!1001 &100100000
Prefab:
  m_ObjectHideFlags: 1
  serializedVersion: 2
  m_Modification:
    m_TransformParent: {fileID: 0}
    m_Modifications: []
    m_RemovedComponents: []
  m_SourcePrefab: {fileID: 0}
  m_RootGameObject: {fileID: 196016}
  m_IsPrefabAsset: 1
