%YAML 1.1
%TAG !u! tag:unity3d.com,2011:
--- !u!74 &7400000
AnimationClip:
  m_ObjectHideFlags: 0
  m_CorrespondingSourceObject: {fileID: 0}
  m_PrefabInternal: {fileID: 0}
  m_Name: atk2_a05
  serializedVersion: 6
  m_Legacy: 0
  m_Compressed: 0
  m_UseHighQualityCurve: 1
  m_RotationCurves:
  - curve:
      serializedVersion: 2
      m_Curve:
      - serializedVersion: 3
        time: 0
        value: {x: 0.35433117, y: -0.93512, z: -0.000000057727878, w: 0.0000001523504}
        inSlope: {x: 11.346082, y: 5.740027, z: -0.0000018485115, w: -0.00000093516996}
        outSlope: {x: 11.346082, y: 5.740027, z: -0.0000018485115, w: -0.00000093516996}
        tangentMode: 1702194273
        weightedMode: 0
        inWeight: {x: 0.33333334, y: 0.33333334, z: 0.33333334, w: 0.33333334}
        outWeight: {x: 0.33333334, y: 0.33333334, z: 0.33333334, w: 0.33333334}
      - serializedVersion: 3
        time: 0.016666668
        value: {x: 0.54343253, y: -0.83945286, z: -0.0000000885364, w: 0.00000013676423}
        inSlope: {x: 10.613895, y: 6.871066, z: -0.0000017292232, w: -0.000001119439}
        outSlope: {x: 10.613895, y: 6.871066, z: -0.0000017292232, w: -0.000001119439}
        tangentMode: 2400
        weightedMode: 0
        inWeight: {x: 0.33333334, y: 0.33333334, z: 0.33333334, w: 0.33333334}
        outWeight: {x: 0.33333334, y: 0.33333334, z: 0.33333334, w: 0.33333334}
      - serializedVersion: 3
        time: 0.033333335
        value: {x: 0.7081277, y: -0.70608443, z: -0.00000011536865, w: 0.00000011503576}
        inSlope: {x: 8.9276085, y: 8.953442, z: -0.0000014544919, w: -0.0000014587008}
        outSlope: {x: 8.9276085, y: 8.953442, z: -0.0000014544919, w: -0.0000014587008}
        tangentMode: 877202466
        weightedMode: 0
        inWeight: {x: 0.33333334, y: 0.33333334, z: 0.33333334, w: 0.33333334}
        outWeight: {x: 0.33333334, y: 0.33333334, z: 0.33333334, w: 0.33333334}
      - serializedVersion: 3
        time: 0.050000004
        value: {x: 0.8410195, y: -0.5410048, z: -0.00000013701947, w: 0.000000088140865}
        inSlope: {x: 6.8403673, y: 10.633702, z: -0.0000011144373, w: -0.0000017324501}
        outSlope: {x: 6.8403673, y: 10.633702, z: -0.0000011144373, w: -0.0000017324501}
        tangentMode: 880266022
        weightedMode: 0
        inWeight: {x: 0.33333334, y: 0.33333334, z: 0.33333334, w: 0.33333334}
        outWeight: {x: 0.33333334, y: 0.33333334, z: 0.33333334, w: 0.33333334}
      - serializedVersion: 3
        time: 0.06666667
        value: {x: 0.93613994, y: -0.35162768, z: -0.00000015251656, w: 0.000000057287423}
        inSlope: {x: 4.445919, y: 11.836391, z: -0.00000072433244, w: -0.000001928393}
        outSlope: {x: 4.445919, y: 11.836391, z: -0.00000072433244, w: -0.000001928393}
        tangentMode: 883399008
        weightedMode: 0
        inWeight: {x: 0.33333334, y: 0.33333334, z: 0.33333334, w: 0.33333334}
        outWeight: {x: 0.33333334, y: 0.33333334, z: 0.33333334, w: 0.33333334}
      - serializedVersion: 3
        time: 0.083333336
        value: {x: 0.9892168, y: -0.14645842, z: -0.00000016116388, w: 0.000000023861105}
        inSlope: {x: 1.8517954, y: 12.507486, z: -0.00000030169576, w: -0.0000020377283}
        outSlope: {x: 1.8517954, y: 12.507486, z: -0.00000030169576, w: -0.0000020377283}
        tangentMode: 885818276
        weightedMode: 0
        inWeight: {x: 0.33333334, y: 0.33333334, z: 0.33333334, w: 0.33333334}
        outWeight: {x: 0.33333334, y: 0.33333334, z: 0.33333334, w: 0.33333334}
      - serializedVersion: 3
        time: 0.1
        value: {x: 0.99786645, y: 0.06528852, z: -0.00000016257309, w: -0.0000000106368505}
        inSlope: {x: -0.82549465, y: 12.616844, z: 0.000003573799, w: -0.0000010752759}
        outSlope: {x: -0.82549465, y: 12.616844, z: 0.000003573799, w: -0.0000010752759}
        tangentMode: 887707424
        weightedMode: 0
        inWeight: {x: 0.33333334, y: 0.33333334, z: 0.33333334, w: 0.33333334}
        outWeight: {x: 0.33333334, y: 0.33333334, z: 0.33333334, w: 0.33333334}
      - serializedVersion: 3
        time: 0.11666667
        value: {x: 0.9617003, y: 0.27410302, z: -0.000000042037257, w: -0.000000011981423}
        inSlope: {x: -3.4657118, y: 12.159567, z: 0.0000037201403, w: -0.00000029802152}
        outSlope: {x: -3.4657118, y: 12.159567, z: 0.0000037201403, w: -0.00000029802152}
        tangentMode: 888995040
        weightedMode: 0
        inWeight: {x: 0.33333334, y: 0.33333334, z: 0.33333334, w: 0.33333334}
        outWeight: {x: 0.33333334, y: 0.33333334, z: 0.33333334, w: 0.33333334}
      - serializedVersion: 3
        time: 0.13333334
        value: {x: 0.8823427, y: 0.47060746, z: -0.000000038568423, w: -0.000000020570905}
        inSlope: {x: -5.950278, y: 11.156188, z: 0.00000026009496, w: -0.00000048765247}
        outSlope: {x: -5.950278, y: 11.156188, z: 0.00000026009496, w: -0.00000048765247}
        tangentMode: 889408868
        weightedMode: 0
        inWeight: {x: 0.33333334, y: 0.33333334, z: 0.33333334, w: 0.33333334}
        outWeight: {x: 0.33333334, y: 0.33333334, z: 0.33333334, w: 0.33333334}
      - serializedVersion: 3
        time: 0.15
        value: {x: 0.7633577, y: 0.645976, z: -0.000000033367424, w: -0.000000028236508}
        inSlope: {x: -8.167608, y: 9.651762, z: 0.00000035701743, w: -0.00000042189188}
        outSlope: {x: -8.167608, y: 9.651762, z: 0.00000035701743, w: -0.00000042189188}
        tangentMode: 889375842
        weightedMode: 0
        inWeight: {x: 0.33333334, y: 0.33333334, z: 0.33333334, w: 0.33333334}
        outWeight: {x: 0.33333334, y: 0.33333334, z: 0.33333334, w: 0.33333334}
      - serializedVersion: 3
        time: 0.16666667
        value: {x: 0.6100891, y: 0.7923328, z: -0.000000026667843, w: -0.000000034633967}
        inSlope: {x: -10.018116, y: 7.7138605, z: 0.00000043790573, w: -0.0000003371836}
        outSlope: {x: -10.018116, y: 7.7138605, z: 0.00000043790573, w: -0.0000003371836}
        tangentMode: 888776162
        weightedMode: 0
        inWeight: {x: 0.33333334, y: 0.33333334, z: 0.33333334, w: 0.33333334}
        outWeight: {x: 0.33333334, y: 0.33333334, z: 0.33333334, w: 0.33333334}
      - serializedVersion: 3
        time: 0.18333334
        value: {x: 0.42942053, y: 0.90310466, z: -0.000000018770567, w: -0.00000003947596}
        inSlope: {x: -11.418695, y: 5.429516, z: 0.00000049912705, w: -0.00000023733168}
        outSlope: {x: -11.418695, y: 5.429516, z: 0.00000049912705, w: -0.00000023733168}
        tangentMode: 887274594
        weightedMode: 0
        inWeight: {x: 0.33333334, y: 0.33333334, z: 0.33333334, w: 0.33333334}
        outWeight: {x: 0.33333334, y: 0.33333334, z: 0.33333334, w: 0.33333334}
      - serializedVersion: 3
        time: 0.2
        value: {x: 0.22946595, y: 0.97331667, z: -0.000000010030275, w: -0.00000004254502}
        inSlope: {x: -12.306445, y: 2.9013262, z: 0.0000005379318, w: -0.00000012682091}
        outSlope: {x: -12.306445, y: 2.9013262, z: 0.0000005379318, w: -0.00000012682091}
        tangentMode: 885071873
        weightedMode: 0
        inWeight: {x: 0.33333334, y: 0.33333334, z: 0.33333334, w: 0.33333334}
        outWeight: {x: 0.33333334, y: 0.33333334, z: 0.33333334, w: 0.33333334}
      - serializedVersion: 3
        time: 0.21666667
        value: {x: 0.019205708, y: 0.9998155, z: -8.395082e-10, w: -0.000000043703324}
        inSlope: {x: -12.641492, y: 0.24283469, z: 0.00000055257715, w: -0.000000010614658}
        outSlope: {x: -12.641492, y: 0.24283469, z: 0.00000055257715, w: -0.000000010614658}
        tangentMode: 882204420
        weightedMode: 0
        inWeight: {x: 0.33333334, y: 0.33333334, z: 0.33333334, w: 0.33333334}
        outWeight: {x: 0.33333334, y: 0.33333334, z: 0.33333334, w: 0.33333334}
      - serializedVersion: 3
        time: 0.23333333
        value: {x: -0.19191709, y: 0.98141116, z: 0.000000008388962, w: -0.000000042898844}
        inSlope: {x: -12.408791, y: -2.4265642, z: 0.0000005424054, w: 0.00000010606844}
        outSlope: {x: -12.408791, y: -2.4265642, z: 0.0000005424054, w: 0.00000010606844}
        tangentMode: 876650208
        weightedMode: 0
        inWeight: {x: 0.33333334, y: 0.33333334, z: 0.33333334, w: 0.33333334}
        outWeight: {x: 0.33333334, y: 0.33333334, z: 0.33333334, w: 0.33333334}
      - serializedVersion: 3
        time: 0.25
        value: {x: -0.3944206, y: 0.91893005, z: 0.000000017240671, w: -0.00000004016771}
        inSlope: {x: -11.618788, y: -4.986986, z: 0.0000005078733, w: 0.00000021798809}
        outSlope: {x: -11.618788, y: -4.986986, z: 0.0000005078733, w: 0.00000021798809}
        tangentMode: 864824197
        weightedMode: 0
        inWeight: {x: 0.33333334, y: 0.33333334, z: 0.33333334, w: 0.33333334}
        outWeight: {x: 0.33333334, y: 0.33333334, z: 0.33333334, w: 0.33333334}
      - serializedVersion: 3
        time: 0.26666668
        value: {x: -0.57921016, y: 0.8151782, z: 0.00000002531808, w: -0.00000003563257}
        inSlope: {x: -10.306971, y: -7.323433, z: 0.00000045053199, w: 0.0000003201174}
        outSlope: {x: -10.306971, y: -7.323433, z: 0.00000045053199, w: 0.0000003201174}
        tangentMode: -1283171993
        weightedMode: 0
        inWeight: {x: 0.33333334, y: 0.33333334, z: 0.33333334, w: 0.33333334}
        outWeight: {x: 0.33333334, y: 0.33333334, z: 0.33333334, w: 0.33333334}
      - serializedVersion: 3
        time: 0.28333336
        value: {x: -0.73798656, y: 0.6748154, z: 0.000000032258416, w: -0.00000002949712}
        inSlope: {x: -8.532248, y: -9.33097, z: 0.00000037295638, w: 0.0000004078696}
        outSlope: {x: -8.532248, y: -9.33097, z: 0.00000037295638, w: 0.0000004078696}
        tangentMode: -1269495104
        weightedMode: 0
        inWeight: {x: 0.33333334, y: 0.33333334, z: 0.33333334, w: 0.33333334}
        outWeight: {x: 0.33333334, y: 0.33333334, z: 0.33333334, w: 0.33333334}
      - serializedVersion: 3
        time: 0.30000004
        value: {x: -0.8636187, y: 0.5041456, z: 0.00000003774997, w: -0.000000022036906}
        inSlope: {x: -6.3743267, y: -10.919443, z: -0.000006519614, w: 0.0000027005578}
        outSlope: {x: -6.3743267, y: -10.919443, z: -0.000006519614, w: 0.0000027005578}
        tangentMode: -1263041561
        weightedMode: 0
        inWeight: {x: 0.33333334, y: 0.33333334, z: 0.33333334, w: 0.33333334}
        outWeight: {x: 0.33333334, y: 0.33333334, z: 0.33333334, w: 0.33333334}
      - serializedVersion: 3
        time: 0.31666672
        value: {x: -0.9504643, y: 0.3108337, z: -0.00000018506223, w: 0.00000006052155}
        inSlope: {x: -3.9301267, y: -12.017506, z: -0.0000069423004, w: 0.0000012660329}
        outSlope: {x: -3.9301267, y: -12.017506, z: -0.0000069423004, w: 0.0000012660329}
        tangentMode: -1258088539
        weightedMode: 0
        inWeight: {x: 0.33333334, y: 0.33333334, z: 0.33333334, w: 0.33333334}
        outWeight: {x: 0.33333334, y: 0.33333334, z: 0.33333334, w: 0.33333334}
      - serializedVersion: 3
        time: 0.3333334
        value: {x: -0.994623, y: 0.10356178, z: -0.00000019366024, w: 0.000000020164222}
        inSlope: {x: -1.3094176, y: -12.575837, z: -0.00000025495274, w: -0.0000024486058}
        outSlope: {x: -1.3094176, y: -12.575837, z: -0.00000025495274, w: -0.0000024486058}
        tangentMode: -1255521082
        weightedMode: 0
        inWeight: {x: 0.33333334, y: 0.33333334, z: 0.33333334, w: 0.33333334}
        outWeight: {x: 0.33333334, y: 0.33333334, z: 0.33333334, w: 0.33333334}
      - serializedVersion: 3
        time: 0.35000008
        value: {x: -0.9941116, y: -0.10836124, z: -0.00000019356067, w: -0.000000021098712}
        inSlope: {x: 1.3700999, y: -12.56937, z: 0.00000026676835, w: -0.0000024473468}
        outSlope: {x: 1.3700999, y: -12.56937, z: 0.00000026676835, w: -0.0000024473468}
        tangentMode: -1253031324
        weightedMode: 0
        inWeight: {x: 0.33333334, y: 0.33333334, z: 0.33333334, w: 0.33333334}
        outWeight: {x: 0.33333334, y: 0.33333334, z: 0.33333334, w: 0.33333334}
      - serializedVersion: 3
        time: 0.36666676
        value: {x: -0.948953, y: -0.3154176, z: -0.00000018476796, w: -0.00000006141407}
        inSlope: {x: 3.9880857, y: -11.998396, z: 0.00000077650884, w: -0.000002336174}
        outSlope: {x: 3.9880857, y: -11.998396, z: 0.00000077650884, w: -0.000002336174}
        tangentMode: -1251814235
        weightedMode: 0
        inWeight: {x: 0.33333334, y: 0.33333334, z: 0.33333334, w: 0.33333334}
        outWeight: {x: 0.33333334, y: 0.33333334, z: 0.33333334, w: 0.33333334}
      - serializedVersion: 3
        time: 0.38333344
        value: {x: -0.8611753, y: -0.5083081, z: -0.00000016767702, w: -0.00000009897124}
        inSlope: {x: 6.426959, y: -10.888551, z: 0.0000012513751, w: -0.000002120079}
        outSlope: {x: 6.426959, y: -10.888551, z: 0.0000012513751, w: -0.000002120079}
        tangentMode: 601509028
        weightedMode: 0
        inWeight: {x: 0.33333334, y: 0.33333334, z: 0.33333334, w: 0.33333334}
        outWeight: {x: 0.33333334, y: 0.33333334, z: 0.33333334, w: 0.33333334}
      - serializedVersion: 3
        time: 0.40000013
        value: {x: -0.7347208, y: -0.6783696, z: -0.00000014305542, w: -0.00000013208343}
        inSlope: {x: 8.577188, y: -9.289689, z: 0.0000016700401, w: -0.0000018087691}
        outSlope: {x: 8.577188, y: -9.289689, z: 0.0000016700401, w: -0.0000018087691}
        tangentMode: 1718159649
        weightedMode: 0
        inWeight: {x: 0.33333334, y: 0.33333334, z: 0.33333334, w: 0.33333334}
        outWeight: {x: 0.33333334, y: 0.33333334, z: 0.33333334, w: 0.33333334}
      - serializedVersion: 3
        time: 0.41666666
        value: {x: -0.57527024, y: -0.8179634, z: -0.000000112009246, w: -0.00000015926335}
        inSlope: {x: 9.567113, y: -8.375698, z: 0.0000018627853, w: -0.0000016308086}
        outSlope: {x: 9.567113, y: -8.375698, z: 0.0000018627853, w: -0.0000016308086}
        tangentMode: 1868852805
        weightedMode: 0
        inWeight: {x: 0.33333334, y: 0.33333334, z: 0.33333334, w: 0.33333334}
        outWeight: {x: 0.33333334, y: 0.33333334, z: 0.33333334, w: 0.33333334}
      m_PreInfinity: 2
      m_PostInfinity: 2
      m_RotationOrder: 4
    path: 
  m_CompressedRotationCurves: []
  m_EulerCurves: []
  m_PositionCurves:
  - curve:
      serializedVersion: 2
      m_Curve:
      - serializedVersion: 3
        time: 0
        value: {x: -0.003274, y: -0.00031773795, z: -6.1083994}
        inSlope: {x: 0.000006496534, y: -0.0000003119465, z: 20.773027}
        outSlope: {x: 0.000006496534, y: -0.0000003119465, z: 20.773027}
        tangentMode: 596377636
        weightedMode: 0
        inWeight: {x: 0.33333334, y: 0.33333334, z: 0.33333334}
        outWeight: {x: 0.33333334, y: 0.33333334, z: 0.33333334}
      - serializedVersion: 3
        time: 0.41666666
        value: {x: -0.0032712931, y: -0.00031786793, z: 2.547028}
        inSlope: {x: 0.000006496534, y: -0.0000003119465, z: 20.773027}
        outSlope: {x: 0.000006496534, y: -0.0000003119465, z: 20.773027}
        tangentMode: 68
        weightedMode: 0
        inWeight: {x: 0.33333334, y: 0.33333334, z: 0.33333334}
        outWeight: {x: 0.33333334, y: 0.33333334, z: 0.33333334}
      m_PreInfinity: 2
      m_PostInfinity: 2
      m_RotationOrder: 4
    path: 
  m_ScaleCurves:
  - curve:
      serializedVersion: 2
      m_Curve:
      - serializedVersion: 3
        time: 0
        value: {x: 0.15159884, y: 0.15159884, z: 0.61852515}
        inSlope: {x: 0.16085705, y: 0.16085705, z: 0.6562988}
        outSlope: {x: 0.16085705, y: 0.16085705, z: 0.6562988}
        tangentMode: 596377636
        weightedMode: 0
        inWeight: {x: 0.33333334, y: 0.33333334, z: 0.33333334}
        outWeight: {x: 0.33333334, y: 0.33333334, z: 0.33333334}
      - serializedVersion: 3
        time: 0.41666666
        value: {x: 0.21862261, y: 0.21862261, z: 0.891983}
        inSlope: {x: 0.16085705, y: 0.16085705, z: 0.6562988}
        outSlope: {x: 0.16085705, y: 0.16085705, z: 0.6562988}
        tangentMode: 68
        weightedMode: 0
        inWeight: {x: 0.33333334, y: 0.33333334, z: 0.33333334}
        outWeight: {x: 0.33333334, y: 0.33333334, z: 0.33333334}
      m_PreInfinity: 2
      m_PostInfinity: 2
      m_RotationOrder: 4
    path: 
  m_FloatCurves:
  - curve:
      serializedVersion: 2
      m_Curve:
      - serializedVersion: 3
        time: 0
        value: 0.5
        inSlope: 1.7647059
        outSlope: 1.7647059
        tangentMode: 34
        weightedMode: 0
        inWeight: 0.33333334
        outWeight: 0.33333334
      - serializedVersion: 3
        time: 0.28333333
        value: 1
        inSlope: -2.8676472
        outSlope: -2.8676472
        tangentMode: 34
        weightedMode: 0
        inWeight: 0.33333334
        outWeight: 0.33333334
      - serializedVersion: 3
        time: 0.41666666
        value: 0
        inSlope: -7.5000005
        outSlope: -7.5000005
        tangentMode: 34
        weightedMode: 0
        inWeight: 0.33333334
        outWeight: 0.33333334
      m_PreInfinity: 2
      m_PostInfinity: 2
      m_RotationOrder: 4
    attribute: material._TintColor.r
    path: 
    classID: 23
    script: {fileID: 0}
  - curve:
      serializedVersion: 2
      m_Curve:
      - serializedVersion: 3
        time: 0
        value: 0.5
        inSlope: 1.7647059
        outSlope: 1.7647059
        tangentMode: 34
        weightedMode: 0
        inWeight: 0.33333334
        outWeight: 0.33333334
      - serializedVersion: 3
        time: 0.28333333
        value: 1
        inSlope: -2.8676472
        outSlope: -2.8676472
        tangentMode: 34
        weightedMode: 0
        inWeight: 0.33333334
        outWeight: 0.33333334
      - serializedVersion: 3
        time: 0.41666666
        value: 0
        inSlope: -7.5000005
        outSlope: -7.5000005
        tangentMode: 34
        weightedMode: 0
        inWeight: 0.33333334
        outWeight: 0.33333334
      m_PreInfinity: 2
      m_PostInfinity: 2
      m_RotationOrder: 4
    attribute: material._TintColor.g
    path: 
    classID: 23
    script: {fileID: 0}
  - curve:
      serializedVersion: 2
      m_Curve:
      - serializedVersion: 3
        time: 0
        value: 0.5
        inSlope: 1.7647059
        outSlope: 1.7647059
        tangentMode: 34
        weightedMode: 0
        inWeight: 0.33333334
        outWeight: 0.33333334
      - serializedVersion: 3
        time: 0.28333333
        value: 1
        inSlope: -2.8676472
        outSlope: -2.8676472
        tangentMode: 34
        weightedMode: 0
        inWeight: 0.33333334
        outWeight: 0.33333334
      - serializedVersion: 3
        time: 0.41666666
        value: 0
        inSlope: -7.5000005
        outSlope: -7.5000005
        tangentMode: 34
        weightedMode: 0
        inWeight: 0.33333334
        outWeight: 0.33333334
      m_PreInfinity: 2
      m_PostInfinity: 2
      m_RotationOrder: 4
    attribute: material._TintColor.b
    path: 
    classID: 23
    script: {fileID: 0}
  - curve:
      serializedVersion: 2
      m_Curve:
      - serializedVersion: 3
        time: 0
        value: 0.5
        inSlope: 0.00692052
        outSlope: 0.00692052
        tangentMode: 34
        weightedMode: 0
        inWeight: 0.33333334
        outWeight: 0.33333334
      - serializedVersion: 3
        time: 0.28333333
        value: 0.5019608
        inSlope: 0.00346026
        outSlope: 0.00346026
        tangentMode: 34
        weightedMode: 0
        inWeight: 0.33333334
        outWeight: 0.33333334
      - serializedVersion: 3
        time: 0.41666666
        value: 0.5019608
        inSlope: 0
        outSlope: 0
        tangentMode: 34
        weightedMode: 0
        inWeight: 0.33333334
        outWeight: 0.33333334
      m_PreInfinity: 2
      m_PostInfinity: 2
      m_RotationOrder: 4
    attribute: material._TintColor.a
    path: 
    classID: 23
    script: {fileID: 0}
  m_PPtrCurves: []
  m_SampleRate: 60
  m_WrapMode: 0
  m_Bounds:
    m_Center: {x: 0, y: 0, z: 0}
    m_Extent: {x: 0, y: 0, z: 0}
  m_ClipBindingConstant:
    genericBindings:
    - serializedVersion: 2
      path: 0
      attribute: 1
      script: {fileID: 0}
      typeID: 4
      customType: 0
      isPPtrCurve: 0
    - serializedVersion: 2
      path: 0
      attribute: 2
      script: {fileID: 0}
      typeID: 4
      customType: 0
      isPPtrCurve: 0
    - serializedVersion: 2
      path: 0
      attribute: 3
      script: {fileID: 0}
      typeID: 4
      customType: 0
      isPPtrCurve: 0
    - serializedVersion: 2
      path: 0
      attribute: 1090582214
      script: {fileID: 0}
      typeID: 23
      customType: 22
      isPPtrCurve: 0
    - serializedVersion: 2
      path: 0
      attribute: 1359017670
      script: {fileID: 0}
      typeID: 23
      customType: 22
      isPPtrCurve: 0
    - serializedVersion: 2
      path: 0
      attribute: 1627453126
      script: {fileID: 0}
      typeID: 23
      customType: 22
      isPPtrCurve: 0
    - serializedVersion: 2
      path: 0
      attribute: 1895888582
      script: {fileID: 0}
      typeID: 23
      customType: 22
      isPPtrCurve: 0
    pptrCurveMapping: []
  m_AnimationClipSettings:
    serializedVersion: 2
    m_AdditiveReferencePoseClip: {fileID: 0}
    m_AdditiveReferencePoseTime: 0
    m_StartTime: 0
    m_StopTime: 0.41666666
    m_OrientationOffsetY: 0
    m_Level: 0
    m_CycleOffset: 0
    m_HasAdditiveReferencePose: 0
    m_LoopTime: 0
    m_LoopBlend: 0
    m_LoopBlendOrientation: 0
    m_LoopBlendPositionY: 0
    m_LoopBlendPositionXZ: 0
    m_KeepOriginalOrientation: 0
    m_KeepOriginalPositionY: 1
    m_KeepOriginalPositionXZ: 0
    m_HeightFromFeet: 0
    m_Mirror: 0
  m_EditorCurves:
  - curve:
      serializedVersion: 2
      m_Curve:
      - serializedVersion: 3
        time: 0
        value: -0.003274
        inSlope: 0.000006496534
        outSlope: 0.000006496534
        tangentMode: 34
        weightedMode: 0
        inWeight: 0.33333334
        outWeight: 0.33333334
      - serializedVersion: 3
        time: 0.41666666
        value: -0.0032712931
        inSlope: 0.000006496534
        outSlope: 0.000006496534
        tangentMode: 34
        weightedMode: 0
        inWeight: 0.33333334
        outWeight: 0.33333334
      m_PreInfinity: 2
      m_PostInfinity: 2
      m_RotationOrder: 4
    attribute: m_LocalPosition.x
    path: 
    classID: 4
    script: {fileID: 0}
  - curve:
      serializedVersion: 2
      m_Curve:
      - serializedVersion: 3
        time: 0
        value: -0.00031773795
        inSlope: -0.0000003119465
        outSlope: -0.0000003119465
        tangentMode: 34
        weightedMode: 0
        inWeight: 0.33333334
        outWeight: 0.33333334
      - serializedVersion: 3
        time: 0.41666666
        value: -0.00031786793
        inSlope: -0.0000003119465
        outSlope: -0.0000003119465
        tangentMode: 34
        weightedMode: 0
        inWeight: 0.33333334
        outWeight: 0.33333334
      m_PreInfinity: 2
      m_PostInfinity: 2
      m_RotationOrder: 4
    attribute: m_LocalPosition.y
    path: 
    classID: 4
    script: {fileID: 0}
  - curve:
      serializedVersion: 2
      m_Curve:
      - serializedVersion: 3
        time: 0
        value: -6.1083994
        inSlope: 20.773027
        outSlope: 20.773027
        tangentMode: 34
        weightedMode: 0
        inWeight: 0.33333334
        outWeight: 0.33333334
      - serializedVersion: 3
        time: 0.41666666
        value: 2.547028
        inSlope: 20.773027
        outSlope: 20.773027
        tangentMode: 34
        weightedMode: 0
        inWeight: 0.33333334
        outWeight: 0.33333334
      m_PreInfinity: 2
      m_PostInfinity: 2
      m_RotationOrder: 4
    attribute: m_LocalPosition.z
    path: 
    classID: 4
    script: {fileID: 0}
  - curve:
      serializedVersion: 2
      m_Curve:
      - serializedVersion: 3
        time: 0
        value: 0.35433117
        inSlope: 11.346082
        outSlope: 11.346082
        tangentMode: 0
        weightedMode: 0
        inWeight: 0.33333334
        outWeight: 0.33333334
      - serializedVersion: 3
        time: 0.016666668
        value: 0.54343253
        inSlope: 10.613895
        outSlope: 10.613895
        tangentMode: 0
        weightedMode: 0
        inWeight: 0.33333334
        outWeight: 0.33333334
      - serializedVersion: 3
        time: 0.033333335
        value: 0.7081277
        inSlope: 8.9276085
        outSlope: 8.9276085
        tangentMode: 0
        weightedMode: 0
        inWeight: 0.33333334
        outWeight: 0.33333334
      - serializedVersion: 3
        time: 0.050000004
        value: 0.8410195
        inSlope: 6.8403673
        outSlope: 6.8403673
        tangentMode: 0
        weightedMode: 0
        inWeight: 0.33333334
        outWeight: 0.33333334
      - serializedVersion: 3
        time: 0.06666667
        value: 0.93613994
        inSlope: 4.445919
        outSlope: 4.445919
        tangentMode: 0
        weightedMode: 0
        inWeight: 0.33333334
        outWeight: 0.33333334
      - serializedVersion: 3
        time: 0.083333336
        value: 0.9892168
        inSlope: 1.8517954
        outSlope: 1.8517954
        tangentMode: 0
        weightedMode: 0
        inWeight: 0.33333334
        outWeight: 0.33333334
      - serializedVersion: 3
        time: 0.1
        value: 0.99786645
        inSlope: -0.82549465
        outSlope: -0.82549465
        tangentMode: 0
        weightedMode: 0
        inWeight: 0.33333334
        outWeight: 0.33333334
      - serializedVersion: 3
        time: 0.11666667
        value: 0.9617003
        inSlope: -3.4657118
        outSlope: -3.4657118
        tangentMode: 0
        weightedMode: 0
        inWeight: 0.33333334
        outWeight: 0.33333334
      - serializedVersion: 3
        time: 0.13333334
        value: 0.8823427
        inSlope: -5.950278
        outSlope: -5.950278
        tangentMode: 0
        weightedMode: 0
        inWeight: 0.33333334
        outWeight: 0.33333334
      - serializedVersion: 3
        time: 0.15
        value: 0.7633577
        inSlope: -8.167608
        outSlope: -8.167608
        tangentMode: 0
        weightedMode: 0
        inWeight: 0.33333334
        outWeight: 0.33333334
      - serializedVersion: 3
        time: 0.16666667
        value: 0.6100891
        inSlope: -10.018116
        outSlope: -10.018116
        tangentMode: 0
        weightedMode: 0
        inWeight: 0.33333334
        outWeight: 0.33333334
      - serializedVersion: 3
        time: 0.18333334
        value: 0.42942053
        inSlope: -11.418695
        outSlope: -11.418695
        tangentMode: 0
        weightedMode: 0
        inWeight: 0.33333334
        outWeight: 0.33333334
      - serializedVersion: 3
        time: 0.2
        value: 0.22946595
        inSlope: -12.306445
        outSlope: -12.306445
        tangentMode: 0
        weightedMode: 0
        inWeight: 0.33333334
        outWeight: 0.33333334
      - serializedVersion: 3
        time: 0.21666667
        value: 0.019205708
        inSlope: -12.641492
        outSlope: -12.641492
        tangentMode: 0
        weightedMode: 0
        inWeight: 0.33333334
        outWeight: 0.33333334
      - serializedVersion: 3
        time: 0.23333333
        value: -0.19191709
        inSlope: -12.408791
        outSlope: -12.408791
        tangentMode: 0
        weightedMode: 0
        inWeight: 0.33333334
        outWeight: 0.33333334
      - serializedVersion: 3
        time: 0.25
        value: -0.3944206
        inSlope: -11.618788
        outSlope: -11.618788
        tangentMode: 0
        weightedMode: 0
        inWeight: 0.33333334
        outWeight: 0.33333334
      - serializedVersion: 3
        time: 0.26666668
        value: -0.57921016
        inSlope: -10.306971
        outSlope: -10.306971
        tangentMode: 0
        weightedMode: 0
        inWeight: 0.33333334
        outWeight: 0.33333334
      - serializedVersion: 3
        time: 0.28333336
        value: -0.73798656
        inSlope: -8.532248
        outSlope: -8.532248
        tangentMode: 0
        weightedMode: 0
        inWeight: 0.33333334
        outWeight: 0.33333334
      - serializedVersion: 3
        time: 0.30000004
        value: -0.8636187
        inSlope: -6.3743267
        outSlope: -6.3743267
        tangentMode: 0
        weightedMode: 0
        inWeight: 0.33333334
        outWeight: 0.33333334
      - serializedVersion: 3
        time: 0.31666672
        value: -0.9504643
        inSlope: -3.9301267
        outSlope: -3.9301267
        tangentMode: 0
        weightedMode: 0
        inWeight: 0.33333334
        outWeight: 0.33333334
      - serializedVersion: 3
        time: 0.3333334
        value: -0.994623
        inSlope: -1.3094176
        outSlope: -1.3094176
        tangentMode: 0
        weightedMode: 0
        inWeight: 0.33333334
        outWeight: 0.33333334
      - serializedVersion: 3
        time: 0.35000008
        value: -0.9941116
        inSlope: 1.3700999
        outSlope: 1.3700999
        tangentMode: 0
        weightedMode: 0
        inWeight: 0.33333334
        outWeight: 0.33333334
      - serializedVersion: 3
        time: 0.36666676
        value: -0.948953
        inSlope: 3.9880857
        outSlope: 3.9880857
        tangentMode: 0
        weightedMode: 0
        inWeight: 0.33333334
        outWeight: 0.33333334
      - serializedVersion: 3
        time: 0.38333344
        value: -0.8611753
        inSlope: 6.426959
        outSlope: 6.426959
        tangentMode: 0
        weightedMode: 0
        inWeight: 0.33333334
        outWeight: 0.33333334
      - serializedVersion: 3
        time: 0.40000013
        value: -0.7347208
        inSlope: 8.577188
        outSlope: 8.577188
        tangentMode: 0
        weightedMode: 0
        inWeight: 0.33333334
        outWeight: 0.33333334
      - serializedVersion: 3
        time: 0.41666666
        value: -0.57527024
        inSlope: 9.567113
        outSlope: 9.567113
        tangentMode: 0
        weightedMode: 0
        inWeight: 0.33333334
        outWeight: 0.33333334
      m_PreInfinity: 2
      m_PostInfinity: 2
      m_RotationOrder: 4
    attribute: m_LocalRotation.x
    path: 
    classID: 4
    script: {fileID: 0}
  - curve:
      serializedVersion: 2
      m_Curve:
      - serializedVersion: 3
        time: 0
        value: -0.93512
        inSlope: 5.740027
        outSlope: 5.740027
        tangentMode: 0
        weightedMode: 0
        inWeight: 0.33333334
        outWeight: 0.33333334
      - serializedVersion: 3
        time: 0.016666668
        value: -0.83945286
        inSlope: 6.871066
        outSlope: 6.871066
        tangentMode: 0
        weightedMode: 0
        inWeight: 0.33333334
        outWeight: 0.33333334
      - serializedVersion: 3
        time: 0.033333335
        value: -0.70608443
        inSlope: 8.953442
        outSlope: 8.953442
        tangentMode: 0
        weightedMode: 0
        inWeight: 0.33333334
        outWeight: 0.33333334
      - serializedVersion: 3
        time: 0.050000004
        value: -0.5410048
        inSlope: 10.633702
        outSlope: 10.633702
        tangentMode: 0
        weightedMode: 0
        inWeight: 0.33333334
        outWeight: 0.33333334
      - serializedVersion: 3
        time: 0.06666667
        value: -0.35162768
        inSlope: 11.836391
        outSlope: 11.836391
        tangentMode: 0
        weightedMode: 0
        inWeight: 0.33333334
        outWeight: 0.33333334
      - serializedVersion: 3
        time: 0.083333336
        value: -0.14645842
        inSlope: 12.507486
        outSlope: 12.507486
        tangentMode: 0
        weightedMode: 0
        inWeight: 0.33333334
        outWeight: 0.33333334
      - serializedVersion: 3
        time: 0.1
        value: 0.06528852
        inSlope: 12.616844
        outSlope: 12.616844
        tangentMode: 0
        weightedMode: 0
        inWeight: 0.33333334
        outWeight: 0.33333334
      - serializedVersion: 3
        time: 0.11666667
        value: 0.27410302
        inSlope: 12.159567
        outSlope: 12.159567
        tangentMode: 0
        weightedMode: 0
        inWeight: 0.33333334
        outWeight: 0.33333334
      - serializedVersion: 3
        time: 0.13333334
        value: 0.47060746
        inSlope: 11.156188
        outSlope: 11.156188
        tangentMode: 0
        weightedMode: 0
        inWeight: 0.33333334
        outWeight: 0.33333334
      - serializedVersion: 3
        time: 0.15
        value: 0.645976
        inSlope: 9.651762
        outSlope: 9.651762
        tangentMode: 0
        weightedMode: 0
        inWeight: 0.33333334
        outWeight: 0.33333334
      - serializedVersion: 3
        time: 0.16666667
        value: 0.7923328
        inSlope: 7.7138605
        outSlope: 7.7138605
        tangentMode: 0
        weightedMode: 0
        inWeight: 0.33333334
        outWeight: 0.33333334
      - serializedVersion: 3
        time: 0.18333334
        value: 0.90310466
        inSlope: 5.429516
        outSlope: 5.429516
        tangentMode: 0
        weightedMode: 0
        inWeight: 0.33333334
        outWeight: 0.33333334
      - serializedVersion: 3
        time: 0.2
        value: 0.97331667
        inSlope: 2.9013262
        outSlope: 2.9013262
        tangentMode: 0
        weightedMode: 0
        inWeight: 0.33333334
        outWeight: 0.33333334
      - serializedVersion: 3
        time: 0.21666667
        value: 0.9998155
        inSlope: 0.24283469
        outSlope: 0.24283469
        tangentMode: 0
        weightedMode: 0
        inWeight: 0.33333334
        outWeight: 0.33333334
      - serializedVersion: 3
        time: 0.23333333
        value: 0.98141116
        inSlope: -2.4265642
        outSlope: -2.4265642
        tangentMode: 0
        weightedMode: 0
        inWeight: 0.33333334
        outWeight: 0.33333334
      - serializedVersion: 3
        time: 0.25
        value: 0.91893005
        inSlope: -4.986986
        outSlope: -4.986986
        tangentMode: 0
        weightedMode: 0
        inWeight: 0.33333334
        outWeight: 0.33333334
      - serializedVersion: 3
        time: 0.26666668
        value: 0.8151782
        inSlope: -7.323433
        outSlope: -7.323433
        tangentMode: 0
        weightedMode: 0
        inWeight: 0.33333334
        outWeight: 0.33333334
      - serializedVersion: 3
        time: 0.28333336
        value: 0.6748154
        inSlope: -9.33097
        outSlope: -9.33097
        tangentMode: 0
        weightedMode: 0
        inWeight: 0.33333334
        outWeight: 0.33333334
      - serializedVersion: 3
        time: 0.30000004
        value: 0.5041456
        inSlope: -10.919443
        outSlope: -10.919443
        tangentMode: 0
        weightedMode: 0
        inWeight: 0.33333334
        outWeight: 0.33333334
      - serializedVersion: 3
        time: 0.31666672
        value: 0.3108337
        inSlope: -12.017506
        outSlope: -12.017506
        tangentMode: 0
        weightedMode: 0
        inWeight: 0.33333334
        outWeight: 0.33333334
      - serializedVersion: 3
        time: 0.3333334
        value: 0.10356178
        inSlope: -12.575837
        outSlope: -12.575837
        tangentMode: 0
        weightedMode: 0
        inWeight: 0.33333334
        outWeight: 0.33333334
      - serializedVersion: 3
        time: 0.35000008
        value: -0.10836124
        inSlope: -12.56937
        outSlope: -12.56937
        tangentMode: 0
        weightedMode: 0
        inWeight: 0.33333334
        outWeight: 0.33333334
      - serializedVersion: 3
        time: 0.36666676
        value: -0.3154176
        inSlope: -11.998396
        outSlope: -11.998396
        tangentMode: 0
        weightedMode: 0
        inWeight: 0.33333334
        outWeight: 0.33333334
      - serializedVersion: 3
        time: 0.38333344
        value: -0.5083081
        inSlope: -10.888551
        outSlope: -10.888551
        tangentMode: 0
        weightedMode: 0
        inWeight: 0.33333334
        outWeight: 0.33333334
      - serializedVersion: 3
        time: 0.40000013
        value: -0.6783696
        inSlope: -9.289689
        outSlope: -9.289689
        tangentMode: 0
        weightedMode: 0
        inWeight: 0.33333334
        outWeight: 0.33333334
      - serializedVersion: 3
        time: 0.41666666
        value: -0.8179634
        inSlope: -8.375698
        outSlope: -8.375698
        tangentMode: 0
        weightedMode: 0
        inWeight: 0.33333334
        outWeight: 0.33333334
      m_PreInfinity: 2
      m_PostInfinity: 2
      m_RotationOrder: 4
    attribute: m_LocalRotation.y
    path: 
    classID: 4
    script: {fileID: 0}
  - curve:
      serializedVersion: 2
      m_Curve:
      - serializedVersion: 3
        time: 0
        value: -0.000000057727878
        inSlope: -0.0000018485115
        outSlope: -0.0000018485115
        tangentMode: 0
        weightedMode: 0
        inWeight: 0.33333334
        outWeight: 0.33333334
      - serializedVersion: 3
        time: 0.016666668
        value: -0.0000000885364
        inSlope: -0.0000017292232
        outSlope: -0.0000017292232
        tangentMode: 0
        weightedMode: 0
        inWeight: 0.33333334
        outWeight: 0.33333334
      - serializedVersion: 3
        time: 0.033333335
        value: -0.00000011536865
        inSlope: -0.0000014544919
        outSlope: -0.0000014544919
        tangentMode: 0
        weightedMode: 0
        inWeight: 0.33333334
        outWeight: 0.33333334
      - serializedVersion: 3
        time: 0.050000004
        value: -0.00000013701947
        inSlope: -0.0000011144373
        outSlope: -0.0000011144373
        tangentMode: 0
        weightedMode: 0
        inWeight: 0.33333334
        outWeight: 0.33333334
      - serializedVersion: 3
        time: 0.06666667
        value: -0.00000015251656
        inSlope: -0.00000072433244
        outSlope: -0.00000072433244
        tangentMode: 0
        weightedMode: 0
        inWeight: 0.33333334
        outWeight: 0.33333334
      - serializedVersion: 3
        time: 0.083333336
        value: -0.00000016116388
        inSlope: -0.00000030169576
        outSlope: -0.00000030169576
        tangentMode: 0
        weightedMode: 0
        inWeight: 0.33333334
        outWeight: 0.33333334
      - serializedVersion: 3
        time: 0.1
        value: -0.00000016257309
        inSlope: 0.000003573799
        outSlope: 0.000003573799
        tangentMode: 0
        weightedMode: 0
        inWeight: 0.33333334
        outWeight: 0.33333334
      - serializedVersion: 3
        time: 0.11666667
        value: -0.000000042037257
        inSlope: 0.0000037201403
        outSlope: 0.0000037201403
        tangentMode: 0
        weightedMode: 0
        inWeight: 0.33333334
        outWeight: 0.33333334
      - serializedVersion: 3
        time: 0.13333334
        value: -0.000000038568423
        inSlope: 0.00000026009496
        outSlope: 0.00000026009496
        tangentMode: 0
        weightedMode: 0
        inWeight: 0.33333334
        outWeight: 0.33333334
      - serializedVersion: 3
        time: 0.15
        value: -0.000000033367424
        inSlope: 0.00000035701743
        outSlope: 0.00000035701743
        tangentMode: 0
        weightedMode: 0
        inWeight: 0.33333334
        outWeight: 0.33333334
      - serializedVersion: 3
        time: 0.16666667
        value: -0.000000026667843
        inSlope: 0.00000043790573
        outSlope: 0.00000043790573
        tangentMode: 0
        weightedMode: 0
        inWeight: 0.33333334
        outWeight: 0.33333334
      - serializedVersion: 3
        time: 0.18333334
        value: -0.000000018770567
        inSlope: 0.00000049912705
        outSlope: 0.00000049912705
        tangentMode: 0
        weightedMode: 0
        inWeight: 0.33333334
        outWeight: 0.33333334
      - serializedVersion: 3
        time: 0.2
        value: -0.000000010030275
        inSlope: 0.0000005379318
        outSlope: 0.0000005379318
        tangentMode: 0
        weightedMode: 0
        inWeight: 0.33333334
        outWeight: 0.33333334
      - serializedVersion: 3
        time: 0.21666667
        value: -8.395082e-10
        inSlope: 0.00000055257715
        outSlope: 0.00000055257715
        tangentMode: 0
        weightedMode: 0
        inWeight: 0.33333334
        outWeight: 0.33333334
      - serializedVersion: 3
        time: 0.23333333
        value: 0.000000008388962
        inSlope: 0.0000005424054
        outSlope: 0.0000005424054
        tangentMode: 0
        weightedMode: 0
        inWeight: 0.33333334
        outWeight: 0.33333334
      - serializedVersion: 3
        time: 0.25
        value: 0.000000017240671
        inSlope: 0.0000005078733
        outSlope: 0.0000005078733
        tangentMode: 0
        weightedMode: 0
        inWeight: 0.33333334
        outWeight: 0.33333334
      - serializedVersion: 3
        time: 0.26666668
        value: 0.00000002531808
        inSlope: 0.00000045053199
        outSlope: 0.00000045053199
        tangentMode: 0
        weightedMode: 0
        inWeight: 0.33333334
        outWeight: 0.33333334
      - serializedVersion: 3
        time: 0.28333336
        value: 0.000000032258416
        inSlope: 0.00000037295638
        outSlope: 0.00000037295638
        tangentMode: 0
        weightedMode: 0
        inWeight: 0.33333334
        outWeight: 0.33333334
      - serializedVersion: 3
        time: 0.30000004
        value: 0.00000003774997
        inSlope: -0.000006519614
        outSlope: -0.000006519614
        tangentMode: 0
        weightedMode: 0
        inWeight: 0.33333334
        outWeight: 0.33333334
      - serializedVersion: 3
        time: 0.31666672
        value: -0.00000018506223
        inSlope: -0.0000069423004
        outSlope: -0.0000069423004
        tangentMode: 0
        weightedMode: 0
        inWeight: 0.33333334
        outWeight: 0.33333334
      - serializedVersion: 3
        time: 0.3333334
        value: -0.00000019366024
        inSlope: -0.00000025495274
        outSlope: -0.00000025495274
        tangentMode: 0
        weightedMode: 0
        inWeight: 0.33333334
        outWeight: 0.33333334
      - serializedVersion: 3
        time: 0.35000008
        value: -0.00000019356067
        inSlope: 0.00000026676835
        outSlope: 0.00000026676835
        tangentMode: 0
        weightedMode: 0
        inWeight: 0.33333334
        outWeight: 0.33333334
      - serializedVersion: 3
        time: 0.36666676
        value: -0.00000018476796
        inSlope: 0.00000077650884
        outSlope: 0.00000077650884
        tangentMode: 0
        weightedMode: 0
        inWeight: 0.33333334
        outWeight: 0.33333334
      - serializedVersion: 3
        time: 0.38333344
        value: -0.00000016767702
        inSlope: 0.0000012513751
        outSlope: 0.0000012513751
        tangentMode: 0
        weightedMode: 0
        inWeight: 0.33333334
        outWeight: 0.33333334
      - serializedVersion: 3
        time: 0.40000013
        value: -0.00000014305542
        inSlope: 0.0000016700401
        outSlope: 0.0000016700401
        tangentMode: 0
        weightedMode: 0
        inWeight: 0.33333334
        outWeight: 0.33333334
      - serializedVersion: 3
        time: 0.41666666
        value: -0.000000112009246
        inSlope: 0.0000018627853
        outSlope: 0.0000018627853
        tangentMode: 0
        weightedMode: 0
        inWeight: 0.33333334
        outWeight: 0.33333334
      m_PreInfinity: 2
      m_PostInfinity: 2
      m_RotationOrder: 4
    attribute: m_LocalRotation.z
    path: 
    classID: 4
    script: {fileID: 0}
  - curve:
      serializedVersion: 2
      m_Curve:
      - serializedVersion: 3
        time: 0
        value: 0.0000001523504
        inSlope: -0.00000093516996
        outSlope: -0.00000093516996
        tangentMode: 0
        weightedMode: 0
        inWeight: 0.33333334
        outWeight: 0.33333334
      - serializedVersion: 3
        time: 0.016666668
        value: 0.00000013676423
        inSlope: -0.000001119439
        outSlope: -0.000001119439
        tangentMode: 0
        weightedMode: 0
        inWeight: 0.33333334
        outWeight: 0.33333334
      - serializedVersion: 3
        time: 0.033333335
        value: 0.00000011503576
        inSlope: -0.0000014587008
        outSlope: -0.0000014587008
        tangentMode: 0
        weightedMode: 0
        inWeight: 0.33333334
        outWeight: 0.33333334
      - serializedVersion: 3
        time: 0.050000004
        value: 0.000000088140865
        inSlope: -0.0000017324501
        outSlope: -0.0000017324501
        tangentMode: 0
        weightedMode: 0
        inWeight: 0.33333334
        outWeight: 0.33333334
      - serializedVersion: 3
        time: 0.06666667
        value: 0.000000057287423
        inSlope: -0.000001928393
        outSlope: -0.000001928393
        tangentMode: 0
        weightedMode: 0
        inWeight: 0.33333334
        outWeight: 0.33333334
      - serializedVersion: 3
        time: 0.083333336
        value: 0.000000023861105
        inSlope: -0.0000020377283
        outSlope: -0.0000020377283
        tangentMode: 0
        weightedMode: 0
        inWeight: 0.33333334
        outWeight: 0.33333334
      - serializedVersion: 3
        time: 0.1
        value: -0.0000000106368505
        inSlope: -0.0000010752759
        outSlope: -0.0000010752759
        tangentMode: 0
        weightedMode: 0
        inWeight: 0.33333334
        outWeight: 0.33333334
      - serializedVersion: 3
        time: 0.11666667
        value: -0.000000011981423
        inSlope: -0.00000029802152
        outSlope: -0.00000029802152
        tangentMode: 0
        weightedMode: 0
        inWeight: 0.33333334
        outWeight: 0.33333334
      - serializedVersion: 3
        time: 0.13333334
        value: -0.000000020570905
        inSlope: -0.00000048765247
        outSlope: -0.00000048765247
        tangentMode: 0
        weightedMode: 0
        inWeight: 0.33333334
        outWeight: 0.33333334
      - serializedVersion: 3
        time: 0.15
        value: -0.000000028236508
        inSlope: -0.00000042189188
        outSlope: -0.00000042189188
        tangentMode: 0
        weightedMode: 0
        inWeight: 0.33333334
        outWeight: 0.33333334
      - serializedVersion: 3
        time: 0.16666667
        value: -0.000000034633967
        inSlope: -0.0000003371836
        outSlope: -0.0000003371836
        tangentMode: 0
        weightedMode: 0
        inWeight: 0.33333334
        outWeight: 0.33333334
      - serializedVersion: 3
        time: 0.18333334
        value: -0.00000003947596
        inSlope: -0.00000023733168
        outSlope: -0.00000023733168
        tangentMode: 0
        weightedMode: 0
        inWeight: 0.33333334
        outWeight: 0.33333334
      - serializedVersion: 3
        time: 0.2
        value: -0.00000004254502
        inSlope: -0.00000012682091
        outSlope: -0.00000012682091
        tangentMode: 0
        weightedMode: 0
        inWeight: 0.33333334
        outWeight: 0.33333334
      - serializedVersion: 3
        time: 0.21666667
        value: -0.000000043703324
        inSlope: -0.000000010614658
        outSlope: -0.000000010614658
        tangentMode: 0
        weightedMode: 0
        inWeight: 0.33333334
        outWeight: 0.33333334
      - serializedVersion: 3
        time: 0.23333333
        value: -0.000000042898844
        inSlope: 0.00000010606844
        outSlope: 0.00000010606844
        tangentMode: 0
        weightedMode: 0
        inWeight: 0.33333334
        outWeight: 0.33333334
      - serializedVersion: 3
        time: 0.25
        value: -0.00000004016771
        inSlope: 0.00000021798809
        outSlope: 0.00000021798809
        tangentMode: 0
        weightedMode: 0
        inWeight: 0.33333334
        outWeight: 0.33333334
      - serializedVersion: 3
        time: 0.26666668
        value: -0.00000003563257
        inSlope: 0.0000003201174
        outSlope: 0.0000003201174
        tangentMode: 0
        weightedMode: 0
        inWeight: 0.33333334
        outWeight: 0.33333334
      - serializedVersion: 3
        time: 0.28333336
        value: -0.00000002949712
        inSlope: 0.0000004078696
        outSlope: 0.0000004078696
        tangentMode: 0
        weightedMode: 0
        inWeight: 0.33333334
        outWeight: 0.33333334
      - serializedVersion: 3
        time: 0.30000004
        value: -0.000000022036906
        inSlope: 0.0000027005578
        outSlope: 0.0000027005578
        tangentMode: 0
        weightedMode: 0
        inWeight: 0.33333334
        outWeight: 0.33333334
      - serializedVersion: 3
        time: 0.31666672
        value: 0.00000006052155
        inSlope: 0.0000012660329
        outSlope: 0.0000012660329
        tangentMode: 0
        weightedMode: 0
        inWeight: 0.33333334
        outWeight: 0.33333334
      - serializedVersion: 3
        time: 0.3333334
        value: 0.000000020164222
        inSlope: -0.0000024486058
        outSlope: -0.0000024486058
        tangentMode: 0
        weightedMode: 0
        inWeight: 0.33333334
        outWeight: 0.33333334
      - serializedVersion: 3
        time: 0.35000008
        value: -0.000000021098712
        inSlope: -0.0000024473468
        outSlope: -0.0000024473468
        tangentMode: 0
        weightedMode: 0
        inWeight: 0.33333334
        outWeight: 0.33333334
      - serializedVersion: 3
        time: 0.36666676
        value: -0.00000006141407
        inSlope: -0.000002336174
        outSlope: -0.000002336174
        tangentMode: 0
        weightedMode: 0
        inWeight: 0.33333334
        outWeight: 0.33333334
      - serializedVersion: 3
        time: 0.38333344
        value: -0.00000009897124
        inSlope: -0.000002120079
        outSlope: -0.000002120079
        tangentMode: 0
        weightedMode: 0
        inWeight: 0.33333334
        outWeight: 0.33333334
      - serializedVersion: 3
        time: 0.40000013
        value: -0.00000013208343
        inSlope: -0.0000018087691
        outSlope: -0.0000018087691
        tangentMode: 0
        weightedMode: 0
        inWeight: 0.33333334
        outWeight: 0.33333334
      - serializedVersion: 3
        time: 0.41666666
        value: -0.00000015926335
        inSlope: -0.0000016308086
        outSlope: -0.0000016308086
        tangentMode: 0
        weightedMode: 0
        inWeight: 0.33333334
        outWeight: 0.33333334
      m_PreInfinity: 2
      m_PostInfinity: 2
      m_RotationOrder: 4
    attribute: m_LocalRotation.w
    path: 
    classID: 4
    script: {fileID: 0}
  - curve:
      serializedVersion: 2
      m_Curve:
      - serializedVersion: 3
        time: 0
        value: 0.5
        inSlope: 1.7647059
        outSlope: 1.7647059
        tangentMode: 34
        weightedMode: 0
        inWeight: 0.33333334
        outWeight: 0.33333334
      - serializedVersion: 3
        time: 0.28333333
        value: 1
        inSlope: -2.8676472
        outSlope: -2.8676472
        tangentMode: 34
        weightedMode: 0
        inWeight: 0.33333334
        outWeight: 0.33333334
      - serializedVersion: 3
        time: 0.41666666
        value: 0
        inSlope: -7.5000005
        outSlope: -7.5000005
        tangentMode: 34
        weightedMode: 0
        inWeight: 0.33333334
        outWeight: 0.33333334
      m_PreInfinity: 2
      m_PostInfinity: 2
      m_RotationOrder: 4
    attribute: material._TintColor.r
    path: 
    classID: 23
    script: {fileID: 0}
  - curve:
      serializedVersion: 2
      m_Curve:
      - serializedVersion: 3
        time: 0
        value: 0.5
        inSlope: 1.7647059
        outSlope: 1.7647059
        tangentMode: 34
        weightedMode: 0
        inWeight: 0.33333334
        outWeight: 0.33333334
      - serializedVersion: 3
        time: 0.28333333
        value: 1
        inSlope: -2.8676472
        outSlope: -2.8676472
        tangentMode: 34
        weightedMode: 0
        inWeight: 0.33333334
        outWeight: 0.33333334
      - serializedVersion: 3
        time: 0.41666666
        value: 0
        inSlope: -7.5000005
        outSlope: -7.5000005
        tangentMode: 34
        weightedMode: 0
        inWeight: 0.33333334
        outWeight: 0.33333334
      m_PreInfinity: 2
      m_PostInfinity: 2
      m_RotationOrder: 4
    attribute: material._TintColor.g
    path: 
    classID: 23
    script: {fileID: 0}
  - curve:
      serializedVersion: 2
      m_Curve:
      - serializedVersion: 3
        time: 0
        value: 0.5
        inSlope: 1.7647059
        outSlope: 1.7647059
        tangentMode: 34
        weightedMode: 0
        inWeight: 0.33333334
        outWeight: 0.33333334
      - serializedVersion: 3
        time: 0.28333333
        value: 1
        inSlope: -2.8676472
        outSlope: -2.8676472
        tangentMode: 34
        weightedMode: 0
        inWeight: 0.33333334
        outWeight: 0.33333334
      - serializedVersion: 3
        time: 0.41666666
        value: 0
        inSlope: -7.5000005
        outSlope: -7.5000005
        tangentMode: 34
        weightedMode: 0
        inWeight: 0.33333334
        outWeight: 0.33333334
      m_PreInfinity: 2
      m_PostInfinity: 2
      m_RotationOrder: 4
    attribute: material._TintColor.b
    path: 
    classID: 23
    script: {fileID: 0}
  - curve:
      serializedVersion: 2
      m_Curve:
      - serializedVersion: 3
        time: 0
        value: 0.5
        inSlope: 0.00692052
        outSlope: 0.00692052
        tangentMode: 34
        weightedMode: 0
        inWeight: 0.33333334
        outWeight: 0.33333334
      - serializedVersion: 3
        time: 0.28333333
        value: 0.5019608
        inSlope: 0.00346026
        outSlope: 0.00346026
        tangentMode: 34
        weightedMode: 0
        inWeight: 0.33333334
        outWeight: 0.33333334
      - serializedVersion: 3
        time: 0.41666666
        value: 0.5019608
        inSlope: 0
        outSlope: 0
        tangentMode: 34
        weightedMode: 0
        inWeight: 0.33333334
        outWeight: 0.33333334
      m_PreInfinity: 2
      m_PostInfinity: 2
      m_RotationOrder: 4
    attribute: material._TintColor.a
    path: 
    classID: 23
    script: {fileID: 0}
  - curve:
      serializedVersion: 2
      m_Curve:
      - serializedVersion: 3
        time: 0
        value: 0.15159884
        inSlope: 0.16085705
        outSlope: 0.16085705
        tangentMode: 34
        weightedMode: 0
        inWeight: 0.33333334
        outWeight: 0.33333334
      - serializedVersion: 3
        time: 0.41666666
        value: 0.21862261
        inSlope: 0.16085705
        outSlope: 0.16085705
        tangentMode: 34
        weightedMode: 0
        inWeight: 0.33333334
        outWeight: 0.33333334
      m_PreInfinity: 2
      m_PostInfinity: 2
      m_RotationOrder: 4
    attribute: m_LocalScale.x
    path: 
    classID: 4
    script: {fileID: 0}
  - curve:
      serializedVersion: 2
      m_Curve:
      - serializedVersion: 3
        time: 0
        value: 0.15159884
        inSlope: 0.16085705
        outSlope: 0.16085705
        tangentMode: 34
        weightedMode: 0
        inWeight: 0.33333334
        outWeight: 0.33333334
      - serializedVersion: 3
        time: 0.41666666
        value: 0.21862261
        inSlope: 0.16085705
        outSlope: 0.16085705
        tangentMode: 34
        weightedMode: 0
        inWeight: 0.33333334
        outWeight: 0.33333334
      m_PreInfinity: 2
      m_PostInfinity: 2
      m_RotationOrder: 4
    attribute: m_LocalScale.y
    path: 
    classID: 4
    script: {fileID: 0}
  - curve:
      serializedVersion: 2
      m_Curve:
      - serializedVersion: 3
        time: 0
        value: 0.61852515
        inSlope: 0.6562988
        outSlope: 0.6562988
        tangentMode: 34
        weightedMode: 0
        inWeight: 0.33333334
        outWeight: 0.33333334
      - serializedVersion: 3
        time: 0.41666666
        value: 0.891983
        inSlope: 0.6562988
        outSlope: 0.6562988
        tangentMode: 34
        weightedMode: 0
        inWeight: 0.33333334
        outWeight: 0.33333334
      m_PreInfinity: 2
      m_PostInfinity: 2
      m_RotationOrder: 4
    attribute: m_LocalScale.z
    path: 
    classID: 4
    script: {fileID: 0}
  m_EulerEditorCurves:
  - curve:
      serializedVersion: 2
      m_Curve:
      - serializedVersion: 3
        time: 0
        value: 0
        inSlope: 0
        outSlope: 0
        tangentMode: 34
        weightedMode: 0
        inWeight: 0.33333334
        outWeight: 0.33333334
      - serializedVersion: 3
        time: 0.41666666
        value: 0
        inSlope: 0
        outSlope: 0
        tangentMode: 34
        weightedMode: 0
        inWeight: 0.33333334
        outWeight: 0.33333334
      m_PreInfinity: 2
      m_PostInfinity: 2
      m_RotationOrder: 4
    attribute: localEulerAnglesBaked.x
    path: 
    classID: 4
    script: {fileID: 0}
  - curve:
      serializedVersion: 2
      m_Curve:
      - serializedVersion: 3
        time: 0
        value: 180.00002
        inSlope: -0.00007324219
        outSlope: -0.00007324219
        tangentMode: 34
        weightedMode: 0
        inWeight: 0.33333334
        outWeight: 0.33333334
      - serializedVersion: 3
        time: 0.41666666
        value: 179.99998
        inSlope: -0.00007324219
        outSlope: -0.00007324219
        tangentMode: 34
        weightedMode: 0
        inWeight: 0.33333334
        outWeight: 0.33333334
      m_PreInfinity: 2
      m_PostInfinity: 2
      m_RotationOrder: 4
    attribute: localEulerAnglesBaked.y
    path: 
    classID: 4
    script: {fileID: 0}
  - curve:
      serializedVersion: 2
      m_Curve:
      - serializedVersion: 3
        time: 0
        value: 318.4951
        inSlope: -1459.8191
        outSlope: -1459.8191
        tangentMode: 34
        weightedMode: 0
        inWeight: 0.33333334
        outWeight: 0.33333334
      - serializedVersion: 3
        time: 0.41666666
        value: -289.76288
        inSlope: -1459.8191
        outSlope: -1459.8191
        tangentMode: 34
        weightedMode: 0
        inWeight: 0.33333334
        outWeight: 0.33333334
      m_PreInfinity: 2
      m_PostInfinity: 2
      m_RotationOrder: 4
    attribute: localEulerAnglesBaked.z
    path: 
    classID: 4
    script: {fileID: 0}
  m_HasGenericRootTransform: 1
  m_HasMotionFloatCurves: 0
  m_GenerateMotionCurves: 0
  m_Events: []
