%YAML 1.1
%TAG !u! tag:unity3d.com,2011:
--- !u!21 &2100000
Material:
  serializedVersion: 6
  m_ObjectHideFlags: 0
  m_CorrespondingSourceObject: {fileID: 0}
  m_PrefabInternal: {fileID: 0}
  m_Name: tsx_bot142
  m_Shader: {fileID: 4800000, guid: 948af6d93870b3b43841bc359ddf7568, type: 3}
  m_ShaderKeywords: 
  m_LightmapFlags: 4
  m_EnableInstancingVariants: 0
  m_DoubleSidedGI: 0
  m_CustomRenderQueue: -1
  stringTagMap: {}
  disabledShaderPasses: []
  m_SavedProperties:
    serializedVersion: 3
    m_TexEnvs:
    - _LightTex:
        m_Texture: {fileID: 2800000, guid: d8eb7b9be27f44447b0eae80d5f7fc7a, type: 3}
        m_Scale: {x: 1, y: 1}
        m_Offset: {x: 0, y: 0}
    - _MainTex:
        m_Texture: {fileID: 2800000, guid: bce2c4488f00f7b48a544c5d0e6d8e2d, type: 3}
        m_Scale: {x: 1, y: 1}
        m_Offset: {x: 0, y: 0}
    m_Floats:
    - _alpha: 1.1
    - _back: 2
    - _bh: 0
    - _level: 0.5
    - _light: 1
    - _uv_x: 2
    - _uv_y: 2
    - _while: 0
    m_Colors:
    - _BackColor: {r: 0.8308824, g: 0.17717347, b: 0.17717347, a: 0}
    - _Color: {r: 0.588, g: 0.588, b: 0.588, a: 1}
