%YAML 1.1
%TAG !u! tag:unity3d.com,2011:
--- !u!29 &1
OcclusionCullingSettings:
  m_ObjectHideFlags: 0
  serializedVersion: 2
  m_OcclusionBakeSettings:
    smallestOccluder: 5
    smallestHole: 0.25
    backfaceThreshold: 100
  m_SceneGUID: 00000000000000000000000000000000
  m_OcclusionCullingData: {fileID: 0}
--- !u!104 &2
RenderSettings:
  m_ObjectHideFlags: 0
  serializedVersion: 9
  m_Fog: 1
  m_FogColor: {r: 0.6226415, g: 0.27406007, b: 0.13803844, a: 1}
  m_FogMode: 3
  m_FogDensity: 0.008
  m_LinearFogStart: 0
  m_LinearFogEnd: 300
  m_AmbientSkyColor: {r: 0.5653702, g: 0.7107363, b: 0.990566, a: 1}
  m_AmbientEquatorColor: {r: 0.5605536, g: 0.63948214, b: 0.7941176, a: 1}
  m_AmbientGroundColor: {r: 0.5605536, g: 0.63948214, b: 0.7941176, a: 1}
  m_AmbientIntensity: 1
  m_AmbientMode: 3
  m_SubtractiveShadowColor: {r: 0.42, g: 0.478, b: 0.627, a: 1}
  m_SkyboxMaterial: {fileID: 0}
  m_HaloStrength: 0.5
  m_FlareStrength: 1
  m_FlareFadeSpeed: 3
  m_HaloTexture: {fileID: 0}
  m_SpotCookie: {fileID: 10001, guid: 0000000000000000e000000000000000, type: 0}
  m_DefaultReflectionMode: 0
  m_DefaultReflectionResolution: 128
  m_ReflectionBounces: 1
  m_ReflectionIntensity: 1
  m_CustomReflection: {fileID: 0}
  m_Sun: {fileID: 0}
  m_IndirectSpecularColor: {r: 0, g: 0, b: 0, a: 1}
  m_UseRadianceAmbientProbe: 0
--- !u!157 &4
LightmapSettings:
  m_ObjectHideFlags: 0
  serializedVersion: 11
  m_GIWorkflowMode: 1
  m_GISettings:
    serializedVersion: 2
    m_BounceScale: 1
    m_IndirectOutputScale: 1
    m_AlbedoBoost: 1
    m_EnvironmentLightingMode: 0
    m_EnableBakedLightmaps: 0
    m_EnableRealtimeLightmaps: 0
  m_LightmapEditorSettings:
    serializedVersion: 10
    m_Resolution: 0.4
    m_BakeResolution: 3
    m_AtlasSize: 1024
    m_AO: 1
    m_AOMaxDistance: 1
    m_CompAOExponent: 1
    m_CompAOExponentDirect: 0
    m_Padding: 2
    m_LightmapParameters: {fileID: 0}
    m_LightmapsBakeMode: 0
    m_TextureCompression: 0
    m_FinalGather: 0
    m_FinalGatherFiltering: 1
    m_FinalGatherRayCount: 256
    m_ReflectionCompression: 2
    m_MixedBakeMode: 1
    m_BakeBackend: 0
    m_PVRSampling: 1
    m_PVRDirectSampleCount: 32
    m_PVRSampleCount: 500
    m_PVRBounces: 2
    m_PVRFilterTypeDirect: 0
    m_PVRFilterTypeIndirect: 0
    m_PVRFilterTypeAO: 0
    m_PVRFilteringMode: 0
    m_PVRCulling: 1
    m_PVRFilteringGaussRadiusDirect: 1
    m_PVRFilteringGaussRadiusIndirect: 5
    m_PVRFilteringGaussRadiusAO: 2
    m_PVRFilteringAtrousPositionSigmaDirect: 0.5
    m_PVRFilteringAtrousPositionSigmaIndirect: 2
    m_PVRFilteringAtrousPositionSigmaAO: 1
    m_ShowResolutionOverlay: 1
  m_LightingDataAsset: {fileID: 112000002, guid: f19b8c4860ab90d488a6548856c4c59a,
    type: 2}
  m_UseShadowmask: 0
--- !u!196 &5
NavMeshSettings:
  serializedVersion: 2
  m_ObjectHideFlags: 0
  m_BuildSettings:
    serializedVersion: 2
    agentTypeID: 0
    agentRadius: 0.5
    agentHeight: 2
    agentSlope: 45
    agentClimb: 0.4
    ledgeDropHeight: 0
    maxJumpAcrossDistance: 0
    minRegionArea: 2
    manualCellSize: 0
    cellSize: 0.16666666
    manualTileSize: 0
    tileSize: 256
    accuratePlacement: 0
    debug:
      m_Flags: 0
  m_NavMeshData: {fileID: 0}
--- !u!1 &610441725
GameObject:
  m_ObjectHideFlags: 0
  m_CorrespondingSourceObject: {fileID: 0}
  m_PrefabInstance: {fileID: 0}
  m_PrefabAsset: {fileID: 0}
  serializedVersion: 6
  m_Component:
  - component: {fileID: 610441726}
  - component: {fileID: 610441727}
  m_Layer: 0
  m_Name: ts_tjxgtx001
  m_TagString: Untagged
  m_Icon: {fileID: 0}
  m_NavMeshLayer: 0
  m_StaticEditorFlags: 0
  m_IsActive: 1
--- !u!4 &610441726
Transform:
  m_ObjectHideFlags: 0
  m_CorrespondingSourceObject: {fileID: 0}
  m_PrefabInstance: {fileID: 0}
  m_PrefabAsset: {fileID: 0}
  m_GameObject: {fileID: 610441725}
  m_LocalRotation: {x: 0, y: 0, z: 0, w: 1}
  m_LocalPosition: {x: 0, y: 0, z: 0}
  m_LocalScale: {x: 1, y: 1, z: 1}
  m_Children:
  - {fileID: 1249734325}
  m_Father: {fileID: 0}
  m_RootOrder: 0
  m_LocalEulerAnglesHint: {x: 0, y: 0, z: 0}
--- !u!114 &610441727
MonoBehaviour:
  m_ObjectHideFlags: 0
  m_CorrespondingSourceObject: {fileID: 0}
  m_PrefabInstance: {fileID: 0}
  m_PrefabAsset: {fileID: 0}
  m_GameObject: {fileID: 610441725}
  m_Enabled: 1
  m_EditorHideFlags: 0
  m_Script: {fileID: 11500000, guid: 509ceed1215c0df428d0cb9dd64e666c, type: 3}
  m_Name: 
  m_EditorClassIdentifier: 
  m_Fog: 1
  m_Fog_Color: {r: 0.62352943, g: 0.27450982, b: 0.13725491, a: 1}
  m_Fog_Mode: 2
  m_FogDensity: 0.01
  m_linear_fog_start: 0
  m_linear_fog_end: 300
  m_Ambient_Light: {r: 0.5686275, g: 0.7137255, b: 0.99215686, a: 1}
  m_skybox: {fileID: 0}
  m_add_scene: 1
  m_directs: []
--- !u!1001 &831568465
PrefabInstance:
  m_ObjectHideFlags: 0
  serializedVersion: 2
  m_Modification:
    m_TransformParent: {fileID: 610441726}
    m_Modifications:
    - target: {fileID: 100002, guid: c2a4256a913d33345adb177e5b323198, type: 3}
      propertyPath: m_Name
      value: ts_sencen
      objectReference: {fileID: 0}
    - target: {fileID: 2300032, guid: c2a4256a913d33345adb177e5b323198, type: 3}
      propertyPath: m_CastShadows
      value: 1
      objectReference: {fileID: 0}
    - target: {fileID: 2300032, guid: c2a4256a913d33345adb177e5b323198, type: 3}
      propertyPath: m_ReceiveShadows
      value: 0
      objectReference: {fileID: 0}
    - target: {fileID: 100038, guid: c2a4256a913d33345adb177e5b323198, type: 3}
      propertyPath: m_IsActive
      value: 1
      objectReference: {fileID: 0}
    - target: {fileID: 10800032, guid: c2a4256a913d33345adb177e5b323198, type: 3}
      propertyPath: m_Lightmapping
      value: 2
      objectReference: {fileID: 0}
    - target: {fileID: 100030, guid: c2a4256a913d33345adb177e5b323198, type: 3}
      propertyPath: m_IsActive
      value: 1
      objectReference: {fileID: 0}
    - target: {fileID: 10800026, guid: c2a4256a913d33345adb177e5b323198, type: 3}
      propertyPath: m_Lightmapping
      value: 2
      objectReference: {fileID: 0}
    - target: {fileID: 100014, guid: c2a4256a913d33345adb177e5b323198, type: 3}
      propertyPath: m_IsActive
      value: 1
      objectReference: {fileID: 0}
    - target: {fileID: 10800010, guid: c2a4256a913d33345adb177e5b323198, type: 3}
      propertyPath: m_Lightmapping
      value: 2
      objectReference: {fileID: 0}
    - target: {fileID: 100022, guid: c2a4256a913d33345adb177e5b323198, type: 3}
      propertyPath: m_IsActive
      value: 1
      objectReference: {fileID: 0}
    - target: {fileID: 10800018, guid: c2a4256a913d33345adb177e5b323198, type: 3}
      propertyPath: m_Lightmapping
      value: 2
      objectReference: {fileID: 0}
    - target: {fileID: 100032, guid: c2a4256a913d33345adb177e5b323198, type: 3}
      propertyPath: m_IsActive
      value: 1
      objectReference: {fileID: 0}
    - target: {fileID: 10800028, guid: c2a4256a913d33345adb177e5b323198, type: 3}
      propertyPath: m_Lightmapping
      value: 2
      objectReference: {fileID: 0}
    - target: {fileID: 2300036, guid: c2a4256a913d33345adb177e5b323198, type: 3}
      propertyPath: m_CastShadows
      value: 0
      objectReference: {fileID: 0}
    - target: {fileID: 2300036, guid: c2a4256a913d33345adb177e5b323198, type: 3}
      propertyPath: m_ReceiveShadows
      value: 0
      objectReference: {fileID: 0}
    - target: {fileID: 2300034, guid: c2a4256a913d33345adb177e5b323198, type: 3}
      propertyPath: m_CastShadows
      value: 1
      objectReference: {fileID: 0}
    - target: {fileID: 2300034, guid: c2a4256a913d33345adb177e5b323198, type: 3}
      propertyPath: m_ReceiveShadows
      value: 0
      objectReference: {fileID: 0}
    - target: {fileID: 100052, guid: c2a4256a913d33345adb177e5b323198, type: 3}
      propertyPath: m_IsActive
      value: 1
      objectReference: {fileID: 0}
    - target: {fileID: 10800040, guid: c2a4256a913d33345adb177e5b323198, type: 3}
      propertyPath: m_Lightmapping
      value: 2
      objectReference: {fileID: 0}
    - target: {fileID: 2300016, guid: c2a4256a913d33345adb177e5b323198, type: 3}
      propertyPath: m_CastShadows
      value: 1
      objectReference: {fileID: 0}
    - target: {fileID: 2300016, guid: c2a4256a913d33345adb177e5b323198, type: 3}
      propertyPath: m_ReceiveShadows
      value: 0
      objectReference: {fileID: 0}
    - target: {fileID: 100044, guid: c2a4256a913d33345adb177e5b323198, type: 3}
      propertyPath: m_IsActive
      value: 1
      objectReference: {fileID: 0}
    - target: {fileID: 10800038, guid: c2a4256a913d33345adb177e5b323198, type: 3}
      propertyPath: m_Lightmapping
      value: 2
      objectReference: {fileID: 0}
    - target: {fileID: 100040, guid: c2a4256a913d33345adb177e5b323198, type: 3}
      propertyPath: m_IsActive
      value: 1
      objectReference: {fileID: 0}
    - target: {fileID: 10800034, guid: c2a4256a913d33345adb177e5b323198, type: 3}
      propertyPath: m_Lightmapping
      value: 2
      objectReference: {fileID: 0}
    - target: {fileID: 2300012, guid: c2a4256a913d33345adb177e5b323198, type: 3}
      propertyPath: m_CastShadows
      value: 1
      objectReference: {fileID: 0}
    - target: {fileID: 2300012, guid: c2a4256a913d33345adb177e5b323198, type: 3}
      propertyPath: m_ReceiveShadows
      value: 0
      objectReference: {fileID: 0}
    - target: {fileID: 100008, guid: c2a4256a913d33345adb177e5b323198, type: 3}
      propertyPath: m_IsActive
      value: 1
      objectReference: {fileID: 0}
    - target: {fileID: 10800004, guid: c2a4256a913d33345adb177e5b323198, type: 3}
      propertyPath: m_Lightmapping
      value: 2
      objectReference: {fileID: 0}
    - target: {fileID: 100034, guid: c2a4256a913d33345adb177e5b323198, type: 3}
      propertyPath: m_IsActive
      value: 1
      objectReference: {fileID: 0}
    - target: {fileID: 10800030, guid: c2a4256a913d33345adb177e5b323198, type: 3}
      propertyPath: m_Lightmapping
      value: 2
      objectReference: {fileID: 0}
    - target: {fileID: 2300018, guid: c2a4256a913d33345adb177e5b323198, type: 3}
      propertyPath: m_CastShadows
      value: 1
      objectReference: {fileID: 0}
    - target: {fileID: 2300018, guid: c2a4256a913d33345adb177e5b323198, type: 3}
      propertyPath: m_ReceiveShadows
      value: 0
      objectReference: {fileID: 0}
    - target: {fileID: 2300008, guid: c2a4256a913d33345adb177e5b323198, type: 3}
      propertyPath: m_CastShadows
      value: 1
      objectReference: {fileID: 0}
    - target: {fileID: 2300008, guid: c2a4256a913d33345adb177e5b323198, type: 3}
      propertyPath: m_ReceiveShadows
      value: 0
      objectReference: {fileID: 0}
    - target: {fileID: 400002, guid: c2a4256a913d33345adb177e5b323198, type: 3}
      propertyPath: m_LocalPosition.x
      value: 0
      objectReference: {fileID: 0}
    - target: {fileID: 400002, guid: c2a4256a913d33345adb177e5b323198, type: 3}
      propertyPath: m_LocalPosition.y
      value: 0
      objectReference: {fileID: 0}
    - target: {fileID: 400002, guid: c2a4256a913d33345adb177e5b323198, type: 3}
      propertyPath: m_LocalPosition.z
      value: 0
      objectReference: {fileID: 0}
    - target: {fileID: 400002, guid: c2a4256a913d33345adb177e5b323198, type: 3}
      propertyPath: m_LocalRotation.x
      value: 0
      objectReference: {fileID: 0}
    - target: {fileID: 400002, guid: c2a4256a913d33345adb177e5b323198, type: 3}
      propertyPath: m_LocalRotation.y
      value: 0
      objectReference: {fileID: 0}
    - target: {fileID: 400002, guid: c2a4256a913d33345adb177e5b323198, type: 3}
      propertyPath: m_LocalRotation.z
      value: 0
      objectReference: {fileID: 0}
    - target: {fileID: 400002, guid: c2a4256a913d33345adb177e5b323198, type: 3}
      propertyPath: m_LocalRotation.w
      value: 1
      objectReference: {fileID: 0}
    - target: {fileID: 400076, guid: c2a4256a913d33345adb177e5b323198, type: 3}
      propertyPath: m_LocalScale.z
      value: 1.8120532
      objectReference: {fileID: 0}
    - target: {fileID: 400076, guid: c2a4256a913d33345adb177e5b323198, type: 3}
      propertyPath: m_LocalPosition.x
      value: 1.4241299e-13
      objectReference: {fileID: 0}
    - target: {fileID: 400076, guid: c2a4256a913d33345adb177e5b323198, type: 3}
      propertyPath: m_LocalPosition.y
      value: 33.229973
      objectReference: {fileID: 0}
    - target: {fileID: 100006, guid: c2a4256a913d33345adb177e5b323198, type: 3}
      propertyPath: m_IsActive
      value: 1
      objectReference: {fileID: 0}
    - target: {fileID: 100004, guid: c2a4256a913d33345adb177e5b323198, type: 3}
      propertyPath: m_IsActive
      value: 1
      objectReference: {fileID: 0}
    - target: {fileID: 10800002, guid: c2a4256a913d33345adb177e5b323198, type: 3}
      propertyPath: m_Intensity
      value: 0.53
      objectReference: {fileID: 0}
    - target: {fileID: 10800002, guid: c2a4256a913d33345adb177e5b323198, type: 3}
      propertyPath: m_Lightmapping
      value: 2
      objectReference: {fileID: 0}
    - target: {fileID: 100064, guid: c2a4256a913d33345adb177e5b323198, type: 3}
      propertyPath: m_IsActive
      value: 1
      objectReference: {fileID: 0}
    - target: {fileID: 10800048, guid: c2a4256a913d33345adb177e5b323198, type: 3}
      propertyPath: m_Intensity
      value: 0.22
      objectReference: {fileID: 0}
    - target: {fileID: 10800048, guid: c2a4256a913d33345adb177e5b323198, type: 3}
      propertyPath: m_Shadows.m_Type
      value: 1
      objectReference: {fileID: 0}
    - target: {fileID: 10800048, guid: c2a4256a913d33345adb177e5b323198, type: 3}
      propertyPath: m_Shadows.m_Bias
      value: 0
      objectReference: {fileID: 0}
    - target: {fileID: 10800048, guid: c2a4256a913d33345adb177e5b323198, type: 3}
      propertyPath: m_Shadows.m_Strength
      value: 0.79
      objectReference: {fileID: 0}
    - target: {fileID: 10800048, guid: c2a4256a913d33345adb177e5b323198, type: 3}
      propertyPath: m_Lightmapping
      value: 2
      objectReference: {fileID: 0}
    - target: {fileID: 2300030, guid: c2a4256a913d33345adb177e5b323198, type: 3}
      propertyPath: m_CastShadows
      value: 1
      objectReference: {fileID: 0}
    - target: {fileID: 2300030, guid: c2a4256a913d33345adb177e5b323198, type: 3}
      propertyPath: m_ReceiveShadows
      value: 1
      objectReference: {fileID: 0}
    - target: {fileID: 2300004, guid: c2a4256a913d33345adb177e5b323198, type: 3}
      propertyPath: m_CastShadows
      value: 1
      objectReference: {fileID: 0}
    - target: {fileID: 2300004, guid: c2a4256a913d33345adb177e5b323198, type: 3}
      propertyPath: m_ReceiveShadows
      value: 0
      objectReference: {fileID: 0}
    - target: {fileID: 2300014, guid: c2a4256a913d33345adb177e5b323198, type: 3}
      propertyPath: m_CastShadows
      value: 1
      objectReference: {fileID: 0}
    - target: {fileID: 2300014, guid: c2a4256a913d33345adb177e5b323198, type: 3}
      propertyPath: m_ReceiveShadows
      value: 0
      objectReference: {fileID: 0}
    - target: {fileID: 2300022, guid: c2a4256a913d33345adb177e5b323198, type: 3}
      propertyPath: m_CastShadows
      value: 0
      objectReference: {fileID: 0}
    - target: {fileID: 2300022, guid: c2a4256a913d33345adb177e5b323198, type: 3}
      propertyPath: m_ReceiveShadows
      value: 0
      objectReference: {fileID: 0}
    - target: {fileID: 2300028, guid: c2a4256a913d33345adb177e5b323198, type: 3}
      propertyPath: m_CastShadows
      value: 1
      objectReference: {fileID: 0}
    - target: {fileID: 2300028, guid: c2a4256a913d33345adb177e5b323198, type: 3}
      propertyPath: m_ReceiveShadows
      value: 0
      objectReference: {fileID: 0}
    - target: {fileID: 2300006, guid: c2a4256a913d33345adb177e5b323198, type: 3}
      propertyPath: m_CastShadows
      value: 1
      objectReference: {fileID: 0}
    - target: {fileID: 2300006, guid: c2a4256a913d33345adb177e5b323198, type: 3}
      propertyPath: m_ReceiveShadows
      value: 0
      objectReference: {fileID: 0}
    - target: {fileID: 2300010, guid: c2a4256a913d33345adb177e5b323198, type: 3}
      propertyPath: m_CastShadows
      value: 1
      objectReference: {fileID: 0}
    - target: {fileID: 2300010, guid: c2a4256a913d33345adb177e5b323198, type: 3}
      propertyPath: m_ReceiveShadows
      value: 0
      objectReference: {fileID: 0}
    - target: {fileID: 2300020, guid: c2a4256a913d33345adb177e5b323198, type: 3}
      propertyPath: m_CastShadows
      value: 1
      objectReference: {fileID: 0}
    - target: {fileID: 2300020, guid: c2a4256a913d33345adb177e5b323198, type: 3}
      propertyPath: m_ReceiveShadows
      value: 0
      objectReference: {fileID: 0}
    - target: {fileID: 2300038, guid: c2a4256a913d33345adb177e5b323198, type: 3}
      propertyPath: m_CastShadows
      value: 1
      objectReference: {fileID: 0}
    - target: {fileID: 2300038, guid: c2a4256a913d33345adb177e5b323198, type: 3}
      propertyPath: m_ReceiveShadows
      value: 0
      objectReference: {fileID: 0}
    - target: {fileID: 2300026, guid: c2a4256a913d33345adb177e5b323198, type: 3}
      propertyPath: m_CastShadows
      value: 1
      objectReference: {fileID: 0}
    - target: {fileID: 2300026, guid: c2a4256a913d33345adb177e5b323198, type: 3}
      propertyPath: m_ReceiveShadows
      value: 0
      objectReference: {fileID: 0}
    - target: {fileID: 2300002, guid: c2a4256a913d33345adb177e5b323198, type: 3}
      propertyPath: m_CastShadows
      value: 1
      objectReference: {fileID: 0}
    - target: {fileID: 2300002, guid: c2a4256a913d33345adb177e5b323198, type: 3}
      propertyPath: m_ReceiveShadows
      value: 0
      objectReference: {fileID: 0}
    - target: {fileID: 2300024, guid: c2a4256a913d33345adb177e5b323198, type: 3}
      propertyPath: m_CastShadows
      value: 0
      objectReference: {fileID: 0}
    - target: {fileID: 2300024, guid: c2a4256a913d33345adb177e5b323198, type: 3}
      propertyPath: m_ReceiveShadows
      value: 0
      objectReference: {fileID: 0}
    - target: {fileID: 2300000, guid: c2a4256a913d33345adb177e5b323198, type: 3}
      propertyPath: m_CastShadows
      value: 0
      objectReference: {fileID: 0}
    - target: {fileID: 2300000, guid: c2a4256a913d33345adb177e5b323198, type: 3}
      propertyPath: m_ReceiveShadows
      value: 0
      objectReference: {fileID: 0}
    - target: {fileID: 400064, guid: c2a4256a913d33345adb177e5b323198, type: 3}
      propertyPath: m_LocalPosition.y
      value: 4.957262
      objectReference: {fileID: 0}
    - target: {fileID: 400064, guid: c2a4256a913d33345adb177e5b323198, type: 3}
      propertyPath: m_LocalPosition.z
      value: 2.199997
      objectReference: {fileID: 0}
    - target: {fileID: 400064, guid: c2a4256a913d33345adb177e5b323198, type: 3}
      propertyPath: m_LocalRotation.x
      value: 0.58114755
      objectReference: {fileID: 0}
    - target: {fileID: 400064, guid: c2a4256a913d33345adb177e5b323198, type: 3}
      propertyPath: m_LocalRotation.y
      value: 0.054424044
      objectReference: {fileID: 0}
    - target: {fileID: 400064, guid: c2a4256a913d33345adb177e5b323198, type: 3}
      propertyPath: m_LocalRotation.z
      value: -0.61932486
      objectReference: {fileID: 0}
    - target: {fileID: 400064, guid: c2a4256a913d33345adb177e5b323198, type: 3}
      propertyPath: m_LocalRotation.w
      value: 0.52511173
      objectReference: {fileID: 0}
    - target: {fileID: 100026, guid: c2a4256a913d33345adb177e5b323198, type: 3}
      propertyPath: m_IsActive
      value: 1
      objectReference: {fileID: 0}
    - target: {fileID: 100042, guid: c2a4256a913d33345adb177e5b323198, type: 3}
      propertyPath: m_IsActive
      value: 1
      objectReference: {fileID: 0}
    - target: {fileID: 100016, guid: c2a4256a913d33345adb177e5b323198, type: 3}
      propertyPath: m_IsActive
      value: 1
      objectReference: {fileID: 0}
    - target: {fileID: 100028, guid: c2a4256a913d33345adb177e5b323198, type: 3}
      propertyPath: m_IsActive
      value: 1
      objectReference: {fileID: 0}
    - target: {fileID: 100010, guid: c2a4256a913d33345adb177e5b323198, type: 3}
      propertyPath: m_IsActive
      value: 1
      objectReference: {fileID: 0}
    - target: {fileID: 100058, guid: c2a4256a913d33345adb177e5b323198, type: 3}
      propertyPath: m_IsActive
      value: 1
      objectReference: {fileID: 0}
    - target: {fileID: 100060, guid: c2a4256a913d33345adb177e5b323198, type: 3}
      propertyPath: m_IsActive
      value: 1
      objectReference: {fileID: 0}
    - target: {fileID: 100024, guid: c2a4256a913d33345adb177e5b323198, type: 3}
      propertyPath: m_IsActive
      value: 1
      objectReference: {fileID: 0}
    - target: {fileID: 100018, guid: c2a4256a913d33345adb177e5b323198, type: 3}
      propertyPath: m_IsActive
      value: 1
      objectReference: {fileID: 0}
    - target: {fileID: 100012, guid: c2a4256a913d33345adb177e5b323198, type: 3}
      propertyPath: m_IsActive
      value: 1
      objectReference: {fileID: 0}
    - target: {fileID: 100062, guid: c2a4256a913d33345adb177e5b323198, type: 3}
      propertyPath: m_IsActive
      value: 1
      objectReference: {fileID: 0}
    - target: {fileID: 100020, guid: c2a4256a913d33345adb177e5b323198, type: 3}
      propertyPath: m_IsActive
      value: 1
      objectReference: {fileID: 0}
    - target: {fileID: 10800008, guid: c2a4256a913d33345adb177e5b323198, type: 3}
      propertyPath: m_Lightmapping
      value: 2
      objectReference: {fileID: 0}
    - target: {fileID: 10800000, guid: c2a4256a913d33345adb177e5b323198, type: 3}
      propertyPath: m_Lightmapping
      value: 2
      objectReference: {fileID: 0}
    - target: {fileID: 10800042, guid: c2a4256a913d33345adb177e5b323198, type: 3}
      propertyPath: m_Lightmapping
      value: 2
      objectReference: {fileID: 0}
    - target: {fileID: 10800036, guid: c2a4256a913d33345adb177e5b323198, type: 3}
      propertyPath: m_Lightmapping
      value: 2
      objectReference: {fileID: 0}
    - target: {fileID: 10800016, guid: c2a4256a913d33345adb177e5b323198, type: 3}
      propertyPath: m_Lightmapping
      value: 2
      objectReference: {fileID: 0}
    - target: {fileID: 10800012, guid: c2a4256a913d33345adb177e5b323198, type: 3}
      propertyPath: m_Lightmapping
      value: 2
      objectReference: {fileID: 0}
    - target: {fileID: 10800014, guid: c2a4256a913d33345adb177e5b323198, type: 3}
      propertyPath: m_Lightmapping
      value: 2
      objectReference: {fileID: 0}
    - target: {fileID: 10800044, guid: c2a4256a913d33345adb177e5b323198, type: 3}
      propertyPath: m_Lightmapping
      value: 2
      objectReference: {fileID: 0}
    - target: {fileID: 10800006, guid: c2a4256a913d33345adb177e5b323198, type: 3}
      propertyPath: m_Lightmapping
      value: 2
      objectReference: {fileID: 0}
    - target: {fileID: 10800046, guid: c2a4256a913d33345adb177e5b323198, type: 3}
      propertyPath: m_Lightmapping
      value: 2
      objectReference: {fileID: 0}
    - target: {fileID: 10800022, guid: c2a4256a913d33345adb177e5b323198, type: 3}
      propertyPath: m_Lightmapping
      value: 2
      objectReference: {fileID: 0}
    - target: {fileID: 10800020, guid: c2a4256a913d33345adb177e5b323198, type: 3}
      propertyPath: m_Lightmapping
      value: 2
      objectReference: {fileID: 0}
    - target: {fileID: 10800024, guid: c2a4256a913d33345adb177e5b323198, type: 3}
      propertyPath: m_Lightmapping
      value: 2
      objectReference: {fileID: 0}
    - target: {fileID: 100094, guid: c2a4256a913d33345adb177e5b323198, type: 3}
      propertyPath: m_IsActive
      value: 1
      objectReference: {fileID: 0}
    - target: {fileID: 100000, guid: c2a4256a913d33345adb177e5b323198, type: 3}
      propertyPath: m_IsActive
      value: 0
      objectReference: {fileID: 0}
    m_RemovedComponents: []
  m_SourcePrefab: {fileID: 100100000, guid: c2a4256a913d33345adb177e5b323198, type: 3}
--- !u!4 &1249734325 stripped
Transform:
  m_CorrespondingSourceObject: {fileID: 400002, guid: c2a4256a913d33345adb177e5b323198,
    type: 3}
  m_PrefabInstance: {fileID: 831568465}
  m_PrefabAsset: {fileID: 0}
