%YAML 1.1
%TAG !u! tag:unity3d.com,2011:
--- !u!74 &7400000
AnimationClip:
  m_ObjectHideFlags: 0
  m_CorrespondingSourceObject: {fileID: 0}
  m_PrefabInternal: {fileID: 0}
  m_Name: xq_part06_a01
  serializedVersion: 6
  m_Legacy: 0
  m_Compressed: 0
  m_UseHighQualityCurve: 1
  m_RotationCurves:
  - curve:
      serializedVersion: 2
      m_Curve:
      - serializedVersion: 3
        time: 0
        value: {x: 0, y: 0, z: 0, w: 1}
        inSlope: {x: -17.633558, y: 17.633558, z: 5.7294903, w: -5.729488}
        outSlope: {x: -17.633558, y: 17.633558, z: 5.7294903, w: -5.729488}
        tangentMode: 0
        weightedMode: 0
        inWeight: {x: 0.33333334, y: 0.33333334, z: 0.33333334, w: 0.33333334}
        outWeight: {x: 0.33333334, y: 0.33333334, z: 0.33333334, w: 0.33333334}
      - serializedVersion: 3
        time: 0.016666668
        value: {x: -0.29389265, y: 0.29389265, z: 0.095491506, w: 0.90450853}
        inSlope: {x: -14.265847, y: 14.265847, z: 10.364744, w: -10.364743}
        outSlope: {x: -14.265847, y: 14.265847, z: 10.364744, w: -10.364743}
        tangentMode: 0
        weightedMode: 0
        inWeight: {x: 0.33333334, y: 0.33333334, z: 0.33333334, w: 0.33333334}
        outWeight: {x: 0.33333334, y: 0.33333334, z: 0.33333334, w: 0.33333334}
      - serializedVersion: 3
        time: 0.033333335
        value: {x: -0.47552827, y: 0.47552827, z: 0.3454915, w: 0.65450853}
        inSlope: {x: -5.449067, y: 5.449067, z: 16.770512, w: -16.770512}
        outSlope: {x: -5.449067, y: 5.449067, z: 16.770512, w: -16.770512}
        tangentMode: 1065353216
        weightedMode: 0
        inWeight: {x: 0.33333334, y: 0.33333334, z: 0.33333334, w: 0.33333334}
        outWeight: {x: 0.33333334, y: 0.33333334, z: 0.33333334, w: 0.33333334}
      - serializedVersion: 3
        time: 0.050000004
        value: {x: -0.47552824, y: 0.47552824, z: 0.6545086, w: 0.3454914}
        inSlope: {x: 5.44907, y: -5.44907, z: 16.77051, w: -16.77051}
        outSlope: {x: 5.44907, y: -5.44907, z: 16.77051, w: -16.77051}
        tangentMode: 0
        weightedMode: 0
        inWeight: {x: 0.33333334, y: 0.33333334, z: 0.33333334, w: 0.33333334}
        outWeight: {x: 0.33333334, y: 0.33333334, z: 0.33333334, w: 0.33333334}
      - serializedVersion: 3
        time: 0.06666667
        value: {x: -0.29389262, y: 0.29389262, z: 0.90450853, w: 0.09549149}
        inSlope: {x: 14.265849, y: -14.265849, z: 10.364742, w: -10.364742}
        outSlope: {x: 14.265849, y: -14.265849, z: 10.364742, w: -10.364742}
        tangentMode: 976000994
        weightedMode: 0
        inWeight: {x: 0.33333334, y: 0.33333334, z: 0.33333334, w: 0.33333334}
        outWeight: {x: 0.33333334, y: 0.33333334, z: 0.33333334, w: 0.33333334}
      - serializedVersion: 3
        time: 0.083333336
        value: {x: 0.00000004371139, y: -0.00000004371139, z: 1, w: 1.9106855e-15}
        inSlope: {x: 17.633556, y: -17.633556, z: 0, w: -0.00000071525574}
        outSlope: {x: 17.633556, y: -17.633556, z: 0, w: -0.00000071525574}
        tangentMode: 1065353216
        weightedMode: 0
        inWeight: {x: 0.33333334, y: 0.33333334, z: 0.33333334, w: 0.33333334}
        outWeight: {x: 0.33333334, y: 0.33333334, z: 0.33333334, w: 0.33333334}
      - serializedVersion: 3
        time: 0.1
        value: {x: 0.2938926, y: -0.2938926, z: 0.90450853, w: 0.09549147}
        inSlope: {x: 14.265846, y: -14.265846, z: -10.364744, w: 10.364742}
        outSlope: {x: 14.265846, y: -14.265846, z: -10.364744, w: 10.364742}
        tangentMode: 0
        weightedMode: 0
        inWeight: {x: 0.33333334, y: 0.33333334, z: 0.33333334, w: 0.33333334}
        outWeight: {x: 0.33333334, y: 0.33333334, z: 0.33333334, w: 0.33333334}
      - serializedVersion: 3
        time: 0.11666667
        value: {x: 0.4755282, y: -0.4755282, z: 0.65450853, w: 0.3454914}
        inSlope: {x: 5.44907, y: -5.44907, z: -16.77051, w: 16.77051}
        outSlope: {x: 5.44907, y: -5.44907, z: -16.77051, w: 16.77051}
        tangentMode: 10084
        weightedMode: 0
        inWeight: {x: 0.33333334, y: 0.33333334, z: 0.33333334, w: 0.33333334}
        outWeight: {x: 0.33333334, y: 0.33333334, z: 0.33333334, w: 0.33333334}
      - serializedVersion: 3
        time: 0.13333334
        value: {x: 0.47552824, y: -0.47552824, z: 0.3454914, w: 0.6545086}
        inSlope: {x: -5.449067, y: 5.449067, z: -16.770506, w: 16.770508}
        outSlope: {x: -5.449067, y: 5.449067, z: -16.770506, w: 16.770508}
        tangentMode: 0
        weightedMode: 0
        inWeight: {x: 0.33333334, y: 0.33333334, z: 0.33333334, w: 0.33333334}
        outWeight: {x: 0.33333334, y: 0.33333334, z: 0.33333334, w: 0.33333334}
      - serializedVersion: 3
        time: 0.15
        value: {x: 0.29389265, y: -0.29389265, z: 0.09549153, w: 0.9045084}
        inSlope: {x: -14.265851, y: 14.265851, z: -10.364742, w: 10.364743}
        outSlope: {x: -14.265851, y: 14.265851, z: -10.364742, w: 10.364743}
        tangentMode: 1088421889
        weightedMode: 0
        inWeight: {x: 0.33333334, y: 0.33333334, z: 0.33333334, w: 0.33333334}
        outWeight: {x: 0.33333334, y: 0.33333334, z: 0.33333334, w: 0.33333334}
      - serializedVersion: 3
        time: 0.16666667
        value: {x: -0.00000008742278, y: 0.00000008742278, z: 7.642742e-15, w: 1}
        inSlope: {x: -17.633566, y: 17.633566, z: -5.729492, w: 5.7294955}
        outSlope: {x: -17.633566, y: 17.633566, z: -5.729492, w: 5.7294955}
        tangentMode: 8549
        weightedMode: 0
        inWeight: {x: 0.33333334, y: 0.33333334, z: 0.33333334, w: 0.33333334}
        outWeight: {x: 0.33333334, y: 0.33333334, z: 0.33333334, w: 0.33333334}
      m_PreInfinity: 2
      m_PostInfinity: 2
      m_RotationOrder: 4
    path: 
  m_CompressedRotationCurves: []
  m_EulerCurves: []
  m_PositionCurves: []
  m_ScaleCurves: []
  m_FloatCurves: []
  m_PPtrCurves: []
  m_SampleRate: 60
  m_WrapMode: 0
  m_Bounds:
    m_Center: {x: 0, y: 0, z: 0}
    m_Extent: {x: 0, y: 0, z: 0}
  m_ClipBindingConstant:
    genericBindings:
    - serializedVersion: 2
      path: 0
      attribute: 2
      script: {fileID: 0}
      typeID: 4
      customType: 0
      isPPtrCurve: 0
    pptrCurveMapping: []
  m_AnimationClipSettings:
    serializedVersion: 2
    m_AdditiveReferencePoseClip: {fileID: 0}
    m_AdditiveReferencePoseTime: 0
    m_StartTime: 0
    m_StopTime: 0.16666667
    m_OrientationOffsetY: 0
    m_Level: 0
    m_CycleOffset: 0
    m_HasAdditiveReferencePose: 0
    m_LoopTime: 1
    m_LoopBlend: 0
    m_LoopBlendOrientation: 0
    m_LoopBlendPositionY: 0
    m_LoopBlendPositionXZ: 0
    m_KeepOriginalOrientation: 0
    m_KeepOriginalPositionY: 1
    m_KeepOriginalPositionXZ: 0
    m_HeightFromFeet: 0
    m_Mirror: 0
  m_EditorCurves:
  - curve:
      serializedVersion: 2
      m_Curve:
      - serializedVersion: 3
        time: 0
        value: 0
        inSlope: -17.633558
        outSlope: -17.633558
        tangentMode: 0
        weightedMode: 0
        inWeight: 0.33333334
        outWeight: 0.33333334
      - serializedVersion: 3
        time: 0.016666668
        value: -0.29389265
        inSlope: -14.265847
        outSlope: -14.265847
        tangentMode: 0
        weightedMode: 0
        inWeight: 0.33333334
        outWeight: 0.33333334
      - serializedVersion: 3
        time: 0.033333335
        value: -0.47552827
        inSlope: -5.449067
        outSlope: -5.449067
        tangentMode: 0
        weightedMode: 0
        inWeight: 0.33333334
        outWeight: 0.33333334
      - serializedVersion: 3
        time: 0.050000004
        value: -0.47552824
        inSlope: 5.44907
        outSlope: 5.44907
        tangentMode: 0
        weightedMode: 0
        inWeight: 0.33333334
        outWeight: 0.33333334
      - serializedVersion: 3
        time: 0.06666667
        value: -0.29389262
        inSlope: 14.265849
        outSlope: 14.265849
        tangentMode: 0
        weightedMode: 0
        inWeight: 0.33333334
        outWeight: 0.33333334
      - serializedVersion: 3
        time: 0.083333336
        value: 0.00000004371139
        inSlope: 17.633556
        outSlope: 17.633556
        tangentMode: 0
        weightedMode: 0
        inWeight: 0.33333334
        outWeight: 0.33333334
      - serializedVersion: 3
        time: 0.1
        value: 0.2938926
        inSlope: 14.265846
        outSlope: 14.265846
        tangentMode: 0
        weightedMode: 0
        inWeight: 0.33333334
        outWeight: 0.33333334
      - serializedVersion: 3
        time: 0.11666667
        value: 0.4755282
        inSlope: 5.44907
        outSlope: 5.44907
        tangentMode: 0
        weightedMode: 0
        inWeight: 0.33333334
        outWeight: 0.33333334
      - serializedVersion: 3
        time: 0.13333334
        value: 0.47552824
        inSlope: -5.449067
        outSlope: -5.449067
        tangentMode: 0
        weightedMode: 0
        inWeight: 0.33333334
        outWeight: 0.33333334
      - serializedVersion: 3
        time: 0.15
        value: 0.29389265
        inSlope: -14.265851
        outSlope: -14.265851
        tangentMode: 0
        weightedMode: 0
        inWeight: 0.33333334
        outWeight: 0.33333334
      - serializedVersion: 3
        time: 0.16666667
        value: -0.00000008742278
        inSlope: -17.633566
        outSlope: -17.633566
        tangentMode: 0
        weightedMode: 0
        inWeight: 0.33333334
        outWeight: 0.33333334
      m_PreInfinity: 2
      m_PostInfinity: 2
      m_RotationOrder: 4
    attribute: m_LocalRotation.x
    path: 
    classID: 4
    script: {fileID: 0}
  - curve:
      serializedVersion: 2
      m_Curve:
      - serializedVersion: 3
        time: 0
        value: 0
        inSlope: 17.633558
        outSlope: 17.633558
        tangentMode: 0
        weightedMode: 0
        inWeight: 0.33333334
        outWeight: 0.33333334
      - serializedVersion: 3
        time: 0.016666668
        value: 0.29389265
        inSlope: 14.265847
        outSlope: 14.265847
        tangentMode: 0
        weightedMode: 0
        inWeight: 0.33333334
        outWeight: 0.33333334
      - serializedVersion: 3
        time: 0.033333335
        value: 0.47552827
        inSlope: 5.449067
        outSlope: 5.449067
        tangentMode: 0
        weightedMode: 0
        inWeight: 0.33333334
        outWeight: 0.33333334
      - serializedVersion: 3
        time: 0.050000004
        value: 0.47552824
        inSlope: -5.44907
        outSlope: -5.44907
        tangentMode: 0
        weightedMode: 0
        inWeight: 0.33333334
        outWeight: 0.33333334
      - serializedVersion: 3
        time: 0.06666667
        value: 0.29389262
        inSlope: -14.265849
        outSlope: -14.265849
        tangentMode: 0
        weightedMode: 0
        inWeight: 0.33333334
        outWeight: 0.33333334
      - serializedVersion: 3
        time: 0.083333336
        value: -0.00000004371139
        inSlope: -17.633556
        outSlope: -17.633556
        tangentMode: 0
        weightedMode: 0
        inWeight: 0.33333334
        outWeight: 0.33333334
      - serializedVersion: 3
        time: 0.1
        value: -0.2938926
        inSlope: -14.265846
        outSlope: -14.265846
        tangentMode: 0
        weightedMode: 0
        inWeight: 0.33333334
        outWeight: 0.33333334
      - serializedVersion: 3
        time: 0.11666667
        value: -0.4755282
        inSlope: -5.44907
        outSlope: -5.44907
        tangentMode: 0
        weightedMode: 0
        inWeight: 0.33333334
        outWeight: 0.33333334
      - serializedVersion: 3
        time: 0.13333334
        value: -0.47552824
        inSlope: 5.449067
        outSlope: 5.449067
        tangentMode: 0
        weightedMode: 0
        inWeight: 0.33333334
        outWeight: 0.33333334
      - serializedVersion: 3
        time: 0.15
        value: -0.29389265
        inSlope: 14.265851
        outSlope: 14.265851
        tangentMode: 0
        weightedMode: 0
        inWeight: 0.33333334
        outWeight: 0.33333334
      - serializedVersion: 3
        time: 0.16666667
        value: 0.00000008742278
        inSlope: 17.633566
        outSlope: 17.633566
        tangentMode: 0
        weightedMode: 0
        inWeight: 0.33333334
        outWeight: 0.33333334
      m_PreInfinity: 2
      m_PostInfinity: 2
      m_RotationOrder: 4
    attribute: m_LocalRotation.y
    path: 
    classID: 4
    script: {fileID: 0}
  - curve:
      serializedVersion: 2
      m_Curve:
      - serializedVersion: 3
        time: 0
        value: 0
        inSlope: 5.7294903
        outSlope: 5.7294903
        tangentMode: 0
        weightedMode: 0
        inWeight: 0.33333334
        outWeight: 0.33333334
      - serializedVersion: 3
        time: 0.016666668
        value: 0.095491506
        inSlope: 10.364744
        outSlope: 10.364744
        tangentMode: 0
        weightedMode: 0
        inWeight: 0.33333334
        outWeight: 0.33333334
      - serializedVersion: 3
        time: 0.033333335
        value: 0.3454915
        inSlope: 16.770512
        outSlope: 16.770512
        tangentMode: 0
        weightedMode: 0
        inWeight: 0.33333334
        outWeight: 0.33333334
      - serializedVersion: 3
        time: 0.050000004
        value: 0.6545086
        inSlope: 16.77051
        outSlope: 16.77051
        tangentMode: 0
        weightedMode: 0
        inWeight: 0.33333334
        outWeight: 0.33333334
      - serializedVersion: 3
        time: 0.06666667
        value: 0.90450853
        inSlope: 10.364742
        outSlope: 10.364742
        tangentMode: 0
        weightedMode: 0
        inWeight: 0.33333334
        outWeight: 0.33333334
      - serializedVersion: 3
        time: 0.083333336
        value: 1
        inSlope: 0
        outSlope: 0
        tangentMode: 0
        weightedMode: 0
        inWeight: 0.33333334
        outWeight: 0.33333334
      - serializedVersion: 3
        time: 0.1
        value: 0.90450853
        inSlope: -10.364744
        outSlope: -10.364744
        tangentMode: 0
        weightedMode: 0
        inWeight: 0.33333334
        outWeight: 0.33333334
      - serializedVersion: 3
        time: 0.11666667
        value: 0.65450853
        inSlope: -16.77051
        outSlope: -16.77051
        tangentMode: 0
        weightedMode: 0
        inWeight: 0.33333334
        outWeight: 0.33333334
      - serializedVersion: 3
        time: 0.13333334
        value: 0.3454914
        inSlope: -16.770506
        outSlope: -16.770506
        tangentMode: 0
        weightedMode: 0
        inWeight: 0.33333334
        outWeight: 0.33333334
      - serializedVersion: 3
        time: 0.15
        value: 0.09549153
        inSlope: -10.364742
        outSlope: -10.364742
        tangentMode: 0
        weightedMode: 0
        inWeight: 0.33333334
        outWeight: 0.33333334
      - serializedVersion: 3
        time: 0.16666667
        value: 7.642742e-15
        inSlope: -5.729492
        outSlope: -5.729492
        tangentMode: 0
        weightedMode: 0
        inWeight: 0.33333334
        outWeight: 0.33333334
      m_PreInfinity: 2
      m_PostInfinity: 2
      m_RotationOrder: 4
    attribute: m_LocalRotation.z
    path: 
    classID: 4
    script: {fileID: 0}
  - curve:
      serializedVersion: 2
      m_Curve:
      - serializedVersion: 3
        time: 0
        value: 1
        inSlope: -5.729488
        outSlope: -5.729488
        tangentMode: 0
        weightedMode: 0
        inWeight: 0.33333334
        outWeight: 0.33333334
      - serializedVersion: 3
        time: 0.016666668
        value: 0.90450853
        inSlope: -10.364743
        outSlope: -10.364743
        tangentMode: 0
        weightedMode: 0
        inWeight: 0.33333334
        outWeight: 0.33333334
      - serializedVersion: 3
        time: 0.033333335
        value: 0.65450853
        inSlope: -16.770512
        outSlope: -16.770512
        tangentMode: 0
        weightedMode: 0
        inWeight: 0.33333334
        outWeight: 0.33333334
      - serializedVersion: 3
        time: 0.050000004
        value: 0.3454914
        inSlope: -16.77051
        outSlope: -16.77051
        tangentMode: 0
        weightedMode: 0
        inWeight: 0.33333334
        outWeight: 0.33333334
      - serializedVersion: 3
        time: 0.06666667
        value: 0.09549149
        inSlope: -10.364742
        outSlope: -10.364742
        tangentMode: 0
        weightedMode: 0
        inWeight: 0.33333334
        outWeight: 0.33333334
      - serializedVersion: 3
        time: 0.083333336
        value: 1.9106855e-15
        inSlope: -0.00000071525574
        outSlope: -0.00000071525574
        tangentMode: 0
        weightedMode: 0
        inWeight: 0.33333334
        outWeight: 0.33333334
      - serializedVersion: 3
        time: 0.1
        value: 0.09549147
        inSlope: 10.364742
        outSlope: 10.364742
        tangentMode: 0
        weightedMode: 0
        inWeight: 0.33333334
        outWeight: 0.33333334
      - serializedVersion: 3
        time: 0.11666667
        value: 0.3454914
        inSlope: 16.77051
        outSlope: 16.77051
        tangentMode: 0
        weightedMode: 0
        inWeight: 0.33333334
        outWeight: 0.33333334
      - serializedVersion: 3
        time: 0.13333334
        value: 0.6545086
        inSlope: 16.770508
        outSlope: 16.770508
        tangentMode: 0
        weightedMode: 0
        inWeight: 0.33333334
        outWeight: 0.33333334
      - serializedVersion: 3
        time: 0.15
        value: 0.9045084
        inSlope: 10.364743
        outSlope: 10.364743
        tangentMode: 0
        weightedMode: 0
        inWeight: 0.33333334
        outWeight: 0.33333334
      - serializedVersion: 3
        time: 0.16666667
        value: 1
        inSlope: 5.7294955
        outSlope: 5.7294955
        tangentMode: 0
        weightedMode: 0
        inWeight: 0.33333334
        outWeight: 0.33333334
      m_PreInfinity: 2
      m_PostInfinity: 2
      m_RotationOrder: 4
    attribute: m_LocalRotation.w
    path: 
    classID: 4
    script: {fileID: 0}
  m_EulerEditorCurves:
  - curve:
      serializedVersion: 2
      m_Curve:
      - serializedVersion: 3
        time: 0
        value: 0
        inSlope: -2160
        outSlope: -2160
        tangentMode: 34
        weightedMode: 0
        inWeight: 0.33333334
        outWeight: 0.33333334
      - serializedVersion: 3
        time: 0.16666667
        value: -360
        inSlope: -2160
        outSlope: -2160
        tangentMode: 34
        weightedMode: 0
        inWeight: 0.33333334
        outWeight: 0.33333334
      m_PreInfinity: 2
      m_PostInfinity: 2
      m_RotationOrder: 4
    attribute: localEulerAnglesBaked.x
    path: 
    classID: 4
    script: {fileID: 0}
  - curve:
      serializedVersion: 2
      m_Curve:
      - serializedVersion: 3
        time: 0
        value: 0
        inSlope: 2160
        outSlope: 2160
        tangentMode: 34
        weightedMode: 0
        inWeight: 0.33333334
        outWeight: 0.33333334
      - serializedVersion: 3
        time: 0.16666667
        value: 360
        inSlope: 2160
        outSlope: 2160
        tangentMode: 34
        weightedMode: 0
        inWeight: 0.33333334
        outWeight: 0.33333334
      m_PreInfinity: 2
      m_PostInfinity: 2
      m_RotationOrder: 4
    attribute: localEulerAnglesBaked.y
    path: 
    classID: 4
    script: {fileID: 0}
  - curve:
      serializedVersion: 2
      m_Curve:
      - serializedVersion: 3
        time: 0
        value: 0
        inSlope: 0
        outSlope: 0
        tangentMode: 34
        weightedMode: 0
        inWeight: 0.33333334
        outWeight: 0.33333334
      - serializedVersion: 3
        time: 0.16666667
        value: 0
        inSlope: 0
        outSlope: 0
        tangentMode: 34
        weightedMode: 0
        inWeight: 0.33333334
        outWeight: 0.33333334
      m_PreInfinity: 2
      m_PostInfinity: 2
      m_RotationOrder: 4
    attribute: localEulerAnglesBaked.z
    path: 
    classID: 4
    script: {fileID: 0}
  m_HasGenericRootTransform: 1
  m_HasMotionFloatCurves: 0
  m_GenerateMotionCurves: 0
  m_Events: []
