%YAML 1.1
%TAG !u! tag:unity3d.com,2011:
--- !u!21 &2100000
Material:
  serializedVersion: 6
  m_ObjectHideFlags: 0
  m_CorrespondingSourceObject: {fileID: 0}
  m_PrefabInternal: {fileID: 0}
  m_Name: plane_B_flow01
  m_Shader: {fileID: 4800000, guid: fc01cb0183c43a24085f5f4374e402c7, type: 3}
  m_ShaderKeywords: _OPACITY_ONOFF_ON
  m_LightmapFlags: 4
  m_EnableInstancingVariants: 0
  m_DoubleSidedGI: 0
  m_CustomRenderQueue: -1
  stringTagMap: {}
  disabledShaderPasses: []
  m_SavedProperties:
    serializedVersion: 3
    m_TexEnvs:
    - _Alpha01:
        m_Texture: {fileID: 2800000, guid: 1651111dde60fd84eb49643a52b7c7b9, type: 3}
        m_Scale: {x: 1, y: 1}
        m_Offset: {x: 0, y: 0}
    - _DisE01:
        m_Texture: {fileID: 2800000, guid: b6a26405c9ced44418f598bd89108dba, type: 3}
        m_Scale: {x: 3, y: 3}
        m_Offset: {x: 0, y: 0}
    - _E01:
        m_Texture: {fileID: 2800000, guid: 2371dcf174649554e80ac9483968e3bc, type: 3}
        m_Scale: {x: 4, y: 4}
        m_Offset: {x: 0, y: 0}
    - _MainTex:
        m_Texture: {fileID: 0}
        m_Scale: {x: 1, y: 1}
        m_Offset: {x: 0, y: 0}
    m_Floats:
    - _Alpha01_Bright: 4
    - _Alpha01_UVangle: 0.5
    - _Cutoff: 0.5
    - _DisE01_value: 0.3
    - _E01_Bright: 1
    - _E01_UVangle: 0
    - _E01_UVpan: 0
    - _E01_UVpan_Speed: 0.15
    - _E01_UVpan_TimeVertexAlpha: 0
    - _Opacity_ONOff: 1
    m_Colors:
    - _Color: {r: 1, g: 1, b: 1, a: 1}
    - _E01_Color: {r: 1, g: 1, b: 1, a: 1}
