%YAML 1.1
%TAG !u! tag:unity3d.com,2011:
--- !u!21 &2100000
Material:
  serializedVersion: 6
  m_ObjectHideFlags: 0
  m_CorrespondingSourceObject: {fileID: 0}
  m_PrefabInternal: {fileID: 0}
  m_Name: ptefdie01
  m_Shader: {fileID: 4800000, guid: 948af6d93870b3b43841bc359ddf7568, type: 3}
  m_ShaderKeywords: 
  m_LightmapFlags: 4
  m_EnableInstancingVariants: 0
  m_DoubleSidedGI: 0
  m_CustomRenderQueue: -1
  stringTagMap: {}
  disabledShaderPasses: []
  m_SavedProperties:
    serializedVersion: 3
    m_TexEnvs:
    - _LightTex:
        m_Texture: {fileID: 2800000, guid: 735c7adf1944ede4ba49fd29f66096bb, type: 3}
        m_Scale: {x: 1, y: 1}
        m_Offset: {x: 0, y: 0}
    - _MainTex:
        m_Texture: {fileID: 2800000, guid: 02fd9684d585cb940838c91936274952, type: 3}
        m_Scale: {x: 1, y: 1}
        m_Offset: {x: 0, y: 0}
    m_Floats:
    - _InvFade: 1
    - _alpha: 1
    - _back: 5
    - _level: 1
    - _light: 5
    - _uv_x: 5
    - _uv_y: 5
    - _while: 0
    m_Colors:
    - _BackColor: {r: 0.30147058, g: 0.4508113, b: 1, a: 0}
    - _Color: {r: 1, g: 1, b: 1, a: 1}
    - _TintColor: {r: 1, g: 1, b: 1, a: 0.5019608}
