%YAML 1.1
%TAG !u! tag:unity3d.com,2011:
--- !u!21 &2100000
Material:
  serializedVersion: 6
  m_ObjectHideFlags: 0
  m_CorrespondingSourceObject: {fileID: 0}
  m_PrefabInternal: {fileID: 0}
  m_Name: Izayoi_body01_sz003
  m_Shader: {fileID: 4800000, guid: 948af6d93870b3b43841bc359ddf7568, type: 3}
  m_ShaderKeywords: 
  m_LightmapFlags: 4
  m_EnableInstancingVariants: 0
  m_DoubleSidedGI: 0
  m_CustomRenderQueue: -1
  stringTagMap: {}
  disabledShaderPasses: []
  m_SavedProperties:
    serializedVersion: 3
    m_TexEnvs:
    - _LightTex:
        m_Texture: {fileID: 2800000, guid: 0aafe919af58a8b48b23144c7362fa1e, type: 3}
        m_Scale: {x: 1, y: 1}
        m_Offset: {x: 0, y: 0}
    - _MainTex:
        m_Texture: {fileID: 2800000, guid: 096b0a6f57ffdb74c9c7812bba281c28, type: 3}
        m_Scale: {x: 1, y: 1}
        m_Offset: {x: 0, y: 0}
    m_Floats:
    - _alpha: 1
    - _back: 2
    - _bh: 0
    - _level: 1
    - _light: 0
    - _uv_x: 1
    - _uv_y: 1
    - _while: 0
    m_Colors:
    - _BackColor: {r: 0.41209292, g: 0.20923445, b: 0.66176474, a: 0}
    - _Color: {r: 0.588, g: 0.588, b: 0.588, a: 1}
