%YAML 1.1
%TAG !u! tag:unity3d.com,2011:
--- !u!21 &2100000
Material:
  serializedVersion: 6
  m_ObjectHideFlags: 0
  m_CorrespondingSourceObject: {fileID: 0}
  m_PrefabInternal: {fileID: 0}
  m_Name: 'Material #573'
  m_Shader: {fileID: 200, guid: 0000000000000000f000000000000000, type: 0}
  m_ShaderKeywords: _ANIMVERTEXALPHA_ON
  m_LightmapFlags: 4
  m_EnableInstancingVariants: 0
  m_DoubleSidedGI: 0
  m_CustomRenderQueue: -1
  stringTagMap: {}
  disabledShaderPasses: []
  m_SavedProperties:
    serializedVersion: 3
    m_TexEnvs:
    - _Alpha01:
        m_Texture: {fileID: 0}
        m_Scale: {x: 1, y: 1}
        m_Offset: {x: 0, y: 0}
    - _Alpha02:
        m_Texture: {fileID: 2800000, guid: 34dfd6cc60a60d043a82855ac46450bf, type: 3}
        m_Scale: {x: 1, y: 1}
        m_Offset: {x: 0, y: 0}
    - _D01:
        m_Texture: {fileID: 0}
        m_Scale: {x: 1, y: 1}
        m_Offset: {x: 0, y: 0}
    - _DisE01:
        m_Texture: {fileID: 2800000, guid: 34dfd6cc60a60d043a82855ac46450bf, type: 3}
        m_Scale: {x: 1, y: 1}
        m_Offset: {x: 0, y: 0}
    - _E01:
        m_Texture: {fileID: 2800000, guid: 34dfd6cc60a60d043a82855ac46450bf, type: 3}
        m_Scale: {x: 1, y: 1}
        m_Offset: {x: 0, y: 0}
    - _MainTex:
        m_Texture: {fileID: 2800000, guid: 5ea654be59c6fa54e83faa6b377214b6, type: 3}
        m_Scale: {x: 1, y: 1}
        m_Offset: {x: 0, y: 0}
    m_Floats:
    - _Alpha01_Bright: 1
    - _Alpha01_UVangle: 0
    - _Alpha01_Upan_Speed: 1
    - _Alpha02_Bright: 1
    - _Alpha02_Vpan_Speed: 0
    - _AnimVertexAlpha: 1
    - _Cutoff: 0.5
    - _DisE01_Vpan_Speed: 1
    - _DisE01_value: 0
    - _Dissovle_Bright: 0
    - _Dissovle_Time: 1
    - _Dissovle_Width: 0.002
    - _E01_Bright: 1
    - _E01_UVangle: 0
    - _E01_UVpan: 0
    - _E01_UVpan_Speed: 0
    - _E01_UVpan_TimeVertexAlpha: 0
    - _InvFade: 1
    - _Opacity_ONOff: 0
    - _Shininess: 0.7
    - _Tex_Power: 1
    m_Colors:
    - _Color: {r: 0.588, g: 0.588, b: 0.588, a: 1}
    - _Dissovle_Color: {r: 1, g: 1, b: 1, a: 1}
    - _E01_Color: {r: 1, g: 1, b: 1, a: 1}
    - _Emission: {r: 0, g: 0, b: 0, a: 0}
    - _HSV: {r: 1, g: 1, b: 1, a: 1}
    - _SpecColor: {r: 1, g: 1, b: 1, a: 1}
    - _TintColor: {r: 0.6544118, g: 0.6544118, b: 0.6544118, a: 0.5019608}
