%YAML 1.1
%TAG !u! tag:unity3d.com,2011:
--- !u!74 &7400000
AnimationClip:
  m_ObjectHideFlags: 0
  m_PrefabParentObject: {fileID: 0}
  m_PrefabInternal: {fileID: 0}
  m_Name: EFF_UAV
  serializedVersion: 4
  m_AnimationType: 2
  m_Compressed: 0
  m_UseHighQualityCurve: 1
  m_RotationCurves:
  - curve:
      serializedVersion: 2
      m_Curve:
      - time: 0
        value: {x: .00539352512, y: -.000164524667, z: .000164524667, w: .999985456}
        inSlope: {x: -5.57396525e-05, y: .000538098975, z: .000564735034, w: 0}
        outSlope: {x: -5.57396525e-05, y: .000538098975, z: .000564735034, w: 0}
        tangentMode: 1065353216
      - time: .0166666675
        value: {x: .00539259613, y: -.00015555635, z: .000173936918, w: .999985456}
        inSlope: {x: -5.57536223e-05, y: .000538098975, z: .000564735034, w: 0}
        outSlope: {x: -5.57536223e-05, y: .000538098975, z: .000564735034, w: 0}
        tangentMode: 0
      - time: .0333333351
        value: {x: .00539166667, y: -.000146588034, z: .00018334917, w: .999985456}
        inSlope: {x: -5.57536187e-05, y: .00053809979, z: .000564736314, w: 0}
        outSlope: {x: -5.57536187e-05, y: .00053809979, z: .000564736314, w: 0}
        tangentMode: 0
      - time: .0500000045
        value: {x: .00539073767, y: -.000137619689, z: .000192761465, w: .999985456}
        inSlope: {x: -5.57536223e-05, y: .000538100721, z: .000564737711, w: 0}
        outSlope: {x: -5.57536223e-05, y: .000538100721, z: .000564737711, w: 0}
        tangentMode: -1202524163
      - time: .0666666701
        value: {x: .00538980821, y: -.000128651343, z: .00020217376, w: .999985456}
        inSlope: {x: -5.57536296e-05, y: .000538101885, z: .000564737769, w: 0}
        outSlope: {x: -5.57536296e-05, y: .000538101885, z: .000564737769, w: 0}
        tangentMode: 0
      - time: .0833333358
        value: {x: .00538887922, y: -.000119682962, z: .000211586055, w: .999985456}
        inSlope: {x: -5.57256899e-05, y: .000538103166, z: .000564739108, w: 0}
        outSlope: {x: -5.57256899e-05, y: .000538103166, z: .000564739108, w: 0}
        tangentMode: 1065353216
      - time: .100000001
        value: {x: .00538795069, y: -.000110714573, z: .000220998394, w: .999985456}
        inSlope: {x: -5.57117201e-05, y: .000538103865, z: .000564741262, w: 1.78813946e-06}
        outSlope: {x: -5.57117201e-05, y: .000538103865, z: .000564741262, w: 1.78813946e-06}
        tangentMode: 1065353216
      - time: .116666667
        value: {x: .00538702216, y: -.000101746169, z: .000230410762, w: .999985516}
        inSlope: {x: -5.56977393e-05, y: .000538105029, z: .000564742018, w: 1.78813946e-06}
        outSlope: {x: -5.56977393e-05, y: .000538105029, z: .000564742018, w: 1.78813946e-06}
        tangentMode: 0
      - time: .13333334
        value: {x: .0053860941, y: -9.27777364e-05, z: .00023982313, w: .999985516}
        inSlope: {x: -5.57117091e-05, y: .000538106542, z: .000564741553, w: -1.78813946e-06}
        outSlope: {x: -5.57117091e-05, y: .000538106542, z: .000564741553, w: -1.78813946e-06}
        tangentMode: 0
      - time: .150000006
        value: {x: .0053851651, y: -8.38092819e-05, z: .000249235483, w: .999985456}
        inSlope: {x: -5.57117201e-05, y: .000538107532, z: .000564743008, w: -1.78813946e-06}
        outSlope: {x: -5.57117201e-05, y: .000538107532, z: .000564743008, w: -1.78813946e-06}
        tangentMode: 0
      - time: .166666672
        value: {x: .00538423704, y: -7.48408202e-05, z: .000258647895, w: .999985456}
        inSlope: {x: -5.56837804e-05, y: .000538108172, z: .000564744754, w: 0}
        outSlope: {x: -5.56837804e-05, y: .000538108172, z: .000564744754, w: 0}
        tangentMode: 0
      - time: .183333337
        value: {x: .00538330898, y: -6.58723438e-05, z: .000268060307, w: .999985456}
        inSlope: {x: -5.56698105e-05, y: .000538109511, z: .000564745627, w: 0}
        outSlope: {x: -5.56698105e-05, y: .000538109511, z: .000564745627, w: 0}
        tangentMode: 0
      - time: .200000003
        value: {x: .00538238138, y: -5.69038384e-05, z: .000277472747, w: .999985456}
        inSlope: {x: -5.56418709e-05, y: .000538110733, z: .0005647465, w: 0}
        outSlope: {x: -5.56418709e-05, y: .000538110733, z: .0005647465, w: 0}
        tangentMode: 0
      - time: .216666669
        value: {x: .00538145425, y: -4.79353221e-05, z: .000286885188, w: .999985456}
        inSlope: {x: -5.5627901e-05, y: .000538111548, z: .000564747374, w: 0}
        outSlope: {x: -5.5627901e-05, y: .000538111548, z: .000564747374, w: 0}
        tangentMode: 0
      - time: .233333334
        value: {x: .00538052712, y: -3.89667875e-05, z: .000296297658, w: .999985456}
        inSlope: {x: -5.5627901e-05, y: .000538112596, z: .00056474912, w: 0}
        outSlope: {x: -5.5627901e-05, y: .000538112596, z: .00056474912, w: 0}
        tangentMode: 0
      - time: .25
        value: {x: .00537959998, y: -2.99982385e-05, z: .000305710157, w: .999985456}
        inSlope: {x: -5.56278756e-05, y: .000538113643, z: .000564749702, w: 0}
        outSlope: {x: -5.56278756e-05, y: .000538113643, z: .000564749702, w: 0}
        tangentMode: 1065353216
      - time: .266666681
        value: {x: .00537867285, y: -2.10296603e-05, z: .000315122656, w: .999985456}
        inSlope: {x: -5.56418199e-05, y: .000538114691, z: .000564750342, w: 0}
        outSlope: {x: -5.56418199e-05, y: .000538114691, z: .000564750342, w: 0}
        tangentMode: 0
      - time: .283333361
        value: {x: .00537774526, y: -1.20610675e-05, z: .000324535184, w: .999985456}
        inSlope: {x: -5.56278501e-05, y: .000538115681, z: .000564751215, w: 0}
        outSlope: {x: -5.56278501e-05, y: .000538115681, z: .000564751215, w: 0}
        tangentMode: 0
      - time: .300000042
        value: {x: .00537681859, y: -3.09245593e-06, z: .000333947712, w: .999985456}
        inSlope: {x: -5.55859406e-05, y: .000538116845, z: .000564752088, w: 1.78813787e-06}
        outSlope: {x: -5.55859406e-05, y: .000538116845, z: .000564752088, w: 1.78813787e-06}
        tangentMode: 0
      - time: .316666722
        value: {x: .00537589239, y: 5.87617478e-06, z: .000343360269, w: .999985516}
        inSlope: {x: -5.55719707e-05, y: .000538117951, z: .000564753835, w: 1.78813787e-06}
        outSlope: {x: -5.55719707e-05, y: .000538117951, z: .000564753835, w: 1.78813787e-06}
        tangentMode: 1095150251
      - time: .333333403
        value: {x: .00537496619, y: 1.48448225e-05, z: .000352772855, w: .999985516}
        inSlope: {x: -5.55719707e-05, y: .000538118882, z: .000564754708, w: 0}
        outSlope: {x: -5.55719707e-05, y: .000538118882, z: .000564754708, w: 0}
        tangentMode: -1
      - time: .350000083
        value: {x: .00537403999, y: 2.38134871e-05, z: .000362185441, w: .999985516}
        inSlope: {x: -5.55580009e-05, y: .00053811993, z: .000564755581, w: 0}
        outSlope: {x: -5.55580009e-05, y: .00053811993, z: .000564755581, w: 0}
        tangentMode: -1
      - time: .366666764
        value: {x: .00537311425, y: 3.2782169e-05, z: .000371598057, w: .999985516}
        inSlope: {x: -5.55300612e-05, y: .000538120978, z: .000564756454, w: 0}
        outSlope: {x: -5.55300612e-05, y: .000538120978, z: .000564756454, w: 0}
        tangentMode: -1
      - time: .383333445
        value: {x: .00537218899, y: 4.17508672e-05, z: .000381010672, w: .999985516}
        inSlope: {x: -5.55300612e-05, y: .0005381222, z: .000564756454, w: 0}
        outSlope: {x: -5.55300612e-05, y: .0005381222, z: .000564756454, w: 0}
        tangentMode: -1
      - time: .400000125
        value: {x: .00537126325, y: 5.07195909e-05, z: .000390423287, w: .999985516}
        inSlope: {x: -5.55580009e-05, y: .000538123073, z: .0005647582, w: 0}
        outSlope: {x: -5.55580009e-05, y: .000538123073, z: .0005647582, w: 0}
        tangentMode: -1
      - time: .416666806
        value: {x: .00537033705, y: 5.96883183e-05, z: .000399835961, w: .999985516}
        inSlope: {x: -5.55300612e-05, y: .000538124179, z: .000564759946, w: 0}
        outSlope: {x: -5.55300612e-05, y: .000538124179, z: .000564759946, w: 0}
        tangentMode: -1
      - time: .433333486
        value: {x: .00536941225, y: 6.86570784e-05, z: .000409248634, w: .999985516}
        inSlope: {x: -5.55021215e-05, y: .000538125634, z: .000564759946, w: 0}
        outSlope: {x: -5.55021215e-05, y: .000538125634, z: .000564759946, w: 0}
        tangentMode: -1
      - time: .450000167
        value: {x: .00536848698, y: 7.7625853e-05, z: .000418661308, w: .999985516}
        inSlope: {x: -5.55160914e-05, y: .000538126216, z: .000564761693, w: -1.78813787e-06}
        outSlope: {x: -5.55160914e-05, y: .000538126216, z: .000564761693, w: -1.78813787e-06}
        tangentMode: -1
      - time: .466666847
        value: {x: .00536756171, y: 8.65946349e-05, z: .00042807404, w: .999985456}
        inSlope: {x: -5.54881517e-05, y: .000538127148, z: .000564764312, w: -1.78813787e-06}
        outSlope: {x: -5.54881517e-05, y: .000538127148, z: .000564764312, w: -1.78813787e-06}
        tangentMode: -1
      - time: .483333528
        value: {x: .00536663737, y: 9.55634387e-05, z: .0004374868, w: .999985456}
        inSlope: {x: -5.54882026e-05, y: .000538128254, z: .000564762158, w: 0}
        outSlope: {x: -5.54882026e-05, y: .000538128254, z: .000564762158, w: 0}
        tangentMode: 20
      - time: .500000179
        value: {x: .0053657121, y: .000104532242, z: .000446899445, w: .999985456}
        inSlope: {x: -5.54882536e-05, y: .000538129592, z: .000564764428, w: 1.78814105e-06}
        outSlope: {x: -5.54882536e-05, y: .000538129592, z: .000564764428, w: 1.78814105e-06}
        tangentMode: 968763326
      - time: .51666683
        value: {x: .00536478776, y: .000113501075, z: .000456312264, w: .999985516}
        inSlope: {x: -5.5446344e-05, y: .000538130873, z: .000564766175, w: 1.78814105e-06}
        outSlope: {x: -5.5446344e-05, y: .000538130873, z: .000564766175, w: 1.78814105e-06}
        tangentMode: -1213175590
      - time: .53333348
        value: {x: .00536386389, y: .000122469923, z: .000465724966, w: .999985516}
        inSlope: {x: -5.53764949e-05, y: .000538131571, z: .000564766175, w: 0}
        outSlope: {x: -5.53764949e-05, y: .000538131571, z: .000564766175, w: 0}
        tangentMode: -1202524195
      - time: .550000131
        value: {x: .00536294188, y: .000131438777, z: .000475137786, w: .999985516}
        inSlope: {x: .00962479506, y: .000533426588, z: .000563356967, w: -5.36442312e-05}
        outSlope: {x: .00962479506, y: .000533426588, z: .000563356967, w: -5.36442312e-05}
        tangentMode: 6
      - time: .566666782
        value: {x: .00568469008, y: .000140250791, z: .000484503515, w: .999983728}
        inSlope: {x: .0193048976, y: .000528537552, z: .00056177139, w: -.000110864741}
        outSlope: {x: .0193048976, y: .000528537552, z: .00056177139, w: -.000110864741}
        tangentMode: 856465392
      - time: .583333433
        value: {x: .00600643782, y: .000149056679, z: .000493863481, w: .999981821}
        inSlope: {x: .0193048827, y: .000528169563, z: .000561418652, w: -.000116229166}
        outSlope: {x: .0193048827, y: .000528169563, z: .000561418652, w: -.000116229166}
        tangentMode: 4
      - time: .600000083
        value: {x: .00632818555, y: .000157856426, z: .000503217452, w: .999979854}
        inSlope: {x: .0193048678, y: .000527801109, z: .000561062421, w: -.000121593592}
        outSlope: {x: .0193048678, y: .000527801109, z: .000561062421, w: -.000121593592}
        tangentMode: 974392317
      - time: .616666734
        value: {x: .00664993282, y: .000166650032, z: .000512565544, w: .999977767}
        inSlope: {x: .0193048269, y: .00052743312, z: .000560711429, w: -.000128746149}
        outSlope: {x: .0193048269, y: .00052743312, z: .000560711429, w: -.000128746149}
        tangentMode: 4
      - time: .633333385
        value: {x: .00697167916, y: .000175437512, z: .000521907816, w: .999975562}
        inSlope: {x: .019304771, y: .0005270642, z: .000560356944, w: -.000134110582}
        outSlope: {x: .019304771, y: .0005270642, z: .000560356944, w: -.000134110582}
        tangentMode: 1065352973
      - time: .650000036
        value: {x: .00729342457, y: .000184218821, z: .000531244092, w: .999973297}
        inSlope: {x: .0193047561, y: .000526694872, z: .00056000246, w: -.000139475}
        outSlope: {x: .0193047561, y: .000526694872, z: .00056000246, w: -.000139475}
        tangentMode: -1236078627
      - time: .666666687
        value: {x: .00761517044, y: .00019299399, z: .000540574547, w: .999970913}
        inSlope: {x: .019304743, y: .00052632601, z: .000559649721, w: -.000148415711}
        outSlope: {x: .019304743, y: .00052632601, z: .000559649721, w: -.000148415711}
        tangentMode: -1201084173
      - time: .683333337
        value: {x: .00793691538, y: .000201763003, z: .000549899065, w: .99996835}
        inSlope: {x: .0193046592, y: .000525956624, z: .000559288252, w: -.000155568268}
        outSlope: {x: .0193046592, y: .000525956624, z: .000559288252, w: -.000155568268}
        tangentMode: 0
      - time: .699999988
        value: {x: .00825865846, y: .000210525861, z: .000559217471, w: .999965727}
        inSlope: {x: .0193046313, y: .000525586889, z: .000558933767, w: -.000160932686}
        outSlope: {x: .0193046313, y: .000525586889, z: .000558933767, w: -.000160932686}
        tangentMode: 942611879
      - time: .716666639
        value: {x: .00858040247, y: .000219282549, z: .000568530173, w: .999962986}
        inSlope: {x: .0193046313, y: .000525217562, z: .000558586267, w: -.000166297119}
        outSlope: {x: .0193046313, y: .000525217562, z: .000558586267, w: -.000166297119}
        tangentMode: 961736669
      - time: .73333329
        value: {x: .00890214555, y: .000228033095, z: .000577836996, w: .999960184}
        inSlope: {x: .0193045475, y: .000524848234, z: .000558231783, w: -.000171661537}
        outSlope: {x: .0193045475, y: .000524848234, z: .000558231783, w: -.000171661537}
        tangentMode: 6
      - time: .74999994
        value: {x: .00922388677, y: .000236777472, z: .000587137882, w: .999957263}
        inSlope: {x: .0193044357, y: .000524478499, z: .000557873806, w: -.000178814109}
        outSlope: {x: .0193044357, y: .000524478499, z: .000557873806, w: -.000178814109}
        tangentMode: 868079595
      - time: .766666591
        value: {x: .00954562612, y: .000245515694, z: .000596432772, w: .999954224}
        inSlope: {x: .0193044357, y: .000524108706, z: .000557514082, w: -.000185966666}
        outSlope: {x: .0193044357, y: .000524108706, z: .000557514082, w: -.000185966666}
        tangentMode: 4
      - time: .783333242
        value: {x: .00986736733, y: .000254247745, z: .000605721667, w: .999951065}
        inSlope: {x: .0193044357, y: .000523737632, z: .000557161344, w: -.000191331084}
        outSlope: {x: .0193044357, y: .000523737632, z: .000557161344, w: -.000191331084}
        tangentMode: 974392422
      - time: .799999893
        value: {x: .0101891067, y: .000262973597, z: .000615004799, w: .999947846}
        inSlope: {x: .0193043239, y: .000523368304, z: .000556810352, w: -.000196695517}
        outSlope: {x: .0193043239, y: .000523368304, z: .000556810352, w: -.000196695517}
        tangentMode: 4
      - time: .816666543
        value: {x: .0105108442, y: .000271693338, z: .000624281995, w: .999944508}
        inSlope: {x: .019304296, y: .00052299723, z: .000556454121, w: -.000202059935}
        outSlope: {x: .019304296, y: .00052299723, z: .000556454121, w: -.000202059935}
        tangentMode: 1065352973
      - time: .833333194
        value: {x: .0108325826, y: .000280406821, z: .000633553253, w: .999941111}
        inSlope: {x: .0193042681, y: .00052262441, z: .000556094397, w: -.000211000646}
        outSlope: {x: .0193042681, y: .00052262441, z: .000556094397, w: -.000211000646}
        tangentMode: -1217573415
      - time: .849999845
        value: {x: .0111543192, y: .000289114134, z: .000642818457, w: .999937475}
        inSlope: {x: .0193041842, y: .000522255083, z: .00055573642, w: -.000218153204}
        outSlope: {x: .0193041842, y: .000522255083, z: .00055573642, w: -.000218153204}
        tangentMode: -1201095679
      - time: .866666496
        value: {x: .0114760548, y: .000297815306, z: .000652077782, w: .999933839}
        inSlope: {x: .0193041004, y: .000521884882, z: .000555381936, w: -.000221729482}
        outSlope: {x: .0193041004, y: .000521884882, z: .000555381936, w: -.000221729482}
        tangentMode: -1193213924
      - time: .883333147
        value: {x: .0117977886, y: .000306510279, z: .000661331171, w: .999930084}
        inSlope: {x: .0193040445, y: .000521512935, z: .000555027451, w: -.000227093915}
        outSlope: {x: .0193040445, y: .000521512935, z: .000555027451, w: -.000227093915}
        tangentMode: 953890898
      - time: .899999797
        value: {x: .0121195223, y: .000315199053, z: .00067057868, w: .999926269}
        inSlope: {x: .0193039887, y: .000521142734, z: .000554672966, w: -.000232458333}
        outSlope: {x: .0193039887, y: .000521142734, z: .000554672966, w: -.000232458333}
        tangentMode: 958280734
      - time: .916666448
        value: {x: .0124412542, y: .000323881686, z: .000679820252, w: .999922335}
        inSlope: {x: .0193039607, y: .000520770787, z: .000554311497, w: -.000239610905}
        outSlope: {x: .0193039607, y: .000520770787, z: .000554311497, w: -.000239610905}
        tangentMode: 6
      - time: .933333099
        value: {x: .0127629871, y: .000332558062, z: .000689055712, w: .999918282}
        inSlope: {x: .0193038769, y: .000520397967, z: .00055395352, w: -.000246763462}
        outSlope: {x: .0193038769, y: .000520397967, z: .00055395352, w: -.000246763462}
        tangentMode: 966002430
      - time: .94999975
        value: {x: .0130847162, y: .000341228268, z: .000698285352, w: .99991411}
        inSlope: {x: .0193037931, y: .00052002602, z: .000553599035, w: -.00025391602}
        outSlope: {x: .0193037931, y: .00052002602, z: .000553599035, w: -.00025391602}
        tangentMode: 4
      - time: .9666664
        value: {x: .0134064462, y: .000349892245, z: .000707508996, w: .999909818}
        inSlope: {x: .0193037651, y: .000519654946, z: .000553242804, w: -.000259280438}
        outSlope: {x: .0193037651, y: .000519654946, z: .000553242804, w: -.000259280438}
        tangentMode: 974368319
      - time: .983333051
        value: {x: .0137281744, y: .000358550082, z: .000716726761, w: .999905467}
        inSlope: {x: .0193036534, y: .000519282999, z: .000552883081, w: -.000264644885}
        outSlope: {x: .0193036534, y: .000519282999, z: .000552883081, w: -.000264644885}
        tangentMode: 4
      - time: .999999702
        value: {x: .0140499007, y: .000367201661, z: .000725938415, w: .999900997}
        inSlope: {x: .0193032846, y: .00025244226, z: .000272611185, w: -.000271796947}
        outSlope: {x: .0193032846, y: .00025244226, z: .000272611185, w: -.000271796947}
        tangentMode: 1065352943
      - time: 1.01666641
        value: {x: .0143716177, y: .000366964814, z: .000725813792, w: .999896407}
        inSlope: {x: .0193028934, y: -1.42160452e-05, z: -7.48433467e-06, w: -.000277161365}
        outSlope: {x: .0193028934, y: -1.42160452e-05, z: -7.48433467e-06, w: -.000277161365}
        tangentMode: 1062933426
      - time: 1.03333306
        value: {x: .014693331, y: .000366727792, z: .000725688937, w: .999891758}
        inSlope: {x: .0193027593, y: -1.42230556e-05, z: -7.49307947e-06, w: -.000282526278}
        outSlope: {x: .0193027593, y: -1.42230556e-05, z: -7.49307947e-06, w: -.000282526278}
        tangentMode: 973763804
      - time: 1.04999971
        value: {x: .0150150424, y: .000366490713, z: .000725564023, w: .99988699}
        inSlope: {x: .0193026755, y: -1.42256749e-05, z: -7.49831815e-06, w: -.000289678865}
        outSlope: {x: .0193026755, y: -1.42256749e-05, z: -7.49831815e-06, w: -.000289678865}
        tangentMode: 3
      - time: 1.06666636
        value: {x: .0153367529, y: .000366253604, z: .000725438993, w: .999882102}
        inSlope: {x: .0193025637, y: -1.42282943e-05, z: -7.50530307e-06, w: -.000296831422}
        outSlope: {x: .0193025637, y: -1.42282943e-05, z: -7.50530307e-06, w: -.000296831422}
        tangentMode: 973335130
      - time: 1.08333302
        value: {x: .0156584606, y: .000366016437, z: .000725313846, w: .999877095}
        inSlope: {x: .019302452, y: -1.42300405e-05, z: -7.50879553e-06, w: -.00030219584}
        outSlope: {x: .019302452, y: -1.42300405e-05, z: -7.50879553e-06, w: -.00030219584}
        tangentMode: -1231145954
      - time: 1.09999967
        value: {x: .0159801673, y: .000365779269, z: .0007251887, w: .999872029}
        inSlope: {x: .019302424, y: -1.42317867e-05, z: -7.51054176e-06, w: -.000307560258}
        outSlope: {x: .019302424, y: -1.42317867e-05, z: -7.51054176e-06, w: -.000307560258}
        tangentMode: 1059201571
      - time: 1.11666632
        value: {x: .0163018741, y: .000365542044, z: .000725063495, w: .999866843}
        inSlope: {x: .0193023123, y: -1.42352792e-05, z: -7.51578045e-06, w: -.000314712815}
        outSlope: {x: .0193023123, y: -1.42352792e-05, z: -7.51578045e-06, w: -.000314712815}
        tangentMode: -1220914153
      - time: 1.13333297
        value: {x: .0166235771, y: .000365304761, z: .000724938174, w: .999861538}
        inSlope: {x: .0193022005, y: -1.42387717e-05, z: -7.52276537e-06, w: -.000321865373}
        outSlope: {x: .0193022005, y: -1.42387717e-05, z: -7.52276537e-06, w: -.000321865373}
        tangentMode: 1005518254
      - time: 1.14999962
        value: {x: .0169452801, y: .000365067419, z: .000724812737, w: .999856114}
        inSlope: {x: .0193021446, y: -1.42396448e-05, z: -7.52625783e-06, w: -.00032722982}
        outSlope: {x: .0193021446, y: -1.42396448e-05, z: -7.52625783e-06, w: -.00032722982}
        tangentMode: -1189986295
      - time: 1.16666627
        value: {x: .0172669813, y: .000364830106, z: .000724687299, w: .999850631}
        inSlope: {x: .019301977, y: -1.42405179e-05, z: -7.52975029e-06, w: -.000332594238}
        outSlope: {x: .019301977, y: -1.42405179e-05, z: -7.52975029e-06, w: -.000332594238}
        tangentMode: 5
      - time: 1.18333292
        value: {x: .0175886787, y: .000364592735, z: .000724561745, w: .999845028}
        inSlope: {x: .0193019211, y: -1.42440103e-05, z: -7.53498898e-06, w: -.000339746795}
        outSlope: {x: .0193019211, y: -1.42440103e-05, z: -7.53498898e-06, w: -.000339746795}
        tangentMode: -1223909358
      - time: 1.19999957
        value: {x: .0179103781, y: .000364355306, z: .000724436133, w: .999839306}
        inSlope: {x: .0193018094, y: -1.42466297e-05, z: -7.54022767e-06, w: -.000346899353}
        outSlope: {x: .0193018094, y: -1.42466297e-05, z: -7.54022767e-06, w: -.000346899353}
        tangentMode: -1143803865
      - time: 1.21666622
        value: {x: .0182320718, y: .000364117848, z: .000724310405, w: .999833465}
        inSlope: {x: .0193015859, y: -1.42483759e-05, z: -7.54546636e-06, w: -.0003522638}
        outSlope: {x: .0193015859, y: -1.42483759e-05, z: -7.54546636e-06, w: -.0003522638}
        tangentMode: 973719434
      - time: 1.23333287
        value: {x: .0185537636, y: .000363880361, z: .000724184618, w: .999827564}
        inSlope: {x: .01930153, y: -1.42509953e-05, z: -7.54895882e-06, w: -.000357628218}
        outSlope: {x: .01930153, y: -1.42509953e-05, z: -7.54895882e-06, w: -.000357628218}
        tangentMode: 3
      - time: 1.24999952
        value: {x: .0188754555, y: .000363642816, z: .000724058773, w: .999821544}
        inSlope: {x: .0193014741, y: -1.42536146e-05, z: -7.55245128e-06, w: -.000364780775}
        outSlope: {x: .0193014741, y: -1.42536146e-05, z: -7.55245128e-06, w: -.000364780775}
        tangentMode: 1114636288
      - time: 1.26666617
        value: {x: .0191971455, y: .000363405241, z: .00072393287, w: .999815404}
        inSlope: {x: .0193013623, y: -1.42544877e-05, z: -7.55594374e-06, w: -.000370145193}
        outSlope: {x: .0193013623, y: -1.42544877e-05, z: -7.55594374e-06, w: -.000370145193}
        tangentMode: 0
      - time: 1.28333282
        value: {x: .0195188336, y: .000363167666, z: .000723806908, w: .999809206}
        inSlope: {x: .0193011947, y: -1.42571071e-05, z: -7.56118243e-06, w: -.000375509611}
        outSlope: {x: .0193011947, y: -1.42571071e-05, z: -7.56118243e-06, w: -.000375509611}
        tangentMode: 1065363191
      - time: 1.29999948
        value: {x: .019840518, y: .000362930004, z: .000723680831, w: .999802887}
        inSlope: {x: .0193010718, y: -1.42594708e-05, z: -7.5662856e-06, w: -.000382655271}
        outSlope: {x: .0193010718, y: -1.42594708e-05, z: -7.5662856e-06, w: -.000382655271}
        tangentMode: 1077936128
      - time: 1.31666672
        value: {x: .0201622136, y: .000362692343, z: .000723554695, w: .99979645}
        inSlope: {x: .0193010624, y: -1.42592162e-05, z: -7.56789677e-06, w: -.000386224652}
        outSlope: {x: .0193010624, y: -1.42592162e-05, z: -7.56789677e-06, w: -.000386224652}
        tangentMode: 0
      m_PreInfinity: 2
      m_PostInfinity: 2
    path: 
  m_CompressedRotationCurves: []
  m_PositionCurves:
  - curve:
      serializedVersion: 2
      m_Curve:
      - time: 0
        value: {x: 0, y: 12.176899, z: -17.9143181}
        inSlope: {x: 0, y: 0, z: 16.4838047}
        outSlope: {x: 0, y: 0, z: 16.4838047}
        tangentMode: 1869182049
      - time: .016667366
        value: {x: 0, y: 12.176899, z: -17.6337585}
        inSlope: {x: 0, y: -31.8863583, z: 17.1715698}
        outSlope: {x: 0, y: -31.8863583, z: 17.1715698}
        tangentMode: 0
      - time: .25
        value: {x: 0, y: 4.73677111, z: -13.0235109}
        inSlope: {x: 0, y: -5.75428391, z: 20.3330841}
        outSlope: {x: 0, y: -5.75428391, z: 20.3330841}
        tangentMode: 0
      - time: .583333313
        value: {x: 0, y: 5.28594351, z: -8.29876614}
        inSlope: {x: 0, y: 4.80561876, z: 3.90948844}
        outSlope: {x: 0, y: 4.80561876, z: 3.90948844}
        tangentMode: 0
      - time: .783333361
        value: {x: 0, y: 5.81124973, z: -7.65612125}
        inSlope: {x: 0, y: -1.08028877, z: 2.56165361}
        outSlope: {x: 0, y: -1.03595996, z: 2.56165361}
        tangentMode: 0
      - time: .850000024
        value: {x: 0, y: 5.7452693, z: -7.49849939}
        inSlope: {x: 0, y: -.944114804, z: 2.17197156}
        outSlope: {x: 0, y: -.944114804, z: 2.17197156}
        tangentMode: 0
      - time: 1
        value: {x: 0, y: 5.61831951, z: -7.23217726}
        inSlope: {x: 0, y: -.751869678, z: 1.4041357}
        outSlope: {x: 0, y: -.751869678, z: 1.4041357}
        tangentMode: 53
      - time: 1.71666646
        value: {x: 0, y: 5.33714819, z: -7}
        inSlope: {x: 0, y: -.108685061, z: -.182277471}
        outSlope: {x: 0, y: -.108685061, z: -.0112318518}
        tangentMode: 0
      - time: 1.93333411
        value: {x: 0, y: 5.32570553, z: -7.00243378}
        inSlope: {x: 0, y: -.00387289189, z: -.0112318518}
        outSlope: {x: 0, y: -.00387289189, z: -.0112318518}
        tangentMode: 53
      - time: 2.70000005
        value: {x: 0, y: 5.58279657, z: -7.0110445}
        inSlope: {x: 0, y: -.0166893005, z: -.0112318518}
        outSlope: {x: 0, y: -.0166893005, z: -.0112318518}
        tangentMode: 53
      - time: 3.46666741
        value: {x: 0, y: 5.32344532, z: -7.0196557}
        inSlope: {x: 0, y: -.0190734863, z: -.0112318508}
        outSlope: {x: 0, y: -.0190734863, z: -.0112318508}
        tangentMode: 53
      - time: 4.75
        value: {x: 0, y: 5.45319319, z: -7.03407001}
        inSlope: {x: 0, y: -.0262260437, z: -.0112318508}
        outSlope: {x: 0, y: -.0262260437, z: -.0112318508}
        tangentMode: 53
      - time: 9.01666641
        value: {x: 0, y: 5.01120853, z: -7.08199263}
        inSlope: {x: 0, y: -.0429153442, z: -.0112318518}
        outSlope: {x: 0, y: -.0429153442, z: -.0112318518}
        tangentMode: 53
      - time: 9.36666679
        value: {x: 0, y: 5.33059454, z: -7.08592367}
        inSlope: {x: 0, y: 1.81613195, z: -.0112318518}
        outSlope: {x: 0, y: 1.81613195, z: 0}
        tangentMode: 0
      - time: 12.416667
        value: {x: 0, y: 21.5, z: -7.08592367}
        inSlope: {x: 0, y: 4.84964418, z: 0}
        outSlope: {x: 0, y: 4.84964418, z: 0}
        tangentMode: 53
      m_PreInfinity: 2
      m_PostInfinity: 2
    path: 
  m_ScaleCurves: []
  m_FloatCurves: []
  m_PPtrCurves: []
  m_SampleRate: 60
  m_WrapMode: 0
  m_Bounds:
    m_Center: {x: 0, y: 0, z: 0}
    m_Extent: {x: 0, y: 0, z: 0}
  m_AnimationClipSettings:
    serializedVersion: 2
    m_StartTime: 0
    m_StopTime: 12.416667
    m_OrientationOffsetY: 0
    m_Level: 0
    m_CycleOffset: 1
    m_LoopTime: 0
    m_LoopBlend: 0
    m_LoopBlendOrientation: 0
    m_LoopBlendPositionY: 0
    m_LoopBlendPositionXZ: 0
    m_KeepOriginalOrientation: 0
    m_KeepOriginalPositionY: 1
    m_KeepOriginalPositionXZ: 0
    m_HeightFromFeet: 0
    m_Mirror: 0
  m_EditorCurves:
  - curve:
      serializedVersion: 2
      m_Curve:
      - time: 0
        value: 0
        inSlope: 0
        outSlope: 0
        tangentMode: 10
      - time: .850000024
        value: 0
        inSlope: 0
        outSlope: 0
        tangentMode: 10
      - time: 1
        value: 0
        inSlope: 0
        outSlope: 0
        tangentMode: 10
      m_PreInfinity: 2
      m_PostInfinity: 2
    attribute: m_LocalPosition.x
    path: 
    classID: 4
    script: {fileID: 0}
  - curve:
      serializedVersion: 2
      m_Curve:
      - time: .016667366
        value: 12.176899
        inSlope: -31.8863583
        outSlope: -31.8863583
        tangentMode: 10
      - time: .25
        value: 4.73677111
        inSlope: -5.75428391
        outSlope: -5.75428391
        tangentMode: 0
      - time: .783333361
        value: 5.81124973
        inSlope: -1.08028877
        outSlope: -1.03595996
        tangentMode: 1
      - time: 1.93333411
        value: 5.32570553
        inSlope: -.00387289189
        outSlope: -.00387289189
        tangentMode: 0
      - time: 2.70000005
        value: 5.58279657
        inSlope: -.0166893005
        outSlope: -.0166893005
        tangentMode: 0
      - time: 3.46666741
        value: 5.32344532
        inSlope: -.0190734863
        outSlope: -.0190734863
        tangentMode: 0
      - time: 4.75
        value: 5.45319319
        inSlope: -.0262260437
        outSlope: -.0262260437
        tangentMode: 0
      - time: 9.01666641
        value: 5.01120853
        inSlope: -.0429153442
        outSlope: -.0429153442
        tangentMode: 0
      - time: 12.416667
        value: 21.5
        inSlope: 4.84964418
        outSlope: 4.84964418
        tangentMode: 10
      m_PreInfinity: 2
      m_PostInfinity: 2
    attribute: m_LocalPosition.y
    path: 
    classID: 4
    script: {fileID: 0}
  - curve:
      serializedVersion: 2
      m_Curve:
      - time: 0
        value: -17.9143181
        inSlope: 16.4838047
        outSlope: 16.4838047
        tangentMode: 10
      - time: .583333313
        value: -8.29876614
        inSlope: 3.90948844
        outSlope: 3.90948844
        tangentMode: 0
      - time: 1.71666646
        value: -7
        inSlope: -.182277471
        outSlope: -.0112318518
        tangentMode: 17
      - time: 9.36666679
        value: -7.08592367
        inSlope: -.0112318518
        outSlope: 0
        tangentMode: 5
      m_PreInfinity: 2
      m_PostInfinity: 2
    attribute: m_LocalPosition.z
    path: 
    classID: 4
    script: {fileID: 0}
  - curve:
      serializedVersion: 2
      m_Curve:
      - time: 0
        value: .00539352512
        inSlope: -5.57396525e-05
        outSlope: -5.57396525e-05
        tangentMode: 0
      - time: .0166666675
        value: .00539259613
        inSlope: -5.57536223e-05
        outSlope: -5.57536223e-05
        tangentMode: 0
      - time: .0333333351
        value: .00539166667
        inSlope: -5.57536187e-05
        outSlope: -5.57536187e-05
        tangentMode: 0
      - time: .0500000045
        value: .00539073767
        inSlope: -5.57536223e-05
        outSlope: -5.57536223e-05
        tangentMode: 0
      - time: .0666666701
        value: .00538980821
        inSlope: -5.57536296e-05
        outSlope: -5.57536296e-05
        tangentMode: 0
      - time: .0833333358
        value: .00538887922
        inSlope: -5.57256899e-05
        outSlope: -5.57256899e-05
        tangentMode: 0
      - time: .100000001
        value: .00538795069
        inSlope: -5.57117201e-05
        outSlope: -5.57117201e-05
        tangentMode: 0
      - time: .116666667
        value: .00538702216
        inSlope: -5.56977393e-05
        outSlope: -5.56977393e-05
        tangentMode: 0
      - time: .13333334
        value: .0053860941
        inSlope: -5.57117091e-05
        outSlope: -5.57117091e-05
        tangentMode: 0
      - time: .150000006
        value: .0053851651
        inSlope: -5.57117201e-05
        outSlope: -5.57117201e-05
        tangentMode: 0
      - time: .166666672
        value: .00538423704
        inSlope: -5.56837804e-05
        outSlope: -5.56837804e-05
        tangentMode: 0
      - time: .183333337
        value: .00538330898
        inSlope: -5.56698105e-05
        outSlope: -5.56698105e-05
        tangentMode: 0
      - time: .200000003
        value: .00538238138
        inSlope: -5.56418709e-05
        outSlope: -5.56418709e-05
        tangentMode: 0
      - time: .216666669
        value: .00538145425
        inSlope: -5.5627901e-05
        outSlope: -5.5627901e-05
        tangentMode: 0
      - time: .233333334
        value: .00538052712
        inSlope: -5.5627901e-05
        outSlope: -5.5627901e-05
        tangentMode: 0
      - time: .25
        value: .00537959998
        inSlope: -5.56278756e-05
        outSlope: -5.56278756e-05
        tangentMode: 0
      - time: .266666681
        value: .00537867285
        inSlope: -5.56418199e-05
        outSlope: -5.56418199e-05
        tangentMode: 0
      - time: .283333361
        value: .00537774526
        inSlope: -5.56278501e-05
        outSlope: -5.56278501e-05
        tangentMode: 0
      - time: .300000042
        value: .00537681859
        inSlope: -5.55859406e-05
        outSlope: -5.55859406e-05
        tangentMode: 0
      - time: .316666722
        value: .00537589239
        inSlope: -5.55719707e-05
        outSlope: -5.55719707e-05
        tangentMode: 0
      - time: .333333403
        value: .00537496619
        inSlope: -5.55719707e-05
        outSlope: -5.55719707e-05
        tangentMode: 0
      - time: .350000083
        value: .00537403999
        inSlope: -5.55580009e-05
        outSlope: -5.55580009e-05
        tangentMode: 0
      - time: .366666764
        value: .00537311425
        inSlope: -5.55300612e-05
        outSlope: -5.55300612e-05
        tangentMode: 0
      - time: .383333445
        value: .00537218899
        inSlope: -5.55300612e-05
        outSlope: -5.55300612e-05
        tangentMode: 0
      - time: .400000125
        value: .00537126325
        inSlope: -5.55580009e-05
        outSlope: -5.55580009e-05
        tangentMode: 0
      - time: .416666806
        value: .00537033705
        inSlope: -5.55300612e-05
        outSlope: -5.55300612e-05
        tangentMode: 0
      - time: .433333486
        value: .00536941225
        inSlope: -5.55021215e-05
        outSlope: -5.55021215e-05
        tangentMode: 0
      - time: .450000167
        value: .00536848698
        inSlope: -5.55160914e-05
        outSlope: -5.55160914e-05
        tangentMode: 0
      - time: .466666847
        value: .00536756171
        inSlope: -5.54881517e-05
        outSlope: -5.54881517e-05
        tangentMode: 0
      - time: .483333528
        value: .00536663737
        inSlope: -5.54882026e-05
        outSlope: -5.54882026e-05
        tangentMode: 0
      - time: .500000179
        value: .0053657121
        inSlope: -5.54882536e-05
        outSlope: -5.54882536e-05
        tangentMode: 0
      - time: .51666683
        value: .00536478776
        inSlope: -5.5446344e-05
        outSlope: -5.5446344e-05
        tangentMode: 0
      - time: .53333348
        value: .00536386389
        inSlope: -5.53764949e-05
        outSlope: -5.53764949e-05
        tangentMode: 0
      - time: .550000131
        value: .00536294188
        inSlope: .00962479506
        outSlope: .00962479506
        tangentMode: 0
      - time: .566666782
        value: .00568469008
        inSlope: .0193048976
        outSlope: .0193048976
        tangentMode: 0
      - time: .583333433
        value: .00600643782
        inSlope: .0193048827
        outSlope: .0193048827
        tangentMode: 0
      - time: .600000083
        value: .00632818555
        inSlope: .0193048678
        outSlope: .0193048678
        tangentMode: 0
      - time: .616666734
        value: .00664993282
        inSlope: .0193048269
        outSlope: .0193048269
        tangentMode: 0
      - time: .633333385
        value: .00697167916
        inSlope: .019304771
        outSlope: .019304771
        tangentMode: 0
      - time: .650000036
        value: .00729342457
        inSlope: .0193047561
        outSlope: .0193047561
        tangentMode: 0
      - time: .666666687
        value: .00761517044
        inSlope: .019304743
        outSlope: .019304743
        tangentMode: 0
      - time: .683333337
        value: .00793691538
        inSlope: .0193046592
        outSlope: .0193046592
        tangentMode: 0
      - time: .699999988
        value: .00825865846
        inSlope: .0193046313
        outSlope: .0193046313
        tangentMode: 0
      - time: .716666639
        value: .00858040247
        inSlope: .0193046313
        outSlope: .0193046313
        tangentMode: 0
      - time: .73333329
        value: .00890214555
        inSlope: .0193045475
        outSlope: .0193045475
        tangentMode: 0
      - time: .74999994
        value: .00922388677
        inSlope: .0193044357
        outSlope: .0193044357
        tangentMode: 0
      - time: .766666591
        value: .00954562612
        inSlope: .0193044357
        outSlope: .0193044357
        tangentMode: 0
      - time: .783333242
        value: .00986736733
        inSlope: .0193044357
        outSlope: .0193044357
        tangentMode: 0
      - time: .799999893
        value: .0101891067
        inSlope: .0193043239
        outSlope: .0193043239
        tangentMode: 0
      - time: .816666543
        value: .0105108442
        inSlope: .019304296
        outSlope: .019304296
        tangentMode: 0
      - time: .833333194
        value: .0108325826
        inSlope: .0193042681
        outSlope: .0193042681
        tangentMode: 0
      - time: .849999845
        value: .0111543192
        inSlope: .0193041842
        outSlope: .0193041842
        tangentMode: 0
      - time: .866666496
        value: .0114760548
        inSlope: .0193041004
        outSlope: .0193041004
        tangentMode: 0
      - time: .883333147
        value: .0117977886
        inSlope: .0193040445
        outSlope: .0193040445
        tangentMode: 0
      - time: .899999797
        value: .0121195223
        inSlope: .0193039887
        outSlope: .0193039887
        tangentMode: 0
      - time: .916666448
        value: .0124412542
        inSlope: .0193039607
        outSlope: .0193039607
        tangentMode: 0
      - time: .933333099
        value: .0127629871
        inSlope: .0193038769
        outSlope: .0193038769
        tangentMode: 0
      - time: .94999975
        value: .0130847162
        inSlope: .0193037931
        outSlope: .0193037931
        tangentMode: 0
      - time: .9666664
        value: .0134064462
        inSlope: .0193037651
        outSlope: .0193037651
        tangentMode: 0
      - time: .983333051
        value: .0137281744
        inSlope: .0193036534
        outSlope: .0193036534
        tangentMode: 0
      - time: .999999702
        value: .0140499007
        inSlope: .0193032846
        outSlope: .0193032846
        tangentMode: 0
      - time: 1.01666641
        value: .0143716177
        inSlope: .0193028934
        outSlope: .0193028934
        tangentMode: 0
      - time: 1.03333306
        value: .014693331
        inSlope: .0193027593
        outSlope: .0193027593
        tangentMode: 0
      - time: 1.04999971
        value: .0150150424
        inSlope: .0193026755
        outSlope: .0193026755
        tangentMode: 0
      - time: 1.06666636
        value: .0153367529
        inSlope: .0193025637
        outSlope: .0193025637
        tangentMode: 0
      - time: 1.08333302
        value: .0156584606
        inSlope: .019302452
        outSlope: .019302452
        tangentMode: 0
      - time: 1.09999967
        value: .0159801673
        inSlope: .019302424
        outSlope: .019302424
        tangentMode: 0
      - time: 1.11666632
        value: .0163018741
        inSlope: .0193023123
        outSlope: .0193023123
        tangentMode: 0
      - time: 1.13333297
        value: .0166235771
        inSlope: .0193022005
        outSlope: .0193022005
        tangentMode: 0
      - time: 1.14999962
        value: .0169452801
        inSlope: .0193021446
        outSlope: .0193021446
        tangentMode: 0
      - time: 1.16666627
        value: .0172669813
        inSlope: .019301977
        outSlope: .019301977
        tangentMode: 0
      - time: 1.18333292
        value: .0175886787
        inSlope: .0193019211
        outSlope: .0193019211
        tangentMode: 0
      - time: 1.19999957
        value: .0179103781
        inSlope: .0193018094
        outSlope: .0193018094
        tangentMode: 0
      - time: 1.21666622
        value: .0182320718
        inSlope: .0193015859
        outSlope: .0193015859
        tangentMode: 0
      - time: 1.23333287
        value: .0185537636
        inSlope: .01930153
        outSlope: .01930153
        tangentMode: 0
      - time: 1.24999952
        value: .0188754555
        inSlope: .0193014741
        outSlope: .0193014741
        tangentMode: 0
      - time: 1.26666617
        value: .0191971455
        inSlope: .0193013623
        outSlope: .0193013623
        tangentMode: 0
      - time: 1.28333282
        value: .0195188336
        inSlope: .0193011947
        outSlope: .0193011947
        tangentMode: 0
      - time: 1.29999948
        value: .019840518
        inSlope: .0193010718
        outSlope: .0193010718
        tangentMode: 0
      - time: 1.31666672
        value: .0201622136
        inSlope: .0193010624
        outSlope: .0193010624
        tangentMode: 0
      m_PreInfinity: 2
      m_PostInfinity: 2
    attribute: m_LocalRotation.x
    path: 
    classID: 4
    script: {fileID: 0}
  - curve:
      serializedVersion: 2
      m_Curve:
      - time: 0
        value: -.000164524667
        inSlope: .000538098975
        outSlope: .000538098975
        tangentMode: 0
      - time: .0166666675
        value: -.00015555635
        inSlope: .000538098975
        outSlope: .000538098975
        tangentMode: 0
      - time: .0333333351
        value: -.000146588034
        inSlope: .00053809979
        outSlope: .00053809979
        tangentMode: 0
      - time: .0500000045
        value: -.000137619689
        inSlope: .000538100721
        outSlope: .000538100721
        tangentMode: 0
      - time: .0666666701
        value: -.000128651343
        inSlope: .000538101885
        outSlope: .000538101885
        tangentMode: 0
      - time: .0833333358
        value: -.000119682962
        inSlope: .000538103166
        outSlope: .000538103166
        tangentMode: 0
      - time: .100000001
        value: -.000110714573
        inSlope: .000538103865
        outSlope: .000538103865
        tangentMode: 0
      - time: .116666667
        value: -.000101746169
        inSlope: .000538105029
        outSlope: .000538105029
        tangentMode: 0
      - time: .13333334
        value: -9.27777364e-05
        inSlope: .000538106542
        outSlope: .000538106542
        tangentMode: 0
      - time: .150000006
        value: -8.38092819e-05
        inSlope: .000538107532
        outSlope: .000538107532
        tangentMode: 0
      - time: .166666672
        value: -7.48408202e-05
        inSlope: .000538108172
        outSlope: .000538108172
        tangentMode: 0
      - time: .183333337
        value: -6.58723438e-05
        inSlope: .000538109511
        outSlope: .000538109511
        tangentMode: 0
      - time: .200000003
        value: -5.69038384e-05
        inSlope: .000538110733
        outSlope: .000538110733
        tangentMode: 0
      - time: .216666669
        value: -4.79353221e-05
        inSlope: .000538111548
        outSlope: .000538111548
        tangentMode: 0
      - time: .233333334
        value: -3.89667875e-05
        inSlope: .000538112596
        outSlope: .000538112596
        tangentMode: 0
      - time: .25
        value: -2.99982385e-05
        inSlope: .000538113643
        outSlope: .000538113643
        tangentMode: 0
      - time: .266666681
        value: -2.10296603e-05
        inSlope: .000538114691
        outSlope: .000538114691
        tangentMode: 0
      - time: .283333361
        value: -1.20610675e-05
        inSlope: .000538115681
        outSlope: .000538115681
        tangentMode: 0
      - time: .300000042
        value: -3.09245593e-06
        inSlope: .000538116845
        outSlope: .000538116845
        tangentMode: 0
      - time: .316666722
        value: 5.87617478e-06
        inSlope: .000538117951
        outSlope: .000538117951
        tangentMode: 0
      - time: .333333403
        value: 1.48448225e-05
        inSlope: .000538118882
        outSlope: .000538118882
        tangentMode: 0
      - time: .350000083
        value: 2.38134871e-05
        inSlope: .00053811993
        outSlope: .00053811993
        tangentMode: 0
      - time: .366666764
        value: 3.2782169e-05
        inSlope: .000538120978
        outSlope: .000538120978
        tangentMode: 0
      - time: .383333445
        value: 4.17508672e-05
        inSlope: .0005381222
        outSlope: .0005381222
        tangentMode: 0
      - time: .400000125
        value: 5.07195909e-05
        inSlope: .000538123073
        outSlope: .000538123073
        tangentMode: 0
      - time: .416666806
        value: 5.96883183e-05
        inSlope: .000538124179
        outSlope: .000538124179
        tangentMode: 0
      - time: .433333486
        value: 6.86570784e-05
        inSlope: .000538125634
        outSlope: .000538125634
        tangentMode: 0
      - time: .450000167
        value: 7.7625853e-05
        inSlope: .000538126216
        outSlope: .000538126216
        tangentMode: 0
      - time: .466666847
        value: 8.65946349e-05
        inSlope: .000538127148
        outSlope: .000538127148
        tangentMode: 0
      - time: .483333528
        value: 9.55634387e-05
        inSlope: .000538128254
        outSlope: .000538128254
        tangentMode: 0
      - time: .500000179
        value: .000104532242
        inSlope: .000538129592
        outSlope: .000538129592
        tangentMode: 0
      - time: .51666683
        value: .000113501075
        inSlope: .000538130873
        outSlope: .000538130873
        tangentMode: 0
      - time: .53333348
        value: .000122469923
        inSlope: .000538131571
        outSlope: .000538131571
        tangentMode: 0
      - time: .550000131
        value: .000131438777
        inSlope: .000533426588
        outSlope: .000533426588
        tangentMode: 0
      - time: .566666782
        value: .000140250791
        inSlope: .000528537552
        outSlope: .000528537552
        tangentMode: 0
      - time: .583333433
        value: .000149056679
        inSlope: .000528169563
        outSlope: .000528169563
        tangentMode: 0
      - time: .600000083
        value: .000157856426
        inSlope: .000527801109
        outSlope: .000527801109
        tangentMode: 0
      - time: .616666734
        value: .000166650032
        inSlope: .00052743312
        outSlope: .00052743312
        tangentMode: 0
      - time: .633333385
        value: .000175437512
        inSlope: .0005270642
        outSlope: .0005270642
        tangentMode: 0
      - time: .650000036
        value: .000184218821
        inSlope: .000526694872
        outSlope: .000526694872
        tangentMode: 0
      - time: .666666687
        value: .00019299399
        inSlope: .00052632601
        outSlope: .00052632601
        tangentMode: 0
      - time: .683333337
        value: .000201763003
        inSlope: .000525956624
        outSlope: .000525956624
        tangentMode: 0
      - time: .699999988
        value: .000210525861
        inSlope: .000525586889
        outSlope: .000525586889
        tangentMode: 0
      - time: .716666639
        value: .000219282549
        inSlope: .000525217562
        outSlope: .000525217562
        tangentMode: 0
      - time: .73333329
        value: .000228033095
        inSlope: .000524848234
        outSlope: .000524848234
        tangentMode: 0
      - time: .74999994
        value: .000236777472
        inSlope: .000524478499
        outSlope: .000524478499
        tangentMode: 0
      - time: .766666591
        value: .000245515694
        inSlope: .000524108706
        outSlope: .000524108706
        tangentMode: 0
      - time: .783333242
        value: .000254247745
        inSlope: .000523737632
        outSlope: .000523737632
        tangentMode: 0
      - time: .799999893
        value: .000262973597
        inSlope: .000523368304
        outSlope: .000523368304
        tangentMode: 0
      - time: .816666543
        value: .000271693338
        inSlope: .00052299723
        outSlope: .00052299723
        tangentMode: 0
      - time: .833333194
        value: .000280406821
        inSlope: .00052262441
        outSlope: .00052262441
        tangentMode: 0
      - time: .849999845
        value: .000289114134
        inSlope: .000522255083
        outSlope: .000522255083
        tangentMode: 0
      - time: .866666496
        value: .000297815306
        inSlope: .000521884882
        outSlope: .000521884882
        tangentMode: 0
      - time: .883333147
        value: .000306510279
        inSlope: .000521512935
        outSlope: .000521512935
        tangentMode: 0
      - time: .899999797
        value: .000315199053
        inSlope: .000521142734
        outSlope: .000521142734
        tangentMode: 0
      - time: .916666448
        value: .000323881686
        inSlope: .000520770787
        outSlope: .000520770787
        tangentMode: 0
      - time: .933333099
        value: .000332558062
        inSlope: .000520397967
        outSlope: .000520397967
        tangentMode: 0
      - time: .94999975
        value: .000341228268
        inSlope: .00052002602
        outSlope: .00052002602
        tangentMode: 0
      - time: .9666664
        value: .000349892245
        inSlope: .000519654946
        outSlope: .000519654946
        tangentMode: 0
      - time: .983333051
        value: .000358550082
        inSlope: .000519282999
        outSlope: .000519282999
        tangentMode: 0
      - time: .999999702
        value: .000367201661
        inSlope: .00025244226
        outSlope: .00025244226
        tangentMode: 0
      - time: 1.01666641
        value: .000366964814
        inSlope: -1.42160452e-05
        outSlope: -1.42160452e-05
        tangentMode: 0
      - time: 1.03333306
        value: .000366727792
        inSlope: -1.42230556e-05
        outSlope: -1.42230556e-05
        tangentMode: 0
      - time: 1.04999971
        value: .000366490713
        inSlope: -1.42256749e-05
        outSlope: -1.42256749e-05
        tangentMode: 0
      - time: 1.06666636
        value: .000366253604
        inSlope: -1.42282943e-05
        outSlope: -1.42282943e-05
        tangentMode: 0
      - time: 1.08333302
        value: .000366016437
        inSlope: -1.42300405e-05
        outSlope: -1.42300405e-05
        tangentMode: 0
      - time: 1.09999967
        value: .000365779269
        inSlope: -1.42317867e-05
        outSlope: -1.42317867e-05
        tangentMode: 0
      - time: 1.11666632
        value: .000365542044
        inSlope: -1.42352792e-05
        outSlope: -1.42352792e-05
        tangentMode: 0
      - time: 1.13333297
        value: .000365304761
        inSlope: -1.42387717e-05
        outSlope: -1.42387717e-05
        tangentMode: 0
      - time: 1.14999962
        value: .000365067419
        inSlope: -1.42396448e-05
        outSlope: -1.42396448e-05
        tangentMode: 0
      - time: 1.16666627
        value: .000364830106
        inSlope: -1.42405179e-05
        outSlope: -1.42405179e-05
        tangentMode: 0
      - time: 1.18333292
        value: .000364592735
        inSlope: -1.42440103e-05
        outSlope: -1.42440103e-05
        tangentMode: 0
      - time: 1.19999957
        value: .000364355306
        inSlope: -1.42466297e-05
        outSlope: -1.42466297e-05
        tangentMode: 0
      - time: 1.21666622
        value: .000364117848
        inSlope: -1.42483759e-05
        outSlope: -1.42483759e-05
        tangentMode: 0
      - time: 1.23333287
        value: .000363880361
        inSlope: -1.42509953e-05
        outSlope: -1.42509953e-05
        tangentMode: 0
      - time: 1.24999952
        value: .000363642816
        inSlope: -1.42536146e-05
        outSlope: -1.42536146e-05
        tangentMode: 0
      - time: 1.26666617
        value: .000363405241
        inSlope: -1.42544877e-05
        outSlope: -1.42544877e-05
        tangentMode: 0
      - time: 1.28333282
        value: .000363167666
        inSlope: -1.42571071e-05
        outSlope: -1.42571071e-05
        tangentMode: 0
      - time: 1.29999948
        value: .000362930004
        inSlope: -1.42594708e-05
        outSlope: -1.42594708e-05
        tangentMode: 0
      - time: 1.31666672
        value: .000362692343
        inSlope: -1.42592162e-05
        outSlope: -1.42592162e-05
        tangentMode: 0
      m_PreInfinity: 2
      m_PostInfinity: 2
    attribute: m_LocalRotation.y
    path: 
    classID: 4
    script: {fileID: 0}
  - curve:
      serializedVersion: 2
      m_Curve:
      - time: 0
        value: .000164524667
        inSlope: .000564735034
        outSlope: .000564735034
        tangentMode: 0
      - time: .0166666675
        value: .000173936918
        inSlope: .000564735034
        outSlope: .000564735034
        tangentMode: 0
      - time: .0333333351
        value: .00018334917
        inSlope: .000564736314
        outSlope: .000564736314
        tangentMode: 0
      - time: .0500000045
        value: .000192761465
        inSlope: .000564737711
        outSlope: .000564737711
        tangentMode: 0
      - time: .0666666701
        value: .00020217376
        inSlope: .000564737769
        outSlope: .000564737769
        tangentMode: 0
      - time: .0833333358
        value: .000211586055
        inSlope: .000564739108
        outSlope: .000564739108
        tangentMode: 0
      - time: .100000001
        value: .000220998394
        inSlope: .000564741262
        outSlope: .000564741262
        tangentMode: 0
      - time: .116666667
        value: .000230410762
        inSlope: .000564742018
        outSlope: .000564742018
        tangentMode: 0
      - time: .13333334
        value: .00023982313
        inSlope: .000564741553
        outSlope: .000564741553
        tangentMode: 0
      - time: .150000006
        value: .000249235483
        inSlope: .000564743008
        outSlope: .000564743008
        tangentMode: 0
      - time: .166666672
        value: .000258647895
        inSlope: .000564744754
        outSlope: .000564744754
        tangentMode: 0
      - time: .183333337
        value: .000268060307
        inSlope: .000564745627
        outSlope: .000564745627
        tangentMode: 0
      - time: .200000003
        value: .000277472747
        inSlope: .0005647465
        outSlope: .0005647465
        tangentMode: 0
      - time: .216666669
        value: .000286885188
        inSlope: .000564747374
        outSlope: .000564747374
        tangentMode: 0
      - time: .233333334
        value: .000296297658
        inSlope: .00056474912
        outSlope: .00056474912
        tangentMode: 0
      - time: .25
        value: .000305710157
        inSlope: .000564749702
        outSlope: .000564749702
        tangentMode: 0
      - time: .266666681
        value: .000315122656
        inSlope: .000564750342
        outSlope: .000564750342
        tangentMode: 0
      - time: .283333361
        value: .000324535184
        inSlope: .000564751215
        outSlope: .000564751215
        tangentMode: 0
      - time: .300000042
        value: .000333947712
        inSlope: .000564752088
        outSlope: .000564752088
        tangentMode: 0
      - time: .316666722
        value: .000343360269
        inSlope: .000564753835
        outSlope: .000564753835
        tangentMode: 0
      - time: .333333403
        value: .000352772855
        inSlope: .000564754708
        outSlope: .000564754708
        tangentMode: 0
      - time: .350000083
        value: .000362185441
        inSlope: .000564755581
        outSlope: .000564755581
        tangentMode: 0
      - time: .366666764
        value: .000371598057
        inSlope: .000564756454
        outSlope: .000564756454
        tangentMode: 0
      - time: .383333445
        value: .000381010672
        inSlope: .000564756454
        outSlope: .000564756454
        tangentMode: 0
      - time: .400000125
        value: .000390423287
        inSlope: .0005647582
        outSlope: .0005647582
        tangentMode: 0
      - time: .416666806
        value: .000399835961
        inSlope: .000564759946
        outSlope: .000564759946
        tangentMode: 0
      - time: .433333486
        value: .000409248634
        inSlope: .000564759946
        outSlope: .000564759946
        tangentMode: 0
      - time: .450000167
        value: .000418661308
        inSlope: .000564761693
        outSlope: .000564761693
        tangentMode: 0
      - time: .466666847
        value: .00042807404
        inSlope: .000564764312
        outSlope: .000564764312
        tangentMode: 0
      - time: .483333528
        value: .0004374868
        inSlope: .000564762158
        outSlope: .000564762158
        tangentMode: 0
      - time: .500000179
        value: .000446899445
        inSlope: .000564764428
        outSlope: .000564764428
        tangentMode: 0
      - time: .51666683
        value: .000456312264
        inSlope: .000564766175
        outSlope: .000564766175
        tangentMode: 0
      - time: .53333348
        value: .000465724966
        inSlope: .000564766175
        outSlope: .000564766175
        tangentMode: 0
      - time: .550000131
        value: .000475137786
        inSlope: .000563356967
        outSlope: .000563356967
        tangentMode: 0
      - time: .566666782
        value: .000484503515
        inSlope: .00056177139
        outSlope: .00056177139
        tangentMode: 0
      - time: .583333433
        value: .000493863481
        inSlope: .000561418652
        outSlope: .000561418652
        tangentMode: 0
      - time: .600000083
        value: .000503217452
        inSlope: .000561062421
        outSlope: .000561062421
        tangentMode: 0
      - time: .616666734
        value: .000512565544
        inSlope: .000560711429
        outSlope: .000560711429
        tangentMode: 0
      - time: .633333385
        value: .000521907816
        inSlope: .000560356944
        outSlope: .000560356944
        tangentMode: 0
      - time: .650000036
        value: .000531244092
        inSlope: .00056000246
        outSlope: .00056000246
        tangentMode: 0
      - time: .666666687
        value: .000540574547
        inSlope: .000559649721
        outSlope: .000559649721
        tangentMode: 0
      - time: .683333337
        value: .000549899065
        inSlope: .000559288252
        outSlope: .000559288252
        tangentMode: 0
      - time: .699999988
        value: .000559217471
        inSlope: .000558933767
        outSlope: .000558933767
        tangentMode: 0
      - time: .716666639
        value: .000568530173
        inSlope: .000558586267
        outSlope: .000558586267
        tangentMode: 0
      - time: .73333329
        value: .000577836996
        inSlope: .000558231783
        outSlope: .000558231783
        tangentMode: 0
      - time: .74999994
        value: .000587137882
        inSlope: .000557873806
        outSlope: .000557873806
        tangentMode: 0
      - time: .766666591
        value: .000596432772
        inSlope: .000557514082
        outSlope: .000557514082
        tangentMode: 0
      - time: .783333242
        value: .000605721667
        inSlope: .000557161344
        outSlope: .000557161344
        tangentMode: 0
      - time: .799999893
        value: .000615004799
        inSlope: .000556810352
        outSlope: .000556810352
        tangentMode: 0
      - time: .816666543
        value: .000624281995
        inSlope: .000556454121
        outSlope: .000556454121
        tangentMode: 0
      - time: .833333194
        value: .000633553253
        inSlope: .000556094397
        outSlope: .000556094397
        tangentMode: 0
      - time: .849999845
        value: .000642818457
        inSlope: .00055573642
        outSlope: .00055573642
        tangentMode: 0
      - time: .866666496
        value: .000652077782
        inSlope: .000555381936
        outSlope: .000555381936
        tangentMode: 0
      - time: .883333147
        value: .000661331171
        inSlope: .000555027451
        outSlope: .000555027451
        tangentMode: 0
      - time: .899999797
        value: .00067057868
        inSlope: .000554672966
        outSlope: .000554672966
        tangentMode: 0
      - time: .916666448
        value: .000679820252
        inSlope: .000554311497
        outSlope: .000554311497
        tangentMode: 0
      - time: .933333099
        value: .000689055712
        inSlope: .00055395352
        outSlope: .00055395352
        tangentMode: 0
      - time: .94999975
        value: .000698285352
        inSlope: .000553599035
        outSlope: .000553599035
        tangentMode: 0
      - time: .9666664
        value: .000707508996
        inSlope: .000553242804
        outSlope: .000553242804
        tangentMode: 0
      - time: .983333051
        value: .000716726761
        inSlope: .000552883081
        outSlope: .000552883081
        tangentMode: 0
      - time: .999999702
        value: .000725938415
        inSlope: .000272611185
        outSlope: .000272611185
        tangentMode: 0
      - time: 1.01666641
        value: .000725813792
        inSlope: -7.48433467e-06
        outSlope: -7.48433467e-06
        tangentMode: 0
      - time: 1.03333306
        value: .000725688937
        inSlope: -7.49307947e-06
        outSlope: -7.49307947e-06
        tangentMode: 0
      - time: 1.04999971
        value: .000725564023
        inSlope: -7.49831815e-06
        outSlope: -7.49831815e-06
        tangentMode: 0
      - time: 1.06666636
        value: .000725438993
        inSlope: -7.50530307e-06
        outSlope: -7.50530307e-06
        tangentMode: 0
      - time: 1.08333302
        value: .000725313846
        inSlope: -7.50879553e-06
        outSlope: -7.50879553e-06
        tangentMode: 0
      - time: 1.09999967
        value: .0007251887
        inSlope: -7.51054176e-06
        outSlope: -7.51054176e-06
        tangentMode: 0
      - time: 1.11666632
        value: .000725063495
        inSlope: -7.51578045e-06
        outSlope: -7.51578045e-06
        tangentMode: 0
      - time: 1.13333297
        value: .000724938174
        inSlope: -7.52276537e-06
        outSlope: -7.52276537e-06
        tangentMode: 0
      - time: 1.14999962
        value: .000724812737
        inSlope: -7.52625783e-06
        outSlope: -7.52625783e-06
        tangentMode: 0
      - time: 1.16666627
        value: .000724687299
        inSlope: -7.52975029e-06
        outSlope: -7.52975029e-06
        tangentMode: 0
      - time: 1.18333292
        value: .000724561745
        inSlope: -7.53498898e-06
        outSlope: -7.53498898e-06
        tangentMode: 0
      - time: 1.19999957
        value: .000724436133
        inSlope: -7.54022767e-06
        outSlope: -7.54022767e-06
        tangentMode: 0
      - time: 1.21666622
        value: .000724310405
        inSlope: -7.54546636e-06
        outSlope: -7.54546636e-06
        tangentMode: 0
      - time: 1.23333287
        value: .000724184618
        inSlope: -7.54895882e-06
        outSlope: -7.54895882e-06
        tangentMode: 0
      - time: 1.24999952
        value: .000724058773
        inSlope: -7.55245128e-06
        outSlope: -7.55245128e-06
        tangentMode: 0
      - time: 1.26666617
        value: .00072393287
        inSlope: -7.55594374e-06
        outSlope: -7.55594374e-06
        tangentMode: 0
      - time: 1.28333282
        value: .000723806908
        inSlope: -7.56118243e-06
        outSlope: -7.56118243e-06
        tangentMode: 0
      - time: 1.29999948
        value: .000723680831
        inSlope: -7.5662856e-06
        outSlope: -7.5662856e-06
        tangentMode: 0
      - time: 1.31666672
        value: .000723554695
        inSlope: -7.56789677e-06
        outSlope: -7.56789677e-06
        tangentMode: 0
      m_PreInfinity: 2
      m_PostInfinity: 2
    attribute: m_LocalRotation.z
    path: 
    classID: 4
    script: {fileID: 0}
  - curve:
      serializedVersion: 2
      m_Curve:
      - time: 0
        value: .999985456
        inSlope: 0
        outSlope: 0
        tangentMode: 0
      - time: .0166666675
        value: .999985456
        inSlope: 0
        outSlope: 0
        tangentMode: 0
      - time: .0333333351
        value: .999985456
        inSlope: 0
        outSlope: 0
        tangentMode: 0
      - time: .0500000045
        value: .999985456
        inSlope: 0
        outSlope: 0
        tangentMode: 0
      - time: .0666666701
        value: .999985456
        inSlope: 0
        outSlope: 0
        tangentMode: 0
      - time: .0833333358
        value: .999985456
        inSlope: 0
        outSlope: 0
        tangentMode: 0
      - time: .100000001
        value: .999985456
        inSlope: 1.78813946e-06
        outSlope: 1.78813946e-06
        tangentMode: 0
      - time: .116666667
        value: .999985516
        inSlope: 1.78813946e-06
        outSlope: 1.78813946e-06
        tangentMode: 0
      - time: .13333334
        value: .999985516
        inSlope: -1.78813946e-06
        outSlope: -1.78813946e-06
        tangentMode: 0
      - time: .150000006
        value: .999985456
        inSlope: -1.78813946e-06
        outSlope: -1.78813946e-06
        tangentMode: 0
      - time: .166666672
        value: .999985456
        inSlope: 0
        outSlope: 0
        tangentMode: 0
      - time: .183333337
        value: .999985456
        inSlope: 0
        outSlope: 0
        tangentMode: 0
      - time: .200000003
        value: .999985456
        inSlope: 0
        outSlope: 0
        tangentMode: 0
      - time: .216666669
        value: .999985456
        inSlope: 0
        outSlope: 0
        tangentMode: 0
      - time: .233333334
        value: .999985456
        inSlope: 0
        outSlope: 0
        tangentMode: 0
      - time: .25
        value: .999985456
        inSlope: 0
        outSlope: 0
        tangentMode: 0
      - time: .266666681
        value: .999985456
        inSlope: 0
        outSlope: 0
        tangentMode: 0
      - time: .283333361
        value: .999985456
        inSlope: 0
        outSlope: 0
        tangentMode: 0
      - time: .300000042
        value: .999985456
        inSlope: 1.78813787e-06
        outSlope: 1.78813787e-06
        tangentMode: 0
      - time: .316666722
        value: .999985516
        inSlope: 1.78813787e-06
        outSlope: 1.78813787e-06
        tangentMode: 0
      - time: .333333403
        value: .999985516
        inSlope: 0
        outSlope: 0
        tangentMode: 0
      - time: .350000083
        value: .999985516
        inSlope: 0
        outSlope: 0
        tangentMode: 0
      - time: .366666764
        value: .999985516
        inSlope: 0
        outSlope: 0
        tangentMode: 0
      - time: .383333445
        value: .999985516
        inSlope: 0
        outSlope: 0
        tangentMode: 0
      - time: .400000125
        value: .999985516
        inSlope: 0
        outSlope: 0
        tangentMode: 0
      - time: .416666806
        value: .999985516
        inSlope: 0
        outSlope: 0
        tangentMode: 0
      - time: .433333486
        value: .999985516
        inSlope: 0
        outSlope: 0
        tangentMode: 0
      - time: .450000167
        value: .999985516
        inSlope: -1.78813787e-06
        outSlope: -1.78813787e-06
        tangentMode: 0
      - time: .466666847
        value: .999985456
        inSlope: -1.78813787e-06
        outSlope: -1.78813787e-06
        tangentMode: 0
      - time: .483333528
        value: .999985456
        inSlope: 0
        outSlope: 0
        tangentMode: 0
      - time: .500000179
        value: .999985456
        inSlope: 1.78814105e-06
        outSlope: 1.78814105e-06
        tangentMode: 0
      - time: .51666683
        value: .999985516
        inSlope: 1.78814105e-06
        outSlope: 1.78814105e-06
        tangentMode: 0
      - time: .53333348
        value: .999985516
        inSlope: 0
        outSlope: 0
        tangentMode: 0
      - time: .550000131
        value: .999985516
        inSlope: -5.36442312e-05
        outSlope: -5.36442312e-05
        tangentMode: 0
      - time: .566666782
        value: .999983728
        inSlope: -.000110864741
        outSlope: -.000110864741
        tangentMode: 0
      - time: .583333433
        value: .999981821
        inSlope: -.000116229166
        outSlope: -.000116229166
        tangentMode: 0
      - time: .600000083
        value: .999979854
        inSlope: -.000121593592
        outSlope: -.000121593592
        tangentMode: 0
      - time: .616666734
        value: .999977767
        inSlope: -.000128746149
        outSlope: -.000128746149
        tangentMode: 0
      - time: .633333385
        value: .999975562
        inSlope: -.000134110582
        outSlope: -.000134110582
        tangentMode: 0
      - time: .650000036
        value: .999973297
        inSlope: -.000139475
        outSlope: -.000139475
        tangentMode: 0
      - time: .666666687
        value: .999970913
        inSlope: -.000148415711
        outSlope: -.000148415711
        tangentMode: 0
      - time: .683333337
        value: .99996835
        inSlope: -.000155568268
        outSlope: -.000155568268
        tangentMode: 0
      - time: .699999988
        value: .999965727
        inSlope: -.000160932686
        outSlope: -.000160932686
        tangentMode: 0
      - time: .716666639
        value: .999962986
        inSlope: -.000166297119
        outSlope: -.000166297119
        tangentMode: 0
      - time: .73333329
        value: .999960184
        inSlope: -.000171661537
        outSlope: -.000171661537
        tangentMode: 0
      - time: .74999994
        value: .999957263
        inSlope: -.000178814109
        outSlope: -.000178814109
        tangentMode: 0
      - time: .766666591
        value: .999954224
        inSlope: -.000185966666
        outSlope: -.000185966666
        tangentMode: 0
      - time: .783333242
        value: .999951065
        inSlope: -.000191331084
        outSlope: -.000191331084
        tangentMode: 0
      - time: .799999893
        value: .999947846
        inSlope: -.000196695517
        outSlope: -.000196695517
        tangentMode: 0
      - time: .816666543
        value: .999944508
        inSlope: -.000202059935
        outSlope: -.000202059935
        tangentMode: 0
      - time: .833333194
        value: .999941111
        inSlope: -.000211000646
        outSlope: -.000211000646
        tangentMode: 0
      - time: .849999845
        value: .999937475
        inSlope: -.000218153204
        outSlope: -.000218153204
        tangentMode: 0
      - time: .866666496
        value: .999933839
        inSlope: -.000221729482
        outSlope: -.000221729482
        tangentMode: 0
      - time: .883333147
        value: .999930084
        inSlope: -.000227093915
        outSlope: -.000227093915
        tangentMode: 0
      - time: .899999797
        value: .999926269
        inSlope: -.000232458333
        outSlope: -.000232458333
        tangentMode: 0
      - time: .916666448
        value: .999922335
        inSlope: -.000239610905
        outSlope: -.000239610905
        tangentMode: 0
      - time: .933333099
        value: .999918282
        inSlope: -.000246763462
        outSlope: -.000246763462
        tangentMode: 0
      - time: .94999975
        value: .99991411
        inSlope: -.00025391602
        outSlope: -.00025391602
        tangentMode: 0
      - time: .9666664
        value: .999909818
        inSlope: -.000259280438
        outSlope: -.000259280438
        tangentMode: 0
      - time: .983333051
        value: .999905467
        inSlope: -.000264644885
        outSlope: -.000264644885
        tangentMode: 0
      - time: .999999702
        value: .999900997
        inSlope: -.000271796947
        outSlope: -.000271796947
        tangentMode: 0
      - time: 1.01666641
        value: .999896407
        inSlope: -.000277161365
        outSlope: -.000277161365
        tangentMode: 0
      - time: 1.03333306
        value: .999891758
        inSlope: -.000282526278
        outSlope: -.000282526278
        tangentMode: 0
      - time: 1.04999971
        value: .99988699
        inSlope: -.000289678865
        outSlope: -.000289678865
        tangentMode: 0
      - time: 1.06666636
        value: .999882102
        inSlope: -.000296831422
        outSlope: -.000296831422
        tangentMode: 0
      - time: 1.08333302
        value: .999877095
        inSlope: -.00030219584
        outSlope: -.00030219584
        tangentMode: 0
      - time: 1.09999967
        value: .999872029
        inSlope: -.000307560258
        outSlope: -.000307560258
        tangentMode: 0
      - time: 1.11666632
        value: .999866843
        inSlope: -.000314712815
        outSlope: -.000314712815
        tangentMode: 0
      - time: 1.13333297
        value: .999861538
        inSlope: -.000321865373
        outSlope: -.000321865373
        tangentMode: 0
      - time: 1.14999962
        value: .999856114
        inSlope: -.00032722982
        outSlope: -.00032722982
        tangentMode: 0
      - time: 1.16666627
        value: .999850631
        inSlope: -.000332594238
        outSlope: -.000332594238
        tangentMode: 0
      - time: 1.18333292
        value: .999845028
        inSlope: -.000339746795
        outSlope: -.000339746795
        tangentMode: 0
      - time: 1.19999957
        value: .999839306
        inSlope: -.000346899353
        outSlope: -.000346899353
        tangentMode: 0
      - time: 1.21666622
        value: .999833465
        inSlope: -.0003522638
        outSlope: -.0003522638
        tangentMode: 0
      - time: 1.23333287
        value: .999827564
        inSlope: -.000357628218
        outSlope: -.000357628218
        tangentMode: 0
      - time: 1.24999952
        value: .999821544
        inSlope: -.000364780775
        outSlope: -.000364780775
        tangentMode: 0
      - time: 1.26666617
        value: .999815404
        inSlope: -.000370145193
        outSlope: -.000370145193
        tangentMode: 0
      - time: 1.28333282
        value: .999809206
        inSlope: -.000375509611
        outSlope: -.000375509611
        tangentMode: 0
      - time: 1.29999948
        value: .999802887
        inSlope: -.000382655271
        outSlope: -.000382655271
        tangentMode: 0
      - time: 1.31666672
        value: .99979645
        inSlope: -.000386224652
        outSlope: -.000386224652
        tangentMode: 0
      m_PreInfinity: 2
      m_PostInfinity: 2
    attribute: m_LocalRotation.w
    path: 
    classID: 4
    script: {fileID: 0}
  m_EulerEditorCurves:
  - curve:
      serializedVersion: 2
      m_Curve:
      - time: 0
        value: .618058562
        inSlope: -.00639135158
        outSlope: -.00639135158
        tangentMode: 10
      - time: .550000012
        value: .614543319
        inSlope: -.00639135158
        outSlope: 2.21217585
        tangentMode: 21
      - time: 1.31666672
        value: 2.31054497
        inSlope: 2.21217585
        outSlope: 2.21217585
        tangentMode: 10
      m_PreInfinity: 2
      m_PostInfinity: 2
    attribute: localEulerAnglesBaked.x
    path: 
    classID: 4
    script: {fileID: 0}
  - curve:
      serializedVersion: 2
      m_Curve:
      - time: 0
        value: -.0187522694
        inSlope: .0620121732
        outSlope: .0620121732
        tangentMode: 10
      - time: 1
        value: .0432599038
        inSlope: .0620121732
        outSlope: .0620121732
        tangentMode: 10
      m_PreInfinity: 2
      m_PostInfinity: 2
    attribute: localEulerAnglesBaked.y
    path: 
    classID: 4
    script: {fileID: 0}
  - curve:
      serializedVersion: 2
      m_Curve:
      - time: 0
        value: .0187522694
        inSlope: .0650502369
        outSlope: .0650502369
        tangentMode: 10
      - time: 1
        value: .0838025063
        inSlope: .0650502369
        outSlope: .0650502369
        tangentMode: 10
      m_PreInfinity: 2
      m_PostInfinity: 2
    attribute: localEulerAnglesBaked.z
    path: 
    classID: 4
    script: {fileID: 0}
  m_Events: []
