%YAML 1.1
%TAG !u! tag:unity3d.com,2011:
--- !u!21 &2100000
Material:
  serializedVersion: 6
  m_ObjectHideFlags: 0
  m_CorrespondingSourceObject: {fileID: 0}
  m_PrefabInternal: {fileID: 0}
  m_Name: jewel04
  m_Shader: {fileID: 4800000, guid: cd453c740ef12d6449b7ae18445c12ae, type: 3}
  m_ShaderKeywords: 
  m_LightmapFlags: 4
  m_EnableInstancingVariants: 0
  m_DoubleSidedGI: 0
  m_CustomRenderQueue: -1
  stringTagMap: {}
  disabledShaderPasses: []
  m_SavedProperties:
    serializedVersion: 3
    m_TexEnvs:
    - _AlphaTex:
        m_Texture: {fileID: 0}
        m_Scale: {x: 1, y: 1}
        m_Offset: {x: 0, y: 0}
    - _D01:
        m_Texture: {fileID: 2800000, guid: e5c2d246f2b01444391ec767bb59399c, type: 3}
        m_Scale: {x: 1, y: 1}
        m_Offset: {x: 0, y: 0}
    - _D02:
        m_Texture: {fileID: 2800000, guid: e5c2d246f2b01444391ec767bb59399c, type: 3}
        m_Scale: {x: 1, y: 1}
        m_Offset: {x: 0, y: 0}
    - _DisEmiss:
        m_Texture: {fileID: 2800000, guid: 97c1adc7d34947943a6c6b23547bb20a, type: 3}
        m_Scale: {x: 5, y: 5}
        m_Offset: {x: 0, y: 0}
    - _E01:
        m_Texture: {fileID: 2800000, guid: e0555e697afedfe4ebd70810832ad6dc, type: 3}
        m_Scale: {x: 1, y: 1}
        m_Offset: {x: 0, y: 0}
    - _E02:
        m_Texture: {fileID: 2800000, guid: d7696bb480b50ee4a8cae176c2e190d2, type: 3}
        m_Scale: {x: 1, y: 1}
        m_Offset: {x: 0, y: 0}
    - _MainTex:
        m_Texture: {fileID: 0}
        m_Scale: {x: 1, y: 1}
        m_Offset: {x: 0, y: 0}
    - _MaskD02:
        m_Texture: {fileID: 0}
        m_Scale: {x: 1, y: 1}
        m_Offset: {x: 0, y: 0}
    - _MaskE01:
        m_Texture: {fileID: 0}
        m_Scale: {x: 1, y: 1}
        m_Offset: {x: 0, y: 0}
    m_Floats:
    - _Alpha_Bright: 0.8
    - _Cutoff: 0.5
    - _DisE01_Value: 0
    - _DisE02_Value: 0.3
    - _E01_UVangle: 0
    - _E01_UVpan: 0
    - _E01_UVpan_Speed: 0
    - _E02_UVangle: 0.5
    - _E02_UVpan: 0
    - _E02_UVpan_Speed: 1
    - _MaskD02_Bright: 0
    - _RimPower_max: 5
    - _RimPower_min: -3.392857
    - _Tex_power: 1
    m_Colors:
    - _Color: {r: 1, g: 1, b: 1, a: 1}
    - _D01_Color: {r: 0.07931027, g: 0.6764706, b: 0, a: 1}
    - _D02_Color: {r: 1, g: 1, b: 1, a: 1}
    - _E01_Color: {r: 0, g: 0.42068958, b: 1, a: 1}
    - _E02_Color: {r: 0, g: 0.25517225, b: 1, a: 1}
    - _HSV: {r: 1, g: 1, b: 1, a: 1}
    - _RimColor: {r: 0.20588237, g: 0.7699797, b: 1, a: 1}
