%YAML 1.1
%TAG !u! tag:unity3d.com,2011:
--- !u!21 &2100000
Material:
  serializedVersion: 6
  m_ObjectHideFlags: 0
  m_CorrespondingSourceObject: {fileID: 0}
  m_PrefabInternal: {fileID: 0}
  m_Name: MemoryRoom_book
  m_Shader: {fileID: 4800000, guid: 0f71bbdf76222a2428b3fcec7a0031eb, type: 3}
  m_ShaderKeywords: 
  m_LightmapFlags: 4
  m_EnableInstancingVariants: 0
  m_DoubleSidedGI: 0
  m_CustomRenderQueue: -1
  stringTagMap: {}
  disabledShaderPasses: []
  m_SavedProperties:
    serializedVersion: 3
    m_TexEnvs:
    - _D01:
        m_Texture: {fileID: 2800000, guid: 1b23e77fdd1439d48a3fa2faecf30481, type: 3}
        m_Scale: {x: 1, y: 1}
        m_Offset: {x: 0, y: 0}
    - _D02:
        m_Texture: {fileID: 0}
        m_Scale: {x: 1, y: 1}
        m_Offset: {x: 0, y: 0}
    - _E01:
        m_Texture: {fileID: 2800000, guid: d7696bb480b50ee4a8cae176c2e190d2, type: 3}
        m_Scale: {x: 1, y: 1}
        m_Offset: {x: 0, y: 0}
    - _MainTex:
        m_Texture: {fileID: 2800000, guid: 96c20cabbfa8fee4da745ede44ddf446, type: 3}
        m_Scale: {x: 1, y: 1}
        m_Offset: {x: 0, y: 0}
    - _MaskD02:
        m_Texture: {fileID: 0}
        m_Scale: {x: 1, y: 1}
        m_Offset: {x: 0, y: 0}
    - _MaskE01:
        m_Texture: {fileID: 2800000, guid: aeac97cb58bba0342a5186b2c38d8ef2, type: 3}
        m_Scale: {x: 6, y: 8}
        m_Offset: {x: 0, y: 0}
    m_Floats:
    - _Cutoff: 0.5
    - _E01_UVangle: 0
    - _E01_UVpan: 0
    - _E01_UVpan_Speed: 0.3
    - _InvFade: 1
    - _MaskD02_Bright: 0
    - _RimPower: 1.5
    - _RimPower_max: 1.5714287
    - _RimPower_min: -2.0535715
    - _Tex_power: 1
    m_Colors:
    - _Color: {r: 1, g: 1, b: 1, a: 1}
    - _D01_Color: {r: 1, g: 1, b: 1, a: 1}
    - _D02_Color: {r: 1, g: 1, b: 1, a: 1}
    - _E01_Color: {r: 0, g: 0.62758636, b: 1, a: 1}
    - _HSV: {r: 1, g: 1, b: 2, a: 1}
    - _RimColor: {r: 0.6691177, g: 0.2353449, b: 0, a: 1}
    - _TintColor: {r: 0, g: 0.751724, b: 1, a: 0.5019608}
