%YAML 1.1
%TAG !u! tag:unity3d.com,2011:
--- !u!21 &2100000
Material:
  serializedVersion: 6
  m_ObjectHideFlags: 0
  m_CorrespondingSourceObject: {fileID: 0}
  m_PrefabInternal: {fileID: 0}
  m_Name: jewel02_add
  m_Shader: {fileID: 4800000, guid: 35a4fe577cd891345b99e0b49e883115, type: 3}
  m_ShaderKeywords: _E01_UVPAN_ON
  m_LightmapFlags: 4
  m_EnableInstancingVariants: 0
  m_DoubleSidedGI: 0
  m_CustomRenderQueue: -1
  stringTagMap: {}
  disabledShaderPasses: []
  m_SavedProperties:
    serializedVersion: 3
    m_TexEnvs:
    - _AlphaTex:
        m_Texture: {fileID: 0}
        m_Scale: {x: 1, y: 1}
        m_Offset: {x: 0, y: 0}
    - _D01:
        m_Texture: {fileID: 2800000, guid: e5c2d246f2b01444391ec767bb59399c, type: 3}
        m_Scale: {x: 1, y: 1}
        m_Offset: {x: 0, y: 0}
    - _D02:
        m_Texture: {fileID: 2800000, guid: e5c2d246f2b01444391ec767bb59399c, type: 3}
        m_Scale: {x: 1, y: 1}
        m_Offset: {x: 0, y: 0}
    - _DisE01:
        m_Texture: {fileID: 0}
        m_Scale: {x: 1, y: 1}
        m_Offset: {x: 0, y: 0}
    - _DisEmiss:
        m_Texture: {fileID: 0}
        m_Scale: {x: 1, y: 1}
        m_Offset: {x: 0, y: 0}
    - _E01:
        m_Texture: {fileID: 2800000, guid: 1d820387b58ad83409b8cafe09db364a, type: 3}
        m_Scale: {x: 1, y: 1}
        m_Offset: {x: 0, y: 0}
    - _E02:
        m_Texture: {fileID: 2800000, guid: d7696bb480b50ee4a8cae176c2e190d2, type: 3}
        m_Scale: {x: 2, y: 1}
        m_Offset: {x: 0, y: 0}
    - _MainTex:
        m_Texture: {fileID: 0}
        m_Scale: {x: 1, y: 1}
        m_Offset: {x: 0, y: 0}
    - _MaskD02:
        m_Texture: {fileID: 0}
        m_Scale: {x: 1, y: 1}
        m_Offset: {x: 0, y: 0}
    - _MaskE01:
        m_Texture: {fileID: 0}
        m_Scale: {x: 1, y: 1}
        m_Offset: {x: 0, y: 0}
    m_Floats:
    - _Alpha_Bright: 1
    - _Cutoff: 0.5
    - _DisE01_UVpan: 0
    - _DisE01_UVpan_Speed: 0
    - _DisE01_Value: 0
    - _DisE01_value: 0
    - _DisE02_Value: 0.2
    - _E01_Bright: 1
    - _E01_UVangle: 0.5
    - _E01_UVpan: 1
    - _E01_UVpan_Speed: 0.5
    - _E01_UVpan_TimeVertexAlpha: 0
    - _E02_UVangle: 0.25
    - _E02_UVpan: 0
    - _E02_UVpan_Speed: 0.5
    - _InvFade: 1
    - _MaskD02_Bright: 0
    - _RimPower_max: 5
    - _RimPower_min: -3.392857
    - _Tex_power: 1
    m_Colors:
    - _Color: {r: 1, g: 1, b: 1, a: 1}
    - _D01_Color: {r: 0.07931027, g: 0.6764706, b: 0, a: 1}
    - _D02_Color: {r: 1, g: 1, b: 1, a: 1}
    - _E01_Color: {r: 0, g: 0.66896534, b: 1, a: 1}
    - _E02_Color: {r: 0.034482718, g: 1, b: 0, a: 1}
    - _HSV: {r: 1, g: 1, b: 1, a: 1}
    - _RimColor: {r: 0, g: 1, b: 0.6689658, a: 1}
    - _TintColor: {r: 0.5, g: 0.5, b: 0.5, a: 0.5}
