%YAML 1.1
%TAG !u! tag:unity3d.com,2011:
--- !u!21 &2100000
Material:
  serializedVersion: 6
  m_ObjectHideFlags: 0
  m_CorrespondingSourceObject: {fileID: 0}
  m_PrefabInternal: {fileID: 0}
  m_Name: ribbon08_B_flowToon01
  m_Shader: {fileID: 4800000, guid: 6d9f36f1c95a3574d9c4b4b0dfff809c, type: 3}
  m_ShaderKeywords: _E01_UVPAN_TIMEVERTEXALPHA_ON _OPACITY_ONOFF_ON
  m_LightmapFlags: 4
  m_EnableInstancingVariants: 0
  m_DoubleSidedGI: 0
  m_CustomRenderQueue: -1
  stringTagMap: {}
  disabledShaderPasses: []
  m_SavedProperties:
    serializedVersion: 3
    m_TexEnvs:
    - _Alpha01:
        m_Texture: {fileID: 2800000, guid: da8f7db63011f644dbb6e4d912d5bbf5, type: 3}
        m_Scale: {x: 1, y: 1}
        m_Offset: {x: 0, y: 0}
    - _DisE01:
        m_Texture: {fileID: 2800000, guid: 4e51f181444356f458eac091f4ee2144, type: 3}
        m_Scale: {x: 1, y: 1}
        m_Offset: {x: 0, y: 0}
    - _E01:
        m_Texture: {fileID: 2800000, guid: 98635bf74d6f0b34ea2d9d784a715a9c, type: 3}
        m_Scale: {x: 1, y: 1}
        m_Offset: {x: 0, y: 0}
    - _MainTex:
        m_Texture: {fileID: 0}
        m_Scale: {x: 1, y: 1}
        m_Offset: {x: 0, y: 0}
    m_Floats:
    - _Alpha01_Bright: 1
    - _Alpha01_UVangle: 0.5
    - _AlphaClip: 0.05
    - _Cutoff: 0.5
    - _DisE01_value: 0
    - _E01_Bright: 5
    - _E01_UVangle: 2
    - _E01_UVpan: 0
    - _E01_UVpan_Speed: -1
    - _E01_UVpan_TimeVertexAlpha: 1
    - _Glow_Bright: 0
    - _Opacity_ONOff: 1
    m_Colors:
    - _Color: {r: 1, g: 1, b: 1, a: 1}
    - _E01_Color: {r: 1, g: 1, b: 1, a: 1}
