%YAML 1.1
%TAG !u! tag:unity3d.com,2011:
--- !u!21 &2100000
Material:
  serializedVersion: 6
  m_ObjectHideFlags: 0
  m_CorrespondingSourceObject: {fileID: 0}
  m_PrefabInternal: {fileID: 0}
  m_Name: Sphere001_A_flow
  m_Shader: {fileID: 4800000, guid: 35a4fe577cd891345b99e0b49e883115, type: 3}
  m_ShaderKeywords: _E01_UVPAN_ON _OPACITY_ONOFF_ON
  m_LightmapFlags: 4
  m_EnableInstancingVariants: 0
  m_DoubleSidedGI: 0
  m_CustomRenderQueue: -1
  stringTagMap: {}
  disabledShaderPasses: []
  m_SavedProperties:
    serializedVersion: 3
    m_TexEnvs:
    - _Alpha01:
        m_Texture: {fileID: 2800000, guid: 29766d498666ab7479091fef5e7f138e, type: 3}
        m_Scale: {x: 1, y: 1}
        m_Offset: {x: 0, y: 0}
    - _DisE01:
        m_Texture: {fileID: 0}
        m_Scale: {x: 4, y: 3}
        m_Offset: {x: 0, y: 0}
    - _E01:
        m_Texture: {fileID: 2800000, guid: d7696bb480b50ee4a8cae176c2e190d2, type: 3}
        m_Scale: {x: 1, y: 1}
        m_Offset: {x: 0.5, y: 0}
    - _MainTex:
        m_Texture: {fileID: 0}
        m_Scale: {x: 1, y: 1}
        m_Offset: {x: 0, y: 0}
    - _MaskE01:
        m_Texture: {fileID: 2800000, guid: aeac97cb58bba0342a5186b2c38d8ef2, type: 3}
        m_Scale: {x: 1, y: 4}
        m_Offset: {x: 0, y: 0}
    m_Floats:
    - _Alpha01_Bright: 2
    - _Alpha01_UVangle: 0.5
    - _AlphaClip: 0.05
    - _Cutoff: 0.5
    - _DisE01_UVpan: 0
    - _DisE01_UVpan_Speed: 1
    - _DisE01_value: 0
    - _E01_Bright: 3
    - _E01_UVangle: 0.5
    - _E01_UVpan: 1
    - _E01_UVpan_Speed: 0.5
    - _E01_UVpan_TimeVertexAlpha: 0
    - _Glow_Brght: 5
    - _MaskE01_UVangle: 0.25
    - _Opacity_ONOff: 1
    m_Colors:
    - _Color: {r: 1, g: 1, b: 1, a: 1}
    - _E01_Color: {r: 1, g: 1, b: 1, a: 1}
