%YAML 1.1
%TAG !u! tag:unity3d.com,2011:
--- !u!21 &2100000
Material:
  serializedVersion: 6
  m_ObjectHideFlags: 0
  m_CorrespondingSourceObject: {fileID: 0}
  m_PrefabInternal: {fileID: 0}
  m_Name: Zafkiel01_B_flowToon
  m_Shader: {fileID: 4800000, guid: 6d9f36f1c95a3574d9c4b4b0dfff809c, type: 3}
  m_ShaderKeywords: _OPACITY_ONOFF_ON
  m_LightmapFlags: 4
  m_EnableInstancingVariants: 0
  m_DoubleSidedGI: 0
  m_CustomRenderQueue: -1
  stringTagMap: {}
  disabledShaderPasses: []
  m_SavedProperties:
    serializedVersion: 3
    m_TexEnvs:
    - _Alpha01:
        m_Texture: {fileID: 2800000, guid: 29766d498666ab7479091fef5e7f138e, type: 3}
        m_Scale: {x: 1, y: 1}
        m_Offset: {x: 0, y: 0}
    - _Alpha02:
        m_Texture: {fileID: 2800000, guid: 72c0563ec75ae274597d2a171d24c06f, type: 3}
        m_Scale: {x: 1, y: 1}
        m_Offset: {x: 0, y: 0}
    - _D01:
        m_Texture: {fileID: 2800000, guid: 0e009b2cc745cdc4389f48d61b2c81cc, type: 3}
        m_Scale: {x: 1, y: 1}
        m_Offset: {x: 0, y: 0}
    - _DisE01:
        m_Texture: {fileID: 2800000, guid: 2371dcf174649554e80ac9483968e3bc, type: 3}
        m_Scale: {x: 4, y: 2}
        m_Offset: {x: 0, y: 0}
    - _E01:
        m_Texture: {fileID: 2800000, guid: 97c08d45363d511419866fffd1b1c063, type: 3}
        m_Scale: {x: 1, y: 1}
        m_Offset: {x: 0, y: 0}
    - _MainTex:
        m_Texture: {fileID: 0}
        m_Scale: {x: 1, y: 1}
        m_Offset: {x: 0, y: 0}
    m_Floats:
    - _Alpha01_Bright: 1
    - _Alpha01_UVangle: 0.5
    - _AlphaClip: 0.05
    - _Cutoff: 0.5
    - _DisE01_value: 0.3
    - _Dissovle_Bright: 0
    - _Dissovle_Width: 0.0061785714
    - _E01_Bright: 5
    - _E01_UVangle: 0.5
    - _E01_UVpan: 0
    - _E01_UVpan_Speed: 0.2
    - _E01_UVpan_TimeVertexAlpha: 0
    - _Glow_Bright: 10
    - _Opacity_ONOff: 1
    m_Colors:
    - _Color: {r: 1, g: 1, b: 1, a: 1}
    - _Dissovle_Color: {r: 0.99607843, g: 0.8039216, b: 0, a: 1}
    - _E01_Color: {r: 1, g: 1, b: 1, a: 1}
