%YAML 1.1
%TAG !u! tag:unity3d.com,2011:
--- !u!21 &2100000
Material:
  serializedVersion: 6
  m_ObjectHideFlags: 0
  m_CorrespondingSourceObject: {fileID: 0}
  m_PrefabInternal: {fileID: 0}
  m_Name: Zafkiel01
  m_Shader: {fileID: 4800000, guid: ba9373bbd2d10b24fb33994c9f4bbd75, type: 3}
  m_ShaderKeywords: 
  m_LightmapFlags: 4
  m_EnableInstancingVariants: 0
  m_DoubleSidedGI: 0
  m_CustomRenderQueue: -1
  stringTagMap: {}
  disabledShaderPasses: []
  m_SavedProperties:
    serializedVersion: 3
    m_TexEnvs:
    - _Alpha01:
        m_Texture: {fileID: 0}
        m_Scale: {x: 1, y: 1}
        m_Offset: {x: 0, y: 0}
    - _Alpha02:
        m_Texture: {fileID: 2800000, guid: 72c0563ec75ae274597d2a171d24c06f, type: 3}
        m_Scale: {x: 1, y: 1}
        m_Offset: {x: 0, y: 0}
    - _D01:
        m_Texture: {fileID: 2800000, guid: 0e009b2cc745cdc4389f48d61b2c81cc, type: 3}
        m_Scale: {x: 1, y: 1}
        m_Offset: {x: 0, y: 0}
    - _MainTex:
        m_Texture: {fileID: 0}
        m_Scale: {x: 1, y: 1}
        m_Offset: {x: 0, y: 0}
    m_Floats:
    - _AnimVertexAlpha: 1
    - _Cutoff: 0.5
    - _Dissovle_Bright: 0
    - _Dissovle_Time: 1
    - _Dissovle_Width: 0.0061785714
    - _Tex_Power: 1
    m_Colors:
    - _Color: {r: 1, g: 1, b: 1, a: 1}
    - _Dissovle_Color: {r: 0.99607843, g: 0.8039216, b: 0, a: 1}
    - _HSV: {r: 1, g: 1, b: 1.5, a: 1}
