%YAML 1.1
%TAG !u! tag:unity3d.com,2011:
--- !u!21 &2100000
Material:
  serializedVersion: 6
  m_ObjectHideFlags: 0
  m_CorrespondingSourceObject: {fileID: 0}
  m_PrefabInternal: {fileID: 0}
  m_Name: tsx_bot125_wp
  m_Shader: {fileID: 4800000, guid: 98451ebed53ca884a8b2f6c624b206bc, type: 3}
  m_ShaderKeywords: 
  m_LightmapFlags: 4
  m_EnableInstancingVariants: 0
  m_DoubleSidedGI: 0
  m_CustomRenderQueue: -1
  stringTagMap: {}
  disabledShaderPasses: []
  m_SavedProperties:
    serializedVersion: 3
    m_TexEnvs:
    - _MainTex:
        m_Texture: {fileID: 2800000, guid: 39df8d340e9b2604493c9bfb3e724126, type: 3}
        m_Scale: {x: 1, y: 1}
        m_Offset: {x: 0, y: 0}
    m_Floats:
    - _alpha: 1.2
    - _back: 2.99
    - _bh: 0
    - _level: 1
    - _while: 0
    m_Colors:
    - _BackColor: {r: 0.2784314, g: 0.39215687, b: 0.6627451, a: 0}
    - _Color: {r: 0.588, g: 0.588, b: 0.588, a: 1}
