INT	STRING	STRING	STRING	STRING	STRING	STRING	INT	INT	INT	FLOAT	FLOAT	INT	FLOAT	FLOAT	INT	FLOAT	FLOAT	INT	FLOAT	FLOAT	INT	INT	FLOAT	FLOAT	FLOAT	FLOAT	INT	INT	INT	INT	INT	INT	INT	INT	FLOAT	INT	FLOAT	FLOAT
宠物id	名字	代号	大模型	小模型	ICON	描述	classid	品级	初始血量	初始血量成长	升星血量成长	初始攻击	初始攻击成长	升星攻击成长	初始物防	初始物防成长	升星物防成长	初始魔防	初始魔防成长	升星魔防成长	普通攻击	主动技能	进阶血量	进阶攻击	进阶物防	进阶魔防	进阶额外属性1	value	进阶额外属性2	value	升星增加血量	升星增加攻击	升星增加物防	升星增加魔防	升星技能增伤	分解兽魂	护卫加成	上阵加成
1001	钢铁猎犬	t_chongwu_name_1001	ts_cw004	ts_cw004a	cwic_lc002	t_chongwu_desc_1001	1001	2	1480	111	84	148	11	8	74	5	4	74	5	4	100100101	100100102	676.52	65.8	34.15	34.15	1	2900	2	287	1110	111	56	56	0.1	50	0.1	0.1
1002	人面甲虫	t_chongwu_name_1002	ts_cw003	ts_cw003a	cwic_lc001	t_chongwu_desc_1002	1002	2	1480	111	84	148	11	8	74	5	4	74	5	4	100100201	100100202	786.22	49.65	39.68	39.68	1	2900	29	143	1110	111	56	56	0.1	50	0.1	0.1
2001	银河武士	t_chongwu_name_2001	ts_cw005	ts_cw005a	cwic_zc001	t_chongwu_desc_2001	2001	3	4440	335	252	444	33	25	222	16	13	222	16	13	100200101	100200102	2029.55	197.4	102.44	102.44	1	8700	2	860	3330	333	166	166	0.15	75	0.2	0.15
2002	自由仙女	t_chongwu_name_2002	ts_cw006	ts_cw006a	cwic_zc002	t_chongwu_desc_2002	2002	3	4440	335	252	444	33	25	222	16	13	222	16	13	100200201	100200202	2358.67	148.94	119.05	119.05	1	8700	29	430	3330	333	166	166	0.15	75	0.2	0.15
3001	机械制裁者	t_chongwu_name_3001	ts_cw001	ts_cw001a	cwic_jc002	t_chongwu_desc_3001	3001	4	8880	671	503	888	67	50	444	33	25	444	33	25	100300101	100300102	4059.1	394.8	204.88	204.88	1	17400	2	1720	6660	666	333	333	0.2	100	0.3	0.2
3002	天空守护者	t_chongwu_name_3002	ts_cw002	ts_cw002a	cwic_jc001	t_chongwu_desc_3002	3002	4	8880	671	503	888	67	50	444	33	25	444	33	25	100300201	100300202	4717.33	297.88	238.1	238.1	1	17400	29	860	6660	666	333	333	0.2	100	0.3	0.2
