INT	STRING	STRING	INT	INT	INT	INT	INT	INT	INT	INT	INT	INT
id	名字	代号	颜色 颜色 0白 1绿 2蓝 3紫 4橙 5红 6金	防守人数	城防值	攻破经验	胜利减少城防值	失败减少城防值	胜利获得贡献	失败获得贡献	战绩换算战力	防守次数
0	左据点	t_guildfight_1000	2	7	1400	2400	50	5	2300	805	20000000	4
1	右据点	t_guildfight_2000	3	7	5600	3200	200	20	2500	875	5000000	4
2	主据点	t_guildfight_3000	4	7	11200	4800	400	40	2700	945	2500000	4
3	司令部	t_guildfight_4000	6	1	7500	5600	750	75	3000	1050	1250000	10
