INT	STRING	STRING	INT	INT	INT	INT	INT	INT	INT	INT	INT	INT	INT	INT	INT	INT	INT	INT
id	描述	代号	类型	def1 3001原价 3002宝箱类型1免费2付费 3003消耗体力 3004正确答案 3005金额	def2 3001现价 3002是否稀有0否1是 3004错误答案	def3 3001折扣 3002权重 3004错误答案	type	value1	value2	value3	type	value1	value2	value3	type	value1	value2	value3
3001001	觉醒之力	t_manyou_qiyu_3001001	3001	5000	1500	30	2	50130001	5	0								
3001002	光元素	t_manyou_qiyu_3001002	3001	6650	1330	20	2	50150001	1330	0								
3001003	金币	t_manyou_qiyu_3001003	3001	6460	1615	25	1	1	6460000	0								
3001004	队形强化装置	t_manyou_qiyu_3001004	3001	5610	1963	35	2	50140001	1870	0								
3001005	回忆结晶	t_manyou_qiyu_3001005	3001	3140	942	30	1	21	3140	0								
3001006	精炼金属	t_manyou_qiyu_3001006	3001	6000	1800	30	2	50070001	1200	0								
3001007	神之金属	t_manyou_qiyu_3001007	3001	7000	2100	30	2	50100001	1400	0								
3001008	能力水晶	t_manyou_qiyu_3001008	3001	12000	1800	15	2	50090001	800	0								
3002001	能力水晶	t_manyou_qiyu_3002001	3002	2	1	10	2	50090001	200	0								
3002002	队形强化装置	t_manyou_qiyu_3002002	3002	2	1	10	2	50140001	300	0								
3002003	精炼金属	t_manyou_qiyu_3002003	3002	2	1	10	2	50070001	200	0								
3002004	神之金属	t_manyou_qiyu_3002004	3002	2	1	10	2	50100001	200	0								
3002005	能力水晶	t_manyou_qiyu_3002005	3002	2	0	100	2	50090001	50	0								
3002006	队形强化装置	t_manyou_qiyu_3002006	3002	2	0	100	2	50140001	100	0								
3002007	精炼金属	t_manyou_qiyu_3002007	3002	2	0	100	2	50070001	50	0								
3002008	神之金属	t_manyou_qiyu_3002008	3002	2	0	100	2	50100001	50	0								
3002009	能力水晶	t_manyou_qiyu_3002009	3002	1	1	2	2	50090001	100	0								
3002010	队形强化装置	t_manyou_qiyu_3002010	3002	1	1	2	2	50140001	200	0								
3002011	精炼金属	t_manyou_qiyu_3002011	3002	1	1	2	2	50070001	100	0								
3002012	神之金属	t_manyou_qiyu_3002012	3002	1	1	2	2	50100001	100	0								
3002013	能力水晶	t_manyou_qiyu_3002013	3002	1	0	100	2	50090001	30	0								
3002014	队形强化装置	t_manyou_qiyu_3002014	3002	1	0	100	2	50140001	50	0								
3002015	精炼金属	t_manyou_qiyu_3002015	3002	1	0	100	2	50070001	30	0								
3002016	神之金属	t_manyou_qiyu_3002016	3002	1	0	100	2	50100001	30	0								
3003001	星际守卫	t_manyou_qiyu_3003001	3003	10			1	10	1500	0								
3003002	星际守卫	t_manyou_qiyu_3003002	3003	10			1	14	1500	0								
3003003	星际守卫	t_manyou_qiyu_3003003	3003	10			1	22	1500	0								
3004001	女神答题	t_manyou_qiyu_3004001	3004	101	102	103	1	5	300	0								
3004002	女神答题	t_manyou_qiyu_3004002	3004	201	202	203	1	21	300	0								
3004003	女神答题	t_manyou_qiyu_3004003	3004	301	302	303	1	5	300	0								
3004004	女神答题	t_manyou_qiyu_3004004	3004	401	402	403	1	21	300	0								
3004005	女神答题	t_manyou_qiyu_3004005	3004	501	502	503	1	5	300	0								
3004006	女神答题	t_manyou_qiyu_3004006	3004	601	602	603	1	21	300	0								
3004007	女神答题	t_manyou_qiyu_3004007	3004	701	702	703	1	5	300	0								
3004008	女神答题	t_manyou_qiyu_3004008	3004	801	802	803	1	21	300	0								
3004009	女神答题	t_manyou_qiyu_3004009	3004	901	902	903	1	5	300	0								
3004010	女神答题	t_manyou_qiyu_3004010	3004	1001	1002	1003	1	21	300	0								
3004011	女神答题	t_manyou_qiyu_3004011	3004	1101	1102	1103	1	5	300	0								
3004012	女神答题	t_manyou_qiyu_3004012	3004	1201	1202	1203	1	21	300	0								
3004013	女神答题	t_manyou_qiyu_3004013	3004	1301	1302	1303	1	5	300	0								
3004014	女神答题	t_manyou_qiyu_3004014	3004	1401	1402	1403	1	21	300	0								
3004015	女神答题	t_manyou_qiyu_3004015	3004	1501	1502	1503	1	5	300	0								
3004016	女神答题	t_manyou_qiyu_3004016	3004	1601	1602	1603	1	21	300	0								
3004017	女神答题	t_manyou_qiyu_3004017	3004	1701	1702	1703	1	5	300	0								
3004018	女神答题	t_manyou_qiyu_3004018	3004	1801	1802	1803	1	21	300	0								
3004019	女神答题	t_manyou_qiyu_3004019	3004	1901	1902	1903	1	5	300	0								
3004020	女神答题	t_manyou_qiyu_3004020	3004	2001	2002	2003	1	21	300	0								
3004021	女神答题	t_manyou_qiyu_3004021	3004	2101	2102	2103	1	5	300	0								
3004022	女神答题	t_manyou_qiyu_3004022	3004	2201	2202	2203	1	21	300	0								
3004023	女神答题	t_manyou_qiyu_3004023	3004	2301	2302	2303	1	5	300	0								
3004024	女神答题	t_manyou_qiyu_3004024	3004	2401	2402	2403	1	21	300	0								
3004025	女神答题	t_manyou_qiyu_3004025	3004	2501	2502	2503	1	5	300	0								
3004026	女神答题	t_manyou_qiyu_3004026	3004	2601	2602	2603	1	21	300	0								
3004027	女神答题	t_manyou_qiyu_3004027	3004	2701	2702	2703	1	5	300	0								
3004028	女神答题	t_manyou_qiyu_3004028	3004	2801	2802	2803	1	21	300	0								
3004029	女神答题	t_manyou_qiyu_3004029	3004	2901	2902	2903	1	5	300	0								
3004030	女神答题	t_manyou_qiyu_3004030	3004	3001	3002	3003	1	21	300	0								
3004031	女神答题	t_manyou_qiyu_3004031	3004	3101	3102	3103	1	5	300	0								
3004032	女神答题	t_manyou_qiyu_3004032	3004	3201	3202	3203	1	21	300	0								
3004033	女神答题	t_manyou_qiyu_3004033	3004	3301	3302	3303	1	5	300	0								
3004034	女神答题	t_manyou_qiyu_3004034	3004	3401	3402	3403	1	21	300	0								
3004035	女神答题	t_manyou_qiyu_3004035	3004	3501	3502	3503	1	5	300	0								
3004036	女神答题	t_manyou_qiyu_3004036	3004	3601	3602	3603	1	21	300	0								
3004037	女神答题	t_manyou_qiyu_3004037	3004	3701	3702	3703	1	5	300	0								
3004038	女神答题	t_manyou_qiyu_3004038	3004	3801	3802	3803	1	21	300	0								
3004039	女神答题	t_manyou_qiyu_3004039	3004	3901	3902	3903	1	5	300	0								
3004040	女神答题	t_manyou_qiyu_3004040	3004	4001	4002	4003	1	21	300	0								
3004041	女神答题	t_manyou_qiyu_3004041	3004	4101	4102	4103	1	5	300	0								
3004042	女神答题	t_manyou_qiyu_3004042	3004	4201	4202	4203	1	21	300	0								
3004043	女神答题	t_manyou_qiyu_3004043	3004	4301	4302	4303	1	5	300	0								
3004044	女神答题	t_manyou_qiyu_3004044	3004	4401	4402	4403	1	21	300	0								
3004045	女神答题	t_manyou_qiyu_3004045	3004	4501	4502	4503	1	5	300	0								
3004046	女神答题	t_manyou_qiyu_3004046	3004	4601	4602	4603	1	21	300	0								
3004047	女神答题	t_manyou_qiyu_3004047	3004	4701	4702	4703	1	5	300	0								
3004048	女神答题	t_manyou_qiyu_3004048	3004	4801	4802	4803	1	21	300	0								
3004049	女神答题	t_manyou_qiyu_3004049	3004	4901	4902	4903	1	5	300	0								
3004050	女神答题	t_manyou_qiyu_3004050	3004	5001	5002	5003	1	21	300	0								
3004051	女神答题	t_manyou_qiyu_3004051	3004	5101	5102	5103	1	5	300	0								
3004052	女神答题	t_manyou_qiyu_3004052	3004	5201	5202	5203	1	21	300	0								
3004053	女神答题	t_manyou_qiyu_3004053	3004	5301	5302	5303	1	5	300	0								
3004054	女神答题	t_manyou_qiyu_3004054	3004	5401	5402	5403	1	21	300	0								
3004055	女神答题	t_manyou_qiyu_3004055	3004	5501	5502	5503	1	5	300	0								
3004056	女神答题	t_manyou_qiyu_3004056	3004	5601	5602	5603	1	21	300	0								
3004057	女神答题	t_manyou_qiyu_3004057	3004	5701	5702	5703	1	5	300	0								
3004058	女神答题	t_manyou_qiyu_3004058	3004	5801	5802	5803	1	21	300	0								
3004059	女神答题	t_manyou_qiyu_3004059	3004	5901	5902	5903	1	5	300	0								
3004060	女神答题	t_manyou_qiyu_3004060	3004	6001	6002	6003	1	21	300	0								
3004061	女神答题	t_manyou_qiyu_3004061	3004	6101	6102	6103	1	5	300	0								
3004062	女神答题	t_manyou_qiyu_3004062	3004	6201	6202	6203	1	21	300	0								
3004063	女神答题	t_manyou_qiyu_3004063	3004	6301	6302	6303	1	5	300	0								
3004064	女神答题	t_manyou_qiyu_3004064	3004	6401	6402	6403	1	21	300	0								
3004065	女神答题	t_manyou_qiyu_3004065	3004	6501	6502	6503	1	5	300	0								
3004066	女神答题	t_manyou_qiyu_3004066	3004	6601	6602	6603	1	21	300	0								
3004067	女神答题	t_manyou_qiyu_3004067	3004	6701	6702	6703	1	5	300	0								
3004068	女神答题	t_manyou_qiyu_3004068	3004	6801	6802	6803	1	21	300	0								
3004069	女神答题	t_manyou_qiyu_3004069	3004	6901	6902	6903	1	5	300	0								
3004070	女神答题	t_manyou_qiyu_3004070	3004	7001	7002	7003	1	21	300	0								
3004071	女神答题	t_manyou_qiyu_3004071	3004	7101	7102	7103	1	5	300	0								
3004072	女神答题	t_manyou_qiyu_3004072	3004	7201	7202	7203	1	21	300	0								
3004073	女神答题	t_manyou_qiyu_3004073	3004	7301	7302	7303	1	5	300	0								
3004074	女神答题	t_manyou_qiyu_3004074	3004	7401	7402	7403	1	21	300	0								
3004075	女神答题	t_manyou_qiyu_3004075	3004	7501	7502	7503	1	5	300	0								
3004076	女神答题	t_manyou_qiyu_3004076	3004	7601	7602	7603	1	21	300	0								
3004077	女神答题	t_manyou_qiyu_3004077	3004	7701	7702	7703	1	5	300	0								
3004078	女神答题	t_manyou_qiyu_3004078	3004	7801	7802	7803	1	21	300	0								
3004079	女神答题	t_manyou_qiyu_3004079	3004	7901	7902	7903	1	5	300	0								
3004080	女神答题	t_manyou_qiyu_3004080	3004	8001	8002	8003	1	21	300	0								
3004081	女神答题	t_manyou_qiyu_3004081	3004	8101	8102	8103	1	5	300	0								
3004082	女神答题	t_manyou_qiyu_3004082	3004	8201	8202	8203	1	21	300	0								
3004083	女神答题	t_manyou_qiyu_3004083	3004	8301	8302	8303	1	5	300	0								
3004084	女神答题	t_manyou_qiyu_3004084	3004	8401	8402	8403	1	21	300	0								
3004085	女神答题	t_manyou_qiyu_3004085	3004	8501	8502	8503	1	5	300	0								
3004086	女神答题	t_manyou_qiyu_3004086	3004	8601	8602	8603	1	21	300	0								
3004087	女神答题	t_manyou_qiyu_3004087	3004	8701	8702	8703	1	5	300	0								
3004088	女神答题	t_manyou_qiyu_3004088	3004	8801	8802	8803	1	21	300	0								
3004089	女神答题	t_manyou_qiyu_3004089	3004	8901	8902	8903	1	5	300	0								
3004090	女神答题	t_manyou_qiyu_3004090	3004	9001	9002	9003	1	21	300	0								
3004091	女神答题	t_manyou_qiyu_3004091	3004	9101	9102	9103	1	5	300	0								
3004092	女神答题	t_manyou_qiyu_3004092	3004	9201	9202	9203	1	21	300	0								
3004093	女神答题	t_manyou_qiyu_3004093	3004	9301	9302	9303	1	5	300	0								
3004094	女神答题	t_manyou_qiyu_3004094	3004	9401	9402	9403	1	21	300	0								
3004095	女神答题	t_manyou_qiyu_3004095	3004	9501	9502	9503	1	5	300	0								
3004096	女神答题	t_manyou_qiyu_3004096	3004	9601	9602	9603	1	21	300	0								
3004097	女神答题	t_manyou_qiyu_3004097	3004	9701	9702	9703	1	5	300	0								
3004098	女神答题	t_manyou_qiyu_3004098	3004	9801	9802	9803	1	21	300	0								
3004099	女神答题	t_manyou_qiyu_3004099	3004	9901	9902	9903	1	5	300	0								
3004100	女神答题	t_manyou_qiyu_3004100	3004	10001	10002	10003	1	21	300	0								
3005001	单笔充值30元	t_manyou_qiyu_3005001	3005	120			1	2	688	0	2	10010002	6	0	2	10010007	6	0
3005002	单笔充值98元	t_manyou_qiyu_3005002	3005	100			1	2	1988	0	2	10010002	20	0	2	10010007	20	0
