INT	INT	INT
level	技能石	金币
1	10	5000
2	10	5000
3	20	10000
4	20	10000
5	40	20000
6	40	20000
7	80	40000
8	80	40000
9	120	60000
10	120	60000
11	200	100000
12	200	100000
13	300	150000
14	300	150000
15	400	200000
16	400	200000
17	600	300000
18	600	300000
19	900	450000
20	900	450000
21	1200	600000
22	1200	600000
23	1500	750000
24	1500	750000
25	2500	1250000
26	2500	1250000
27	3200	1600000
28	3200	1600000
29	4000	2000000
30	4000	2000000
