INT	STRING	STRING	STRING	INT	INT	INT	INT	INT	INT	INT	INT	INT	INT
id	name	描述	ICON	类型 1目标 2挑战 3每日 4邀请	前置id	条件类型 1达到def1级 2紫色以上伙伴到达def1个 3有def1个伙伴def2阶以上伙伴 4有def1个伙伴def2星以上伙伴 5missionid到def1 6累计通关def1次 7进阶def1次 8升星def1次 9强化def1次 10竞技场胜利def1次 11世界BOSSdef1次 12精英副本def1次 13黑市购买def1次 14龙之塔def1层 16饰品强化 17饰品升星 20邀请的好友等级达到def1级	条件num	条件预留1	条件预留2	type	value1	value2	value3
101001	人物等级达到5级	t_target_desc_101001	icon_hd_hbsjie	1		1	5	5		2	40040001	50	0
101002	人物等级达到10级	t_target_desc_101002	icon_hd_hbsjie	1	101001	1	10	10		2	40040001	100	0
101003	人物等级达到15级	t_target_desc_101003	icon_hd_hbsjie	1	101002	1	15	15		2	40040001	150	0
101004	人物等级达到20级	t_target_desc_101004	icon_hd_hbsjie	1	101003	1	20	20		2	40040001	200	0
101005	人物等级达到25级	t_target_desc_101005	icon_hd_hbsjie	1	101004	1	25	25		2	40040001	250	0
101006	人物等级达到30级	t_target_desc_101006	icon_hd_hbsjie	1	101005	1	30	30		2	50070001	100	0
101007	人物等级达到35级	t_target_desc_101007	icon_hd_hbsjie	1	101006	1	35	35		2	50070001	100	0
101008	人物等级达到40级	t_target_desc_101008	icon_hd_hbsjie	1	101007	1	40	40		2	50100001	200	0
101009	人物等级达到45级	t_target_desc_101009	icon_hd_hbsjie	1	101008	1	45	45		2	50100001	200	0
101010	人物等级达到50级	t_target_desc_101010	icon_hd_hbsjie	1	101009	1	50	50		1	2	500	0
101011	人物等级达到55级	t_target_desc_101011	icon_hd_hbsjie	1	101010	1	55	55		2	50070001	200	0
101012	人物等级达到60级	t_target_desc_101012	icon_hd_hbsjie	1	101011	1	60	60		1	2	600	0
101013	人物等级达到65级	t_target_desc_101013	icon_hd_hbsjie	1	101012	1	65	65		2	50100001	200	0
101014	人物等级达到70级	t_target_desc_101014	icon_hd_hbsjie	1	101013	1	70	70		1	2	700	0
101015	人物等级达到75级	t_target_desc_101015	icon_hd_hbsjie	1	101014	1	75	75		2	50070001	200	0
101016	人物等级达到80级	t_target_desc_101016	icon_hd_hbsjie	1	101015	1	80	80		1	2	800	0
101017	人物等级达到85级	t_target_desc_101017	icon_hd_hbsjie	1	101016	1	85	85		2	50100001	200	0
101018	人物等级达到90级	t_target_desc_101018	icon_hd_hbsjie	1	101017	1	90	90		1	2	900	0
101019	人物等级达到95级	t_target_desc_101019	icon_hd_hbsjie	1	101018	1	95	95		2	50070001	200	0
101020	人物等级达到100级	t_target_desc_101020	icon_hd_hbsjie	1	101019	1	100	100		1	2	1000	0
101021	人物等级达到105级	t_target_desc_101021	icon_hd_hbsjie	1	101020	1	105	105		1	2	1100	0
101022	人物等级达到110级	t_target_desc_101022	icon_hd_hbsjie	1	101021	1	110	110		1	2	1200	0
101023	人物等级达到115级	t_target_desc_101023	icon_hd_hbsjie	1	101022	1	115	115		1	2	1300	0
101024	人物等级达到120级	t_target_desc_101024	icon_hd_hbsjie	1	101023	1	120	120		1	2	1400	0
101025	人物等级达到125级	t_target_desc_101025	icon_hd_hbsjie	1	101024	1	125	125		1	2	1500	0
101026	人物等级达到130级	t_target_desc_101026	icon_hd_hbsjie	1	101025	1	130	130		1	2	1600	0
101027	人物等级达到135级	t_target_desc_101027	icon_hd_hbsjie	1	101026	1	135	135		1	2	1700	0
101028	人物等级达到140级	t_target_desc_101028	icon_hd_hbsjie	1	101027	1	140	140		1	2	1800	0
101029	人物等级达到145级	t_target_desc_101029	icon_hd_hbsjie	1	101028	1	145	145		1	2	1900	0
101030	人物等级达到150级	t_target_desc_101030	icon_hd_hbsjie	1	101029	1	150	150		1	2	2000	0
103001	拥有3个以上伙伴	t_target_desc_103001	icon_hd_hbcqu	1		3	3	3		1	5	50	0
103002	拥有4个以上伙伴	t_target_desc_103002	icon_hd_hbcqu	1	103001	3	4	4		1	5	50	0
103003	拥有5个以上伙伴	t_target_desc_103003	icon_hd_hbcqu	1	103002	3	5	5		1	5	50	0
103004	拥有6个以上伙伴	t_target_desc_103004	icon_hd_hbcqu	1	103003	3	6	6		1	5	50	0
103005	拥有7个以上伙伴	t_target_desc_103005	icon_hd_hbcqu	1	103004	3	7	7		1	5	50	0
103006	拥有8个以上伙伴	t_target_desc_103006	icon_hd_hbcqu	1	103005	3	8	8		1	5	50	0
103007	拥有9个以上伙伴	t_target_desc_103007	icon_hd_hbcqu	1	103006	3	9	9		1	5	50	0
103008	拥有10个以上伙伴	t_target_desc_103008	icon_hd_hbcqu	1	103007	3	10	10		1	5	50	0
103009	拥有11个以上伙伴	t_target_desc_103009	icon_hd_hbcqu	1	103008	3	11	11		1	5	100	0
103010	拥有12个以上伙伴	t_target_desc_103010	icon_hd_hbcqu	1	103009	3	12	12		1	5	100	0
103011	拥有13个以上伙伴	t_target_desc_103011	icon_hd_hbcqu	1	103010	3	13	13		1	5	100	0
103012	拥有14个以上伙伴	t_target_desc_103012	icon_hd_hbcqu	1	103011	3	14	14		1	5	100	0
103013	拥有15个以上伙伴	t_target_desc_103013	icon_hd_hbcqu	1	103012	3	15	15		1	5	100	0
103014	拥有16个以上伙伴	t_target_desc_103014	icon_hd_hbcqu	1	103013	3	16	16		1	5	100	0
103015	拥有17个以上伙伴	t_target_desc_103015	icon_hd_hbcqu	1	103014	3	17	17		1	5	100	0
103016	拥有18个以上伙伴	t_target_desc_103016	icon_hd_hbcqu	1	103015	3	18	18		1	5	100	0
103017	拥有19个以上伙伴	t_target_desc_103017	icon_hd_hbcqu	1	103016	3	19	19		1	5	100	0
103018	拥有20个以上伙伴	t_target_desc_103018	icon_hd_hbcqu	1	103017	3	20	20		1	5	100	0
103019	拥有21个以上伙伴	t_target_desc_103019	icon_hd_hbcqu	1	103018	3	21	21		1	5	150	0
103020	拥有22个以上伙伴	t_target_desc_103020	icon_hd_hbcqu	1	103019	3	22	22		1	5	150	0
103021	拥有23个以上伙伴	t_target_desc_103021	icon_hd_hbcqu	1	103020	3	23	23		1	5	150	0
103022	拥有24个以上伙伴	t_target_desc_103022	icon_hd_hbcqu	1	103021	3	24	24		1	5	150	0
103023	拥有25个以上伙伴	t_target_desc_103023	icon_hd_hbcqu	1	103022	3	25	25		1	5	150	0
103024	拥有26个以上伙伴	t_target_desc_103024	icon_hd_hbcqu	1	103023	3	26	26		1	5	150	0
103025	拥有27个以上伙伴	t_target_desc_103025	icon_hd_hbcqu	1	103024	3	27	27		1	5	150	0
103026	拥有28个以上伙伴	t_target_desc_103026	icon_hd_hbcqu	1	103025	3	28	28		1	5	150	0
103027	拥有29个以上伙伴	t_target_desc_103027	icon_hd_hbcqu	1	103026	3	29	29		1	5	150	0
103028	拥有30个以上伙伴	t_target_desc_103028	icon_hd_hbcqu	1	103027	3	30	30		1	5	150	0
103029	拥有31个以上伙伴	t_target_desc_103029	icon_hd_hbcqu	1	103028	3	31	31		1	5	200	0
103030	拥有32个以上伙伴	t_target_desc_103030	icon_hd_hbcqu	1	103029	3	32	32		1	5	200	0
103031	拥有33个以上伙伴	t_target_desc_103031	icon_hd_hbcqu	1	103030	3	33	33		1	5	200	0
103032	拥有34个以上伙伴	t_target_desc_103032	icon_hd_hbcqu	1	103031	3	34	34		1	5	200	0
103033	拥有35个以上伙伴	t_target_desc_103033	icon_hd_hbcqu	1	103032	3	35	35		1	5	200	0
103034	拥有36个以上伙伴	t_target_desc_103034	icon_hd_hbcqu	1	103033	3	36	36		1	5	200	0
103035	拥有37个以上伙伴	t_target_desc_103035	icon_hd_hbcqu	1	103034	3	37	37		1	5	200	0
103036	拥有38个以上伙伴	t_target_desc_103036	icon_hd_hbcqu	1	103035	3	38	38		1	5	200	0
103037	拥有39个以上伙伴	t_target_desc_103037	icon_hd_hbcqu	1	103036	3	39	39		1	5	200	0
103038	拥有40个以上伙伴	t_target_desc_103038	icon_hd_hbcqu	1	103037	3	40	40		1	5	200	0
103039	拥有41个以上伙伴	t_target_desc_103039	icon_hd_hbcqu	1	103038	3	41	41		1	5	200	0
103040	拥有42个以上伙伴	t_target_desc_103040	icon_hd_hbcqu	1	103039	3	42	42		1	5	200	0
103041	拥有43个以上伙伴	t_target_desc_103041	icon_hd_hbcqu	1	103040	3	43	43		1	5	200	0
103042	拥有44个以上伙伴	t_target_desc_103042	icon_hd_hbcqu	1	103041	3	44	44		1	5	200	0
103043	拥有45个以上伙伴	t_target_desc_103043	icon_hd_hbcqu	1	103042	3	45	45		1	5	200	0
103044	拥有46个以上伙伴	t_target_desc_103044	icon_hd_hbcqu	1	103043	3	46	46		1	5	200	0
103045	拥有47个以上伙伴	t_target_desc_103045	icon_hd_hbcqu	1	103044	3	47	47		1	5	200	0
103046	拥有48个以上伙伴	t_target_desc_103046	icon_hd_hbcqu	1	103045	3	48	48		1	5	200	0
103047	拥有49个以上伙伴	t_target_desc_103047	icon_hd_hbcqu	1	103046	3	49	49		1	5	200	0
103048	拥有50个以上伙伴	t_target_desc_103048	icon_hd_hbcqu	1	103047	3	50	50		1	5	200	0
103049	拥有51个以上伙伴	t_target_desc_103049	icon_hd_hbcqu	1	103048	3	51	51		1	5	200	0
103050	拥有52个以上伙伴	t_target_desc_103050	icon_hd_hbcqu	1	103049	3	52	52		1	5	200	0
103051	拥有53个以上伙伴	t_target_desc_103051	icon_hd_hbcqu	1	103050	3	53	53		1	5	200	0
103052	拥有54个以上伙伴	t_target_desc_103052	icon_hd_hbcqu	1	103051	3	54	54		1	5	200	0
103053	拥有55个以上伙伴	t_target_desc_103053	icon_hd_hbcqu	1	103052	3	55	55		1	5	200	0
103054	拥有56个以上伙伴	t_target_desc_103054	icon_hd_hbcqu	1	103053	3	56	56		1	5	200	0
103055	拥有57个以上伙伴	t_target_desc_103055	icon_hd_hbcqu	1	103054	3	57	57		1	5	200	0
103056	拥有58个以上伙伴	t_target_desc_103056	icon_hd_hbcqu	1	103055	3	58	58		1	5	200	0
103057	拥有59个以上伙伴	t_target_desc_103057	icon_hd_hbcqu	1	103056	3	59	59		1	5	200	0
103058	拥有60个以上伙伴	t_target_desc_103058	icon_hd_hbcqu	1	103057	3	60	60		1	5	200	0
103059	拥有61个以上伙伴	t_target_desc_103059	icon_hd_hbcqu	1	103058	3	61	61		1	5	200	0
103060	拥有62个以上伙伴	t_target_desc_103060	icon_hd_hbcqu	1	103059	3	62	62		1	5	200	0
103061	拥有63个以上伙伴	t_target_desc_103061	icon_hd_hbcqu	1	103060	3	63	63		1	5	200	0
103062	拥有64个以上伙伴	t_target_desc_103062	icon_hd_hbcqu	1	103061	3	64	64		1	5	200	0
103063	拥有65个以上伙伴	t_target_desc_103063	icon_hd_hbcqu	1	103062	3	65	65		1	5	200	0
103064	拥有66个以上伙伴	t_target_desc_103064	icon_hd_hbcqu	1	103063	3	66	66		1	5	200	0
103065	拥有67个以上伙伴	t_target_desc_103065	icon_hd_hbcqu	1	103064	3	67	67		1	5	200	0
103066	拥有68个以上伙伴	t_target_desc_103066	icon_hd_hbcqu	1	103065	3	68	68		1	5	200	0
103067	拥有69个以上伙伴	t_target_desc_103067	icon_hd_hbcqu	1	103066	3	69	69		1	5	200	0
103068	拥有70个以上伙伴	t_target_desc_103068	icon_hd_hbcqu	1	103067	3	70	70		1	5	200	0
105001	通关主线第1章	t_target_desc_105001	icon_hd_ptfb	1		5	1	1000		1	1	20000	0
105002	通关主线第2章	t_target_desc_105002	icon_hd_ptfb	1	105001	5	1	2000		1	1	25000	0
105003	通关主线第3章	t_target_desc_105003	icon_hd_ptfb	1	105002	5	1	3000		1	1	30000	0
105004	通关主线第4章	t_target_desc_105004	icon_hd_ptfb	1	105003	5	1	4000		1	1	35000	0
105005	通关主线第5章	t_target_desc_105005	icon_hd_ptfb	1	105004	5	1	5000		1	1	40000	0
105006	通关主线第6章	t_target_desc_105006	icon_hd_ptfb	1	105005	5	1	6000		1	1	45000	0
105007	通关主线第7章	t_target_desc_105007	icon_hd_ptfb	1	105006	5	1	7000		1	1	50000	0
105008	通关主线第8章	t_target_desc_105008	icon_hd_ptfb	1	105007	5	1	8000		1	1	55000	0
105009	通关主线第9章	t_target_desc_105009	icon_hd_ptfb	1	105008	5	1	9000		1	1	60000	0
105010	通关主线第10章	t_target_desc_105010	icon_hd_ptfb	1	105009	5	1	10000		1	1	65000	0
105011	通关主线第11章	t_target_desc_105011	icon_hd_ptfb	1	105010	5	1	11000		1	1	70000	0
105012	通关主线第12章	t_target_desc_105012	icon_hd_ptfb	1	105011	5	1	12000		1	1	75000	0
105013	通关主线第13章	t_target_desc_105013	icon_hd_ptfb	1	105012	5	1	13000		1	1	80000	0
105014	通关主线第14章	t_target_desc_105014	icon_hd_ptfb	1	105013	5	1	14000		1	1	85000	0
105015	通关主线第15章	t_target_desc_105015	icon_hd_ptfb	1	105014	5	1	15000		1	1	90000	0
105016	通关主线第16章	t_target_desc_105016	icon_hd_ptfb	1	105015	5	1	16000		1	1	95000	0
105017	通关主线第17章	t_target_desc_105017	icon_hd_ptfb	1	105016	5	1	17000		1	1	100000	0
105018	通关主线第18章	t_target_desc_105018	icon_hd_ptfb	1	105017	5	1	18000		1	1	105000	0
105019	通关主线第19章	t_target_desc_105019	icon_hd_ptfb	1	105018	5	1	19000		1	1	110000	0
105020	通关主线第20章	t_target_desc_105020	icon_hd_ptfb	1	105019	5	1	20000		1	1	115000	0
105021	通关主线第21章	t_target_desc_105021	icon_hd_ptfb	1	105020	5	1	21000		1	1	120000	0
105022	通关主线第22章	t_target_desc_105022	icon_hd_ptfb	1	105021	5	1	22000		1	1	125000	0
105023	通关主线第23章	t_target_desc_105023	icon_hd_ptfb	1	105022	5	1	23000		1	1	130000	0
105024	通关主线第24章	t_target_desc_105024	icon_hd_ptfb	1	105023	5	1	24000		1	1	135000	0
105025	通关主线第25章	t_target_desc_105025	icon_hd_ptfb	1	105024	5	1	25000		1	1	140000	0
105026	通关主线第26章	t_target_desc_105026	icon_hd_ptfb	1	105025	5	1	26000		1	1	145000	0
105027	通关主线第27章	t_target_desc_105027	icon_hd_ptfb	1	105026	5	1	27000		1	1	150000	0
105028	通关主线第28章	t_target_desc_105028	icon_hd_ptfb	1	105027	5	1	28000		1	1	155000	0
105029	通关主线第29章	t_target_desc_105029	icon_hd_ptfb	1	105028	5	1	29000		1	1	160000	0
105030	通关主线第30章	t_target_desc_105030	icon_hd_ptfb	1	105029	5	1	30000		1	1	165000	0
105031	通关主线第31章	t_target_desc_105031	icon_hd_ptfb	1	105030	5	1	31000		1	1	170000	0
105032	通关主线第32章	t_target_desc_105032	icon_hd_ptfb	1	105031	5	1	32000		1	1	175000	0
105033	通关主线第33章	t_target_desc_105033	icon_hd_ptfb	1	105032	5	1	33000		1	1	180000	0
105034	通关主线第34章	t_target_desc_105034	icon_hd_ptfb	1	105033	5	1	34000		1	1	185000	0
105035	通关主线第35章	t_target_desc_105035	icon_hd_ptfb	1	105034	5	1	35000		1	1	190000	0
105036	通关主线第36章	t_target_desc_105036	icon_hd_ptfb	1	105035	5	1	36000		1	1	195000	0
105037	通关主线第37章	t_target_desc_105037	icon_hd_ptfb	1	105036	5	1	37000		1	1	200000	0
105038	通关主线第38章	t_target_desc_105038	icon_hd_ptfb	1	105037	5	1	38000		1	1	205000	0
105039	通关主线第39章	t_target_desc_105039	icon_hd_ptfb	1	105038	5	1	39000		1	1	210000	0
105040	通关主线第40章	t_target_desc_105040	icon_hd_ptfb	1	105039	5	1	40000		1	1	215000	0
105041	通关主线第41章	t_target_desc_105041	icon_hd_ptfb	1	105040	5	1	41000		1	1	220000	0
105042	通关主线第42章	t_target_desc_105042	icon_hd_ptfb	1	105041	5	1	42000		1	1	225000	0
105043	通关主线第43章	t_target_desc_105043	icon_hd_ptfb	1	105042	5	1	43000		1	1	230000	0
105044	通关主线第44章	t_target_desc_105044	icon_hd_ptfb	1	105043	5	1	44000		1	1	235000	0
105045	通关主线第45章	t_target_desc_105045	icon_hd_ptfb	1	105044	5	1	45000		1	1	240000	0
105046	通关主线第46章	t_target_desc_105046	icon_hd_ptfb	1	105045	5	1	46000		1	1	245000	0
105047	通关主线第47章	t_target_desc_105047	icon_hd_ptfb	1	105046	5	1	47000		1	1	250000	0
105048	通关主线第48章	t_target_desc_105048	icon_hd_ptfb	1	105047	5	1	48000		1	1	255000	0
105049	通关主线第49章	t_target_desc_105049	icon_hd_ptfb	1	105048	5	1	49000		1	1	260000	0
105050	通关主线第50章	t_target_desc_105050	icon_hd_ptfb	1	105049	5	1	50000		1	1	265000	0
105051	通关主线第51章	t_target_desc_105051	icon_hd_ptfb	1	105050	5	1	51000		1	1	270000	0
105052	通关主线第52章	t_target_desc_105052	icon_hd_ptfb	1	105051	5	1	52000		1	1	275000	0
105053	通关主线第53章	t_target_desc_105053	icon_hd_ptfb	1	105052	5	1	53000		1	1	280000	0
105054	通关主线第54章	t_target_desc_105054	icon_hd_ptfb	1	105053	5	1	54000		1	1	285000	0
105055	通关主线第55章	t_target_desc_105055	icon_hd_ptfb	1	105054	5	1	55000		1	1	290000	0
105056	通关主线第56章	t_target_desc_105056	icon_hd_ptfb	1	105055	5	1	56000		1	1	295000	0
105057	通关主线第57章	t_target_desc_105057	icon_hd_ptfb	1	105056	5	1	57000		1	1	300000	0
105058	通关主线第58章	t_target_desc_105058	icon_hd_ptfb	1	105057	5	1	58000		1	1	305000	0
105059	通关主线第59章	t_target_desc_105059	icon_hd_ptfb	1	105058	5	1	59000		1	1	310000	0
105060	通关主线第60章	t_target_desc_105060	icon_hd_ptfb	1	105059	5	1	60000		1	1	315000	0
105061	通关主线第61章	t_target_desc_105061	icon_hd_ptfb	1	105060	5	1	61000		1	1	320000	0
105062	通关主线第62章	t_target_desc_105062	icon_hd_ptfb	1	105061	5	1	62000		1	1	325000	0
105063	通关主线第63章	t_target_desc_105063	icon_hd_ptfb	1	105062	5	1	63000		1	1	330000	0
105064	通关主线第64章	t_target_desc_105064	icon_hd_ptfb	1	105063	5	1	64000		1	1	335000	0
105065	通关主线第65章	t_target_desc_105065	icon_hd_ptfb	1	105064	5	1	65000		1	1	340000	0
105066	通关主线第66章	t_target_desc_105066	icon_hd_ptfb	1	105065	5	1	66000		1	1	345000	0
105067	通关主线第67章	t_target_desc_105067	icon_hd_ptfb	1	105066	5	1	67000		1	1	350000	0
105068	通关主线第68章	t_target_desc_105068	icon_hd_ptfb	1	105067	5	1	68000		1	1	355000	0
105069	通关主线第69章	t_target_desc_105069	icon_hd_ptfb	1	105068	5	1	69000		1	1	360000	0
105070	通关主线第70章	t_target_desc_105070	icon_hd_ptfb	1	105069	5	1	70000		1	1	365000	0
105071	通关主线第71章	t_target_desc_105071	icon_hd_ptfb	1	105070	5	1	71000		1	1	370000	0
105072	通关主线第72章	t_target_desc_105072	icon_hd_ptfb	1	105071	5	1	72000		1	1	375000	0
105073	通关主线第73章	t_target_desc_105073	icon_hd_ptfb	1	105072	5	1	73000		1	1	380000	0
105074	通关主线第74章	t_target_desc_105074	icon_hd_ptfb	1	105073	5	1	74000		1	1	385000	0
105075	通关主线第75章	t_target_desc_105075	icon_hd_ptfb	1	105074	5	1	75000		1	1	390000	0
105076	通关主线第76章	t_target_desc_105076	icon_hd_ptfb	1	105075	5	1	76000		1	1	395000	0
105077	通关主线第77章	t_target_desc_105077	icon_hd_ptfb	1	105076	5	1	77000		1	1	400000	0
105078	通关主线第78章	t_target_desc_105078	icon_hd_ptfb	1	105077	5	1	78000		1	1	400000	0
105079	通关主线第79章	t_target_desc_105079	icon_hd_ptfb	1	105078	5	1	79000		1	1	400000	0
105080	通关主线第80章	t_target_desc_105080	icon_hd_ptfb	1	105079	5	1	80000		1	1	400000	0
105081	通关主线第81章	t_target_desc_105081	icon_hd_ptfb	1	105080	5	1	81000		1	1	400000	0
105082	通关主线第82章	t_target_desc_105082	icon_hd_ptfb	1	105081	5	1	82000		1	1	400000	0
105083	通关主线第83章	t_target_desc_105083	icon_hd_ptfb	1	105082	5	1	83000		1	1	400000	0
105084	通关主线第84章	t_target_desc_105084	icon_hd_ptfb	1	105083	5	1	84000		1	1	400000	0
105085	通关主线第85章	t_target_desc_105085	icon_hd_ptfb	1	105084	5	1	85000		1	1	400000	0
105086	通关主线第86章	t_target_desc_105086	icon_hd_ptfb	1	105085	5	1	86000		1	1	400000	0
105087	通关主线第87章	t_target_desc_105087	icon_hd_ptfb	1	105086	5	1	87000		1	1	400000	0
105088	通关主线第88章	t_target_desc_105088	icon_hd_ptfb	1	105087	5	1	88000		1	1	400000	0
105089	通关主线第89章	t_target_desc_105089	icon_hd_ptfb	1	105088	5	1	89000		1	1	400000	0
105090	通关主线第90章	t_target_desc_105090	icon_hd_ptfb	1	105089	5	1	90000		1	1	400000	0
105091	通关主线第91章	t_target_desc_105091	icon_hd_ptfb	1	105090	5	1	91000		1	1	400000	0
105092	通关主线第92章	t_target_desc_105092	icon_hd_ptfb	1	105091	5	1	92000		1	1	400000	0
105093	通关主线第93章	t_target_desc_105093	icon_hd_ptfb	1	105092	5	1	93000		1	1	400000	0
105094	通关主线第94章	t_target_desc_105094	icon_hd_ptfb	1	105093	5	1	94000		1	1	400000	0
105095	通关主线第95章	t_target_desc_105095	icon_hd_ptfb	1	105094	5	1	95000		1	1	400000	0
105096	通关主线第96章	t_target_desc_105096	icon_hd_ptfb	1	105095	5	1	96000		1	1	400000	0
105097	通关主线第97章	t_target_desc_105097	icon_hd_ptfb	1	105096	5	1	97000		1	1	400000	0
105098	通关主线第98章	t_target_desc_105098	icon_hd_ptfb	1	105097	5	1	98000		1	1	400000	0
105099	通关主线第99章	t_target_desc_105099	icon_hd_ptfb	1	105098	5	1	99000		1	1	400000	0
105100	通关主线第100章	t_target_desc_105100	icon_hd_ptfb	1	105099	5	1	100000		1	1	400000	0
105101	通关主线第101章	t_target_desc_105101	icon_hd_ptfb	1	105100	5	1	101000		1	1	400000	0
105102	通关主线第102章	t_target_desc_105102	icon_hd_ptfb	1	105101	5	1	102000		1	1	400000	0
105103	通关主线第103章	t_target_desc_105103	icon_hd_ptfb	1	105102	5	1	103000		1	1	400000	0
105104	通关主线第104章	t_target_desc_105104	icon_hd_ptfb	1	105103	5	1	104000		1	1	400000	0
105105	通关主线第105章	t_target_desc_105105	icon_hd_ptfb	1	105104	5	1	105000		1	1	400000	0
105106	通关主线第106章	t_target_desc_105106	icon_hd_ptfb	1	105105	5	1	106000		1	1	400000	0
105107	通关主线第107章	t_target_desc_105107	icon_hd_ptfb	1	105106	5	1	107000		1	1	400000	0
105108	通关主线第108章	t_target_desc_105108	icon_hd_ptfb	1	105107	5	1	108000		1	1	400000	0
105109	通关主线第109章	t_target_desc_105109	icon_hd_ptfb	1	105108	5	1	109000		1	1	400000	0
105110	通关主线第110章	t_target_desc_105110	icon_hd_ptfb	1	105109	5	1	110000		1	1	400000	0
105111	通关主线第111章	t_target_desc_105111	icon_hd_ptfb	1	105110	5	1	111000		1	1	400000	0
105112	通关主线第112章	t_target_desc_105112	icon_hd_ptfb	1	105111	5	1	112000		1	1	400000	0
105113	通关主线第113章	t_target_desc_105113	icon_hd_ptfb	1	105112	5	1	113000		1	1	400000	0
105114	通关主线第114章	t_target_desc_105114	icon_hd_ptfb	1	105113	5	1	114000		1	1	400000	0
105115	通关主线第115章	t_target_desc_105115	icon_hd_ptfb	1	105114	5	1	115000		1	1	400000	0
105116	通关主线第116章	t_target_desc_105116	icon_hd_ptfb	1	105115	5	1	116000		1	1	400000	0
105117	通关主线第117章	t_target_desc_105117	icon_hd_ptfb	1	105116	5	1	117000		1	1	400000	0
105118	通关主线第118章	t_target_desc_105118	icon_hd_ptfb	1	105117	5	1	118000		1	1	400000	0
105119	通关主线第119章	t_target_desc_105119	icon_hd_ptfb	1	105118	5	1	119000		1	1	400000	0
105120	通关主线第120章	t_target_desc_105120	icon_hd_ptfb	1	105119	5	1	120000		1	1	400000	0
105121	通关主线第121章	t_target_desc_105121	icon_hd_ptfb	1	105120	5	1	121000		1	1	400000	0
105122	通关主线第122章	t_target_desc_105122	icon_hd_ptfb	1	105121	5	1	122000		1	1	400000	0
105123	通关主线第123章	t_target_desc_105123	icon_hd_ptfb	1	105122	5	1	123000		1	1	400000	0
105124	通关主线第124章	t_target_desc_105124	icon_hd_ptfb	1	105123	5	1	124000		1	1	400000	0
105125	通关主线第125章	t_target_desc_105125	icon_hd_ptfb	1	105124	5	1	125000		1	1	400000	0
105126	通关主线第126章	t_target_desc_105126	icon_hd_ptfb	1	105125	5	1	126000		1	1	400000	0
105127	通关主线第127章	t_target_desc_105127	icon_hd_ptfb	1	105126	5	1	127000		1	1	400000	0
105128	通关主线第128章	t_target_desc_105128	icon_hd_ptfb	1	105127	5	1	128000		1	1	400000	0
105129	通关主线第129章	t_target_desc_105129	icon_hd_ptfb	1	105128	5	1	129000		1	1	400000	0
105130	通关主线第130章	t_target_desc_105130	icon_hd_ptfb	1	105129	5	1	130000		1	1	400000	0
105131	通关主线第131章	t_target_desc_105131	icon_hd_ptfb	1	105130	5	1	131000		1	1	400000	0
105132	通关主线第132章	t_target_desc_105132	icon_hd_ptfb	1	105131	5	1	132000		1	1	400000	0
105133	通关主线第133章	t_target_desc_105133	icon_hd_ptfb	1	105132	5	1	133000		1	1	400000	0
105134	通关主线第134章	t_target_desc_105134	icon_hd_ptfb	1	105133	5	1	134000		1	1	400000	0
105135	通关主线第135章	t_target_desc_105135	icon_hd_ptfb	1	105134	5	1	135000		1	1	400000	0
105136	通关主线第136章	t_target_desc_105136	icon_hd_ptfb	1	105135	5	1	136000		1	1	400000	0
105137	通关主线第137章	t_target_desc_105137	icon_hd_ptfb	1	105136	5	1	137000		1	1	400000	0
105138	通关主线第138章	t_target_desc_105138	icon_hd_ptfb	1	105137	5	1	138000		1	1	400000	0
105139	通关主线第139章	t_target_desc_105139	icon_hd_ptfb	1	105138	5	1	139000		1	1	400000	0
105140	通关主线第140章	t_target_desc_105140	icon_hd_ptfb	1	105139	5	1	140000		1	1	400000	0
105141	通关主线第141章	t_target_desc_105141	icon_hd_ptfb	1	105140	5	1	141000		1	1	400000	0
105142	通关主线第142章	t_target_desc_105142	icon_hd_ptfb	1	105141	5	1	142000		1	1	400000	0
105143	通关主线第143章	t_target_desc_105143	icon_hd_ptfb	1	105142	5	1	143000		1	1	400000	0
105144	通关主线第144章	t_target_desc_105144	icon_hd_ptfb	1	105143	5	1	144000		1	1	400000	0
105145	通关主线第145章	t_target_desc_105145	icon_hd_ptfb	1	105144	5	1	145000		1	1	400000	0
106001	通关精英第1章	t_target_desc_106001	icon_hd_jyfb	1		15	1	1000		2	10010002	3	0
106002	通关精英第2章	t_target_desc_106002	icon_hd_jyfb	1	106001	15	1	2000		2	10010002	3	0
106003	通关精英第3章	t_target_desc_106003	icon_hd_jyfb	1	106002	15	1	3000		2	10010002	3	0
106004	通关精英第4章	t_target_desc_106004	icon_hd_jyfb	1	106003	15	1	4000		2	10010002	3	0
106005	通关精英第5章	t_target_desc_106005	icon_hd_jyfb	1	106004	15	1	5000		2	10010002	3	0
106006	通关精英第6章	t_target_desc_106006	icon_hd_jyfb	1	106005	15	1	6000		2	10010002	3	0
106007	通关精英第7章	t_target_desc_106007	icon_hd_jyfb	1	106006	15	1	7000		2	10010002	3	0
106008	通关精英第8章	t_target_desc_106008	icon_hd_jyfb	1	106007	15	1	8000		2	10010002	3	0
106009	通关精英第9章	t_target_desc_106009	icon_hd_jyfb	1	106008	15	1	9000		2	10010002	3	0
106010	通关精英第10章	t_target_desc_106010	icon_hd_jyfb	1	106009	15	1	10000		2	10010002	3	0
106011	通关精英第11章	t_target_desc_106011	icon_hd_jyfb	1	106010	15	1	11000		2	10010002	3	0
106012	通关精英第12章	t_target_desc_106012	icon_hd_jyfb	1	106011	15	1	12000		2	10010002	3	0
106013	通关精英第13章	t_target_desc_106013	icon_hd_jyfb	1	106012	15	1	13000		2	10010002	3	0
106014	通关精英第14章	t_target_desc_106014	icon_hd_jyfb	1	106013	15	1	14000		2	10010002	3	0
106015	通关精英第15章	t_target_desc_106015	icon_hd_jyfb	1	106014	15	1	15000		2	10010002	3	0
106016	通关精英第16章	t_target_desc_106016	icon_hd_jyfb	1	106015	15	1	16000		2	10010002	3	0
106017	通关精英第17章	t_target_desc_106017	icon_hd_jyfb	1	106016	15	1	17000		2	10010002	3	0
106018	通关精英第18章	t_target_desc_106018	icon_hd_jyfb	1	106017	15	1	18000		2	10010002	3	0
106019	通关精英第19章	t_target_desc_106019	icon_hd_jyfb	1	106018	15	1	19000		2	10010002	3	0
106020	通关精英第20章	t_target_desc_106020	icon_hd_jyfb	1	106019	15	1	20000		2	10010002	3	0
106021	通关精英第21章	t_target_desc_106021	icon_hd_jyfb	1	106020	15	1	21000		2	10010002	3	0
106022	通关精英第22章	t_target_desc_106022	icon_hd_jyfb	1	106021	15	1	22000		2	10010002	3	0
106023	通关精英第23章	t_target_desc_106023	icon_hd_jyfb	1	106022	15	1	23000		2	10010002	3	0
106024	通关精英第24章	t_target_desc_106024	icon_hd_jyfb	1	106023	15	1	24000		2	10010002	3	0
106025	通关精英第25章	t_target_desc_106025	icon_hd_jyfb	1	106024	15	1	25000		2	10010002	3	0
106026	通关精英第26章	t_target_desc_106026	icon_hd_jyfb	1	106025	15	1	26000		2	10010002	3	0
106027	通关精英第27章	t_target_desc_106027	icon_hd_jyfb	1	106026	15	1	27000		2	10010002	3	0
106028	通关精英第28章	t_target_desc_106028	icon_hd_jyfb	1	106027	15	1	28000		2	10010002	3	0
106029	通关精英第29章	t_target_desc_106029	icon_hd_jyfb	1	106028	15	1	29000		2	10010002	3	0
106030	通关精英第30章	t_target_desc_106030	icon_hd_jyfb	1	106029	15	1	30000		2	10010002	3	0
106031	通关精英第31章	t_target_desc_106031	icon_hd_jyfb	1	106030	15	1	31000		2	10010002	3	0
106032	通关精英第32章	t_target_desc_106032	icon_hd_jyfb	1	106031	15	1	32000		2	10010002	3	0
106033	通关精英第33章	t_target_desc_106033	icon_hd_jyfb	1	106032	15	1	33000		2	10010002	3	0
106034	通关精英第34章	t_target_desc_106034	icon_hd_jyfb	1	106033	15	1	34000		2	10010002	3	0
106035	通关精英第35章	t_target_desc_106035	icon_hd_jyfb	1	106034	15	1	35000		2	10010002	3	0
106036	通关精英第36章	t_target_desc_106036	icon_hd_jyfb	1	106035	15	1	36000		2	10010002	3	0
106037	通关精英第37章	t_target_desc_106037	icon_hd_jyfb	1	106036	15	1	37000		2	10010002	3	0
106038	通关精英第38章	t_target_desc_106038	icon_hd_jyfb	1	106037	15	1	38000		2	10010002	3	0
106039	通关精英第39章	t_target_desc_106039	icon_hd_jyfb	1	106038	15	1	39000		2	10010002	3	0
106040	通关精英第40章	t_target_desc_106040	icon_hd_jyfb	1	106039	15	1	40000		2	10010002	3	0
106041	通关精英第41章	t_target_desc_106041	icon_hd_jyfb	1	106040	15	1	41000		2	10010002	3	0
106042	通关精英第42章	t_target_desc_106042	icon_hd_jyfb	1	106041	15	1	42000		2	10010002	3	0
106043	通关精英第43章	t_target_desc_106043	icon_hd_jyfb	1	106042	15	1	43000		2	10010002	3	0
106044	通关精英第44章	t_target_desc_106044	icon_hd_jyfb	1	106043	15	1	44000		2	10010002	3	0
106045	通关精英第45章	t_target_desc_106045	icon_hd_jyfb	1	106044	15	1	45000		2	10010002	3	0
106046	通关精英第46章	t_target_desc_106046	icon_hd_jyfb	1	106045	15	1	46000		2	10010002	3	0
106047	通关精英第47章	t_target_desc_106047	icon_hd_jyfb	1	106046	15	1	47000		2	10010002	3	0
106048	通关精英第48章	t_target_desc_106048	icon_hd_jyfb	1	106047	15	1	48000		2	10010002	3	0
106049	通关精英第49章	t_target_desc_106049	icon_hd_jyfb	1	106048	15	1	49000		2	10010002	3	0
106050	通关精英第50章	t_target_desc_106050	icon_hd_jyfb	1	106049	15	1	50000		2	10010002	3	0
106051	通关精英第51章	t_target_desc_106051	icon_hd_jyfb	1	106050	15	1	51000		2	10010002	3	0
106052	通关精英第52章	t_target_desc_106052	icon_hd_jyfb	1	106051	15	1	52000		2	10010002	3	0
106053	通关精英第53章	t_target_desc_106053	icon_hd_jyfb	1	106052	15	1	53000		2	10010002	3	0
106054	通关精英第54章	t_target_desc_106054	icon_hd_jyfb	1	106053	15	1	54000		2	10010002	3	0
106055	通关精英第55章	t_target_desc_106055	icon_hd_jyfb	1	106054	15	1	55000		2	10010002	3	0
106056	通关精英第56章	t_target_desc_106056	icon_hd_jyfb	1	106055	15	1	56000		2	10010002	3	0
106057	通关精英第57章	t_target_desc_106057	icon_hd_jyfb	1	106056	15	1	57000		2	10010002	3	0
106058	通关精英第58章	t_target_desc_106058	icon_hd_jyfb	1	106057	15	1	58000		2	10010002	3	0
106059	通关精英第59章	t_target_desc_106059	icon_hd_jyfb	1	106058	15	1	59000		2	10010002	3	0
106060	通关精英第60章	t_target_desc_106060	icon_hd_jyfb	1	106059	15	1	60000		2	10010002	3	0
106061	通关精英第61章	t_target_desc_106061	icon_hd_jyfb	1	106060	15	1	61000		2	10010002	3	0
106062	通关精英第62章	t_target_desc_106062	icon_hd_jyfb	1	106061	15	1	62000		2	10010002	3	0
106063	通关精英第63章	t_target_desc_106063	icon_hd_jyfb	1	106062	15	1	63000		2	10010002	3	0
106064	通关精英第64章	t_target_desc_106064	icon_hd_jyfb	1	106063	15	1	64000		2	10010002	3	0
106065	通关精英第65章	t_target_desc_106065	icon_hd_jyfb	1	106064	15	1	65000		2	10010002	3	0
106066	通关精英第66章	t_target_desc_106066	icon_hd_jyfb	1	106065	15	1	66000		2	10010002	3	0
106067	通关精英第67章	t_target_desc_106067	icon_hd_jyfb	1	106066	15	1	67000		2	10010002	3	0
106068	通关精英第68章	t_target_desc_106068	icon_hd_jyfb	1	106067	15	1	68000		2	10010002	3	0
106069	通关精英第69章	t_target_desc_106069	icon_hd_jyfb	1	106068	15	1	69000		2	10010002	3	0
106070	通关精英第70章	t_target_desc_106070	icon_hd_jyfb	1	106069	15	1	70000		2	10010002	3	0
106071	通关精英第71章	t_target_desc_106071	icon_hd_jyfb	1	106070	15	1	71000		2	10010002	3	0
106072	通关精英第72章	t_target_desc_106072	icon_hd_jyfb	1	106071	15	1	72000		2	10010002	3	0
106073	通关精英第73章	t_target_desc_106073	icon_hd_jyfb	1	106072	15	1	73000		2	10010002	3	0
106074	通关精英第74章	t_target_desc_106074	icon_hd_jyfb	1	106073	15	1	74000		2	10010002	3	0
106075	通关精英第75章	t_target_desc_106075	icon_hd_jyfb	1	106074	15	1	75000		2	10010002	3	0
106076	通关精英第76章	t_target_desc_106076	icon_hd_jyfb	1	106075	15	1	76000		2	10010002	3	0
106077	通关精英第77章	t_target_desc_106077	icon_hd_jyfb	1	106076	15	1	77000		2	10010002	3	0
106078	通关精英第78章	t_target_desc_106078	icon_hd_jyfb	1	106077	15	1	78000		2	10010002	3	0
106079	通关精英第79章	t_target_desc_106079	icon_hd_jyfb	1	106078	15	1	79000		2	10010002	3	0
106080	通关精英第80章	t_target_desc_106080	icon_hd_jyfb	1	106079	15	1	80000		2	10010002	3	0
106081	通关精英第81章	t_target_desc_106081	icon_hd_jyfb	1	106080	15	1	81000		2	10010002	3	0
106082	通关精英第82章	t_target_desc_106082	icon_hd_jyfb	1	106081	15	1	82000		2	10010002	3	0
106083	通关精英第83章	t_target_desc_106083	icon_hd_jyfb	1	106082	15	1	83000		2	10010002	3	0
106084	通关精英第84章	t_target_desc_106084	icon_hd_jyfb	1	106083	15	1	84000		2	10010002	3	0
106085	通关精英第85章	t_target_desc_106085	icon_hd_jyfb	1	106084	15	1	85000		2	10010002	3	0
106086	通关精英第86章	t_target_desc_106086	icon_hd_jyfb	1	106085	15	1	86000		2	10010002	3	0
106087	通关精英第87章	t_target_desc_106087	icon_hd_jyfb	1	106086	15	1	87000		2	10010002	3	0
106088	通关精英第88章	t_target_desc_106088	icon_hd_jyfb	1	106087	15	1	88000		2	10010002	3	0
106089	通关精英第89章	t_target_desc_106089	icon_hd_jyfb	1	106088	15	1	89000		2	10010002	3	0
106090	通关精英第90章	t_target_desc_106090	icon_hd_jyfb	1	106089	15	1	90000		2	10010002	3	0
106091	通关精英第91章	t_target_desc_106091	icon_hd_jyfb	1	106090	15	1	91000		2	10010002	3	0
106092	通关精英第92章	t_target_desc_106092	icon_hd_jyfb	1	106091	15	1	92000		2	10010002	3	0
106093	通关精英第93章	t_target_desc_106093	icon_hd_jyfb	1	106092	15	1	93000		2	10010002	3	0
106094	通关精英第94章	t_target_desc_106094	icon_hd_jyfb	1	106093	15	1	94000		2	10010002	3	0
106095	通关精英第95章	t_target_desc_106095	icon_hd_jyfb	1	106094	15	1	95000		2	10010002	3	0
106096	通关精英第96章	t_target_desc_106096	icon_hd_jyfb	1	106095	15	1	96000		2	10010002	3	0
106097	通关精英第97章	t_target_desc_106097	icon_hd_jyfb	1	106096	15	1	97000		2	10010002	3	0
106098	通关精英第98章	t_target_desc_106098	icon_hd_jyfb	1	106097	15	1	98000		2	10010002	3	0
106099	通关精英第99章	t_target_desc_106099	icon_hd_jyfb	1	106098	15	1	99000		2	10010002	3	0
106100	通关精英第100章	t_target_desc_106100	icon_hd_jyfb	1	106099	15	1	100000		2	10010002	3	0
106101	通关精英第101章	t_target_desc_106101	icon_hd_jyfb	1	106100	15	1	101000		2	10010002	3	0
106102	通关精英第102章	t_target_desc_106102	icon_hd_jyfb	1	106101	15	1	102000		2	10010002	3	0
106103	通关精英第103章	t_target_desc_106103	icon_hd_jyfb	1	106102	15	1	103000		2	10010002	3	0
106104	通关精英第104章	t_target_desc_106104	icon_hd_jyfb	1	106103	15	1	104000		2	10010002	3	0
106105	通关精英第105章	t_target_desc_106105	icon_hd_jyfb	1	106104	15	1	105000		2	10010002	3	0
106106	通关精英第106章	t_target_desc_106106	icon_hd_jyfb	1	106105	15	1	106000		2	10010002	3	0
106107	通关精英第107章	t_target_desc_106107	icon_hd_jyfb	1	106106	15	1	107000		2	10010002	3	0
106108	通关精英第108章	t_target_desc_106108	icon_hd_jyfb	1	106107	15	1	108000		2	10010002	3	0
106109	通关精英第109章	t_target_desc_106109	icon_hd_jyfb	1	106108	15	1	109000		2	10010002	3	0
106110	通关精英第110章	t_target_desc_106110	icon_hd_jyfb	1	106109	15	1	110000		2	10010002	3	0
106111	通关精英第111章	t_target_desc_106111	icon_hd_jyfb	1	106110	15	1	111000		2	10010002	3	0
106112	通关精英第112章	t_target_desc_106112	icon_hd_jyfb	1	106111	15	1	112000		2	10010002	3	0
106113	通关精英第113章	t_target_desc_106113	icon_hd_jyfb	1	106112	15	1	113000		2	10010002	3	0
106114	通关精英第114章	t_target_desc_106114	icon_hd_jyfb	1	106113	15	1	114000		2	10010002	3	0
106115	通关精英第115章	t_target_desc_106115	icon_hd_jyfb	1	106114	15	1	115000		2	10010002	3	0
106116	通关精英第116章	t_target_desc_106116	icon_hd_jyfb	1	106115	15	1	116000		2	10010002	3	0
106117	通关精英第117章	t_target_desc_106117	icon_hd_jyfb	1	106116	15	1	117000		2	10010002	3	0
106118	通关精英第118章	t_target_desc_106118	icon_hd_jyfb	1	106117	15	1	118000		2	10010002	3	0
106119	通关精英第119章	t_target_desc_106119	icon_hd_jyfb	1	106118	15	1	119000		2	10010002	3	0
106120	通关精英第120章	t_target_desc_106120	icon_hd_jyfb	1	106119	15	1	120000		2	10010002	3	0
106121	通关精英第121章	t_target_desc_106121	icon_hd_jyfb	1	106120	15	1	121000		2	10010002	3	0
106122	通关精英第122章	t_target_desc_106122	icon_hd_jyfb	1	106121	15	1	122000		2	10010002	3	0
106123	通关精英第123章	t_target_desc_106123	icon_hd_jyfb	1	106122	15	1	123000		2	10010002	3	0
106124	通关精英第124章	t_target_desc_106124	icon_hd_jyfb	1	106123	15	1	124000		2	10010002	3	0
106125	通关精英第125章	t_target_desc_106125	icon_hd_jyfb	1	106124	15	1	125000		2	10010002	3	0
106126	通关精英第126章	t_target_desc_106126	icon_hd_jyfb	1	106125	15	1	126000		2	10010002	3	0
106127	通关精英第127章	t_target_desc_106127	icon_hd_jyfb	1	106126	15	1	127000		2	10010002	3	0
106128	通关精英第128章	t_target_desc_106128	icon_hd_jyfb	1	106127	15	1	128000		2	10010002	3	0
106129	通关精英第129章	t_target_desc_106129	icon_hd_jyfb	1	106128	15	1	129000		2	10010002	3	0
106130	通关精英第130章	t_target_desc_106130	icon_hd_jyfb	1	106129	15	1	130000		2	10010002	3	0
106131	通关精英第131章	t_target_desc_106131	icon_hd_jyfb	1	106130	15	1	131000		2	10010002	3	0
106132	通关精英第132章	t_target_desc_106132	icon_hd_jyfb	1	106131	15	1	132000		2	10010002	3	0
106133	通关精英第133章	t_target_desc_106133	icon_hd_jyfb	1	106132	15	1	133000		2	10010002	3	0
106134	通关精英第134章	t_target_desc_106134	icon_hd_jyfb	1	106133	15	1	134000		2	10010002	3	0
106135	通关精英第135章	t_target_desc_106135	icon_hd_jyfb	1	106134	15	1	135000		2	10010002	3	0
106136	通关精英第136章	t_target_desc_106136	icon_hd_jyfb	1	106135	15	1	136000		2	10010002	3	0
106137	通关精英第137章	t_target_desc_106137	icon_hd_jyfb	1	106136	15	1	137000		2	10010002	3	0
106138	通关精英第138章	t_target_desc_106138	icon_hd_jyfb	1	106137	15	1	138000		2	10010002	3	0
106139	通关精英第139章	t_target_desc_106139	icon_hd_jyfb	1	106138	15	1	139000		2	10010002	3	0
106140	通关精英第140章	t_target_desc_106140	icon_hd_jyfb	1	106139	15	1	140000		2	10010002	3	0
106141	通关精英第141章	t_target_desc_106141	icon_hd_jyfb	1	106140	15	1	141000		2	10010002	3	0
106142	通关精英第142章	t_target_desc_106142	icon_hd_jyfb	1	106141	15	1	142000		2	10010002	3	0
106143	通关精英第143章	t_target_desc_106143	icon_hd_jyfb	1	106142	15	1	143000		2	10010002	3	0
106144	通关精英第144章	t_target_desc_106144	icon_hd_jyfb	1	106143	15	1	144000		2	10010002	3	0
106145	通关精英第145章	t_target_desc_106145	icon_hd_jyfb	1	106144	15	1	145000		2	10010002	3	0
107001	主线副本达到100星	t_target_desc_107001	icon_hd_ptfb	1		16	100	100		1	2	300	0
107002	主线副本达到200星	t_target_desc_107002	icon_hd_ptfb	1	107001	16	200	200		1	2	350	0
107003	主线副本达到300星	t_target_desc_107003	icon_hd_ptfb	1	107002	16	300	300		1	2	400	0
107004	主线副本达到400星	t_target_desc_107004	icon_hd_ptfb	1	107003	16	400	400		1	2	450	0
107005	主线副本达到500星	t_target_desc_107005	icon_hd_ptfb	1	107004	16	500	500		1	2	500	0
107006	主线副本达到600星	t_target_desc_107006	icon_hd_ptfb	1	107005	16	600	600		1	2	550	0
107007	主线副本达到700星	t_target_desc_107007	icon_hd_ptfb	1	107006	16	700	700		1	2	600	0
107008	主线副本达到800星	t_target_desc_107008	icon_hd_ptfb	1	107007	16	800	800		1	2	650	0
107009	主线副本达到900星	t_target_desc_107009	icon_hd_ptfb	1	107008	16	900	900		1	2	700	0
107010	主线副本达到1000星	t_target_desc_107010	icon_hd_ptfb	1	107009	16	1000	1000		1	2	750	0
107011	主线副本达到1100星	t_target_desc_107011	icon_hd_ptfb	1	107010	16	1100	1100		1	2	800	0
107012	主线副本达到1200星	t_target_desc_107012	icon_hd_ptfb	1	107011	16	1200	1200		1	2	850	0
107013	主线副本达到1300星	t_target_desc_107013	icon_hd_ptfb	1	107012	16	1300	1300		1	2	900	0
107014	主线副本达到1400星	t_target_desc_107014	icon_hd_ptfb	1	107013	16	1400	1400		1	2	950	0
107015	主线副本达到1500星	t_target_desc_107015	icon_hd_ptfb	1	107014	16	1500	1500		1	2	1000	0
107016	主线副本达到1600星	t_target_desc_107016	icon_hd_ptfb	1	107015	16	1600	1600		1	2	1050	0
107017	主线副本达到1700星	t_target_desc_107017	icon_hd_ptfb	1	107016	16	1700	1700		1	2	1100	0
107018	主线副本达到1800星	t_target_desc_107018	icon_hd_ptfb	1	107017	16	1800	1800		1	2	1150	0
107019	主线副本达到1900星	t_target_desc_107019	icon_hd_ptfb	1	107018	16	1900	1900		1	2	1200	0
107020	主线副本达到2000星	t_target_desc_107020	icon_hd_ptfb	1	107019	16	2000	2000		1	2	1250	0
107021	主线副本达到2100星	t_target_desc_107021	icon_hd_ptfb	1	107020	16	2100	2100		1	2	1300	0
107022	主线副本达到2200星	t_target_desc_107022	icon_hd_ptfb	1	107021	16	2200	2200		1	2	1350	0
107023	主线副本达到2300星	t_target_desc_107023	icon_hd_ptfb	1	107022	16	2300	2300		1	2	1400	0
107024	主线副本达到2400星	t_target_desc_107024	icon_hd_ptfb	1	107023	16	2400	2400		1	2	1450	0
107025	主线副本达到2500星	t_target_desc_107025	icon_hd_ptfb	1	107024	16	2500	2500		1	2	1500	0
107026	主线副本达到2600星	t_target_desc_107026	icon_hd_ptfb	1	107025	16	2600	2600		1	2	1550	0
107027	主线副本达到2700星	t_target_desc_107027	icon_hd_ptfb	1	107026	16	2700	2700		1	2	1600	0
107028	主线副本达到2800星	t_target_desc_107028	icon_hd_ptfb	1	107027	16	2800	2800		1	2	1650	0
107029	主线副本达到2900星	t_target_desc_107029	icon_hd_ptfb	1	107028	16	2900	2900		1	2	1700	0
107030	主线副本达到3000星	t_target_desc_107030	icon_hd_ptfb	1	107029	16	3000	3000		1	2	1750	0
107031	主线副本达到3100星	t_target_desc_107031	icon_hd_ptfb	1	107030	16	3100	3100		1	2	1800	0
107032	主线副本达到3200星	t_target_desc_107032	icon_hd_ptfb	1	107031	16	3200	3200		1	2	1850	0
107033	主线副本达到3300星	t_target_desc_107033	icon_hd_ptfb	1	107032	16	3300	3300		1	2	1900	0
107034	主线副本达到3400星	t_target_desc_107034	icon_hd_ptfb	1	107033	16	3400	3400		1	2	1950	0
107035	主线副本达到3500星	t_target_desc_107035	icon_hd_ptfb	1	107034	16	3500	3500		1	2	2000	0
107036	主线副本达到3600星	t_target_desc_107036	icon_hd_ptfb	1	107035	16	3600	3600		1	2	2050	0
107037	主线副本达到3700星	t_target_desc_107037	icon_hd_ptfb	1	107036	16	3700	3700		1	2	2100	0
107038	主线副本达到3800星	t_target_desc_107038	icon_hd_ptfb	1	107037	16	3800	3800		1	2	2150	0
107039	主线副本达到3900星	t_target_desc_107039	icon_hd_ptfb	1	107038	16	3900	3900		1	2	2200	0
107040	主线副本达到4000星	t_target_desc_107040	icon_hd_ptfb	1	107039	16	4000	4000		1	2	2250	0
107041	主线副本达到4100星	t_target_desc_107041	icon_hd_ptfb	1	107040	16	4100	4100		1	2	2300	0
107042	主线副本达到4200星	t_target_desc_107042	icon_hd_ptfb	1	107041	16	4200	4200		1	2	2350	0
107043	主线副本达到4300星	t_target_desc_107043	icon_hd_ptfb	1	107042	16	4300	4300		1	2	2400	0
107044	主线副本达到4400星	t_target_desc_107044	icon_hd_ptfb	1	107043	16	4400	4400		1	2	2450	0
107045	主线副本达到4500星	t_target_desc_107045	icon_hd_ptfb	1	107044	16	4500	4500		1	2	2500	0
107046	主线副本达到4600星	t_target_desc_107046	icon_hd_ptfb	1	107045	16	4600	4600		1	2	2550	0
107047	主线副本达到4700星	t_target_desc_107047	icon_hd_ptfb	1	107046	16	4700	4700		1	2	2600	0
107048	主线副本达到4800星	t_target_desc_107048	icon_hd_ptfb	1	107047	16	4800	4800		1	2	2650	0
107049	主线副本达到4900星	t_target_desc_107049	icon_hd_ptfb	1	107048	16	4900	4900		1	2	2700	0
107050	主线副本达到5000星	t_target_desc_107050	icon_hd_ptfb	1	107049	16	5000	5000		1	2	2750	0
107051	主线副本达到5100星	t_target_desc_107051	icon_hd_ptfb	1	107050	16	5100	5100		1	2	2800	0
107052	主线副本达到5200星	t_target_desc_107052	icon_hd_ptfb	1	107051	16	5200	5200		1	2	2850	0
107053	主线副本达到5300星	t_target_desc_107053	icon_hd_ptfb	1	107052	16	5300	5300		1	2	2900	0
107054	主线副本达到5400星	t_target_desc_107054	icon_hd_ptfb	1	107053	16	5400	5400		1	2	2950	0
107055	主线副本达到5500星	t_target_desc_107055	icon_hd_ptfb	1	107054	16	5500	5500		1	2	3000	0
107056	主线副本达到5600星	t_target_desc_107056	icon_hd_ptfb	1	107055	16	5600	5600		1	2	3050	0
107057	主线副本达到5700星	t_target_desc_107057	icon_hd_ptfb	1	107056	16	5700	5700		1	2	3100	0
107058	主线副本达到5800星	t_target_desc_107058	icon_hd_ptfb	1	107057	16	5800	5800		1	2	3150	0
107059	主线副本达到5900星	t_target_desc_107059	icon_hd_ptfb	1	107058	16	5900	5900		1	2	3200	0
107060	主线副本达到6000星	t_target_desc_107060	icon_hd_ptfb	1	107059	16	6000	6000		1	2	3250	0
108001	精英副本达到100星	t_target_desc_108001	icon_hd_jyfb	1		17	100	100		1	5	200	0
108002	精英副本达到200星	t_target_desc_108002	icon_hd_jyfb	1	108001	17	200	200		1	5	230	0
108003	精英副本达到300星	t_target_desc_108003	icon_hd_jyfb	1	108002	17	300	300		1	5	260	0
108004	精英副本达到400星	t_target_desc_108004	icon_hd_jyfb	1	108003	17	400	400		1	5	290	0
108005	精英副本达到500星	t_target_desc_108005	icon_hd_jyfb	1	108004	17	500	500		1	5	320	0
108006	精英副本达到600星	t_target_desc_108006	icon_hd_jyfb	1	108005	17	600	600		1	5	350	0
108007	精英副本达到700星	t_target_desc_108007	icon_hd_jyfb	1	108006	17	700	700		1	5	380	0
108008	精英副本达到800星	t_target_desc_108008	icon_hd_jyfb	1	108007	17	800	800		1	5	410	0
108009	精英副本达到900星	t_target_desc_108009	icon_hd_jyfb	1	108008	17	900	900		1	5	440	0
108010	精英副本达到1000星	t_target_desc_108010	icon_hd_jyfb	1	108009	17	1000	1000		1	5	470	0
108011	精英副本达到1100星	t_target_desc_108011	icon_hd_jyfb	1	108010	17	1100	1100		1	5	500	0
108012	精英副本达到1200星	t_target_desc_108012	icon_hd_jyfb	1	108011	17	1200	1200		1	5	530	0
108013	精英副本达到1300星	t_target_desc_108013	icon_hd_jyfb	1	108012	17	1300	1300		1	5	560	0
108014	精英副本达到1400星	t_target_desc_108014	icon_hd_jyfb	1	108013	17	1400	1400		1	5	590	0
108015	精英副本达到1500星	t_target_desc_108015	icon_hd_jyfb	1	108014	17	1500	1500		1	5	620	0
108016	精英副本达到1600星	t_target_desc_108016	icon_hd_jyfb	1	108015	17	1600	1600		1	5	650	0
108017	精英副本达到1700星	t_target_desc_108017	icon_hd_jyfb	1	108016	17	1700	1700		1	5	680	0
108018	精英副本达到1800星	t_target_desc_108018	icon_hd_jyfb	1	108017	17	1800	1800		1	5	710	0
108019	精英副本达到1900星	t_target_desc_108019	icon_hd_jyfb	1	108018	17	1900	1900		1	5	740	0
108020	精英副本达到2000星	t_target_desc_108020	icon_hd_jyfb	1	108019	17	2000	2000		1	5	770	0
108021	精英副本达到2100星	t_target_desc_108021	icon_hd_jyfb	1	108020	17	2100	2100		1	5	800	0
108022	精英副本达到2200星	t_target_desc_108022	icon_hd_jyfb	1	108021	17	2200	2200		1	5	830	0
108023	精英副本达到2300星	t_target_desc_108023	icon_hd_jyfb	1	108022	17	2300	2300		1	5	860	0
108024	精英副本达到2400星	t_target_desc_108024	icon_hd_jyfb	1	108023	17	2400	2400		1	5	890	0
108025	精英副本达到2500星	t_target_desc_108025	icon_hd_jyfb	1	108024	17	2500	2500		1	5	920	0
108026	精英副本达到2600星	t_target_desc_108026	icon_hd_jyfb	1	108025	17	2600	2600		1	5	950	0
108027	精英副本达到2700星	t_target_desc_108027	icon_hd_jyfb	1	108026	17	2700	2700		1	5	980	0
108028	精英副本达到2800星	t_target_desc_108028	icon_hd_jyfb	1	108027	17	2800	2800		1	5	1010	0
108029	精英副本达到2900星	t_target_desc_108029	icon_hd_jyfb	1	108028	17	2900	2900		1	5	1040	0
108030	精英副本达到3000星	t_target_desc_108030	icon_hd_jyfb	1	108029	17	3000	3000		1	5	1070	0
108031	精英副本达到3100星	t_target_desc_108031	icon_hd_jyfb	1	108030	17	3100	3100		1	5	1100	0
108032	精英副本达到3200星	t_target_desc_108032	icon_hd_jyfb	1	108031	17	3200	3200		1	5	1130	0
108033	精英副本达到3300星	t_target_desc_108033	icon_hd_jyfb	1	108032	17	3300	3300		1	5	1160	0
108034	精英副本达到3400星	t_target_desc_108034	icon_hd_jyfb	1	108033	17	3400	3400		1	5	1190	0
108035	精英副本达到3500星	t_target_desc_108035	icon_hd_jyfb	1	108034	17	3500	3500		1	5	1220	0
108036	精英副本达到3600星	t_target_desc_108036	icon_hd_jyfb	1	108035	17	3600	3600		1	5	1250	0
108037	精英副本达到3700星	t_target_desc_108037	icon_hd_jyfb	1	108036	17	3700	3700		1	5	1280	0
108038	精英副本达到3800星	t_target_desc_108038	icon_hd_jyfb	1	108037	17	3800	3800		1	5	1310	0
108039	精英副本达到3900星	t_target_desc_108039	icon_hd_jyfb	1	108038	17	3900	3900		1	5	1340	0
108040	精英副本达到4000星	t_target_desc_108040	icon_hd_jyfb	1	108039	17	4000	4000		1	5	1370	0
108041	精英副本达到4100星	t_target_desc_108041	icon_hd_jyfb	1	108040	17	4100	4100		1	5	1400	0
108042	精英副本达到4200星	t_target_desc_108042	icon_hd_jyfb	1	108041	17	4200	4200		1	5	1430	0
108043	精英副本达到4300星	t_target_desc_108043	icon_hd_jyfb	1	108042	17	4300	4300		1	5	1460	0
108044	精英副本达到4400星	t_target_desc_108044	icon_hd_jyfb	1	108043	17	4400	4400		1	5	1490	0
108045	精英副本达到4500星	t_target_desc_108045	icon_hd_jyfb	1	108044	17	4500	4500		1	5	1520	0
108046	精英副本达到4600星	t_target_desc_108046	icon_hd_jyfb	1	108045	17	4600	4600		1	5	1550	0
108047	精英副本达到4700星	t_target_desc_108047	icon_hd_jyfb	1	108046	17	4700	4700		1	5	1580	0
108048	精英副本达到4800星	t_target_desc_108048	icon_hd_jyfb	1	108047	17	4800	4800		1	5	1610	0
108049	精英副本达到4900星	t_target_desc_108049	icon_hd_jyfb	1	108048	17	4900	4900		1	5	1640	0
108050	精英副本达到5000星	t_target_desc_108050	icon_hd_jyfb	1	108049	17	5000	5000		1	5	1670	0
108051	精英副本达到5100星	t_target_desc_108051	icon_hd_jyfb	1	108050	17	5100	5100		1	5	1700	0
108052	精英副本达到5200星	t_target_desc_108052	icon_hd_jyfb	1	108051	17	5200	5200		1	5	1730	0
108053	精英副本达到5300星	t_target_desc_108053	icon_hd_jyfb	1	108052	17	5300	5300		1	5	1760	0
108054	精英副本达到5400星	t_target_desc_108054	icon_hd_jyfb	1	108053	17	5400	5400		1	5	1790	0
108055	精英副本达到5500星	t_target_desc_108055	icon_hd_jyfb	1	108054	17	5500	5500		1	5	1820	0
108056	精英副本达到5600星	t_target_desc_108056	icon_hd_jyfb	1	108055	17	5600	5600		1	5	1850	0
108057	精英副本达到5700星	t_target_desc_108057	icon_hd_jyfb	1	108056	17	5700	5700		1	5	1880	0
108058	精英副本达到5800星	t_target_desc_108058	icon_hd_jyfb	1	108057	17	5800	5800		1	5	1910	0
108059	精英副本达到5900星	t_target_desc_108059	icon_hd_jyfb	1	108058	17	5900	5900		1	5	1940	0
108060	精英副本达到6000星	t_target_desc_108060	icon_hd_jyfb	1	108059	17	6000	6000		1	5	1970	0
109001	战斗力达到1万	t_target_desc_109001	tphd_i008	1		18	10000	10000		1	1	50000	0
109002	战斗力达到3万	t_target_desc_109002	tphd_i008	1	109001	18	30000	30000		1	1	100000	0
109003	战斗力达到10万	t_target_desc_109003	tphd_i008	1	109002	18	100000	100000		1	1	150000	0
109004	战斗力达到25万	t_target_desc_109004	tphd_i008	1	109003	18	250000	250000		1	2	400	0
109005	战斗力达到50万	t_target_desc_109005	tphd_i008	1	109004	18	500000	500000		1	2	500	0
109006	战斗力达到100万	t_target_desc_109006	tphd_i008	1	109005	18	1000000	1000000		1	2	600	0
109007	战斗力达到200万	t_target_desc_109007	tphd_i008	1	109006	18	2000000	2000000		1	2	700	0
109008	战斗力达到400万	t_target_desc_109008	tphd_i008	1	109007	18	4000000	4000000		1	2	800	0
109009	战斗力达到600万	t_target_desc_109009	tphd_i008	1	109008	18	6000000	6000000		1	2	900	
109010	战斗力达到800万	t_target_desc_109010	tphd_i008	1	109009	18	8000000	8000000		1	2	1000	0
109011	战斗力达到1200万	t_target_desc_109011	tphd_i008	1	109010	18	12000000	12000000		1	2	1200	0
109012	战斗力达到1600万	t_target_desc_109012	tphd_i008	1	109011	18	16000000	16000000		1	2	1600	0
109013	战斗力达到2000万	t_target_desc_109013	tphd_i008	1	109012	18	20000000	20000000		1	2	2000	0
109014	战斗力达到3000万	t_target_desc_109014	tphd_i008	1	109013	18	30000000	30000000		1	2	2500	0
109015	战斗力达到4000万	t_target_desc_109015	tphd_i008	1	109014	18	40000000	40000000		1	2	3000	0
109016	战斗力达到5000万	t_target_desc_109016	tphd_i008	1	109015	18	50000000	50000000		1	2	3500	0
109017	战斗力达到6000万	t_target_desc_109017	tphd_i008	1	109016	18	60000000	60000000		1	2	4000	0
109018	战斗力达到7000万	t_target_desc_109018	tphd_i008	1	109017	18	70000000	70000000		1	2	4500	0
109019	战斗力达到8000万	t_target_desc_109019	tphd_i008	1	109018	18	80000000	80000000		1	2	5000	0
109020	战斗力达到9000万	t_target_desc_109020	tphd_i008	1	109019	18	90000000	90000000		1	2	5500	0
109021	战斗力达到10000万	t_target_desc_109021	tphd_i008	1	109020	18	100000000	100000000		1	2	6000	0
109022	战斗力达到12000万	t_target_desc_109022	tphd_i008	1	109021	18	120000000	120000000		1	2	6500	0
109023	战斗力达到14000万	t_target_desc_109023	tphd_i008	1	109022	18	140000000	140000000		1	2	7000	0
109024	战斗力达到16000万	t_target_desc_109024	tphd_i008	1	109023	18	160000000	160000000		1	2	7500	0
109025	战斗力达到18000万	t_target_desc_109025	tphd_i008	1	109024	18	180000000	180000000		1	2	8000	0
109026	战斗力达到20000万	t_target_desc_109026	tphd_i008	1	109025	18	200000000	200000000		1	2	8500	0
109027	战斗力达到22000万	t_target_desc_109027	tphd_i008	1	109026	18	220000000	220000000		1	2	9000	0
109028	战斗力达到24000万	t_target_desc_109028	tphd_i008	1	109027	18	240000000	240000000		1	2	9500	0
109029	战斗力达到26000万	t_target_desc_109029	tphd_i008	1	109028	18	260000000	260000000		1	2	10000	0
109030	战斗力达到28000万	t_target_desc_109030	tphd_i008	1	109029	18	280000000	280000000		1	2	10000	0
109031	战斗力达到30000万	t_target_desc_109031	tphd_i008	1	109030	18	300000000	300000000		1	2	10000	0
109032	战斗力达到32000万	t_target_desc_109032	tphd_i008	1	109031	18	320000000	320000000		1	2	10000	0
109033	战斗力达到34000万	t_target_desc_109033	tphd_i008	1	109032	18	340000000	340000000		1	2	10000	0
109034	战斗力达到36000万	t_target_desc_109034	tphd_i008	1	109033	18	360000000	360000000		1	2	10000	0
109035	战斗力达到38000万	t_target_desc_109035	tphd_i008	1	109034	18	380000000	380000000		1	2	10000	0
109036	战斗力达到40000万	t_target_desc_109036	tphd_i008	1	109035	18	400000000	400000000		1	2	10000	0
109037	战斗力达到50000万	t_target_desc_109037	tphd_i008	1	109036	18	500000000	500000000		1	2	10000	0
109038	战斗力达到60000万	t_target_desc_109038	tphd_i008	1	109037	18	600000000	600000000		1	2	10000	0
109039	战斗力达到70000万	t_target_desc_109039	tphd_i008	1	109038	18	700000000	700000000		1	2	10000	0
109040	战斗力达到80000万	t_target_desc_109040	tphd_i008	1	109039	18	800000000	800000000		1	2	10000	0
109041	战斗力达到90000万	t_target_desc_109041	tphd_i008	1	109040	18	900000000	900000000		1	2	10000	0
110001	星河秘境达到10星	t_target_desc_110001	icon_hd_xhmj	1		19	10	10		1	6	1000	0
110002	星河秘境达到20星	t_target_desc_110002	icon_hd_xhmj	1	110001	19	20	20		1	6	1200	0
110003	星河秘境达到30星	t_target_desc_110003	icon_hd_xhmj	1	110002	19	30	30		1	6	1400	0
110004	星河秘境达到40星	t_target_desc_110004	icon_hd_xhmj	1	110003	19	40	40		1	6	1600	0
110005	星河秘境达到50星	t_target_desc_110005	icon_hd_xhmj	1	110004	19	50	50		1	6	1800	0
110006	星河秘境达到60星	t_target_desc_110006	icon_hd_xhmj	1	110005	19	60	60		1	6	2000	0
110007	星河秘境达到70星	t_target_desc_110007	icon_hd_xhmj	1	110006	19	70	70		1	6	2200	0
110008	星河秘境达到80星	t_target_desc_110008	icon_hd_xhmj	1	110007	19	80	80		1	6	2400	0
110009	星河秘境达到90星	t_target_desc_110009	icon_hd_xhmj	1	110008	19	90	90		1	6	2600	0
110010	星河秘境达到100星	t_target_desc_110010	icon_hd_xhmj	1	110009	19	100	100		1	6	2800	0
110011	星河秘境达到110星	t_target_desc_110011	icon_hd_xhmj	1	110010	19	110	110		1	6	3000	0
110012	星河秘境达到120星	t_target_desc_110012	icon_hd_xhmj	1	110011	19	120	120		1	6	3200	0
110013	星河秘境达到130星	t_target_desc_110013	icon_hd_xhmj	1	110012	19	130	130		1	6	3400	0
110014	星河秘境达到140星	t_target_desc_110014	icon_hd_xhmj	1	110013	19	140	140		1	6	3600	0
110015	星河秘境达到150星	t_target_desc_110015	icon_hd_xhmj	1	110014	19	150	150		1	6	3800	0
110016	星河秘境达到160星	t_target_desc_110016	icon_hd_xhmj	1	110015	19	160	160		1	6	4000	0
110017	星河秘境达到170星	t_target_desc_110017	icon_hd_xhmj	1	110016	19	170	170		1	6	4200	0
110018	星河秘境达到180星	t_target_desc_110018	icon_hd_xhmj	1	110017	19	180	180		1	6	4400	0
110019	星河秘境达到190星	t_target_desc_110019	icon_hd_xhmj	1	110018	19	190	190		1	6	4600	0
110020	星河秘境达到200星	t_target_desc_110020	icon_hd_xhmj	1	110019	19	200	200		1	6	4800	0
110021	星河秘境达到210星	t_target_desc_110021	icon_hd_xhmj	1	110020	19	210	210		1	6	5000	0
110022	星河秘境达到220星	t_target_desc_110022	icon_hd_xhmj	1	110021	19	220	220		1	6	5200	0
110023	星河秘境达到230星	t_target_desc_110023	icon_hd_xhmj	1	110022	19	230	230		1	6	5400	0
110024	星河秘境达到240星	t_target_desc_110024	icon_hd_xhmj	1	110023	19	240	240		1	6	5600	0
110025	星河秘境达到250星	t_target_desc_110025	icon_hd_xhmj	1	110024	19	250	250		1	6	5800	0
110026	星河秘境达到260星	t_target_desc_110026	icon_hd_xhmj	1	110025	19	260	260		1	6	6000	0
110027	星河秘境达到270星	t_target_desc_110027	icon_hd_xhmj	1	110026	19	270	270		1	6	6200	0
110028	星河秘境达到280星	t_target_desc_110028	icon_hd_xhmj	1	110027	19	280	280		1	6	6400	0
110029	星河秘境达到290星	t_target_desc_110029	icon_hd_xhmj	1	110028	19	290	290		1	6	6600	0
110030	星河秘境达到300星	t_target_desc_110030	icon_hd_xhmj	1	110029	19	300	300		1	6	6800	0
110031	星河秘境达到310星	t_target_desc_110031	icon_hd_xhmj	1	110030	19	310	310		1	6	7000	0
110032	星河秘境达到320星	t_target_desc_110032	icon_hd_xhmj	1	110031	19	320	320		1	6	7200	0
110033	星河秘境达到330星	t_target_desc_110033	icon_hd_xhmj	1	110032	19	330	330		1	6	7400	0
110034	星河秘境达到340星	t_target_desc_110034	icon_hd_xhmj	1	110033	19	340	340		1	6	7600	0
110035	星河秘境达到350星	t_target_desc_110035	icon_hd_xhmj	1	110034	19	350	350		1	6	7800	0
110036	星河秘境达到360星	t_target_desc_110036	icon_hd_xhmj	1	110035	19	360	360		1	6	8000	0
110037	星河秘境达到370星	t_target_desc_110037	icon_hd_xhmj	1	110036	19	370	370		1	6	8200	0
110038	星河秘境达到380星	t_target_desc_110038	icon_hd_xhmj	1	110037	19	380	380		1	6	8400	0
110039	星河秘境达到390星	t_target_desc_110039	icon_hd_xhmj	1	110038	19	390	390		1	6	8600	0
110040	星河秘境达到400星	t_target_desc_110040	icon_hd_xhmj	1	110039	19	400	400		1	6	8800	0
201001	通关普通关卡10次	t_target_desc_201001	tphd_i007	2		6	10	10		1	2	100	0
201002	通关普通关卡50次	t_target_desc_201002	tphd_i007	2	201001	6	50	50		1	2	200	0
201003	通关普通关卡200次	t_target_desc_201003	tphd_i007	2	201002	6	200	200		1	2	300	0
201004	通关普通关卡1000次	t_target_desc_201004	tphd_i007	2	201003	6	1000	1000		1	2	400	0
201005	通关普通关卡5000次	t_target_desc_201005	tphd_i007	2	201004	6	5000	5000		1	2	500	0
201006	通关普通关卡20000次	t_target_desc_201006	tphd_i007	2	201005	6	20000	20000		1	2	600	0
201007	通关普通关卡50000次	t_target_desc_201007	tphd_i007	2	201006	6	50000	50000		1	2	700	0
201008	通关普通关卡100000次	t_target_desc_201008	tphd_i007	2	201007	6	100000	100000		1	2	800	0
201009	通关普通关卡200000次	t_target_desc_201009	tphd_i007	2	201008	6	200000	200000		1	2	900	0
201010	通关普通关卡500000次	t_target_desc_201010	tphd_i007	2	201009	6	500000	500000		1	2	1000	0
202001	伙伴突破6次	t_target_desc_202001	small_zbsx001	2		7	6	6		2	10010022	4	0
202002	伙伴突破10次	t_target_desc_202002	small_zbsx001	2	202001	7	10	10		2	10010022	8	0
202003	伙伴突破30次	t_target_desc_202003	small_zbsx001	2	202002	7	30	30		2	10010022	12	0
202004	伙伴突破60次	t_target_desc_202004	small_zbsx001	2	202003	7	60	60		2	10010022	16	0
202005	伙伴突破300次	t_target_desc_202005	small_zbsx001	2	202004	7	300	300		2	10010022	20	0
202006	伙伴突破1000次	t_target_desc_202006	small_zbsx001	2	202005	7	1000	1000		2	10010022	24	0
202007	伙伴突破2000次	t_target_desc_202007	small_zbsx001	2	202006	7	2000	2000		2	10010022	28	0
202008	伙伴突破5000次	t_target_desc_202008	small_zbsx001	2	202007	7	5000	5000		2	10010022	32	0
203001	伙伴进阶6次	t_target_desc_203001	icon_jjds_qd	2		8	6	6		2	40040001	200	0
203002	伙伴进阶10次	t_target_desc_203002	icon_jjds_qd	2	203001	8	10	10		2	40040001	300	0
203003	伙伴进阶30次	t_target_desc_203003	icon_jjds_qd	2	203002	8	30	30		2	40040001	400	0
203004	伙伴进阶60次	t_target_desc_203004	icon_jjds_qd	2	203003	8	60	60		2	40040001	500	0
203005	伙伴进阶300次	t_target_desc_203005	icon_jjds_qd	2	203004	8	300	300		2	40040001	600	0
203006	伙伴进阶1000次	t_target_desc_203006	icon_jjds_qd	2	203005	8	1000	1000		2	40040001	700	0
203007	伙伴进阶2000次	t_target_desc_203007	icon_jjds_qd	2	203006	8	2000	2000		2	40040001	800	0
203008	伙伴进阶5000次	t_target_desc_203008	icon_jjds_qd	2	203007	8	5000	5000		2	40040001	900	0
204001	强化装备10次	t_target_desc_204001	icon_hd_qhzb	2		9	10	10		1	1	50000	0
204002	强化装备30次	t_target_desc_204002	icon_hd_qhzb	2	204001	9	30	30		1	1	100000	0
204003	强化装备100次	t_target_desc_204003	icon_hd_qhzb	2	204002	9	100	100		1	1	200000	0
204004	强化装备200次	t_target_desc_204004	icon_hd_qhzb	2	204003	9	200	200		1	1	400000	0
204005	强化装备500次	t_target_desc_204005	icon_hd_qhzb	2	204004	9	500	500		1	1	400000	0
204006	强化装备1000次	t_target_desc_204006	icon_hd_qhzb	2	204005	9	1000	1000		1	1	600000	0
204007	强化装备2000次	t_target_desc_204007	icon_hd_qhzb	2	204006	9	2000	2000		1	1	600000	0
204008	强化装备3000次	t_target_desc_204008	icon_hd_qhzb	2	204007	9	3000	3000		1	1	800000	0
204009	强化装备6000次	t_target_desc_204009	icon_hd_qhzb	2	204008	9	6000	6000		1	1	800000	0
204010	强化装备12000次	t_target_desc_204010	icon_hd_qhzb	2	204009	9	12000	12000		1	1	1000000	0
204011	强化装备20000次	t_target_desc_204011	icon_hd_qhzb	2	204010	9	20000	20000		1	1	1000000	0
205001	挑战竞技场5次	t_target_desc_205001	icon_hd_jskc	2		10	5	5		1	14	500	0
205002	挑战竞技场20次	t_target_desc_205002	icon_hd_jskc	2	205001	10	20	20		1	14	1000	0
205003	挑战竞技场50次	t_target_desc_205003	icon_hd_jskc	2	205002	10	50	50		1	14	1500	0
205004	挑战竞技场200次	t_target_desc_205004	icon_hd_jskc	2	205003	10	200	200		1	14	2000	0
205005	挑战竞技场1000次	t_target_desc_205005	icon_hd_jskc	2	205004	10	1000	1000		1	14	2500	0
205006	挑战竞技场2000次	t_target_desc_205006	icon_hd_jskc	2	205005	10	2000	2000		1	14	3000	0
205007	挑战竞技场5000次	t_target_desc_205007	icon_hd_jskc	2	205006	10	5000	5000		1	14	3500	0
205008	挑战竞技场10000次	t_target_desc_205008	icon_hd_jskc	2	205007	10	10000	10000		1	14	4000	0
205009	挑战竞技场20000次	t_target_desc_205009	icon_hd_jskc	2	205008	10	20000	20000		1	14	4500	0
205010	挑战竞技场50000次	t_target_desc_205010	icon_hd_jskc	2	205009	10	50000	50000		1	14	5000	0
205011	挑战竞技场100000次	t_target_desc_205011	icon_hd_jskc	2	205010	10	100000	100000		1	14	5500	0
206001	参与1次魔王讨伐战	t_target_desc_206001	icon_jt_boss	2		11	1	1		2	50090001	20	0
206002	参与5次魔王讨伐战	t_target_desc_206002	icon_jt_boss	2	206001	11	5	5		2	50090001	40	0
206003	参与10次魔王讨伐战	t_target_desc_206003	icon_jt_boss	2	206002	11	10	10		2	50090001	60	0
206004	参与20次魔王讨伐战	t_target_desc_206004	icon_jt_boss	2	206003	11	20	20		2	50090001	80	0
206005	参与30次魔王讨伐战	t_target_desc_206005	icon_jt_boss	2	206004	11	30	30		2	50090001	100	0
206006	参与50次魔王讨伐战	t_target_desc_206006	icon_jt_boss	2	206005	11	50	50		2	50090001	120	0
206007	参与80次魔王讨伐战	t_target_desc_206007	icon_jt_boss	2	206006	11	80	80		2	50090001	140	0
206008	参与200次魔王讨伐战	t_target_desc_206008	icon_jt_boss	2	206007	11	200	200		2	50090001	160	0
206009	参与500次魔王讨伐战	t_target_desc_206009	icon_jt_boss	2	206008	11	500	500		2	50090001	180	0
206010	参与1000次魔王讨伐战	t_target_desc_206010	icon_jt_boss	2	206009	11	1000	1000		2	50090001	200	0
206011	参与2000次魔王讨伐战	t_target_desc_206011	icon_jt_boss	2	206010	11	2000	2000		2	50090001	220	0
206012	参与5000次魔王讨伐战	t_target_desc_206012	icon_jt_boss	2	206011	11	5000	5000		2	50090001	240	0
206013	参与10000次魔王讨伐战	t_target_desc_206013	icon_jt_boss	2	206012	11	10000	10000		2	50090001	260	0
206014	参与20000次魔王讨伐战	t_target_desc_206014	icon_jt_boss	2	206013	11	20000	20000		2	50090001	280	0
206015	参与50000次魔王讨伐战	t_target_desc_206015	icon_jt_boss	2	206014	11	50000	50000		2	50090001	300	0
206016	参与100000次魔王讨伐战	t_target_desc_206016	icon_jt_boss	2	206015	11	100000	100000		2	50090001	320	0
207001	通关精英关卡3次	t_target_desc_207001	icon_hd_jyjyfb	2		12	3	3		1	2	100	0
207002	通关精英关卡10次	t_target_desc_207002	icon_hd_jyjyfb	2	207001	12	10	10		1	2	200	0
207003	通关精英关卡50次	t_target_desc_207003	icon_hd_jyjyfb	2	207002	12	50	50		1	2	300	0
207004	通关精英关卡100次	t_target_desc_207004	icon_hd_jyjyfb	2	207003	12	100	100		1	2	400	0
207005	通关精英关卡500次	t_target_desc_207005	icon_hd_jyjyfb	2	207004	12	500	500		1	2	500	0
207006	通关精英关卡1000次	t_target_desc_207006	icon_hd_jyjyfb	2	207005	12	1000	1000		1	2	600	0
207007	通关精英关卡5000次	t_target_desc_207007	icon_hd_jyjyfb	2	207006	12	5000	5000		1	2	700	0
207008	通关精英关卡10000次	t_target_desc_207008	icon_hd_jyjyfb	2	207007	12	10000	10000		1	2	800	0
207009	通关精英关卡20000次	t_target_desc_207009	icon_hd_jyjyfb	2	207008	12	20000	20000		1	2	900	0
207010	通关精英关卡50000次	t_target_desc_207010	icon_hd_jyjyfb	2	207009	12	50000	50000		1	2	1000	0
207011	通关精英关卡100000次	t_target_desc_207011	icon_hd_jyjyfb	2	207010	12	100000	100000		1	2	1100	0
208001	商店中购买2次	t_target_desc_208001	icon_hd_hsi	2		13	2	2		2	50020001	10	0
208002	商店中购买10次	t_target_desc_208002	icon_hd_hsi	2	208001	13	10	10		2	50020001	20	0
208003	商店中购买50次	t_target_desc_208003	icon_hd_hsi	2	208002	13	50	50		2	50020001	30	0
208004	商店中购买200次	t_target_desc_208004	icon_hd_hsi	2	208003	13	200	200		2	50020001	40	0
208005	商店中购买500次	t_target_desc_208005	icon_hd_hsi	2	208004	13	500	500		2	50020001	50	0
208006	商店中购买1000次	t_target_desc_208006	icon_hd_hsi	2	208005	13	1000	1000		2	50020001	50	0
208007	商店中购买2000次	t_target_desc_208007	icon_hd_hsi	2	208006	13	2000	2000		2	50020001	50	0
208008	商店中购买5000次	t_target_desc_208008	icon_hd_hsi	2	208007	13	5000	5000		2	50020001	50	0
208009	商店中购买10000次	t_target_desc_208009	icon_hd_hsi	2	208008	13	10000	10000		2	50020001	50	0
208010	商店中购买50000次	t_target_desc_208010	icon_hd_hsi	2	208009	13	50000	50000		2	50020001	50	0
209001	挑战星河秘境3次	t_target_desc_209001	icon_hd_xhmj	2		14	3	3		1	6	500	0
209002	挑战星河秘境10次	t_target_desc_209002	icon_hd_xhmj	2	209001	14	10	10		1	6	1000	0
209003	挑战星河秘境50次	t_target_desc_209003	icon_hd_xhmj	2	209002	14	50	50		1	6	1500	0
209004	挑战星河秘境100次	t_target_desc_209004	icon_hd_xhmj	2	209003	14	100	100		1	6	2000	0
209005	挑战星河秘境500次	t_target_desc_209005	icon_hd_xhmj	2	209004	14	500	500		1	6	2500	0
209006	挑战星河秘境1000次	t_target_desc_209006	icon_hd_xhmj	2	209005	14	1000	1000		1	6	3000	0
209007	挑战星河秘境3000次	t_target_desc_209007	icon_hd_xhmj	2	209006	14	3000	3000		1	6	3500	0
209008	挑战星河秘境10000次	t_target_desc_209008	icon_hd_xhmj	2	209007	14	10000	10000		1	6	4000	0
209009	挑战星河秘境20000次	t_target_desc_209009	icon_hd_xhmj	2	209008	14	20000	20000		1	6	4500	0
209010	挑战星河秘境50000次	t_target_desc_209010	icon_hd_xhmj	2	209009	14	50000	50000		1	6	5000	0
401001	2个邀请的好友达到30级	t_target_desc_401001	icon_hd_hbcqu	4		20	2	30		1	2	50	0
401002	2个邀请的好友达到40级	t_target_desc_401002	icon_hd_hbcqu	4	401001	20	2	40		1	2	200	0
401003	2个邀请的好友达到50级	t_target_desc_401003	icon_hd_hbcqu	4	401002	20	2	50		1	2	500	0
401004	2个邀请的好友达到70级	t_target_desc_401004	icon_hd_hbcqu	4	401003	20	2	70		1	2	700	0
401005	2个邀请的好友达到90级	t_target_desc_401005	icon_hd_hbcqu	4	401004	20	2	90		1	2	1000	0
402001	5个邀请的好友达到30级	t_target_desc_402001	icon_hd_hbcqu	4		20	5	30		1	2	100	0
402002	5个邀请的好友达到40级	t_target_desc_402002	icon_hd_hbcqu	4	402001	20	5	40		1	2	500	0
402003	5个邀请的好友达到50级	t_target_desc_402003	icon_hd_hbcqu	4	402002	20	5	50		1	2	1000	0
402004	5个邀请的好友达到70级	t_target_desc_402004	icon_hd_hbcqu	4	402003	20	5	70		1	2	2000	0
402005	5个邀请的好友达到90级	t_target_desc_402005	icon_hd_hbcqu	4	402004	20	5	90		1	2	3000	0
403001	10个邀请的好友达到30级	t_target_desc_403001	icon_hd_hbcqu	4		20	10	30		1	2	200	0
403002	10个邀请的好友达到40级	t_target_desc_403002	icon_hd_hbcqu	4	403001	20	10	40		1	2	800	0
403003	10个邀请的好友达到50级	t_target_desc_403003	icon_hd_hbcqu	4	403002	20	10	50		1	2	1500	0
403004	10个邀请的好友达到70级	t_target_desc_403004	icon_hd_hbcqu	4	403003	20	10	70		1	2	3000	0
403005	10个邀请的好友达到90级	t_target_desc_403005	icon_hd_hbcqu	4	403004	20	10	90		1	2	5000	0
404001	20个邀请的好友达到30级	t_target_desc_404001	icon_hd_hbcqu	4		20	20	30		1	2	500	0
404002	20个邀请的好友达到40级	t_target_desc_404002	icon_hd_hbcqu	4	404001	20	20	40		1	2	2000	0
404003	20个邀请的好友达到50级	t_target_desc_404003	icon_hd_hbcqu	4	404002	20	20	50		1	2	4000	0
404004	20个邀请的好友达到70级	t_target_desc_404004	icon_hd_hbcqu	4	404003	20	20	70		1	2	6000	0
404005	20个邀请的好友达到90级	t_target_desc_404005	icon_hd_hbcqu	4	404004	20	20	90		1	2	8000	0
405001	50个邀请的好友达到30级	t_target_desc_405001	icon_hd_hbcqu	4		20	50	30		1	2	1000	0
405002	50个邀请的好友达到40级	t_target_desc_405002	icon_hd_hbcqu	4	405001	20	50	40		1	2	3000	0
405003	50个邀请的好友达到50级	t_target_desc_405003	icon_hd_hbcqu	4	405002	20	50	50		1	2	5000	0
405004	50个邀请的好友达到70级	t_target_desc_405004	icon_hd_hbcqu	4	405003	20	50	70		1	2	8000	0
405005	50个邀请的好友达到90级	t_target_desc_405005	icon_hd_hbcqu	4	405004	20	50	90		1	2	10000	0
