INT	INT	INT	INT	INT
level	level	mission	mission	mission
1	30	2201	2202	2203
31	40	2301	2302	2303
41	50	2401	2402	2403
51	60	2501	2502	2503
61	70	2601	2602	2603
71	80	2701	2702	2703
81	90	2801	2802	2803
91	100	2901	2902	2903
