%YAML 1.1
%TAG !u! tag:unity3d.com,2011:
--- !u!21 &2100000
Material:
  serializedVersion: 6
  m_ObjectHideFlags: 0
  m_CorrespondingSourceObject: {fileID: 0}
  m_PrefabInternal: {fileID: 0}
  m_Name: bot_47
  m_Shader: {fileID: 4800000, guid: fcf729baf7219704e96ae6df7c0a1633, type: 3}
  m_ShaderKeywords: 
  m_LightmapFlags: 4
  m_EnableInstancingVariants: 0
  m_DoubleSidedGI: 0
  m_CustomRenderQueue: -1
  stringTagMap: {}
  disabledShaderPasses: []
  m_SavedProperties:
    serializedVersion: 3
    m_TexEnvs:
    - _BlendTex:
        m_Texture: {fileID: 2800000, guid: bf99ca7b7011fd346b58c0e105240a06, type: 3}
        m_Scale: {x: 1, y: 1}
        m_Offset: {x: 0, y: 0}
    - _MainTex:
        m_Texture: {fileID: 2800000, guid: 7200b7612963f5f408aed0fa4410d361, type: 3}
        m_Scale: {x: 1, y: 1}
        m_Offset: {x: 0, y: 0}
    m_Floats:
    - _alpha: 1.67
    - _back: 2
    - _level: 1
    - _while: 0
    m_Colors:
    - _BackColor: {r: 0.11937716, g: 0.2665404, b: 0.50735295, a: 0}
    - _Color: {r: 1, g: 1, b: 1, a: 1}
