%YAML 1.1
%TAG !u! tag:unity3d.com,2011:
--- !u!21 &2100000
Material:
  serializedVersion: 6
  m_ObjectHideFlags: 0
  m_CorrespondingSourceObject: {fileID: 0}
  m_PrefabInternal: {fileID: 0}
  m_Name: c204
  m_Shader: {fileID: 4800000, guid: 9bfd0820ac9e51c42a34225d4b735eca, type: 3}
  m_ShaderKeywords: 
  m_LightmapFlags: 4
  m_EnableInstancingVariants: 0
  m_DoubleSidedGI: 0
  m_CustomRenderQueue: -1
  stringTagMap: {}
  disabledShaderPasses: []
  m_SavedProperties:
    serializedVersion: 3
    m_TexEnvs:
    - _BumpMap:
        m_Texture: {fileID: 0}
        m_Scale: {x: 1, y: 1}
        m_Offset: {x: 0, y: 0}
    - _DissolveSrc:
        m_Texture: {fileID: 2800000, guid: 5fa21ff78b511c148bcdf1c90e441075, type: 3}
        m_Scale: {x: 1, y: 1}
        m_Offset: {x: 0, y: 0}
    - _DissolveSrcBump:
        m_Texture: {fileID: 0}
        m_Scale: {x: 1, y: 1}
        m_Offset: {x: 0, y: 0}
    - _MainTex:
        m_Texture: {fileID: 2800000, guid: 4e51f181444356f458eac091f4ee2144, type: 3}
        m_Scale: {x: 1, y: 1}
        m_Offset: {x: 0, y: 0}
    m_Floats:
    - _Amount: 0.28571427
    - _Illuminate: 0.5
    - _Shininess: 0.078125
    - _StartAmount: 0.1
    - _Tile: 1
    m_Colors:
    - _Color: {r: 0.9191176, g: 0.16895545, b: 0.7742585, a: 1}
    - _ColorAnimate: {r: 1, g: 1, b: 1, a: 1}
    - _DissColor: {r: 1, g: 1, b: 1, a: 1}
    - _SpecColor: {r: 0.63549244, g: 0.06866351, b: 0.9338235, a: 1}
