INT	INT	INT	INT	INT	INT	INT	INT	INT
level	品质	金币	钻石	进度	成功率	value1	value2	valuemax
1	4	120000	120	80	90	7	3	800
2	4	180000	180	160	80	7	3	2400
3	4	240000	240	320	70	7	3	5600
1	5	240000	240	80	90	14	6	1600
2	5	360000	360	160	80	14	6	4800
3	5	480000	480	320	70	14	6	11200
4	5	640000	640	600	65	14	6	23200
5	5	900000	900	840	60	14	6	40000
