INT	INT	INT	INT
level	升星石	价格	相同饰品数
1	30	30000	0
2	50	60000	1
3	100	120000	1
4	300	200000	2
5	500	300000	2
6	1000	400000	2
7	1500	500000	3
8	2000	650000	5
9	3000	800000	8
10	4000	1000000	10
11	5000	1200000	10
12	6000	1400000	10
13	7000	1600000	10
14	8000	1800000	10
15	9000	2000000	10
16	10000	2200000	10
17	11000	2400000	10
18	12000	2600000	10
19	13000	2800000	10
20	14000	3000000	10
