INT	STRING	STRING	INT	INT	INT	INT	INT	INT	INT	INT	INT	INT	INT
id	name	代号	id1	id2	id3	attr1	value1	attr2	value2	attr3	value3	attr4	value4
1001	微芒乍现	t_guanghuan_target_name_1001	2001	3001	3002	1	16000	2	1600	29	1600		
1002	光芒四射	t_guanghuan_target_name_1002	4001	4002		1	60000	29	6000	35	10	36	10
1003	赤色彗星	t_guanghuan_target_name_1003	5001	5002		1	100000	29	10000	35	15	36	15
