INT	STRING	STRING	INT	INT	INT	INT	INT	INT	INT	INT	INT	INT	INT	INT	INT
index	name	代号	time	type	value1	value2	value3	type	value1	value2	value3	type	value1	value2	value3
0	1分钟	t_online_reward_name_0	60000	1	2	20	0	1	7	2000	0	2	40040001	50	0
1	2分钟	t_online_reward_name_1	120000	1	2	20	0	1	7	3000	0	2	50140001	20	0
2	5分钟	t_online_reward_name_2	300000	1	2	20	0	1	7	4000	0	2	50020001	3	0
3	5分钟	t_online_reward_name_3	300000	1	2	20	0	1	7	5000	0	2	10010022	2	0
4	5分钟	t_online_reward_name_4	300000	1	2	20	0	1	7	6000	0	2	10010034	1	0
