INT	INT	INT	INT	INT	INT	INT	INT	INT	INT	INT	INT	INT	INT	INT	INT	INT	INT	INT	INT	INT	INT	INT	INT	INT	INT	INT	INT	INT	INT	INT	INT	INT	INT	INT	INT	INT	INT	INT	INT	INT	INT	INT	INT	INT	INT	INT	INT	INT	INT	INT	INT	INT	INT	INT	INT	INT	INT	INT	INT	INT	INT	INT	INT	INT	INT	INT	INT	INT	INT	INT	INT	INT	INT	INT	INT	INT	INT
rank1	rank2	level1	level2	bf1	bf2	type1	id1	level1	glevel1	type2	id2	level2	glevel2	type3	id3	level3	glevel3	type4	id4	level4	glevel4	type5	id5	level5	glevel5	type6	id6	level6	glevel6	equip1	enhance1	equip2	enhance2	equip3	enhance3	equip4	enhance4	equip5	enhance5	equip6	enhance6	equip7	enhance7	equip8	enhance8	equip9	enhance9	equip10	enhance10	equip11	enhance11	equip12	enhance12	equip13	enhance13	equip14	enhance14	equip15	enhance15	equip16	enhance16	equip17	enhance17	equip18	enhance18	equip19	enhance19	equip20	enhance20	equip21	enhance21	equip22	enhance22	equip23	enhance23	equip24	enhance24
1	100	18	21	37684	38521	1	100	18	1	1	101	18	1	1	66	18	1	2		18	1	2		18	1					10102	15	20102	15	30102	15	40102	15	10101	15	20101	15	30101	15	40101	15	10203	15	20203	15	30203	15	40203	15	10101	15	20101	15	30101	15	40101	15																
101	500	15	20	31499	34847	1	100	12	1	1	101	12	0	1	66	12	0	2		12	0	2		12	0					10102	15	20102	15	30102	15	40102	15	10101	15	20101	15	30101	15	40101	15	10203	15	20203	15	30203	15	40203	15	10102	15	20102	15	30102	15	40102	15																
501	1000	13	18	18855	20269	1	100	3	0	1	101	3	0	1	66	3	0	2		3	0																																																								
1001	3000	12	12	7646	8961	1	100	1	0	1	101	1	0	1	66	1	0	2		1	0																																																								
3001	99999999	12	12	5031	5031	1	100	1	0	1	101	1	0	1	66	1	0																																																												
