INT	INT	INT	INT	FLOAT
rank1	rank2	竞技点	钻石	排名钻石
1	1	5000	240	500
2	2	4000	220	400
3	3	3900	200	300
4	4	3800	180	200
5	5	3700	160	100
6	6	3600	140	70
7	7	3500	120	60
8	8	3400	100	50
9	9	3300	95	40
10	10	3200	90	30
11	20	3000	85	10
21	50	2500	80	5
51	100	2000	75	2
101	200	1500	70	1
201	500	1200	60	0.4
501	1000	1000	50	0.2
1001	2000	0	0	0.1
2001	5000	0	0	0.05
