%YAML 1.1
%TAG !u! tag:unity3d.com,2011:
--- !u!21 &2100000
Material:
  serializedVersion: 6
  m_ObjectHideFlags: 0
  m_CorrespondingSourceObject: {fileID: 0}
  m_PrefabInternal: {fileID: 0}
  m_Name: beam07_B_Toon
  m_Shader: {fileID: 4800000, guid: 53a96a6041ff92343b981801efb1a787, type: 3}
  m_ShaderKeywords: 
  m_LightmapFlags: 4
  m_EnableInstancingVariants: 0
  m_DoubleSidedGI: 0
  m_CustomRenderQueue: -1
  stringTagMap: {}
  disabledShaderPasses: []
  m_SavedProperties:
    serializedVersion: 3
    m_TexEnvs:
    - _Alpha01:
        m_Texture: {fileID: 2800000, guid: e25b117c323e5434ca94608b6a6eb532, type: 3}
        m_Scale: {x: 1, y: 1}
        m_Offset: {x: 0, y: 0}
    - _DisE01:
        m_Texture: {fileID: 2800000, guid: b6a26405c9ced44418f598bd89108dba, type: 3}
        m_Scale: {x: 0, y: 1}
        m_Offset: {x: 0, y: 0}
    - _E01:
        m_Texture: {fileID: 2800000, guid: fedf84ea9ce444545820a246cbbdb95c, type: 3}
        m_Scale: {x: 1, y: 1}
        m_Offset: {x: 0, y: 0}
    - _MainTex:
        m_Texture: {fileID: 0}
        m_Scale: {x: 1, y: 1}
        m_Offset: {x: 0, y: 0}
    m_Floats:
    - _Alpha01_Bright: 1
    - _Alpha01_UVangle: 0
    - _AlphaClip: 0.04
    - _Cutoff: 0.5
    - _DisE01_UVpan: 0
    - _DisE01_UVpan_Speed: 1
    - _DisE01_value: 0.4
    - _E01_Bright: 2
    - _E01_UVangle: 0
    - _Glow_Brght: 3
    m_Colors:
    - _Color: {r: 1, g: 1, b: 1, a: 1}
    - _E01_Color: {r: 1, g: 1, b: 1, a: 1}
