%YAML 1.1
%TAG !u! tag:unity3d.com,2011:
--- !u!21 &2100000
Material:
  serializedVersion: 3
  m_ObjectHideFlags: 0
  m_PrefabParentObject: {fileID: 0}
  m_PrefabInternal: {fileID: 0}
  m_Name: fire_group015_add_F
  m_Shader: {fileID: 4800000, guid: f269a077b89fbef47a4b88b0f2e15bd2, type: 3}
  m_ShaderKeywords: []
  m_CustomRenderQueue: -1
  m_SavedProperties:
    serializedVersion: 2
    m_TexEnvs:
      data:
        first:
          name: _MainTex
        second:
          m_Texture: {fileID: 2800000, guid: 6889c297e0517644495ea1fafb707e39, type: 3}
          m_Scale: {x: 1, y: 1}
          m_Offset: {x: 0, y: 0}
      data:
        first:
          name: _mask
        second:
          m_Texture: {fileID: 2800000, guid: aeb70f974aa9c6a44bb8332c94c3f805, type: 3}
          m_Scale: {x: 4, y: 4}
          m_Offset: {x: 0, y: 0}
      data:
        first:
          name: _T01
        second:
          m_Texture: {fileID: 2800000, guid: 6889c297e0517644495ea1fafb707e39, type: 3}
          m_Scale: {x: 1, y: 1}
          m_Offset: {x: 0, y: 0}
      data:
        first:
          name: _niuqu
        second:
          m_Texture: {fileID: 0}
          m_Scale: {x: 1, y: 1}
          m_Offset: {x: 0, y: 0}
    m_Floats:
      data:
        first:
          name: _niuqudu
        second: 0
      data:
        first:
          name: _niuqu_sudu
        second: 0
      data:
        first:
          name: _Intensity_T01
        second: 1
      data:
        first:
          name: _InvFade
        second: 1
    m_Colors:
      data:
        first:
          name: _Color_T01
        second: {r: 1, g: 1, b: 1, a: 1}
      data:
        first:
          name: _TintColor
        second: {r: .5, g: .5, b: .5, a: .5}
