%YAML 1.1
%TAG !u! tag:unity3d.com,2011:
--- !u!21 &2100000
Material:
  serializedVersion: 3
  m_ObjectHideFlags: 0
  m_PrefabParentObject: {fileID: 0}
  m_PrefabInternal: {fileID: 0}
  m_Name: Select_enemy02
  m_Shader: {fileID: 4800000, guid: 20592a0dc94f1d243927c510191e0876, type: 3}
  m_ShaderKeywords: []
  m_CustomRenderQueue: -1
  m_SavedProperties:
    serializedVersion: 2
    m_TexEnvs:
      data:
        first:
          name: _MainTex
        second:
          m_Texture: {fileID: 2800000, guid: f3a17de9a9893674b93c4729c396b85f, type: 3}
          m_Scale: {x: 1, y: 2}
          m_Offset: {x: 0, y: 0}
      data:
        first:
          name: _Tex01
        second:
          m_Texture: {fileID: 2800000, guid: 1d820387b58ad83409b8cafe09db364a, type: 3}
          m_Scale: {x: 1, y: 1}
          m_Offset: {x: 0, y: 0}
      data:
        first:
          name: _Tex02
        second:
          m_Texture: {fileID: 2800000, guid: f3a17de9a9893674b93c4729c396b85f, type: 3}
          m_Scale: {x: 1, y: 3}
          m_Offset: {x: 0, y: 0}
      data:
        first:
          name: _mask
        second:
          m_Texture: {fileID: 0}
          m_Scale: {x: 1, y: 1}
          m_Offset: {x: 0, y: 0}
      data:
        first:
          name: _DisT01
        second:
          m_Texture: {fileID: 0}
          m_Scale: {x: 1, y: 1}
          m_Offset: {x: 0, y: 0}
      data:
        first:
          name: _Mask
        second:
          m_Texture: {fileID: 0}
          m_Scale: {x: 1, y: 1}
          m_Offset: {x: 0, y: 0}
      data:
        first:
          name: _T01
        second:
          m_Texture: {fileID: 2800000, guid: f3a17de9a9893674b93c4729c396b85f, type: 3}
          m_Scale: {x: 1, y: 1}
          m_Offset: {x: 0, y: 0}
      data:
        first:
          name: _niuqu
        second:
          m_Texture: {fileID: 0}
          m_Scale: {x: 1, y: 1}
          m_Offset: {x: 0, y: 0}
    m_Floats:
      data:
        first:
          name: _RimPow
        second: 2.5
      data:
        first:
          name: _niuqudu
        second: .100000001
      data:
        first:
          name: _PanY_T02
        second: .100000001
      data:
        first:
          name: _PanY_DisT01
        second: 10
      data:
        first:
          name: _DisT01Power
        second: 0
      data:
        first:
          name: _niuqu_sudu
        second: 2
      data:
        first:
          name: _Intensity
        second: 1
      data:
        first:
          name: _InvFade
        second: 1
      data:
        first:
          name: _PanX_T01
        second: 0
      data:
        first:
          name: _PanX_T02
        second: 10
      data:
        first:
          name: _Intensity_T02
        second: 1
      data:
        first:
          name: _PanY_Mask
        second: 10
      data:
        first:
          name: _Intensity_Mask
        second: 0
    m_Colors:
      data:
        first:
          name: _Color
        second: {r: 1, g: 1, b: 1, a: 1}
      data:
        first:
          name: _RimColor
        second: {r: 1, g: 1, b: 1, a: 1}
      data:
        first:
          name: _Color_T01
        second: {r: .5, g: 0, b: 0, a: 1}
      data:
        first:
          name: _Color_T02
        second: {r: 1, g: 0, b: 0, a: 1}
      data:
        first:
          name: _TintColor
        second: {r: 1, g: 1, b: 1, a: 1}
