%YAML 1.1
%TAG !u! tag:unity3d.com,2011:
--- !u!1045 &1
EditorBuildSettings:
  m_ObjectHideFlags: 0
  serializedVersion: 2
  m_Scenes:
  - enabled: 1
    path: Assets/game_start.unity
    guid: 9d4200bc5cd97414bb76238c030beb59
  - enabled: 1
    path: Assets/GameLoad.unity
    guid: 95d31f6fb2fe72f45a65b23800923ca7
  - enabled: 1
    path: Assets/game_main.unity
    guid: f02cb345471ddbc45a8c0c4b3f32512e
  - enabled: 1
    path: Assets/sencen/ts_chuj001/ts_game_start.unity
    guid: 3fb4be7eb8edd6247bd16fa1300c0abd
  - enabled: 1
    path: Assets/sencen/ts_newdl/ts_game_start2.unity
    guid: b59ca460b0cd49a40840a49f052a2718
  - enabled: 1
    path: Assets/sencen/ts_tkcdt001/ts_game_hall.unity
    guid: 556bca41a2261964b8c0c0c6411bd873
  - enabled: 1
    path: Assets/sencen/ts_woshi001/ts_catch_card.unity
    guid: c5384410d2af1e44eb1e747ff4a33420
  - enabled: 1
    path: Assets/sencen/ts_dhtest/ts_game_unlock.unity
    guid: e2641eace630a314d8f91ad84f9af8df
  - enabled: 1
    path: Assets/sencen/MemoryRoom/ts_game_memory.unity
    guid: e7f4589eb7ebeda4796ab28ad52b45cb
  - enabled: 1
    path: Assets/sencen/ts_vroom001/ts_game_vr.unity
    guid: 8ec7672ad06f80243a9206424e9a70ca
  - enabled: 1
    path: Assets/sencen/ts_tsxxq000/ts_game_explore.unity
    guid: 0e4d163ffe2b40442bea9ac2c7f6eada
  - enabled: 1
    path: Assets/sencen/ts_zjm001/ts_game_hhb.unity
    guid: 0f8bbd72239e3d640a070b7719c28be9
  - enabled: 1
    path: Assets/sencen/ts_bossz001/ts_game_boss.unity
    guid: 0af098a4b11b62d44b687c1f9e7bfd55
  - enabled: 1
    path: Assets/sencen/ts_bossz001/ts_game_mijing.unity
    guid: ca472d8fa23f12047a6751705479f741
  - enabled: 1
    path: Assets/sencen/ts_tsxxq000/ts_game_tanbao.unity
    guid: 54d6a45633f48374194d0d227dbddde1
  - enabled: 1
    path: Assets/sencen/ts_dtxz001/ts_game_transport.unity
    guid: 240c7fc3de9f3a149b0dd7096ae41491
  - enabled: 1
    path: Assets/sencen/ts_chuj001/ts_game_duobao.unity
    guid: ac6e53be135da7a41a682e0446cf9878
  - enabled: 1
    path: Assets/sencen/ts_kfz001/ts_game_lieren.unity
    guid: ba910e7f69722614baf30efa641d0d3b
  - enabled: 1
    path: Assets/sencen/ts_byzd/ts_game_bingyuan.unity
    guid: 653f92a68e16df5418d86a89edfa3977
  - enabled: 1
    path: Assets/sencen/TeamsBattle/ts_game_guildfb.unity
    guid: d7292f9b078083e42984aa16d30095ac
  - enabled: 1
    path: Assets/sencen/ts_kfz001/ts_game_master.unity
    guid: cdc45bf7b64c06a46ad77adfe3fcea97
  - enabled: 1
    path: Assets/sencen/ts_byzd/ts_game_guildwar.unity
    guid: 5bf924347744fcf4698ed9ebba90940f
  - enabled: 1
    path: Assets/sencen/ts_chuj001/ts_chapter01.unity
    guid: f248d30793615ac47a50e046a02d5bd8
  - enabled: 1
    path: Assets/sencen/ts_fx001/ts_chapter02.unity
    guid: 2bed3b37930224c419566eda3ce5dcdd
  - enabled: 1
    path: Assets/sencen/ts_cha001/ts_chapter03_01.unity
    guid: c20702f1ee916754e9e14ed5695de461
  - enabled: 1
    path: Assets/sencen/ts_chc002/ts_chapter03_02.unity
    guid: 62ea19dc1bd07a84badd45d17d820a04
  - enabled: 1
    path: Assets/sencen/ts_tjxgtx001/ts_chapter04_01.unity
    guid: 0c66da9d17c34064490dd2fd773b2f79
  - enabled: 1
    path: Assets/sencen/ts_tjxgtx001/ts_chapter04_02.unity
    guid: 371d8ee40fa8a8c41b5193515a415a03
  - enabled: 1
    path: Assets/sencen/ts_swxcj001/ts_chapter05_01.unity
    guid: a2c4a3e638205ca4b98c104716faa433
  - enabled: 1
    path: Assets/sencen/ts_swxcj002/ts_chapter05_02.unity
    guid: ed7280a4f1b2dda4aacd8705352f02a8
  - enabled: 1
    path: Assets/sencen/ts_nhx001/ts_chapter06_01.unity
    guid: c8608ec94a695c34ca33a7e2a8809245
  - enabled: 1
    path: Assets/sencen/ts_nhx001/ts_chapter06_02.unity
    guid: 35c9df23d7f0bf14e90fc314c33c3546
  - enabled: 1
    path: Assets/sencen/ts_hxx001/ts_chapter07_01.unity
    guid: 9aa72506ba99d8945b19121359bfc05b
  - enabled: 1
    path: Assets/sencen/ts_hxx001/ts_chapter07_02.unity
    guid: 8ef5cee48e7105543abe96c0b26534b9
  - enabled: 1
    path: Assets/sencen/ts_shex001/ts_chapter08_01.unity
    guid: a21d2217bf24af1429fc6a1dc09e836c
  - enabled: 1
    path: Assets/sencen/ts_shex002/ts_chapter08_02.unity
    guid: 8794527fc8210404ca7dcb68e38e319f
  - enabled: 1
    path: Assets/sencen/ts_ckzd001/ts_chapter09_01.unity
    guid: 82c4c25d70436904c944d8e7b36dc82d
  - enabled: 1
    path: Assets/sencen/ts_ckzd001/ts_chapter09_02.unity
    guid: 9f2073ef48681454ca632a63805d80f5
  - enabled: 1
    path: Assets/sencen/ts_jxsg001/ts_chapter10_02.unity
    guid: bcddafdef7638df42bb99720aa4f5658
  - enabled: 1
    path: Assets/sencen/ts_jxsg001/ts_chapter10_01.unity
    guid: be500b893a4911d45bce70160f0115e2
  - enabled: 1
    path: Assets/sencen/ts_jjc001/ts_fight_jjc.unity
    guid: 482f5f4b8cf8ee44b926edd28f4004b9
  - enabled: 1
    path: Assets/sencen/ts_bossz001/ts_fight_boss.unity
    guid: ecb6f4b061f2a5a4f9d68e2b65627fa7
  - enabled: 1
    path: Assets/sencen/ts_woshi001/ts_fight_mijing.unity
    guid: 6475c1b95919ef94d9a38247a35cf8d5
  - enabled: 1
    path: Assets/sencen/ts_sjkd001/ts_fight_xjbz.unity
    guid: 512836e252985b0458d5612a56416f2e
  m_configObjects: {}
