%YAML 1.1
%TAG !u! tag:unity3d.com,2011:
--- !u!74 &7400000
AnimationClip:
  m_ObjectHideFlags: 0
  m_CorrespondingSourceObject: {fileID: 0}
  m_PrefabInternal: {fileID: 0}
  m_Name: buff_fywl_a01
  serializedVersion: 6
  m_Legacy: 0
  m_Compressed: 0
  m_UseHighQualityCurve: 1
  m_RotationCurves:
  - curve:
      serializedVersion: 2
      m_Curve:
      - serializedVersion: 3
        time: 0
        value: {x: 0.009928321, y: -0.75670177, z: 0.02870863, w: 0.6530542}
        inSlope: {x: -1.2925618, y: 0.0102818, z: 1.8032653, w: -0.11068224}
        outSlope: {x: -1.2925618, y: 0.0102818, z: 1.8032653, w: -0.11068224}
        tangentMode: -1082271293
        weightedMode: 0
        inWeight: {x: 0.33333334, y: 0.33333334, z: 0.33333334, w: 0.33333334}
        outWeight: {x: 0.33333334, y: 0.33333334, z: 0.33333334, w: 0.33333334}
      - serializedVersion: 3
        time: 0.016666668
        value: {x: -0.011614377, y: -0.7565304, z: 0.058763053, w: 0.6512095}
        inSlope: {x: -1.2918832, y: 0.029096602, z: 1.799907, w: -0.15165566}
        outSlope: {x: -1.2918832, y: 0.029096602, z: 1.799907, w: -0.15165566}
        tangentMode: -1098771929
        weightedMode: 0
        inWeight: {x: 0.33333334, y: 0.33333334, z: 0.33333334, w: 0.33333334}
        outWeight: {x: 0.33333334, y: 0.33333334, z: 0.33333334, w: 0.33333334}
      - serializedVersion: 3
        time: 0.033333335
        value: {x: -0.033134457, y: -0.7557319, z: 0.08870553, w: 0.647999}
        inSlope: {x: -1.2899611, y: 0.0666815, z: 1.791343, w: -0.23340937}
        outSlope: {x: -1.2899611, y: 0.0666815, z: 1.791343, w: -0.23340937}
        tangentMode: 1041772772
        weightedMode: 0
        inWeight: {x: 0.33333334, y: 0.33333334, z: 0.33333334, w: 0.33333334}
        outWeight: {x: 0.33333334, y: 0.33333334, z: 0.33333334, w: 0.33333334}
      - serializedVersion: 3
        time: 0.050000004
        value: {x: -0.054613084, y: -0.7543077, z: 0.11847449, w: 0.64342916}
        inSlope: {x: -1.2869103, y: 0.10416627, z: 1.7790942, w: -0.31469285}
        outSlope: {x: -1.2869103, y: 0.10416627, z: 1.7790942, w: -0.31469285}
        tangentMode: -1083131677
        weightedMode: 0
        inWeight: {x: 0.33333334, y: 0.33333334, z: 0.33333334, w: 0.33333334}
        outWeight: {x: 0.33333334, y: 0.33333334, z: 0.33333334, w: 0.33333334}
      - serializedVersion: 3
        time: 0.06666667
        value: {x: -0.07603147, y: -0.7522597, z: 0.14800867, w: 0.6375092}
        inSlope: {x: -1.282737, y: 0.14151336, z: 1.7631853, w: -0.3953469}
        outSlope: {x: -1.282737, y: 0.14151336, z: 1.7631853, w: -0.3953469}
        tangentMode: -1105721758
        weightedMode: 0
        inWeight: {x: 0.33333334, y: 0.33333334, z: 0.33333334, w: 0.33333334}
        outWeight: {x: 0.33333334, y: 0.33333334, z: 0.33333334, w: 0.33333334}
      - serializedVersion: 3
        time: 0.083333336
        value: {x: -0.09737098, y: -0.7495906, z: 0.17724733, w: 0.63025093}
        inSlope: {x: -1.2774457, y: 0.17868878, z: 1.7436478, w: -0.47520524}
        outSlope: {x: -1.2774457, y: 0.17868878, z: 1.7436478, w: -0.47520524}
        tangentMode: -1100950558
        weightedMode: 0
        inWeight: {x: 0.33333334, y: 0.33333334, z: 0.33333334, w: 0.33333334}
        outWeight: {x: 0.33333334, y: 0.33333334, z: 0.33333334, w: 0.33333334}
      - serializedVersion: 3
        time: 0.1
        value: {x: -0.11861299, y: -0.7463034, z: 0.20613027, w: 0.62166905}
        inSlope: {x: -1.2710452, y: 0.21565498, z: 1.7205231, w: -0.55409795}
        outSlope: {x: -1.2710452, y: 0.21565498, z: 1.7205231, w: -0.55409795}
        tangentMode: 1068982498
        weightedMode: 0
        inWeight: {x: 0.33333334, y: 0.33333334, z: 0.33333334, w: 0.33333334}
        outWeight: {x: 0.33333334, y: 0.33333334, z: 0.33333334, w: 0.33333334}
      - serializedVersion: 3
        time: 0.11666667
        value: {x: -0.13973916, y: -0.7424021, z: 0.2345981, w: 0.611781}
        inSlope: {x: -1.2635465, y: 0.25237793, z: 1.693855, w: -0.63187826}
        outSlope: {x: -1.2635465, y: 0.25237793, z: 1.693855, w: -0.63187826}
        tangentMode: 1050980198
        weightedMode: 0
        inWeight: {x: 0.33333334, y: 0.33333334, z: 0.33333334, w: 0.33333334}
        outWeight: {x: 0.33333334, y: 0.33333334, z: 0.33333334, w: 0.33333334}
      - serializedVersion: 3
        time: 0.13333334
        value: {x: -0.16073121, y: -0.7378908, z: 0.2625921, w: 0.60060644}
        inSlope: {x: -1.2549517, y: 0.28883094, z: 1.6636999, w: -0.70837665}
        outSlope: {x: -1.2549517, y: 0.28883094, z: 1.6636999, w: -0.70837665}
        tangentMode: -1082307870
        weightedMode: 0
        inWeight: {x: 0.33333334, y: 0.33333334, z: 0.33333334, w: 0.33333334}
        outWeight: {x: 0.33333334, y: 0.33333334, z: 0.33333334, w: 0.33333334}
      - serializedVersion: 3
        time: 0.15
        value: {x: -0.18157089, y: -0.7327744, z: 0.29005477, w: 0.58816844}
        inSlope: {x: -1.2452781, y: 0.3249729, z: 1.6301172, w: -0.7834465}
        outSlope: {x: -1.2452781, y: 0.3249729, z: 1.6301172, w: -0.7834465}
        tangentMode: 1048647973
        weightedMode: 0
        inWeight: {x: 0.33333334, y: 0.33333334, z: 0.33333334, w: 0.33333334}
        outWeight: {x: 0.33333334, y: 0.33333334, z: 0.33333334, w: 0.33333334}
      - serializedVersion: 3
        time: 0.16666667
        value: {x: -0.20224048, y: -0.72705835, z: 0.31692934, w: 0.57449156}
        inSlope: {x: -1.2345405, y: 0.3607643, z: 1.593175, w: -0.85693187}
        outSlope: {x: -1.2345405, y: 0.3607643, z: 1.593175, w: -0.85693187}
        tangentMode: 1054024163
        weightedMode: 0
        inWeight: {x: 0.33333334, y: 0.33333334, z: 0.33333334, w: 0.33333334}
        outWeight: {x: 0.33333334, y: 0.33333334, z: 0.33333334, w: 0.33333334}
      - serializedVersion: 3
        time: 0.18333334
        value: {x: -0.22272223, y: -0.7207489, z: 0.3431606, w: 0.55960405}
        inSlope: {x: -1.222744, y: 0.39618197, z: 1.5529491, w: -0.9286738}
        outSlope: {x: -1.222744, y: 0.39618197, z: 1.5529491, w: -0.9286738}
        tangentMode: -1082733216
        weightedMode: 0
        inWeight: {x: 0.33333334, y: 0.33333334, z: 0.33333334, w: 0.33333334}
        outWeight: {x: 0.33333334, y: 0.33333334, z: 0.33333334, w: 0.33333334}
      - serializedVersion: 3
        time: 0.2
        value: {x: -0.24299861, y: -0.7138523, z: 0.3686943, w: 0.54353577}
        inSlope: {x: -1.2099061, y: 0.43119732, z: 1.5095179, w: -0.99854004}
        outSlope: {x: -1.2099061, y: 0.43119732, z: 1.5095179, w: -0.99854004}
        tangentMode: 1038432196
        weightedMode: 0
        inWeight: {x: 0.33333334, y: 0.33333334, z: 0.33333334, w: 0.33333334}
        outWeight: {x: 0.33333334, y: 0.33333334, z: 0.33333334, w: 0.33333334}
      - serializedVersion: 3
        time: 0.21666667
        value: {x: -0.26305243, y: -0.70637566, z: 0.39347786, w: 0.5263194}
        inSlope: {x: -1.1960413, y: 0.46577278, z: 1.4629735, w: -1.0663785}
        outSlope: {x: -1.1960413, y: 0.46577278, z: 1.4629735, w: -1.0663785}
        tangentMode: 1037864423
        weightedMode: 0
        inWeight: {x: 0.33333334, y: 0.33333334, z: 0.33333334, w: 0.33333334}
        outWeight: {x: 0.33333334, y: 0.33333334, z: 0.33333334, w: 0.33333334}
      - serializedVersion: 3
        time: 0.23333333
        value: {x: -0.28286666, y: -0.6983265, z: 0.41746008, w: 0.5079898}
        inSlope: {x: -1.1811663, y: 0.4998762, z: 1.4134045, w: -1.1320596}
        outSlope: {x: -1.1811663, y: 0.4998762, z: 1.4134045, w: -1.1320596}
        tangentMode: 1069196390
        weightedMode: 0
        inWeight: {x: 0.33333334, y: 0.33333334, z: 0.33333334, w: 0.33333334}
        outWeight: {x: 0.33333334, y: 0.33333334, z: 0.33333334, w: 0.33333334}
      - serializedVersion: 3
        time: 0.25
        value: {x: -0.30242464, y: -0.6897131, z: 0.44059134, w: 0.48858407}
        inSlope: {x: -1.1652969, y: 0.5334768, z: 1.360914, w: -1.1954412}
        outSlope: {x: -1.1652969, y: 0.5334768, z: 1.360914, w: -1.1954412}
        tangentMode: -1085754905
        weightedMode: 0
        inWeight: {x: 0.33333334, y: 0.33333334, z: 0.33333334, w: 0.33333334}
        outWeight: {x: 0.33333334, y: 0.33333334, z: 0.33333334, w: 0.33333334}
      - serializedVersion: 3
        time: 0.26666668
        value: {x: -0.3217099, y: -0.68054396, z: 0.4628239, w: 0.46814176}
        inSlope: {x: -1.148453, y: 0.56655, z: 1.305608, w: -1.2563965}
        outSlope: {x: -1.148453, y: 0.56655, z: 1.305608, w: -1.2563965}
        tangentMode: -1082314041
        weightedMode: 0
        inWeight: {x: 0.33333334, y: 0.33333334, z: 0.33333334, w: 0.33333334}
        outWeight: {x: 0.33333334, y: 0.33333334, z: 0.33333334, w: 0.33333334}
      - serializedVersion: 3
        time: 0.28333336
        value: {x: -0.34070644, y: -0.6708281, z: 0.48411164, w: 0.44670415}
        inSlope: {x: -1.1306565, y: 0.59906197, z: 1.2475989, w: -1.3148088}
        outSlope: {x: -1.1306565, y: 0.59906197, z: 1.2475989, w: -1.3148088}
        tangentMode: 631045732
        weightedMode: 0
        inWeight: {x: 0.33333334, y: 0.33333334, z: 0.33333334, w: 0.33333334}
        outWeight: {x: 0.33333334, y: 0.33333334, z: 0.33333334, w: 0.33333334}
      - serializedVersion: 3
        time: 0.30000004
        value: {x: -0.35939848, y: -0.6605752, z: 0.50441056, w: 0.42431477}
        inSlope: {x: -1.1119195, y: 0.63098377, z: 1.1870043, w: -1.3705451}
        outSlope: {x: -1.1119195, y: 0.63098377, z: 1.1870043, w: -1.3705451}
        tangentMode: 212932320
        weightedMode: 0
        inWeight: {x: 0.33333334, y: 0.33333334, z: 0.33333334, w: 0.33333334}
        outWeight: {x: 0.33333334, y: 0.33333334, z: 0.33333334, w: 0.33333334}
      - serializedVersion: 3
        time: 0.31666672
        value: {x: -0.37777045, y: -0.6497953, z: 0.5236785, w: 0.40101928}
        inSlope: {x: -1.0922651, y: 0.6622923, z: 1.123943, w: -1.4234998}
        outSlope: {x: -1.0922651, y: 0.6622923, z: 1.123943, w: -1.4234998}
        tangentMode: 146987616
        weightedMode: 0
        inWeight: {x: 0.33333334, y: 0.33333334, z: 0.33333334, w: 0.33333334}
        outWeight: {x: 0.33333334, y: 0.33333334, z: 0.33333334, w: 0.33333334}
      - serializedVersion: 3
        time: 0.3333334
        value: {x: -0.39580736, y: -0.6384988, z: 0.54187536, w: 0.37686473}
        inSlope: {x: -1.071716, y: 0.6929606, z: 1.0585437, w: -1.4735677}
        outSlope: {x: -1.071716, y: 0.6929606, z: 1.0585437, w: -1.4735677}
        tangentMode: 212876516
        weightedMode: 0
        inWeight: {x: 0.33333334, y: 0.33333334, z: 0.33333334, w: 0.33333334}
        outWeight: {x: 0.33333334, y: 0.33333334, z: 0.33333334, w: 0.33333334}
      - serializedVersion: 3
        time: 0.35000008
        value: {x: -0.41349435, y: -0.6266966, z: 0.5589633, w: 0.3519003}
        inSlope: {x: -1.0502958, y: 0.72295845, z: 0.9909413, w: -1.5206405}
        outSlope: {x: -1.0502958, y: 0.72295845, z: 0.9909413, w: -1.5206405}
        tangentMode: 628234368
        weightedMode: 0
        inWeight: {x: 0.33333334, y: 0.33333334, z: 0.33333334, w: 0.33333334}
        outWeight: {x: 0.33333334, y: 0.33333334, z: 0.33333334, w: 0.33333334}
      - serializedVersion: 3
        time: 0.36666676
        value: {x: -0.43081725, y: -0.61440015, z: 0.57490677, w: 0.32617667}
        inSlope: {x: -1.0280237, y: 0.7522625, z: 0.92127013, w: -1.5646234}
        outSlope: {x: -1.0280237, y: 0.7522625, z: 0.92127013, w: -1.5646234}
        tangentMode: -1056198427
        weightedMode: 0
        inWeight: {x: 0.33333334, y: 0.33333334, z: 0.33333334, w: 0.33333334}
        outWeight: {x: 0.33333334, y: 0.33333334, z: 0.33333334, w: 0.33333334}
      - serializedVersion: 3
        time: 0.38333344
        value: {x: -0.44776183, y: -0.60162115, z: 0.5896723, w: 0.29974616}
        inSlope: {x: -1.0049291, y: 0.7808476, z: 0.84967124, w: -1.6054268}
        outSlope: {x: -1.0049291, y: 0.7808476, z: 0.84967124, w: -1.6054268}
        tangentMode: -981951514
        weightedMode: 0
        inWeight: {x: 0.33333334, y: 0.33333334, z: 0.33333334, w: 0.33333334}
        outWeight: {x: 0.33333334, y: 0.33333334, z: 0.33333334, w: 0.33333334}
      - serializedVersion: 3
        time: 0.40000013
        value: {x: -0.4643149, y: -0.5883719, z: 0.60322917, w: 0.2726624}
        inSlope: {x: -0.9810332, y: 0.80869067, z: 0.7762897, w: -1.6429665}
        outSlope: {x: -0.9810332, y: 0.80869067, z: 0.7762897, w: -1.6429665}
        tangentMode: 0
        weightedMode: 0
        inWeight: {x: 0.33333334, y: 0.33333334, z: 0.33333334, w: 0.33333334}
        outWeight: {x: 0.33333334, y: 0.33333334, z: 0.33333334, w: 0.33333334}
      - serializedVersion: 3
        time: 0.4166668
        value: {x: -0.48046297, y: -0.5746648, z: 0.6155487, w: 0.24498056}
        inSlope: {x: -0.9563587, y: 0.83577025, z: 0.7012719, w: -1.6771647}
        outSlope: {x: -0.9563587, y: 0.83577025, z: 0.7012719, w: -1.6771647}
        tangentMode: 0
        weightedMode: 0
        inWeight: {x: 0.33333334, y: 0.33333334, z: 0.33333334, w: 0.33333334}
        outWeight: {x: 0.33333334, y: 0.33333334, z: 0.33333334, w: 0.33333334}
      - serializedVersion: 3
        time: 0.4333335
        value: {x: -0.49619356, y: -0.56051284, z: 0.6266049, w: 0.21675687}
        inSlope: {x: -0.93093497, y: 0.86206484, z: 0.6247754, w: -1.7079483}
        outSlope: {x: -0.93093497, y: 0.86206484, z: 0.6247754, w: -1.7079483}
        tangentMode: -1106165658
        weightedMode: 0
        inWeight: {x: 0.33333334, y: 0.33333334, z: 0.33333334, w: 0.33333334}
        outWeight: {x: 0.33333334, y: 0.33333334, z: 0.33333334, w: 0.33333334}
      - serializedVersion: 3
        time: 0.45000017
        value: {x: -0.51149416, y: -0.54592925, z: 0.63637453, w: 0.1880489}
        inSlope: {x: -0.9047879, y: 0.887553, z: 0.54694843, w: -1.7352617}
        outSlope: {x: -0.9047879, y: 0.887553, z: 0.54694843, w: -1.7352617}
        tangentMode: 1077556931
        weightedMode: 0
        inWeight: {x: 0.33333334, y: 0.33333334, z: 0.33333334, w: 0.33333334}
        outWeight: {x: 0.33333334, y: 0.33333334, z: 0.33333334, w: 0.33333334}
      - serializedVersion: 3
        time: 0.46666685
        value: {x: -0.5263532, y: -0.5309277, z: 0.64483654, w: 0.15891476}
        inSlope: {x: -0.8779471, y: 0.91221136, z: 0.46794853, w: -1.7590449}
        outSlope: {x: -0.8779471, y: 0.91221136, z: 0.46794853, w: -1.7590449}
        tangentMode: 0
        weightedMode: 0
        inWeight: {x: 0.33333334, y: 0.33333334, z: 0.33333334, w: 0.33333334}
        outWeight: {x: 0.33333334, y: 0.33333334, z: 0.33333334, w: 0.33333334}
      - serializedVersion: 3
        time: 0.48333353
        value: {x: -0.5407591, y: -0.5155222, z: 0.65197283, w: 0.12941402}
        inSlope: {x: -0.85042834, y: 0.9360302, z: 0.3879422, w: -1.7792414}
        outSlope: {x: -0.85042834, y: 0.9360302, z: 0.3879422, w: -1.7792414}
        tangentMode: 1091260355
        weightedMode: 0
        inWeight: {x: 0.33333334, y: 0.33333334, z: 0.33333334, w: 0.33333334}
        outWeight: {x: 0.33333334, y: 0.33333334, z: 0.33333334, w: 0.33333334}
      - serializedVersion: 3
        time: 0.5000002
        value: {x: -0.5547008, y: -0.4997267, z: 0.65776795, w: 0.099606715}
        inSlope: {x: -0.8222731, y: 0.9589801, z: 0.30708462, w: -1.7958157}
        outSlope: {x: -0.8222731, y: 0.9589801, z: 0.30708462, w: -1.7958157}
        tangentMode: -2147483648
        weightedMode: 0
        inWeight: {x: 0.33333334, y: 0.33333334, z: 0.33333334, w: 0.33333334}
        outWeight: {x: 0.33333334, y: 0.33333334, z: 0.33333334, w: 0.33333334}
      - serializedVersion: 3
        time: 0.5166668
        value: {x: -0.56816816, y: -0.4835562, z: 0.662209, w: 0.069553554}
        inSlope: {x: -0.7935072, y: 0.9810502, z: 0.22554003, w: -1.8087349}
        outSlope: {x: -0.7935072, y: 0.9810502, z: 0.22554003, w: -1.8087349}
        tangentMode: 0
        weightedMode: 0
        inWeight: {x: 0.33333334, y: 0.33333334, z: 0.33333334, w: 0.33333334}
        outWeight: {x: 0.33333334, y: 0.33333334, z: 0.33333334, w: 0.33333334}
      - serializedVersion: 3
        time: 0.5333335
        value: {x: -0.581151, y: -0.46702507, z: 0.66528594, w: 0.039315607}
        inSlope: {x: -0.7641531, y: 1.0022298, z: 0.14347686, w: -1.8179686}
        outSlope: {x: -0.7641531, y: 1.0022298, z: 0.14347686, w: -1.8179686}
        tangentMode: 3
        weightedMode: 0
        inWeight: {x: 0.33333334, y: 0.33333334, z: 0.33333334, w: 0.33333334}
        outWeight: {x: 0.33333334, y: 0.33333334, z: 0.33333334, w: 0.33333334}
      - serializedVersion: 3
        time: 0.55000013
        value: {x: -0.5936399, y: -0.45014858, z: 0.66699153, w: 0.008954657}
        inSlope: {x: -0.7342447, y: 1.0224903, z: 0.061059654, w: -1.8234894}
        outSlope: {x: -0.7342447, y: 1.0224903, z: 0.061059654, w: -1.8234894}
        tangentMode: 0
        weightedMode: 0
        inWeight: {x: 0.33333334, y: 0.33333334, z: 0.33333334, w: 0.33333334}
        outWeight: {x: 0.33333334, y: 0.33333334, z: 0.33333334, w: 0.33333334}
      - serializedVersion: 3
        time: 0.5666668
        value: {x: -0.6056258, y: -0.4329421, z: 0.66732126, w: -0.021467315}
        inSlope: {x: -0.7038148, y: 1.0418257, z: -0.021547323, w: -1.8252944}
        outSlope: {x: -0.7038148, y: 1.0418257, z: -0.021547323, w: -1.8252944}
        tangentMode: 4
        weightedMode: 0
        inWeight: {x: 0.33333334, y: 0.33333334, z: 0.33333334, w: 0.33333334}
        outWeight: {x: 0.33333334, y: 0.33333334, z: 0.33333334, w: 0.33333334}
      - serializedVersion: 3
        time: 0.5833333
        value: {x: -0.6171003, y: -0.41542122, z: 0.6662733, w: -0.051888213}
        inSlope: {x: -0.688475, y: 1.051261, z: -0.06287864, w: -1.8252686}
        outSlope: {x: -0.688475, y: 1.051261, z: -0.06287864, w: -1.8252686}
        tangentMode: -1066664096
        weightedMode: 0
        inWeight: {x: 0.33333334, y: 0.33333334, z: 0.33333334, w: 0.33333334}
        outWeight: {x: 0.33333334, y: 0.33333334, z: 0.33333334, w: 0.33333334}
      m_PreInfinity: 2
      m_PostInfinity: 2
      m_RotationOrder: 4
    path: 
  m_CompressedRotationCurves: []
  m_EulerCurves: []
  m_PositionCurves: []
  m_ScaleCurves: []
  m_FloatCurves:
  - curve:
      serializedVersion: 2
      m_Curve:
      - serializedVersion: 3
        time: 0
        value: 0.65882355
        inSlope: 0
        outSlope: 0
        tangentMode: 34
        weightedMode: 0
        inWeight: 0.33333334
        outWeight: 0.33333334
      - serializedVersion: 3
        time: 0.033333335
        value: 0.65882355
        inSlope: 0
        outSlope: 0
        tangentMode: 34
        weightedMode: 0
        inWeight: 0.33333334
        outWeight: 0.33333334
      - serializedVersion: 3
        time: 0.5
        value: 0.65882355
        inSlope: 0
        outSlope: 0
        tangentMode: 34
        weightedMode: 0
        inWeight: 0.33333334
        outWeight: 0.33333334
      - serializedVersion: 3
        time: 0.5833333
        value: 0.65882355
        inSlope: 0
        outSlope: 0
        tangentMode: 34
        weightedMode: 0
        inWeight: 0.33333334
        outWeight: 0.33333334
      m_PreInfinity: 2
      m_PostInfinity: 2
      m_RotationOrder: 4
    attribute: material._TintColor.a
    path: 
    classID: 23
    script: {fileID: 0}
  - curve:
      serializedVersion: 2
      m_Curve:
      - serializedVersion: 3
        time: 0
        value: 0
        inSlope: 10.64987
        outSlope: 10.64987
        tangentMode: 34
        weightedMode: 0
        inWeight: 0.33333334
        outWeight: 0.33333334
      - serializedVersion: 3
        time: 0.033333335
        value: 0.35499567
        inSlope: 5.219912
        outSlope: 5.219912
        tangentMode: 34
        weightedMode: 0
        inWeight: 0.33333334
        outWeight: 0.33333334
      - serializedVersion: 3
        time: 0.5
        value: 0.25697446
        inSlope: -1.6468698
        outSlope: -1.6468698
        tangentMode: 34
        weightedMode: 0
        inWeight: 0.33333334
        outWeight: 0.33333334
      - serializedVersion: 3
        time: 0.5833333
        value: 0
        inSlope: -3.0836942
        outSlope: -3.0836942
        tangentMode: 34
        weightedMode: 0
        inWeight: 0.33333334
        outWeight: 0.33333334
      m_PreInfinity: 2
      m_PostInfinity: 2
      m_RotationOrder: 4
    attribute: material._TintColor.b
    path: 
    classID: 23
    script: {fileID: 0}
  - curve:
      serializedVersion: 2
      m_Curve:
      - serializedVersion: 3
        time: 0
        value: 0
        inSlope: 15.869017
        outSlope: 15.869017
        tangentMode: 34
        weightedMode: 0
        inWeight: 0.33333334
        outWeight: 0.33333334
      - serializedVersion: 3
        time: 0.033333335
        value: 0.52896726
        inSlope: 7.875713
        outSlope: 7.875713
        tangentMode: 34
        weightedMode: 0
        inWeight: 0.33333334
        outWeight: 0.33333334
      - serializedVersion: 3
        time: 0.5
        value: 0.47409165
        inSlope: -2.9033458
        outSlope: -2.9033458
        tangentMode: 34
        weightedMode: 0
        inWeight: 0.33333334
        outWeight: 0.33333334
      - serializedVersion: 3
        time: 0.5833333
        value: 0
        inSlope: -5.689101
        outSlope: -5.689101
        tangentMode: 34
        weightedMode: 0
        inWeight: 0.33333334
        outWeight: 0.33333334
      m_PreInfinity: 2
      m_PostInfinity: 2
      m_RotationOrder: 4
    attribute: material._TintColor.g
    path: 
    classID: 23
    script: {fileID: 0}
  - curve:
      serializedVersion: 2
      m_Curve:
      - serializedVersion: 3
        time: 0
        value: 0
        inSlope: 21.617645
        outSlope: 21.617645
        tangentMode: 34
        weightedMode: 0
        inWeight: 0.33333334
        outWeight: 0.33333334
      - serializedVersion: 3
        time: 0.033333335
        value: 0.7205882
        inSlope: 10.800944
        outSlope: 10.800944
        tangentMode: 34
        weightedMode: 0
        inWeight: 0.33333334
        outWeight: 0.33333334
      - serializedVersion: 3
        time: 0.5
        value: 0.71323526
        inSlope: -4.287291
        outSlope: -4.287291
        tangentMode: 34
        weightedMode: 0
        inWeight: 0.33333334
        outWeight: 0.33333334
      - serializedVersion: 3
        time: 0.5833333
        value: 0
        inSlope: -8.5588255
        outSlope: -8.5588255
        tangentMode: 34
        weightedMode: 0
        inWeight: 0.33333334
        outWeight: 0.33333334
      m_PreInfinity: 2
      m_PostInfinity: 2
      m_RotationOrder: 4
    attribute: material._TintColor.r
    path: 
    classID: 23
    script: {fileID: 0}
  m_PPtrCurves: []
  m_SampleRate: 60
  m_WrapMode: 0
  m_Bounds:
    m_Center: {x: 0, y: 0, z: 0}
    m_Extent: {x: 0, y: 0, z: 0}
  m_ClipBindingConstant:
    genericBindings:
    - serializedVersion: 2
      path: 0
      attribute: 2
      script: {fileID: 0}
      typeID: 4
      customType: 0
      isPPtrCurve: 0
    - serializedVersion: 2
      path: 0
      attribute: 1627453126
      script: {fileID: 0}
      typeID: 23
      customType: 22
      isPPtrCurve: 0
    - serializedVersion: 2
      path: 0
      attribute: 1359017670
      script: {fileID: 0}
      typeID: 23
      customType: 22
      isPPtrCurve: 0
    - serializedVersion: 2
      path: 0
      attribute: 1090582214
      script: {fileID: 0}
      typeID: 23
      customType: 22
      isPPtrCurve: 0
    - serializedVersion: 2
      path: 0
      attribute: 1895888582
      script: {fileID: 0}
      typeID: 23
      customType: 22
      isPPtrCurve: 0
    pptrCurveMapping: []
  m_AnimationClipSettings:
    serializedVersion: 2
    m_AdditiveReferencePoseClip: {fileID: 0}
    m_AdditiveReferencePoseTime: 0
    m_StartTime: 0
    m_StopTime: 0.5833333
    m_OrientationOffsetY: 0
    m_Level: 0
    m_CycleOffset: 0
    m_HasAdditiveReferencePose: 0
    m_LoopTime: 0
    m_LoopBlend: 0
    m_LoopBlendOrientation: 0
    m_LoopBlendPositionY: 0
    m_LoopBlendPositionXZ: 0
    m_KeepOriginalOrientation: 0
    m_KeepOriginalPositionY: 1
    m_KeepOriginalPositionXZ: 0
    m_HeightFromFeet: 0
    m_Mirror: 0
  m_EditorCurves:
  - curve:
      serializedVersion: 2
      m_Curve:
      - serializedVersion: 3
        time: 0
        value: 0.65882355
        inSlope: 0
        outSlope: 0
        tangentMode: 34
        weightedMode: 0
        inWeight: 0.33333334
        outWeight: 0.33333334
      - serializedVersion: 3
        time: 0.033333335
        value: 0.65882355
        inSlope: 0
        outSlope: 0
        tangentMode: 34
        weightedMode: 0
        inWeight: 0.33333334
        outWeight: 0.33333334
      - serializedVersion: 3
        time: 0.5
        value: 0.65882355
        inSlope: 0
        outSlope: 0
        tangentMode: 34
        weightedMode: 0
        inWeight: 0.33333334
        outWeight: 0.33333334
      - serializedVersion: 3
        time: 0.5833333
        value: 0.65882355
        inSlope: 0
        outSlope: 0
        tangentMode: 34
        weightedMode: 0
        inWeight: 0.33333334
        outWeight: 0.33333334
      m_PreInfinity: 2
      m_PostInfinity: 2
      m_RotationOrder: 4
    attribute: material._TintColor.a
    path: 
    classID: 23
    script: {fileID: 0}
  - curve:
      serializedVersion: 2
      m_Curve:
      - serializedVersion: 3
        time: 0
        value: 0
        inSlope: 10.64987
        outSlope: 10.64987
        tangentMode: 34
        weightedMode: 0
        inWeight: 0.33333334
        outWeight: 0.33333334
      - serializedVersion: 3
        time: 0.033333335
        value: 0.35499567
        inSlope: 5.219912
        outSlope: 5.219912
        tangentMode: 34
        weightedMode: 0
        inWeight: 0.33333334
        outWeight: 0.33333334
      - serializedVersion: 3
        time: 0.5
        value: 0.25697446
        inSlope: -1.6468698
        outSlope: -1.6468698
        tangentMode: 34
        weightedMode: 0
        inWeight: 0.33333334
        outWeight: 0.33333334
      - serializedVersion: 3
        time: 0.5833333
        value: 0
        inSlope: -3.0836942
        outSlope: -3.0836942
        tangentMode: 34
        weightedMode: 0
        inWeight: 0.33333334
        outWeight: 0.33333334
      m_PreInfinity: 2
      m_PostInfinity: 2
      m_RotationOrder: 4
    attribute: material._TintColor.b
    path: 
    classID: 23
    script: {fileID: 0}
  - curve:
      serializedVersion: 2
      m_Curve:
      - serializedVersion: 3
        time: 0
        value: 0
        inSlope: 15.869017
        outSlope: 15.869017
        tangentMode: 34
        weightedMode: 0
        inWeight: 0.33333334
        outWeight: 0.33333334
      - serializedVersion: 3
        time: 0.033333335
        value: 0.52896726
        inSlope: 7.875713
        outSlope: 7.875713
        tangentMode: 34
        weightedMode: 0
        inWeight: 0.33333334
        outWeight: 0.33333334
      - serializedVersion: 3
        time: 0.5
        value: 0.47409165
        inSlope: -2.9033458
        outSlope: -2.9033458
        tangentMode: 34
        weightedMode: 0
        inWeight: 0.33333334
        outWeight: 0.33333334
      - serializedVersion: 3
        time: 0.5833333
        value: 0
        inSlope: -5.689101
        outSlope: -5.689101
        tangentMode: 34
        weightedMode: 0
        inWeight: 0.33333334
        outWeight: 0.33333334
      m_PreInfinity: 2
      m_PostInfinity: 2
      m_RotationOrder: 4
    attribute: material._TintColor.g
    path: 
    classID: 23
    script: {fileID: 0}
  - curve:
      serializedVersion: 2
      m_Curve:
      - serializedVersion: 3
        time: 0
        value: 0
        inSlope: 21.617645
        outSlope: 21.617645
        tangentMode: 34
        weightedMode: 0
        inWeight: 0.33333334
        outWeight: 0.33333334
      - serializedVersion: 3
        time: 0.033333335
        value: 0.7205882
        inSlope: 10.800944
        outSlope: 10.800944
        tangentMode: 34
        weightedMode: 0
        inWeight: 0.33333334
        outWeight: 0.33333334
      - serializedVersion: 3
        time: 0.5
        value: 0.71323526
        inSlope: -4.287291
        outSlope: -4.287291
        tangentMode: 34
        weightedMode: 0
        inWeight: 0.33333334
        outWeight: 0.33333334
      - serializedVersion: 3
        time: 0.5833333
        value: 0
        inSlope: -8.5588255
        outSlope: -8.5588255
        tangentMode: 34
        weightedMode: 0
        inWeight: 0.33333334
        outWeight: 0.33333334
      m_PreInfinity: 2
      m_PostInfinity: 2
      m_RotationOrder: 4
    attribute: material._TintColor.r
    path: 
    classID: 23
    script: {fileID: 0}
  - curve:
      serializedVersion: 2
      m_Curve:
      - serializedVersion: 3
        time: 0
        value: 0.009928321
        inSlope: -1.2925618
        outSlope: -1.2925618
        tangentMode: 0
        weightedMode: 0
        inWeight: 0.33333334
        outWeight: 0.33333334
      - serializedVersion: 3
        time: 0.016666668
        value: -0.011614377
        inSlope: -1.2918832
        outSlope: -1.2918832
        tangentMode: 0
        weightedMode: 0
        inWeight: 0.33333334
        outWeight: 0.33333334
      - serializedVersion: 3
        time: 0.033333335
        value: -0.033134457
        inSlope: -1.2899611
        outSlope: -1.2899611
        tangentMode: 0
        weightedMode: 0
        inWeight: 0.33333334
        outWeight: 0.33333334
      - serializedVersion: 3
        time: 0.050000004
        value: -0.054613084
        inSlope: -1.2869103
        outSlope: -1.2869103
        tangentMode: 0
        weightedMode: 0
        inWeight: 0.33333334
        outWeight: 0.33333334
      - serializedVersion: 3
        time: 0.06666667
        value: -0.07603147
        inSlope: -1.282737
        outSlope: -1.282737
        tangentMode: 0
        weightedMode: 0
        inWeight: 0.33333334
        outWeight: 0.33333334
      - serializedVersion: 3
        time: 0.083333336
        value: -0.09737098
        inSlope: -1.2774457
        outSlope: -1.2774457
        tangentMode: 0
        weightedMode: 0
        inWeight: 0.33333334
        outWeight: 0.33333334
      - serializedVersion: 3
        time: 0.1
        value: -0.11861299
        inSlope: -1.2710452
        outSlope: -1.2710452
        tangentMode: 0
        weightedMode: 0
        inWeight: 0.33333334
        outWeight: 0.33333334
      - serializedVersion: 3
        time: 0.11666667
        value: -0.13973916
        inSlope: -1.2635465
        outSlope: -1.2635465
        tangentMode: 0
        weightedMode: 0
        inWeight: 0.33333334
        outWeight: 0.33333334
      - serializedVersion: 3
        time: 0.13333334
        value: -0.16073121
        inSlope: -1.2549517
        outSlope: -1.2549517
        tangentMode: 0
        weightedMode: 0
        inWeight: 0.33333334
        outWeight: 0.33333334
      - serializedVersion: 3
        time: 0.15
        value: -0.18157089
        inSlope: -1.2452781
        outSlope: -1.2452781
        tangentMode: 0
        weightedMode: 0
        inWeight: 0.33333334
        outWeight: 0.33333334
      - serializedVersion: 3
        time: 0.16666667
        value: -0.20224048
        inSlope: -1.2345405
        outSlope: -1.2345405
        tangentMode: 0
        weightedMode: 0
        inWeight: 0.33333334
        outWeight: 0.33333334
      - serializedVersion: 3
        time: 0.18333334
        value: -0.22272223
        inSlope: -1.222744
        outSlope: -1.222744
        tangentMode: 0
        weightedMode: 0
        inWeight: 0.33333334
        outWeight: 0.33333334
      - serializedVersion: 3
        time: 0.2
        value: -0.24299861
        inSlope: -1.2099061
        outSlope: -1.2099061
        tangentMode: 0
        weightedMode: 0
        inWeight: 0.33333334
        outWeight: 0.33333334
      - serializedVersion: 3
        time: 0.21666667
        value: -0.26305243
        inSlope: -1.1960413
        outSlope: -1.1960413
        tangentMode: 0
        weightedMode: 0
        inWeight: 0.33333334
        outWeight: 0.33333334
      - serializedVersion: 3
        time: 0.23333333
        value: -0.28286666
        inSlope: -1.1811663
        outSlope: -1.1811663
        tangentMode: 0
        weightedMode: 0
        inWeight: 0.33333334
        outWeight: 0.33333334
      - serializedVersion: 3
        time: 0.25
        value: -0.30242464
        inSlope: -1.1652969
        outSlope: -1.1652969
        tangentMode: 0
        weightedMode: 0
        inWeight: 0.33333334
        outWeight: 0.33333334
      - serializedVersion: 3
        time: 0.26666668
        value: -0.3217099
        inSlope: -1.148453
        outSlope: -1.148453
        tangentMode: 0
        weightedMode: 0
        inWeight: 0.33333334
        outWeight: 0.33333334
      - serializedVersion: 3
        time: 0.28333336
        value: -0.34070644
        inSlope: -1.1306565
        outSlope: -1.1306565
        tangentMode: 0
        weightedMode: 0
        inWeight: 0.33333334
        outWeight: 0.33333334
      - serializedVersion: 3
        time: 0.30000004
        value: -0.35939848
        inSlope: -1.1119195
        outSlope: -1.1119195
        tangentMode: 0
        weightedMode: 0
        inWeight: 0.33333334
        outWeight: 0.33333334
      - serializedVersion: 3
        time: 0.31666672
        value: -0.37777045
        inSlope: -1.0922651
        outSlope: -1.0922651
        tangentMode: 0
        weightedMode: 0
        inWeight: 0.33333334
        outWeight: 0.33333334
      - serializedVersion: 3
        time: 0.3333334
        value: -0.39580736
        inSlope: -1.071716
        outSlope: -1.071716
        tangentMode: 0
        weightedMode: 0
        inWeight: 0.33333334
        outWeight: 0.33333334
      - serializedVersion: 3
        time: 0.35000008
        value: -0.41349435
        inSlope: -1.0502958
        outSlope: -1.0502958
        tangentMode: 0
        weightedMode: 0
        inWeight: 0.33333334
        outWeight: 0.33333334
      - serializedVersion: 3
        time: 0.36666676
        value: -0.43081725
        inSlope: -1.0280237
        outSlope: -1.0280237
        tangentMode: 0
        weightedMode: 0
        inWeight: 0.33333334
        outWeight: 0.33333334
      - serializedVersion: 3
        time: 0.38333344
        value: -0.44776183
        inSlope: -1.0049291
        outSlope: -1.0049291
        tangentMode: 0
        weightedMode: 0
        inWeight: 0.33333334
        outWeight: 0.33333334
      - serializedVersion: 3
        time: 0.40000013
        value: -0.4643149
        inSlope: -0.9810332
        outSlope: -0.9810332
        tangentMode: 0
        weightedMode: 0
        inWeight: 0.33333334
        outWeight: 0.33333334
      - serializedVersion: 3
        time: 0.4166668
        value: -0.48046297
        inSlope: -0.9563587
        outSlope: -0.9563587
        tangentMode: 0
        weightedMode: 0
        inWeight: 0.33333334
        outWeight: 0.33333334
      - serializedVersion: 3
        time: 0.4333335
        value: -0.49619356
        inSlope: -0.93093497
        outSlope: -0.93093497
        tangentMode: 0
        weightedMode: 0
        inWeight: 0.33333334
        outWeight: 0.33333334
      - serializedVersion: 3
        time: 0.45000017
        value: -0.51149416
        inSlope: -0.9047879
        outSlope: -0.9047879
        tangentMode: 0
        weightedMode: 0
        inWeight: 0.33333334
        outWeight: 0.33333334
      - serializedVersion: 3
        time: 0.46666685
        value: -0.5263532
        inSlope: -0.8779471
        outSlope: -0.8779471
        tangentMode: 0
        weightedMode: 0
        inWeight: 0.33333334
        outWeight: 0.33333334
      - serializedVersion: 3
        time: 0.48333353
        value: -0.5407591
        inSlope: -0.85042834
        outSlope: -0.85042834
        tangentMode: 0
        weightedMode: 0
        inWeight: 0.33333334
        outWeight: 0.33333334
      - serializedVersion: 3
        time: 0.5000002
        value: -0.5547008
        inSlope: -0.8222731
        outSlope: -0.8222731
        tangentMode: 0
        weightedMode: 0
        inWeight: 0.33333334
        outWeight: 0.33333334
      - serializedVersion: 3
        time: 0.5166668
        value: -0.56816816
        inSlope: -0.7935072
        outSlope: -0.7935072
        tangentMode: 0
        weightedMode: 0
        inWeight: 0.33333334
        outWeight: 0.33333334
      - serializedVersion: 3
        time: 0.5333335
        value: -0.581151
        inSlope: -0.7641531
        outSlope: -0.7641531
        tangentMode: 0
        weightedMode: 0
        inWeight: 0.33333334
        outWeight: 0.33333334
      - serializedVersion: 3
        time: 0.55000013
        value: -0.5936399
        inSlope: -0.7342447
        outSlope: -0.7342447
        tangentMode: 0
        weightedMode: 0
        inWeight: 0.33333334
        outWeight: 0.33333334
      - serializedVersion: 3
        time: 0.5666668
        value: -0.6056258
        inSlope: -0.7038148
        outSlope: -0.7038148
        tangentMode: 0
        weightedMode: 0
        inWeight: 0.33333334
        outWeight: 0.33333334
      - serializedVersion: 3
        time: 0.5833333
        value: -0.6171003
        inSlope: -0.688475
        outSlope: -0.688475
        tangentMode: 0
        weightedMode: 0
        inWeight: 0.33333334
        outWeight: 0.33333334
      m_PreInfinity: 2
      m_PostInfinity: 2
      m_RotationOrder: 4
    attribute: m_LocalRotation.x
    path: 
    classID: 4
    script: {fileID: 0}
  - curve:
      serializedVersion: 2
      m_Curve:
      - serializedVersion: 3
        time: 0
        value: -0.75670177
        inSlope: 0.0102818
        outSlope: 0.0102818
        tangentMode: 0
        weightedMode: 0
        inWeight: 0.33333334
        outWeight: 0.33333334
      - serializedVersion: 3
        time: 0.016666668
        value: -0.7565304
        inSlope: 0.029096602
        outSlope: 0.029096602
        tangentMode: 0
        weightedMode: 0
        inWeight: 0.33333334
        outWeight: 0.33333334
      - serializedVersion: 3
        time: 0.033333335
        value: -0.7557319
        inSlope: 0.0666815
        outSlope: 0.0666815
        tangentMode: 0
        weightedMode: 0
        inWeight: 0.33333334
        outWeight: 0.33333334
      - serializedVersion: 3
        time: 0.050000004
        value: -0.7543077
        inSlope: 0.10416627
        outSlope: 0.10416627
        tangentMode: 0
        weightedMode: 0
        inWeight: 0.33333334
        outWeight: 0.33333334
      - serializedVersion: 3
        time: 0.06666667
        value: -0.7522597
        inSlope: 0.14151336
        outSlope: 0.14151336
        tangentMode: 0
        weightedMode: 0
        inWeight: 0.33333334
        outWeight: 0.33333334
      - serializedVersion: 3
        time: 0.083333336
        value: -0.7495906
        inSlope: 0.17868878
        outSlope: 0.17868878
        tangentMode: 0
        weightedMode: 0
        inWeight: 0.33333334
        outWeight: 0.33333334
      - serializedVersion: 3
        time: 0.1
        value: -0.7463034
        inSlope: 0.21565498
        outSlope: 0.21565498
        tangentMode: 0
        weightedMode: 0
        inWeight: 0.33333334
        outWeight: 0.33333334
      - serializedVersion: 3
        time: 0.11666667
        value: -0.7424021
        inSlope: 0.25237793
        outSlope: 0.25237793
        tangentMode: 0
        weightedMode: 0
        inWeight: 0.33333334
        outWeight: 0.33333334
      - serializedVersion: 3
        time: 0.13333334
        value: -0.7378908
        inSlope: 0.28883094
        outSlope: 0.28883094
        tangentMode: 0
        weightedMode: 0
        inWeight: 0.33333334
        outWeight: 0.33333334
      - serializedVersion: 3
        time: 0.15
        value: -0.7327744
        inSlope: 0.3249729
        outSlope: 0.3249729
        tangentMode: 0
        weightedMode: 0
        inWeight: 0.33333334
        outWeight: 0.33333334
      - serializedVersion: 3
        time: 0.16666667
        value: -0.72705835
        inSlope: 0.3607643
        outSlope: 0.3607643
        tangentMode: 0
        weightedMode: 0
        inWeight: 0.33333334
        outWeight: 0.33333334
      - serializedVersion: 3
        time: 0.18333334
        value: -0.7207489
        inSlope: 0.39618197
        outSlope: 0.39618197
        tangentMode: 0
        weightedMode: 0
        inWeight: 0.33333334
        outWeight: 0.33333334
      - serializedVersion: 3
        time: 0.2
        value: -0.7138523
        inSlope: 0.43119732
        outSlope: 0.43119732
        tangentMode: 0
        weightedMode: 0
        inWeight: 0.33333334
        outWeight: 0.33333334
      - serializedVersion: 3
        time: 0.21666667
        value: -0.70637566
        inSlope: 0.46577278
        outSlope: 0.46577278
        tangentMode: 0
        weightedMode: 0
        inWeight: 0.33333334
        outWeight: 0.33333334
      - serializedVersion: 3
        time: 0.23333333
        value: -0.6983265
        inSlope: 0.4998762
        outSlope: 0.4998762
        tangentMode: 0
        weightedMode: 0
        inWeight: 0.33333334
        outWeight: 0.33333334
      - serializedVersion: 3
        time: 0.25
        value: -0.6897131
        inSlope: 0.5334768
        outSlope: 0.5334768
        tangentMode: 0
        weightedMode: 0
        inWeight: 0.33333334
        outWeight: 0.33333334
      - serializedVersion: 3
        time: 0.26666668
        value: -0.68054396
        inSlope: 0.56655
        outSlope: 0.56655
        tangentMode: 0
        weightedMode: 0
        inWeight: 0.33333334
        outWeight: 0.33333334
      - serializedVersion: 3
        time: 0.28333336
        value: -0.6708281
        inSlope: 0.59906197
        outSlope: 0.59906197
        tangentMode: 0
        weightedMode: 0
        inWeight: 0.33333334
        outWeight: 0.33333334
      - serializedVersion: 3
        time: 0.30000004
        value: -0.6605752
        inSlope: 0.63098377
        outSlope: 0.63098377
        tangentMode: 0
        weightedMode: 0
        inWeight: 0.33333334
        outWeight: 0.33333334
      - serializedVersion: 3
        time: 0.31666672
        value: -0.6497953
        inSlope: 0.6622923
        outSlope: 0.6622923
        tangentMode: 0
        weightedMode: 0
        inWeight: 0.33333334
        outWeight: 0.33333334
      - serializedVersion: 3
        time: 0.3333334
        value: -0.6384988
        inSlope: 0.6929606
        outSlope: 0.6929606
        tangentMode: 0
        weightedMode: 0
        inWeight: 0.33333334
        outWeight: 0.33333334
      - serializedVersion: 3
        time: 0.35000008
        value: -0.6266966
        inSlope: 0.72295845
        outSlope: 0.72295845
        tangentMode: 0
        weightedMode: 0
        inWeight: 0.33333334
        outWeight: 0.33333334
      - serializedVersion: 3
        time: 0.36666676
        value: -0.61440015
        inSlope: 0.7522625
        outSlope: 0.7522625
        tangentMode: 0
        weightedMode: 0
        inWeight: 0.33333334
        outWeight: 0.33333334
      - serializedVersion: 3
        time: 0.38333344
        value: -0.60162115
        inSlope: 0.7808476
        outSlope: 0.7808476
        tangentMode: 0
        weightedMode: 0
        inWeight: 0.33333334
        outWeight: 0.33333334
      - serializedVersion: 3
        time: 0.40000013
        value: -0.5883719
        inSlope: 0.80869067
        outSlope: 0.80869067
        tangentMode: 0
        weightedMode: 0
        inWeight: 0.33333334
        outWeight: 0.33333334
      - serializedVersion: 3
        time: 0.4166668
        value: -0.5746648
        inSlope: 0.83577025
        outSlope: 0.83577025
        tangentMode: 0
        weightedMode: 0
        inWeight: 0.33333334
        outWeight: 0.33333334
      - serializedVersion: 3
        time: 0.4333335
        value: -0.56051284
        inSlope: 0.86206484
        outSlope: 0.86206484
        tangentMode: 0
        weightedMode: 0
        inWeight: 0.33333334
        outWeight: 0.33333334
      - serializedVersion: 3
        time: 0.45000017
        value: -0.54592925
        inSlope: 0.887553
        outSlope: 0.887553
        tangentMode: 0
        weightedMode: 0
        inWeight: 0.33333334
        outWeight: 0.33333334
      - serializedVersion: 3
        time: 0.46666685
        value: -0.5309277
        inSlope: 0.91221136
        outSlope: 0.91221136
        tangentMode: 0
        weightedMode: 0
        inWeight: 0.33333334
        outWeight: 0.33333334
      - serializedVersion: 3
        time: 0.48333353
        value: -0.5155222
        inSlope: 0.9360302
        outSlope: 0.9360302
        tangentMode: 0
        weightedMode: 0
        inWeight: 0.33333334
        outWeight: 0.33333334
      - serializedVersion: 3
        time: 0.5000002
        value: -0.4997267
        inSlope: 0.9589801
        outSlope: 0.9589801
        tangentMode: 0
        weightedMode: 0
        inWeight: 0.33333334
        outWeight: 0.33333334
      - serializedVersion: 3
        time: 0.5166668
        value: -0.4835562
        inSlope: 0.9810502
        outSlope: 0.9810502
        tangentMode: 0
        weightedMode: 0
        inWeight: 0.33333334
        outWeight: 0.33333334
      - serializedVersion: 3
        time: 0.5333335
        value: -0.46702507
        inSlope: 1.0022298
        outSlope: 1.0022298
        tangentMode: 0
        weightedMode: 0
        inWeight: 0.33333334
        outWeight: 0.33333334
      - serializedVersion: 3
        time: 0.55000013
        value: -0.45014858
        inSlope: 1.0224903
        outSlope: 1.0224903
        tangentMode: 0
        weightedMode: 0
        inWeight: 0.33333334
        outWeight: 0.33333334
      - serializedVersion: 3
        time: 0.5666668
        value: -0.4329421
        inSlope: 1.0418257
        outSlope: 1.0418257
        tangentMode: 0
        weightedMode: 0
        inWeight: 0.33333334
        outWeight: 0.33333334
      - serializedVersion: 3
        time: 0.5833333
        value: -0.41542122
        inSlope: 1.051261
        outSlope: 1.051261
        tangentMode: 0
        weightedMode: 0
        inWeight: 0.33333334
        outWeight: 0.33333334
      m_PreInfinity: 2
      m_PostInfinity: 2
      m_RotationOrder: 4
    attribute: m_LocalRotation.y
    path: 
    classID: 4
    script: {fileID: 0}
  - curve:
      serializedVersion: 2
      m_Curve:
      - serializedVersion: 3
        time: 0
        value: 0.02870863
        inSlope: 1.8032653
        outSlope: 1.8032653
        tangentMode: 0
        weightedMode: 0
        inWeight: 0.33333334
        outWeight: 0.33333334
      - serializedVersion: 3
        time: 0.016666668
        value: 0.058763053
        inSlope: 1.799907
        outSlope: 1.799907
        tangentMode: 0
        weightedMode: 0
        inWeight: 0.33333334
        outWeight: 0.33333334
      - serializedVersion: 3
        time: 0.033333335
        value: 0.08870553
        inSlope: 1.791343
        outSlope: 1.791343
        tangentMode: 0
        weightedMode: 0
        inWeight: 0.33333334
        outWeight: 0.33333334
      - serializedVersion: 3
        time: 0.050000004
        value: 0.11847449
        inSlope: 1.7790942
        outSlope: 1.7790942
        tangentMode: 0
        weightedMode: 0
        inWeight: 0.33333334
        outWeight: 0.33333334
      - serializedVersion: 3
        time: 0.06666667
        value: 0.14800867
        inSlope: 1.7631853
        outSlope: 1.7631853
        tangentMode: 0
        weightedMode: 0
        inWeight: 0.33333334
        outWeight: 0.33333334
      - serializedVersion: 3
        time: 0.083333336
        value: 0.17724733
        inSlope: 1.7436478
        outSlope: 1.7436478
        tangentMode: 0
        weightedMode: 0
        inWeight: 0.33333334
        outWeight: 0.33333334
      - serializedVersion: 3
        time: 0.1
        value: 0.20613027
        inSlope: 1.7205231
        outSlope: 1.7205231
        tangentMode: 0
        weightedMode: 0
        inWeight: 0.33333334
        outWeight: 0.33333334
      - serializedVersion: 3
        time: 0.11666667
        value: 0.2345981
        inSlope: 1.693855
        outSlope: 1.693855
        tangentMode: 0
        weightedMode: 0
        inWeight: 0.33333334
        outWeight: 0.33333334
      - serializedVersion: 3
        time: 0.13333334
        value: 0.2625921
        inSlope: 1.6636999
        outSlope: 1.6636999
        tangentMode: 0
        weightedMode: 0
        inWeight: 0.33333334
        outWeight: 0.33333334
      - serializedVersion: 3
        time: 0.15
        value: 0.29005477
        inSlope: 1.6301172
        outSlope: 1.6301172
        tangentMode: 0
        weightedMode: 0
        inWeight: 0.33333334
        outWeight: 0.33333334
      - serializedVersion: 3
        time: 0.16666667
        value: 0.31692934
        inSlope: 1.593175
        outSlope: 1.593175
        tangentMode: 0
        weightedMode: 0
        inWeight: 0.33333334
        outWeight: 0.33333334
      - serializedVersion: 3
        time: 0.18333334
        value: 0.3431606
        inSlope: 1.5529491
        outSlope: 1.5529491
        tangentMode: 0
        weightedMode: 0
        inWeight: 0.33333334
        outWeight: 0.33333334
      - serializedVersion: 3
        time: 0.2
        value: 0.3686943
        inSlope: 1.5095179
        outSlope: 1.5095179
        tangentMode: 0
        weightedMode: 0
        inWeight: 0.33333334
        outWeight: 0.33333334
      - serializedVersion: 3
        time: 0.21666667
        value: 0.39347786
        inSlope: 1.4629735
        outSlope: 1.4629735
        tangentMode: 0
        weightedMode: 0
        inWeight: 0.33333334
        outWeight: 0.33333334
      - serializedVersion: 3
        time: 0.23333333
        value: 0.41746008
        inSlope: 1.4134045
        outSlope: 1.4134045
        tangentMode: 0
        weightedMode: 0
        inWeight: 0.33333334
        outWeight: 0.33333334
      - serializedVersion: 3
        time: 0.25
        value: 0.44059134
        inSlope: 1.360914
        outSlope: 1.360914
        tangentMode: 0
        weightedMode: 0
        inWeight: 0.33333334
        outWeight: 0.33333334
      - serializedVersion: 3
        time: 0.26666668
        value: 0.4628239
        inSlope: 1.305608
        outSlope: 1.305608
        tangentMode: 0
        weightedMode: 0
        inWeight: 0.33333334
        outWeight: 0.33333334
      - serializedVersion: 3
        time: 0.28333336
        value: 0.48411164
        inSlope: 1.2475989
        outSlope: 1.2475989
        tangentMode: 0
        weightedMode: 0
        inWeight: 0.33333334
        outWeight: 0.33333334
      - serializedVersion: 3
        time: 0.30000004
        value: 0.50441056
        inSlope: 1.1870043
        outSlope: 1.1870043
        tangentMode: 0
        weightedMode: 0
        inWeight: 0.33333334
        outWeight: 0.33333334
      - serializedVersion: 3
        time: 0.31666672
        value: 0.5236785
        inSlope: 1.123943
        outSlope: 1.123943
        tangentMode: 0
        weightedMode: 0
        inWeight: 0.33333334
        outWeight: 0.33333334
      - serializedVersion: 3
        time: 0.3333334
        value: 0.54187536
        inSlope: 1.0585437
        outSlope: 1.0585437
        tangentMode: 0
        weightedMode: 0
        inWeight: 0.33333334
        outWeight: 0.33333334
      - serializedVersion: 3
        time: 0.35000008
        value: 0.5589633
        inSlope: 0.9909413
        outSlope: 0.9909413
        tangentMode: 0
        weightedMode: 0
        inWeight: 0.33333334
        outWeight: 0.33333334
      - serializedVersion: 3
        time: 0.36666676
        value: 0.57490677
        inSlope: 0.92127013
        outSlope: 0.92127013
        tangentMode: 0
        weightedMode: 0
        inWeight: 0.33333334
        outWeight: 0.33333334
      - serializedVersion: 3
        time: 0.38333344
        value: 0.5896723
        inSlope: 0.84967124
        outSlope: 0.84967124
        tangentMode: 0
        weightedMode: 0
        inWeight: 0.33333334
        outWeight: 0.33333334
      - serializedVersion: 3
        time: 0.40000013
        value: 0.60322917
        inSlope: 0.7762897
        outSlope: 0.7762897
        tangentMode: 0
        weightedMode: 0
        inWeight: 0.33333334
        outWeight: 0.33333334
      - serializedVersion: 3
        time: 0.4166668
        value: 0.6155487
        inSlope: 0.7012719
        outSlope: 0.7012719
        tangentMode: 0
        weightedMode: 0
        inWeight: 0.33333334
        outWeight: 0.33333334
      - serializedVersion: 3
        time: 0.4333335
        value: 0.6266049
        inSlope: 0.6247754
        outSlope: 0.6247754
        tangentMode: 0
        weightedMode: 0
        inWeight: 0.33333334
        outWeight: 0.33333334
      - serializedVersion: 3
        time: 0.45000017
        value: 0.63637453
        inSlope: 0.54694843
        outSlope: 0.54694843
        tangentMode: 0
        weightedMode: 0
        inWeight: 0.33333334
        outWeight: 0.33333334
      - serializedVersion: 3
        time: 0.46666685
        value: 0.64483654
        inSlope: 0.46794853
        outSlope: 0.46794853
        tangentMode: 0
        weightedMode: 0
        inWeight: 0.33333334
        outWeight: 0.33333334
      - serializedVersion: 3
        time: 0.48333353
        value: 0.65197283
        inSlope: 0.3879422
        outSlope: 0.3879422
        tangentMode: 0
        weightedMode: 0
        inWeight: 0.33333334
        outWeight: 0.33333334
      - serializedVersion: 3
        time: 0.5000002
        value: 0.65776795
        inSlope: 0.30708462
        outSlope: 0.30708462
        tangentMode: 0
        weightedMode: 0
        inWeight: 0.33333334
        outWeight: 0.33333334
      - serializedVersion: 3
        time: 0.5166668
        value: 0.662209
        inSlope: 0.22554003
        outSlope: 0.22554003
        tangentMode: 0
        weightedMode: 0
        inWeight: 0.33333334
        outWeight: 0.33333334
      - serializedVersion: 3
        time: 0.5333335
        value: 0.66528594
        inSlope: 0.14347686
        outSlope: 0.14347686
        tangentMode: 0
        weightedMode: 0
        inWeight: 0.33333334
        outWeight: 0.33333334
      - serializedVersion: 3
        time: 0.55000013
        value: 0.66699153
        inSlope: 0.061059654
        outSlope: 0.061059654
        tangentMode: 0
        weightedMode: 0
        inWeight: 0.33333334
        outWeight: 0.33333334
      - serializedVersion: 3
        time: 0.5666668
        value: 0.66732126
        inSlope: -0.021547323
        outSlope: -0.021547323
        tangentMode: 0
        weightedMode: 0
        inWeight: 0.33333334
        outWeight: 0.33333334
      - serializedVersion: 3
        time: 0.5833333
        value: 0.6662733
        inSlope: -0.06287864
        outSlope: -0.06287864
        tangentMode: 0
        weightedMode: 0
        inWeight: 0.33333334
        outWeight: 0.33333334
      m_PreInfinity: 2
      m_PostInfinity: 2
      m_RotationOrder: 4
    attribute: m_LocalRotation.z
    path: 
    classID: 4
    script: {fileID: 0}
  - curve:
      serializedVersion: 2
      m_Curve:
      - serializedVersion: 3
        time: 0
        value: 0.6530542
        inSlope: -0.11068224
        outSlope: -0.11068224
        tangentMode: 0
        weightedMode: 0
        inWeight: 0.33333334
        outWeight: 0.33333334
      - serializedVersion: 3
        time: 0.016666668
        value: 0.6512095
        inSlope: -0.15165566
        outSlope: -0.15165566
        tangentMode: 0
        weightedMode: 0
        inWeight: 0.33333334
        outWeight: 0.33333334
      - serializedVersion: 3
        time: 0.033333335
        value: 0.647999
        inSlope: -0.23340937
        outSlope: -0.23340937
        tangentMode: 0
        weightedMode: 0
        inWeight: 0.33333334
        outWeight: 0.33333334
      - serializedVersion: 3
        time: 0.050000004
        value: 0.64342916
        inSlope: -0.31469285
        outSlope: -0.31469285
        tangentMode: 0
        weightedMode: 0
        inWeight: 0.33333334
        outWeight: 0.33333334
      - serializedVersion: 3
        time: 0.06666667
        value: 0.6375092
        inSlope: -0.3953469
        outSlope: -0.3953469
        tangentMode: 0
        weightedMode: 0
        inWeight: 0.33333334
        outWeight: 0.33333334
      - serializedVersion: 3
        time: 0.083333336
        value: 0.63025093
        inSlope: -0.47520524
        outSlope: -0.47520524
        tangentMode: 0
        weightedMode: 0
        inWeight: 0.33333334
        outWeight: 0.33333334
      - serializedVersion: 3
        time: 0.1
        value: 0.62166905
        inSlope: -0.55409795
        outSlope: -0.55409795
        tangentMode: 0
        weightedMode: 0
        inWeight: 0.33333334
        outWeight: 0.33333334
      - serializedVersion: 3
        time: 0.11666667
        value: 0.611781
        inSlope: -0.63187826
        outSlope: -0.63187826
        tangentMode: 0
        weightedMode: 0
        inWeight: 0.33333334
        outWeight: 0.33333334
      - serializedVersion: 3
        time: 0.13333334
        value: 0.60060644
        inSlope: -0.70837665
        outSlope: -0.70837665
        tangentMode: 0
        weightedMode: 0
        inWeight: 0.33333334
        outWeight: 0.33333334
      - serializedVersion: 3
        time: 0.15
        value: 0.58816844
        inSlope: -0.7834465
        outSlope: -0.7834465
        tangentMode: 0
        weightedMode: 0
        inWeight: 0.33333334
        outWeight: 0.33333334
      - serializedVersion: 3
        time: 0.16666667
        value: 0.57449156
        inSlope: -0.85693187
        outSlope: -0.85693187
        tangentMode: 0
        weightedMode: 0
        inWeight: 0.33333334
        outWeight: 0.33333334
      - serializedVersion: 3
        time: 0.18333334
        value: 0.55960405
        inSlope: -0.9286738
        outSlope: -0.9286738
        tangentMode: 0
        weightedMode: 0
        inWeight: 0.33333334
        outWeight: 0.33333334
      - serializedVersion: 3
        time: 0.2
        value: 0.54353577
        inSlope: -0.99854004
        outSlope: -0.99854004
        tangentMode: 0
        weightedMode: 0
        inWeight: 0.33333334
        outWeight: 0.33333334
      - serializedVersion: 3
        time: 0.21666667
        value: 0.5263194
        inSlope: -1.0663785
        outSlope: -1.0663785
        tangentMode: 0
        weightedMode: 0
        inWeight: 0.33333334
        outWeight: 0.33333334
      - serializedVersion: 3
        time: 0.23333333
        value: 0.5079898
        inSlope: -1.1320596
        outSlope: -1.1320596
        tangentMode: 0
        weightedMode: 0
        inWeight: 0.33333334
        outWeight: 0.33333334
      - serializedVersion: 3
        time: 0.25
        value: 0.48858407
        inSlope: -1.1954412
        outSlope: -1.1954412
        tangentMode: 0
        weightedMode: 0
        inWeight: 0.33333334
        outWeight: 0.33333334
      - serializedVersion: 3
        time: 0.26666668
        value: 0.46814176
        inSlope: -1.2563965
        outSlope: -1.2563965
        tangentMode: 0
        weightedMode: 0
        inWeight: 0.33333334
        outWeight: 0.33333334
      - serializedVersion: 3
        time: 0.28333336
        value: 0.44670415
        inSlope: -1.3148088
        outSlope: -1.3148088
        tangentMode: 0
        weightedMode: 0
        inWeight: 0.33333334
        outWeight: 0.33333334
      - serializedVersion: 3
        time: 0.30000004
        value: 0.42431477
        inSlope: -1.3705451
        outSlope: -1.3705451
        tangentMode: 0
        weightedMode: 0
        inWeight: 0.33333334
        outWeight: 0.33333334
      - serializedVersion: 3
        time: 0.31666672
        value: 0.40101928
        inSlope: -1.4234998
        outSlope: -1.4234998
        tangentMode: 0
        weightedMode: 0
        inWeight: 0.33333334
        outWeight: 0.33333334
      - serializedVersion: 3
        time: 0.3333334
        value: 0.37686473
        inSlope: -1.4735677
        outSlope: -1.4735677
        tangentMode: 0
        weightedMode: 0
        inWeight: 0.33333334
        outWeight: 0.33333334
      - serializedVersion: 3
        time: 0.35000008
        value: 0.3519003
        inSlope: -1.5206405
        outSlope: -1.5206405
        tangentMode: 0
        weightedMode: 0
        inWeight: 0.33333334
        outWeight: 0.33333334
      - serializedVersion: 3
        time: 0.36666676
        value: 0.32617667
        inSlope: -1.5646234
        outSlope: -1.5646234
        tangentMode: 0
        weightedMode: 0
        inWeight: 0.33333334
        outWeight: 0.33333334
      - serializedVersion: 3
        time: 0.38333344
        value: 0.29974616
        inSlope: -1.6054268
        outSlope: -1.6054268
        tangentMode: 0
        weightedMode: 0
        inWeight: 0.33333334
        outWeight: 0.33333334
      - serializedVersion: 3
        time: 0.40000013
        value: 0.2726624
        inSlope: -1.6429665
        outSlope: -1.6429665
        tangentMode: 0
        weightedMode: 0
        inWeight: 0.33333334
        outWeight: 0.33333334
      - serializedVersion: 3
        time: 0.4166668
        value: 0.24498056
        inSlope: -1.6771647
        outSlope: -1.6771647
        tangentMode: 0
        weightedMode: 0
        inWeight: 0.33333334
        outWeight: 0.33333334
      - serializedVersion: 3
        time: 0.4333335
        value: 0.21675687
        inSlope: -1.7079483
        outSlope: -1.7079483
        tangentMode: 0
        weightedMode: 0
        inWeight: 0.33333334
        outWeight: 0.33333334
      - serializedVersion: 3
        time: 0.45000017
        value: 0.1880489
        inSlope: -1.7352617
        outSlope: -1.7352617
        tangentMode: 0
        weightedMode: 0
        inWeight: 0.33333334
        outWeight: 0.33333334
      - serializedVersion: 3
        time: 0.46666685
        value: 0.15891476
        inSlope: -1.7590449
        outSlope: -1.7590449
        tangentMode: 0
        weightedMode: 0
        inWeight: 0.33333334
        outWeight: 0.33333334
      - serializedVersion: 3
        time: 0.48333353
        value: 0.12941402
        inSlope: -1.7792414
        outSlope: -1.7792414
        tangentMode: 0
        weightedMode: 0
        inWeight: 0.33333334
        outWeight: 0.33333334
      - serializedVersion: 3
        time: 0.5000002
        value: 0.099606715
        inSlope: -1.7958157
        outSlope: -1.7958157
        tangentMode: 0
        weightedMode: 0
        inWeight: 0.33333334
        outWeight: 0.33333334
      - serializedVersion: 3
        time: 0.5166668
        value: 0.069553554
        inSlope: -1.8087349
        outSlope: -1.8087349
        tangentMode: 0
        weightedMode: 0
        inWeight: 0.33333334
        outWeight: 0.33333334
      - serializedVersion: 3
        time: 0.5333335
        value: 0.039315607
        inSlope: -1.8179686
        outSlope: -1.8179686
        tangentMode: 0
        weightedMode: 0
        inWeight: 0.33333334
        outWeight: 0.33333334
      - serializedVersion: 3
        time: 0.55000013
        value: 0.008954657
        inSlope: -1.8234894
        outSlope: -1.8234894
        tangentMode: 0
        weightedMode: 0
        inWeight: 0.33333334
        outWeight: 0.33333334
      - serializedVersion: 3
        time: 0.5666668
        value: -0.021467315
        inSlope: -1.8252944
        outSlope: -1.8252944
        tangentMode: 0
        weightedMode: 0
        inWeight: 0.33333334
        outWeight: 0.33333334
      - serializedVersion: 3
        time: 0.5833333
        value: -0.051888213
        inSlope: -1.8252686
        outSlope: -1.8252686
        tangentMode: 0
        weightedMode: 0
        inWeight: 0.33333334
        outWeight: 0.33333334
      m_PreInfinity: 2
      m_PostInfinity: 2
      m_RotationOrder: 4
    attribute: m_LocalRotation.w
    path: 
    classID: 4
    script: {fileID: 0}
  m_EulerEditorCurves:
  - curve:
      serializedVersion: 2
      m_Curve:
      - serializedVersion: 3
        time: 0
        value: 3.2340698
        inSlope: 59.841667
        outSlope: 59.841667
        tangentMode: 34
        weightedMode: 0
        inWeight: 0.33333334
        outWeight: 0.33333334
      - serializedVersion: 3
        time: 0.5833333
        value: 38.14171
        inSlope: 59.841667
        outSlope: 59.841667
        tangentMode: 34
        weightedMode: 0
        inWeight: 0.33333334
        outWeight: 0.33333334
      m_PreInfinity: 2
      m_PostInfinity: 2
      m_RotationOrder: 4
    attribute: localEulerAnglesBaked.x
    path: 
    classID: 4
    script: {fileID: 0}
  - curve:
      serializedVersion: 2
      m_Curve:
      - serializedVersion: 3
        time: 0
        value: -98.37342
        inSlope: 0.9783718
        outSlope: 0.9783718
        tangentMode: 34
        weightedMode: 0
        inWeight: 0.33333334
        outWeight: 0.33333334
      - serializedVersion: 3
        time: 0.5833333
        value: -97.802704
        inSlope: 0.9783718
        outSlope: 0.9783718
        tangentMode: 34
        weightedMode: 0
        inWeight: 0.33333334
        outWeight: 0.33333334
      m_PreInfinity: 2
      m_PostInfinity: 2
      m_RotationOrder: 4
    attribute: localEulerAnglesBaked.y
    path: 
    classID: 4
    script: {fileID: 0}
  - curve:
      serializedVersion: 2
      m_Curve:
      - serializedVersion: 3
        time: 0
        value: 1.2896576
        inSlope: 247.50551
        outSlope: 247.50551
        tangentMode: 34
        weightedMode: 0
        inWeight: 0.33333334
        outWeight: 0.33333334
      - serializedVersion: 3
        time: 0.5833333
        value: 145.66786
        inSlope: 247.50551
        outSlope: 247.50551
        tangentMode: 34
        weightedMode: 0
        inWeight: 0.33333334
        outWeight: 0.33333334
      m_PreInfinity: 2
      m_PostInfinity: 2
      m_RotationOrder: 4
    attribute: localEulerAnglesBaked.z
    path: 
    classID: 4
    script: {fileID: 0}
  m_HasGenericRootTransform: 1
  m_HasMotionFloatCurves: 0
  m_GenerateMotionCurves: 0
  m_Events: []
