%YAML 1.1
%TAG !u! tag:unity3d.com,2011:
--- !u!74 &7400000
AnimationClip:
  m_ObjectHideFlags: 0
  m_CorrespondingSourceObject: {fileID: 0}
  m_PrefabInternal: {fileID: 0}
  m_Name: ptef_cx_a01
  serializedVersion: 6
  m_Legacy: 0
  m_Compressed: 0
  m_UseHighQualityCurve: 1
  m_RotationCurves:
  - curve:
      serializedVersion: 2
      m_Curve:
      - serializedVersion: 3
        time: 0.16666667
        value: {x: 0.70710653, y: -0.000545922, z: -0.000545922, w: -0.70710653}
        inSlope: {x: -0.05638719, y: -2.154206, z: -2.154206, w: 0.05638719}
        outSlope: {x: -0.05638719, y: -2.154206, z: -2.154206, w: 0.05638719}
        tangentMode: 1070599522
        weightedMode: 0
        inWeight: {x: 0.33333334, y: 0.33333334, z: 0.33333334, w: 0.33333334}
        outWeight: {x: 0.33333334, y: 0.33333334, z: 0.33333334, w: 0.33333334}
      - serializedVersion: 3
        time: 0.18333334
        value: {x: 0.70616674, y: -0.036449354, z: -0.036449354, w: -0.70616674}
        inSlope: {x: -0.11104346, y: -2.1513848, z: -2.1513848, w: 0.11104346}
        outSlope: {x: -0.11104346, y: -2.1513848, z: -2.1513848, w: 0.11104346}
        tangentMode: 1068641120
        weightedMode: 0
        inWeight: {x: 0.33333334, y: 0.33333334, z: 0.33333334, w: 0.33333334}
        outWeight: {x: 0.33333334, y: 0.33333334, z: 0.33333334, w: 0.33333334}
      - serializedVersion: 3
        time: 0.2
        value: {x: 0.7034051, y: -0.07225875, z: -0.07225875, w: -0.7034051}
        inSlope: {x: -0.22014323, y: -2.142971, z: -2.142971, w: 0.22014323}
        outSlope: {x: -0.22014323, y: -2.142971, z: -2.142971, w: 0.22014323}
        tangentMode: 639162720
        weightedMode: 0
        inWeight: {x: 0.33333334, y: 0.33333334, z: 0.33333334, w: 0.33333334}
        outWeight: {x: 0.33333334, y: 0.33333334, z: 0.33333334, w: 0.33333334}
      - serializedVersion: 3
        time: 0.21666667
        value: {x: 0.69882864, y: -0.10788172, z: -0.10788172, w: -0.69882864}
        inSlope: {x: -0.32867077, y: -2.1290293, z: -2.1290293, w: 0.32867077}
        outSlope: {x: -0.32867077, y: -2.1290293, z: -2.1290293, w: 0.32867077}
        tangentMode: 0
        weightedMode: 0
        inWeight: {x: 0.33333334, y: 0.33333334, z: 0.33333334, w: 0.33333334}
        outWeight: {x: 0.33333334, y: 0.33333334, z: 0.33333334, w: 0.33333334}
      - serializedVersion: 3
        time: 0.23333333
        value: {x: 0.6924494, y: -0.14322639, z: -0.14322639, w: -0.6924494}
        inSlope: {x: -0.43634894, y: -2.1095939, z: -2.1095939, w: 0.43634894}
        outSlope: {x: -0.43634894, y: -2.1095939, z: -2.1095939, w: 0.43634894}
        tangentMode: 0
        weightedMode: 0
        inWeight: {x: 0.33333334, y: 0.33333334, z: 0.33333334, w: 0.33333334}
        outWeight: {x: 0.33333334, y: 0.33333334, z: 0.33333334, w: 0.33333334}
      - serializedVersion: 3
        time: 0.25
        value: {x: 0.6842837, y: -0.17820151, z: -0.17820151, w: -0.6842837}
        inSlope: {x: -0.5429021, y: -2.0847168, z: -2.0847168, w: 0.5429021}
        outSlope: {x: -0.5429021, y: -2.0847168, z: -2.0847168, w: 0.5429021}
        tangentMode: 0
        weightedMode: 0
        inWeight: {x: 0.33333334, y: 0.33333334, z: 0.33333334, w: 0.33333334}
        outWeight: {x: 0.33333334, y: 0.33333334, z: 0.33333334, w: 0.33333334}
      - serializedVersion: 3
        time: 0.26666668
        value: {x: 0.67435265, y: -0.21271697, z: -0.21271697, w: -0.67435265}
        inSlope: {x: -0.64805514, y: -2.054462, z: -2.054462, w: 0.64805514}
        outSlope: {x: -0.64805514, y: -2.054462, z: -2.054462, w: 0.64805514}
        tangentMode: 0
        weightedMode: 0
        inWeight: {x: 0.33333334, y: 0.33333334, z: 0.33333334, w: 0.33333334}
        outWeight: {x: 0.33333334, y: 0.33333334, z: 0.33333334, w: 0.33333334}
      - serializedVersion: 3
        time: 0.28333336
        value: {x: 0.6626818, y: -0.24668363, z: -0.24668363, w: -0.6626818}
        inSlope: {x: -0.75154006, y: -2.018906, z: -2.018906, w: 0.75154006}
        outSlope: {x: -0.75154006, y: -2.018906, z: -2.018906, w: 0.75154006}
        tangentMode: 0
        weightedMode: 0
        inWeight: {x: 0.33333334, y: 0.33333334, z: 0.33333334, w: 0.33333334}
        outWeight: {x: 0.33333334, y: 0.33333334, z: 0.33333334, w: 0.33333334}
      - serializedVersion: 3
        time: 0.30000004
        value: {x: 0.6493013, y: -0.2800139, z: -0.2800139, w: -0.6493013}
        inSlope: {x: -0.8530812, y: -1.9781408, z: -1.9781408, w: 0.8530812}
        outSlope: {x: -0.8530812, y: -1.9781408, z: -1.9781408, w: 0.8530812}
        tangentMode: 0
        weightedMode: 0
        inWeight: {x: 0.33333334, y: 0.33333334, z: 0.33333334, w: 0.33333334}
        outWeight: {x: 0.33333334, y: 0.33333334, z: 0.33333334, w: 0.33333334}
      - serializedVersion: 3
        time: 0.31666672
        value: {x: 0.63424575, y: -0.3126217, z: -0.3126217, w: -0.63424575}
        inSlope: {x: -0.9524212, y: -1.9322716, z: -1.9322716, w: 0.9524212}
        outSlope: {x: -0.9524212, y: -1.9322716, z: -1.9322716, w: 0.9524212}
        tangentMode: 0
        weightedMode: 0
        inWeight: {x: 0.33333334, y: 0.33333334, z: 0.33333334, w: 0.33333334}
        outWeight: {x: 0.33333334, y: 0.33333334, z: 0.33333334, w: 0.33333334}
      - serializedVersion: 3
        time: 0.3333334
        value: {x: 0.6175539, y: -0.344423, z: -0.344423, w: -0.6175539}
        inSlope: {x: -1.0493097, y: -1.8814197, z: -1.8814197, w: 1.0493097}
        outSlope: {x: -1.0493097, y: -1.8814197, z: -1.8814197, w: 1.0493097}
        tangentMode: 0
        weightedMode: 0
        inWeight: {x: 0.33333334, y: 0.33333334, z: 0.33333334, w: 0.33333334}
        outWeight: {x: 0.33333334, y: 0.33333334, z: 0.33333334, w: 0.33333334}
      - serializedVersion: 3
        time: 0.35000008
        value: {x: 0.59926873, y: -0.37533575, z: -0.37533575, w: -0.59926873}
        inSlope: {x: -1.1434855, y: -1.8257138, z: -1.8257138, w: 1.1434855}
        outSlope: {x: -1.1434855, y: -1.8257138, z: -1.8257138, w: 1.1434855}
        tangentMode: 0
        weightedMode: 0
        inWeight: {x: 0.33333334, y: 0.33333334, z: 0.33333334, w: 0.33333334}
        outWeight: {x: 0.33333334, y: 0.33333334, z: 0.33333334, w: 0.33333334}
      - serializedVersion: 3
        time: 0.36666676
        value: {x: 0.5794377, y: -0.40528017, z: -0.40528017, w: -0.5794377}
        inSlope: {x: -1.2347128, y: -1.7652962, z: -1.7652962, w: 1.2347128}
        outSlope: {x: -1.2347128, y: -1.7652962, z: -1.7652962, w: 1.2347128}
        tangentMode: 0
        weightedMode: 0
        inWeight: {x: 0.33333334, y: 0.33333334, z: 0.33333334, w: 0.33333334}
        outWeight: {x: 0.33333334, y: 0.33333334, z: 0.33333334, w: 0.33333334}
      - serializedVersion: 3
        time: 0.38333344
        value: {x: 0.5581116, y: -0.434179, z: -0.434179, w: -0.5581116}
        inSlope: {x: -1.322757, y: -1.700325, z: -1.700325, w: 1.322757}
        outSlope: {x: -1.322757, y: -1.700325, z: -1.700325, w: 1.322757}
        tangentMode: -1081483645
        weightedMode: 0
        inWeight: {x: 0.33333334, y: 0.33333334, z: 0.33333334, w: 0.33333334}
        outWeight: {x: 0.33333334, y: 0.33333334, z: 0.33333334, w: 0.33333334}
      - serializedVersion: 3
        time: 0.40000013
        value: {x: 0.53534573, y: -0.46195772, z: -0.46195772, w: -0.53534573}
        inSlope: {x: -1.4073843, y: -1.630966, z: -1.630966, w: 1.4073843}
        outSlope: {x: -1.4073843, y: -1.630966, z: -1.630966, w: 1.4073843}
        tangentMode: -1073106846
        weightedMode: 0
        inWeight: {x: 0.33333334, y: 0.33333334, z: 0.33333334, w: 0.33333334}
        outWeight: {x: 0.33333334, y: 0.33333334, z: 0.33333334, w: 0.33333334}
      - serializedVersion: 3
        time: 0.4166668
        value: {x: 0.51119876, y: -0.48854458, z: -0.48854458, w: -0.51119876}
        inSlope: {x: -1.4883852, y: -1.557401, z: -1.557401, w: 1.4883852}
        outSlope: {x: -1.4883852, y: -1.557401, z: -1.557401, w: 1.4883852}
        tangentMode: -1073142176
        weightedMode: 0
        inWeight: {x: 0.33333334, y: 0.33333334, z: 0.33333334, w: 0.33333334}
        outWeight: {x: 0.33333334, y: 0.33333334, z: 0.33333334, w: 0.33333334}
      - serializedVersion: 3
        time: 0.4333335
        value: {x: 0.48573285, y: -0.51387113, z: -0.51387113, w: -0.48573285}
        inSlope: {x: -1.5655433, y: -1.4798181, z: -1.4798181, w: 1.5655433}
        outSlope: {x: -1.5655433, y: -1.4798181, z: -1.4798181, w: 1.5655433}
        tangentMode: -1073200636
        weightedMode: 0
        inWeight: {x: 0.33333334, y: 0.33333334, z: 0.33333334, w: 0.33333334}
        outWeight: {x: 0.33333334, y: 0.33333334, z: 0.33333334, w: 0.33333334}
      - serializedVersion: 3
        time: 0.45000017
        value: {x: 0.45901394, y: -0.5378719, z: -0.5378719, w: -0.45901394}
        inSlope: {x: -1.6386629, y: -1.3984168, z: -1.3984168, w: 1.6386629}
        outSlope: {x: -1.6386629, y: -1.3984168, z: -1.3984168, w: 1.6386629}
        tangentMode: -1073282106
        weightedMode: 0
        inWeight: {x: 0.33333334, y: 0.33333334, z: 0.33333334, w: 0.33333334}
        outWeight: {x: 0.33333334, y: 0.33333334, z: 0.33333334, w: 0.33333334}
      - serializedVersion: 3
        time: 0.46666685
        value: {x: 0.4311107, y: -0.56048506, z: -0.56048506, w: -0.4311107}
        inSlope: {x: -1.7075562, y: -1.3134087, z: -1.3134087, w: 1.7075562}
        outSlope: {x: -1.7075562, y: -1.3134087, z: -1.3134087, w: 1.7075562}
        tangentMode: -1073386496
        weightedMode: 0
        inWeight: {x: 0.33333334, y: 0.33333334, z: 0.33333334, w: 0.33333334}
        outWeight: {x: 0.33333334, y: 0.33333334, z: 0.33333334, w: 0.33333334}
      - serializedVersion: 3
        time: 0.48333353
        value: {x: 0.40209535, y: -0.5816522, z: -0.5816522, w: -0.40209535}
        inSlope: {x: -1.7720418, y: -1.2250113, z: -1.2250113, w: 1.7720418}
        outSlope: {x: -1.7720418, y: -1.2250113, z: -1.2250113, w: 1.7720418}
        tangentMode: -1073513370
        weightedMode: 0
        inWeight: {x: 0.33333334, y: 0.33333334, z: 0.33333334, w: 0.33333334}
        outWeight: {x: 0.33333334, y: 0.33333334, z: 0.33333334, w: 0.33333334}
      - serializedVersion: 3
        time: 0.5000002
        value: {x: 0.37204266, y: -0.6013188, z: -0.6013188, w: -0.37204266}
        inSlope: {x: -1.8319595, y: -1.1334543, z: -1.1334543, w: 1.8319595}
        outSlope: {x: -1.8319595, y: -1.1334543, z: -1.1334543, w: 1.8319595}
        tangentMode: -1073662526
        weightedMode: 0
        inWeight: {x: 0.33333334, y: 0.33333334, z: 0.33333334, w: 0.33333334}
        outWeight: {x: 0.33333334, y: 0.33333334, z: 0.33333334, w: 0.33333334}
      - serializedVersion: 3
        time: 0.5166668
        value: {x: 0.3410301, y: -0.619434, z: -0.619434, w: -0.3410301}
        inSlope: {x: -1.8871468, y: -1.0389707, z: -1.0389707, w: 1.8871468}
        outSlope: {x: -1.8871468, y: -1.0389707, z: -1.0389707, w: 1.8871468}
        tangentMode: -1073925152
        weightedMode: 0
        inWeight: {x: 0.33333334, y: 0.33333334, z: 0.33333334, w: 0.33333334}
        outWeight: {x: 0.33333334, y: 0.33333334, z: 0.33333334, w: 0.33333334}
      - serializedVersion: 3
        time: 0.5333335
        value: {x: 0.30913782, y: -0.6359511, z: -0.6359511, w: -0.30913782}
        inSlope: {x: -1.937466, y: -0.9418085, z: -0.9418085, w: 1.937466}
        outSlope: {x: -1.937466, y: -0.9418085, z: -0.9418085, w: 1.937466}
        tangentMode: -1074309979
        weightedMode: 0
        inWeight: {x: 0.33333334, y: 0.33333334, z: 0.33333334, w: 0.33333334}
        outWeight: {x: 0.33333334, y: 0.33333334, z: 0.33333334, w: 0.33333334}
      - serializedVersion: 3
        time: 0.55000013
        value: {x: 0.27644795, y: -0.6508276, z: -0.6508276, w: -0.27644795}
        inSlope: {x: -1.9827901, y: -0.84221625, z: -0.84221625, w: 1.9827901}
        outSlope: {x: -1.9827901, y: -0.84221625, z: -0.84221625, w: 1.9827901}
        tangentMode: -1074736540
        weightedMode: 0
        inWeight: {x: 0.33333334, y: 0.33333334, z: 0.33333334, w: 0.33333334}
        outWeight: {x: 0.33333334, y: 0.33333334, z: 0.33333334, w: 0.33333334}
      - serializedVersion: 3
        time: 0.5666668
        value: {x: 0.24304488, y: -0.66402495, z: -0.66402495, w: -0.24304488}
        inSlope: {x: -2.0229974, y: -0.74045134, z: -0.74045134, w: 2.0229974}
        outSlope: {x: -2.0229974, y: -0.74045134, z: -0.74045134, w: 2.0229974}
        tangentMode: -1075203867
        weightedMode: 0
        inWeight: {x: 0.33333334, y: 0.33333334, z: 0.33333334, w: 0.33333334}
        outWeight: {x: 0.33333334, y: 0.33333334, z: 0.33333334, w: 0.33333334}
      - serializedVersion: 3
        time: 0.58333343
        value: {x: 0.20901477, y: -0.6755093, z: -0.6755093, w: -0.20901477}
        inSlope: {x: -2.0579858, y: -0.6367785, z: -0.6367785, w: 2.0579858}
        outSlope: {x: -2.0579858, y: -0.6367785, z: -0.6367785, w: 2.0579858}
        tangentMode: -1075710622
        weightedMode: 0
        inWeight: {x: 0.33333334, y: 0.33333334, z: 0.33333334, w: 0.33333334}
        outWeight: {x: 0.33333334, y: 0.33333334, z: 0.33333334, w: 0.33333334}
      - serializedVersion: 3
        time: 0.6000001
        value: {x: 0.17444542, y: -0.6852509, z: -0.6852509, w: -0.17444542}
        inSlope: {x: -2.0876641, y: -0.5314605, z: -0.5314605, w: 2.0876641}
        outSlope: {x: -2.0876641, y: -0.5314605, z: -0.5314605, w: 2.0876641}
        tangentMode: -1076255680
        weightedMode: 0
        inWeight: {x: 0.33333334, y: 0.33333334, z: 0.33333334, w: 0.33333334}
        outWeight: {x: 0.33333334, y: 0.33333334, z: 0.33333334, w: 0.33333334}
      - serializedVersion: 3
        time: 0.61666673
        value: {x: 0.13942604, y: -0.6932246, z: -0.6932246, w: -0.13942604}
        inSlope: {x: -2.1119561, y: -0.42477113, z: -0.42477113, w: 2.1119561}
        outSlope: {x: -2.1119561, y: -0.42477113, z: -0.42477113, w: 2.1119561}
        tangentMode: -1076837530
        weightedMode: 0
        inWeight: {x: 0.33333334, y: 0.33333334, z: 0.33333334, w: 0.33333334}
        outWeight: {x: 0.33333334, y: 0.33333334, z: 0.33333334, w: 0.33333334}
      - serializedVersion: 3
        time: 0.6333334
        value: {x: 0.104046956, y: -0.6994099, z: -0.6994099, w: -0.104046956}
        inSlope: {x: -2.1308002, y: -0.31698734, z: -0.31698734, w: 2.1308002}
        outSlope: {x: -2.1308002, y: -0.31698734, z: -0.31698734, w: 2.1308002}
        tangentMode: -1077454622
        weightedMode: 0
        inWeight: {x: 0.33333334, y: 0.33333334, z: 0.33333334, w: 0.33333334}
        outWeight: {x: 0.33333334, y: 0.33333334, z: 0.33333334, w: 0.33333334}
      - serializedVersion: 3
        time: 0.65000004
        value: {x: 0.06839943, y: -0.70379084, z: -0.70379084, w: -0.06839943}
        inSlope: {x: -2.1441472, y: -0.2083828, z: -0.2083828, w: 2.1441472}
        outSlope: {x: -2.1441472, y: -0.2083828, z: -0.2083828, w: 2.1441472}
        tangentMode: -1078105434
        weightedMode: 0
        inWeight: {x: 0.33333334, y: 0.33333334, z: 0.33333334, w: 0.33333334}
        outWeight: {x: 0.33333334, y: 0.33333334, z: 0.33333334, w: 0.33333334}
      - serializedVersion: 3
        time: 0.6666667
        value: {x: 0.03257545, y: -0.706356, z: -0.706356, w: -0.03257545}
        inSlope: {x: -2.151962, y: -0.09924183, z: -0.09924183, w: 2.151962}
        outSlope: {x: -2.151962, y: -0.09924183, z: -0.09924183, w: 2.151962}
        tangentMode: -1078788286
        weightedMode: 0
        inWeight: {x: 0.33333334, y: 0.33333334, z: 0.33333334, w: 0.33333334}
        outWeight: {x: 0.33333334, y: 0.33333334, z: 0.33333334, w: 0.33333334}
      - serializedVersion: 3
        time: 0.68333334
        value: {x: -0.0033325697, y: -0.7070989, z: -0.7070989, w: 0.0033325697}
        inSlope: {x: -2.1542253, y: 0.0101530645, z: 0.0101530645, w: 2.1542253}
        outSlope: {x: -2.1542253, y: 0.0101530645, z: 0.0101530645, w: 2.1542253}
        tangentMode: -1079501369
        weightedMode: 0
        inWeight: {x: 0.33333334, y: 0.33333334, z: 0.33333334, w: 0.33333334}
        outWeight: {x: 0.33333334, y: 0.33333334, z: 0.33333334, w: 0.33333334}
      - serializedVersion: 3
        time: 0.7
        value: {x: -0.039231993, y: -0.70601755, z: -0.70601755, w: 0.039231993}
        inSlope: {x: -2.150931, y: 0.11952292, z: 0.11952292, w: 2.150931}
        outSlope: {x: -2.150931, y: 0.11952292, z: 0.11952292, w: 2.150931}
        tangentMode: -1080242908
        weightedMode: 0
        inWeight: {x: 0.33333334, y: 0.33333334, z: 0.33333334, w: 0.33333334}
        outWeight: {x: 0.33333334, y: 0.33333334, z: 0.33333334, w: 0.33333334}
      - serializedVersion: 3
        time: 0.71666664
        value: {x: -0.0750302, y: -0.7031148, z: -0.7031148, w: 0.0750302}
        inSlope: {x: -2.1420875, y: 0.22858343, z: 0.22858343, w: 2.1420875}
        outSlope: {x: -2.1420875, y: 0.22858343, z: 0.22858343, w: 2.1420875}
        tangentMode: -1081010912
        weightedMode: 0
        inWeight: {x: 0.33333334, y: 0.33333334, z: 0.33333334, w: 0.33333334}
        outWeight: {x: 0.33333334, y: 0.33333334, z: 0.33333334, w: 0.33333334}
      - serializedVersion: 3
        time: 0.7333333
        value: {x: -0.11063484, y: -0.6983981, z: -0.6983981, w: 0.11063484}
        inSlope: {x: -2.1277177, y: 0.33705565, z: 0.33705565, w: 2.1277177}
        outSlope: {x: -2.1277177, y: 0.33705565, z: 0.33705565, w: 2.1277177}
        tangentMode: -1081803546
        weightedMode: 0
        inWeight: {x: 0.33333334, y: 0.33333334, z: 0.33333334, w: 0.33333334}
        outWeight: {x: 0.33333334, y: 0.33333334, z: 0.33333334, w: 0.33333334}
      - serializedVersion: 3
        time: 0.74999994
        value: {x: -0.14595406, y: -0.69187963, z: -0.69187963, w: 0.14595406}
        inSlope: {x: -2.1078587, y: 0.44465882, z: 0.44465882, w: 2.1078587}
        outSlope: {x: -2.1078587, y: 0.44465882, z: 0.44465882, w: 2.1078587}
        tangentMode: -1083106715
        weightedMode: 0
        inWeight: {x: 0.33333334, y: 0.33333334, z: 0.33333334, w: 0.33333334}
        outWeight: {x: 0.33333334, y: 0.33333334, z: 0.33333334, w: 0.33333334}
      - serializedVersion: 3
        time: 0.7666666
        value: {x: -0.18089673, y: -0.68357617, z: -0.68357617, w: 0.18089673}
        inSlope: {x: -2.0825615, y: 0.551114, z: 0.551114, w: 2.0825615}
        outSlope: {x: -2.0825615, y: 0.551114, z: 0.551114, w: 2.0825615}
        tangentMode: -1084777628
        weightedMode: 0
        inWeight: {x: 0.33333334, y: 0.33333334, z: 0.33333334, w: 0.33333334}
        outWeight: {x: 0.33333334, y: 0.33333334, z: 0.33333334, w: 0.33333334}
      - serializedVersion: 3
        time: 0.78333324
        value: {x: -0.21537271, y: -0.6735092, z: -0.6735092, w: 0.21537271}
        inSlope: {x: -2.0518918, y: 0.6561476, z: 0.6561476, w: 2.0518918}
        outSlope: {x: -2.0518918, y: 0.6561476, z: 0.6561476, w: 2.0518918}
        tangentMode: -1086484896
        weightedMode: 0
        inWeight: {x: 0.33333334, y: 0.33333334, z: 0.33333334, w: 0.33333334}
        outWeight: {x: 0.33333334, y: 0.33333334, z: 0.33333334, w: 0.33333334}
      - serializedVersion: 3
        time: 0.7999999
        value: {x: -0.24929306, y: -0.6617046, z: -0.6617046, w: 0.24929306}
        inSlope: {x: -2.0159287, y: 0.75948966, z: 0.75948966, w: 2.0159287}
        outSlope: {x: -2.0159287, y: 0.75948966, z: 0.75948966, w: 2.0159287}
        tangentMode: -1088224286
        weightedMode: 0
        inWeight: {x: 0.33333334, y: 0.33333334, z: 0.33333334, w: 0.33333334}
        outWeight: {x: 0.33333334, y: 0.33333334, z: 0.33333334, w: 0.33333334}
      - serializedVersion: 3
        time: 0.81666654
        value: {x: -0.28257027, y: -0.6481929, z: -0.6481929, w: 0.28257027}
        inSlope: {x: -1.974764, y: 0.8608701, z: 0.8608701, w: 1.974764}
        outSlope: {x: -1.974764, y: 0.8608701, z: 0.8608701, w: 1.974764}
        tangentMode: -1089991196
        weightedMode: 0
        inWeight: {x: 0.33333334, y: 0.33333334, z: 0.33333334, w: 0.33333334}
        outWeight: {x: 0.33333334, y: 0.33333334, z: 0.33333334, w: 0.33333334}
      - serializedVersion: 3
        time: 0.8333332
        value: {x: -0.31511846, y: -0.63300896, z: -0.63300896, w: 0.31511846}
        inSlope: {x: -1.9285057, y: 0.9600297, z: 0.9600297, w: 1.9285057}
        outSlope: {x: -1.9285057, y: 0.9600297, z: 0.9600297, w: 1.9285057}
        tangentMode: -1093043230
        weightedMode: 0
        inWeight: {x: 0.33333334, y: 0.33333334, z: 0.33333334, w: 0.33333334}
        outWeight: {x: 0.33333334, y: 0.33333334, z: 0.33333334, w: 0.33333334}
      - serializedVersion: 3
        time: 0.84999985
        value: {x: -0.34685373, y: -0.6161919, z: -0.6161919, w: 0.34685373}
        inSlope: {x: -1.8772719, y: 1.0567145, z: 1.0567145, w: 1.8772719}
        outSlope: {x: -1.8772719, y: 1.0567145, z: 1.0567145, w: 1.8772719}
        tangentMode: -1096659934
        weightedMode: 0
        inWeight: {x: 0.33333334, y: 0.33333334, z: 0.33333334, w: 0.33333334}
        outWeight: {x: 0.33333334, y: 0.33333334, z: 0.33333334, w: 0.33333334}
      - serializedVersion: 3
        time: 0.8666665
        value: {x: -0.37769413, y: -0.5977852, z: -0.5977852, w: 0.37769413}
        inSlope: {x: -1.821193, y: 1.1506705, z: 1.1506705, w: 1.821193}
        outSlope: {x: -1.821193, y: 1.1506705, z: 1.1506705, w: 1.821193}
        tangentMode: -1101700507
        weightedMode: 0
        inWeight: {x: 0.33333334, y: 0.33333334, z: 0.33333334, w: 0.33333334}
        outWeight: {x: 0.33333334, y: 0.33333334, z: 0.33333334, w: 0.33333334}
      - serializedVersion: 3
        time: 0.88333315
        value: {x: -0.4075601, y: -0.5778363, z: -0.5778363, w: 0.4075601}
        inSlope: {x: -1.7604167, y: 1.2416583, z: 1.2416583, w: 1.7604167}
        outSlope: {x: -1.7604167, y: 1.2416583, z: 1.2416583, w: 1.7604167}
        tangentMode: -1110753435
        weightedMode: 0
        inWeight: {x: 0.33333334, y: 0.33333334, z: 0.33333334, w: 0.33333334}
        outWeight: {x: 0.33333334, y: 0.33333334, z: 0.33333334, w: 0.33333334}
      - serializedVersion: 3
        time: 0.8999998
        value: {x: -0.43637463, y: -0.5563966, z: -0.5563966, w: 0.43637463}
        inSlope: {x: -1.6950996, y: 1.329447, z: 1.329447, w: 1.6950996}
        outSlope: {x: -1.6950996, y: 1.329447, z: 1.329447, w: 1.6950996}
        tangentMode: 1009146146
        weightedMode: 0
        inWeight: {x: 0.33333334, y: 0.33333334, z: 0.33333334, w: 0.33333334}
        outWeight: {x: 0.33333334, y: 0.33333334, z: 0.33333334, w: 0.33333334}
      - serializedVersion: 3
        time: 0.91666645
        value: {x: -0.46406338, y: -0.5335214, z: -0.5335214, w: 0.46406338}
        inSlope: {x: -1.6254103, y: 1.413801, z: 1.413801, w: 1.6254103}
        outSlope: {x: -1.6254103, y: 1.413801, z: 1.413801, w: 1.6254103}
        tangentMode: 1039452263
        weightedMode: 0
        inWeight: {x: 0.33333334, y: 0.33333334, z: 0.33333334, w: 0.33333334}
        outWeight: {x: 0.33333334, y: 0.33333334, z: 0.33333334, w: 0.33333334}
      - serializedVersion: 3
        time: 0.9333331
        value: {x: -0.49055493, y: -0.50926995, z: -0.50926995, w: 0.49055493}
        inSlope: {x: -1.5515262, y: 1.4945078, z: 1.4945078, w: 1.5515262}
        outSlope: {x: -1.5515262, y: 1.4945078, z: 1.4945078, w: 1.5515262}
        tangentMode: 1047138758
        weightedMode: 0
        inWeight: {x: 0.33333334, y: 0.33333334, z: 0.33333334, w: 0.33333334}
        outWeight: {x: 0.33333334, y: 0.33333334, z: 0.33333334, w: 0.33333334}
      - serializedVersion: 3
        time: 0.94999975
        value: {x: -0.51578087, y: -0.48370454, z: -0.48370454, w: 0.51578087}
        inSlope: {x: -1.4736392, y: 1.571362, z: 1.571362, w: 1.4736392}
        outSlope: {x: -1.4736392, y: 1.571362, z: 1.571362, w: 1.4736392}
        tangentMode: 1051497127
        weightedMode: 0
        inWeight: {x: 0.33333334, y: 0.33333334, z: 0.33333334, w: 0.33333334}
        outWeight: {x: 0.33333334, y: 0.33333334, z: 0.33333334, w: 0.33333334}
      - serializedVersion: 3
        time: 0.9666664
        value: {x: -0.5396762, y: -0.45689127, z: -0.45689127, w: 0.5396762}
        inSlope: {x: -1.3919516, y: 1.6441607, z: 1.6441607, w: 1.3919516}
        outSlope: {x: -1.3919516, y: 1.6441607, z: 1.6441607, w: 1.3919516}
        tangentMode: 1055107650
        weightedMode: 0
        inWeight: {x: 0.33333334, y: 0.33333334, z: 0.33333334, w: 0.33333334}
        outWeight: {x: 0.33333334, y: 0.33333334, z: 0.33333334, w: 0.33333334}
      - serializedVersion: 3
        time: 0.98333305
        value: {x: -0.5621792, y: -0.42889923, z: -0.42889923, w: 0.5621792}
        inSlope: {x: -1.3066674, y: 1.7127159, z: 1.7127159, w: 1.3066674}
        outSlope: {x: -1.3066674, y: 1.7127159, z: 1.7127159, w: 1.3066674}
        tangentMode: 1057822183
        weightedMode: 0
        inWeight: {x: 0.33333334, y: 0.33333334, z: 0.33333334, w: 0.33333334}
        outWeight: {x: 0.33333334, y: 0.33333334, z: 0.33333334, w: 0.33333334}
      - serializedVersion: 3
        time: 1
        value: {x: -0.5832321, y: -0.39980027, z: -0.39980027, w: 0.5832321}
        inSlope: {x: -1.2631525, y: 1.7459079, z: 1.7459079, w: 1.2631525}
        outSlope: {x: -1.2631525, y: 1.7459079, z: 1.7459079, w: 1.2631525}
        tangentMode: 1059584354
        weightedMode: 0
        inWeight: {x: 0.33333334, y: 0.33333334, z: 0.33333334, w: 0.33333334}
        outWeight: {x: 0.33333334, y: 0.33333334, z: 0.33333334, w: 0.33333334}
      m_PreInfinity: 2
      m_PostInfinity: 2
      m_RotationOrder: 4
    path: 
  m_CompressedRotationCurves: []
  m_EulerCurves: []
  m_PositionCurves: []
  m_ScaleCurves: []
  m_FloatCurves:
  - curve:
      serializedVersion: 2
      m_Curve:
      - serializedVersion: 3
        time: 0.16666667
        value: 0
        inSlope: 12.000001
        outSlope: 12.000001
        tangentMode: 34
        weightedMode: 0
        inWeight: 0.33333334
        outWeight: 0.33333334
      - serializedVersion: 3
        time: 0.25
        value: 1
        inSlope: 6.0000005
        outSlope: 6.0000005
        tangentMode: 34
        weightedMode: 0
        inWeight: 0.33333334
        outWeight: 0.33333334
      - serializedVersion: 3
        time: 0.8333333
        value: 1
        inSlope: -2.9999998
        outSlope: -2.9999998
        tangentMode: 34
        weightedMode: 0
        inWeight: 0.33333334
        outWeight: 0.33333334
      - serializedVersion: 3
        time: 1
        value: 0
        inSlope: -5.9999995
        outSlope: -5.9999995
        tangentMode: 34
        weightedMode: 0
        inWeight: 0.33333334
        outWeight: 0.33333334
      m_PreInfinity: 2
      m_PostInfinity: 2
      m_RotationOrder: 4
    attribute: material._TintColor.a
    path: 
    classID: 23
    script: {fileID: 0}
  - curve:
      serializedVersion: 2
      m_Curve:
      - serializedVersion: 3
        time: 0.16666667
        value: 0
        inSlope: 9.970589
        outSlope: 9.970589
        tangentMode: 34
        weightedMode: 0
        inWeight: 0.33333334
        outWeight: 0.33333334
      - serializedVersion: 3
        time: 0.25
        value: 0.8308824
        inSlope: 4.7457986
        outSlope: 4.7457986
        tangentMode: 34
        weightedMode: 0
        inWeight: 0.33333334
        outWeight: 0.33333334
      - serializedVersion: 3
        time: 0.8333333
        value: 0.5514706
        inSlope: -1.8939074
        outSlope: -1.8939074
        tangentMode: 34
        weightedMode: 0
        inWeight: 0.33333334
        outWeight: 0.33333334
      - serializedVersion: 3
        time: 1
        value: 0
        inSlope: -3.308823
        outSlope: -3.308823
        tangentMode: 34
        weightedMode: 0
        inWeight: 0.33333334
        outWeight: 0.33333334
      m_PreInfinity: 2
      m_PostInfinity: 2
      m_RotationOrder: 4
    attribute: material._TintColor.b
    path: 
    classID: 23
    script: {fileID: 0}
  - curve:
      serializedVersion: 2
      m_Curve:
      - serializedVersion: 3
        time: 0.16666667
        value: 0
        inSlope: 9.970589
        outSlope: 9.970589
        tangentMode: 34
        weightedMode: 0
        inWeight: 0.33333334
        outWeight: 0.33333334
      - serializedVersion: 3
        time: 0.25
        value: 0.8308824
        inSlope: 4.7457986
        outSlope: 4.7457986
        tangentMode: 34
        weightedMode: 0
        inWeight: 0.33333334
        outWeight: 0.33333334
      - serializedVersion: 3
        time: 0.8333333
        value: 0.5514706
        inSlope: -1.8939074
        outSlope: -1.8939074
        tangentMode: 34
        weightedMode: 0
        inWeight: 0.33333334
        outWeight: 0.33333334
      - serializedVersion: 3
        time: 1
        value: 0
        inSlope: -3.308823
        outSlope: -3.308823
        tangentMode: 34
        weightedMode: 0
        inWeight: 0.33333334
        outWeight: 0.33333334
      m_PreInfinity: 2
      m_PostInfinity: 2
      m_RotationOrder: 4
    attribute: material._TintColor.g
    path: 
    classID: 23
    script: {fileID: 0}
  - curve:
      serializedVersion: 2
      m_Curve:
      - serializedVersion: 3
        time: 0.16666667
        value: 0
        inSlope: 9.970589
        outSlope: 9.970589
        tangentMode: 34
        weightedMode: 0
        inWeight: 0.33333334
        outWeight: 0.33333334
      - serializedVersion: 3
        time: 0.25
        value: 0.8308824
        inSlope: 4.7457986
        outSlope: 4.7457986
        tangentMode: 34
        weightedMode: 0
        inWeight: 0.33333334
        outWeight: 0.33333334
      - serializedVersion: 3
        time: 0.8333333
        value: 0.5514706
        inSlope: -1.8939074
        outSlope: -1.8939074
        tangentMode: 34
        weightedMode: 0
        inWeight: 0.33333334
        outWeight: 0.33333334
      - serializedVersion: 3
        time: 1
        value: 0
        inSlope: -3.308823
        outSlope: -3.308823
        tangentMode: 34
        weightedMode: 0
        inWeight: 0.33333334
        outWeight: 0.33333334
      m_PreInfinity: 2
      m_PostInfinity: 2
      m_RotationOrder: 4
    attribute: material._TintColor.r
    path: 
    classID: 23
    script: {fileID: 0}
  m_PPtrCurves: []
  m_SampleRate: 60
  m_WrapMode: 0
  m_Bounds:
    m_Center: {x: 0, y: 0, z: 0}
    m_Extent: {x: 0, y: 0, z: 0}
  m_ClipBindingConstant:
    genericBindings:
    - serializedVersion: 2
      path: 0
      attribute: 2
      script: {fileID: 0}
      typeID: 4
      customType: 0
      isPPtrCurve: 0
    - serializedVersion: 2
      path: 0
      attribute: 1895888582
      script: {fileID: 0}
      typeID: 23
      customType: 22
      isPPtrCurve: 0
    - serializedVersion: 2
      path: 0
      attribute: 1627453126
      script: {fileID: 0}
      typeID: 23
      customType: 22
      isPPtrCurve: 0
    - serializedVersion: 2
      path: 0
      attribute: 1359017670
      script: {fileID: 0}
      typeID: 23
      customType: 22
      isPPtrCurve: 0
    - serializedVersion: 2
      path: 0
      attribute: 1090582214
      script: {fileID: 0}
      typeID: 23
      customType: 22
      isPPtrCurve: 0
    pptrCurveMapping: []
  m_AnimationClipSettings:
    serializedVersion: 2
    m_AdditiveReferencePoseClip: {fileID: 0}
    m_AdditiveReferencePoseTime: 0
    m_StartTime: 0
    m_StopTime: 1
    m_OrientationOffsetY: 0
    m_Level: 0
    m_CycleOffset: 0
    m_HasAdditiveReferencePose: 0
    m_LoopTime: 0
    m_LoopBlend: 0
    m_LoopBlendOrientation: 0
    m_LoopBlendPositionY: 0
    m_LoopBlendPositionXZ: 0
    m_KeepOriginalOrientation: 0
    m_KeepOriginalPositionY: 1
    m_KeepOriginalPositionXZ: 0
    m_HeightFromFeet: 0
    m_Mirror: 0
  m_EditorCurves:
  - curve:
      serializedVersion: 2
      m_Curve:
      - serializedVersion: 3
        time: 0.16666667
        value: 0
        inSlope: 12.000001
        outSlope: 12.000001
        tangentMode: 34
        weightedMode: 0
        inWeight: 0.33333334
        outWeight: 0.33333334
      - serializedVersion: 3
        time: 0.25
        value: 1
        inSlope: 6.0000005
        outSlope: 6.0000005
        tangentMode: 34
        weightedMode: 0
        inWeight: 0.33333334
        outWeight: 0.33333334
      - serializedVersion: 3
        time: 0.8333333
        value: 1
        inSlope: -2.9999998
        outSlope: -2.9999998
        tangentMode: 34
        weightedMode: 0
        inWeight: 0.33333334
        outWeight: 0.33333334
      - serializedVersion: 3
        time: 1
        value: 0
        inSlope: -5.9999995
        outSlope: -5.9999995
        tangentMode: 34
        weightedMode: 0
        inWeight: 0.33333334
        outWeight: 0.33333334
      m_PreInfinity: 2
      m_PostInfinity: 2
      m_RotationOrder: 4
    attribute: material._TintColor.a
    path: 
    classID: 23
    script: {fileID: 0}
  - curve:
      serializedVersion: 2
      m_Curve:
      - serializedVersion: 3
        time: 0.16666667
        value: 0
        inSlope: 9.970589
        outSlope: 9.970589
        tangentMode: 34
        weightedMode: 0
        inWeight: 0.33333334
        outWeight: 0.33333334
      - serializedVersion: 3
        time: 0.25
        value: 0.8308824
        inSlope: 4.7457986
        outSlope: 4.7457986
        tangentMode: 34
        weightedMode: 0
        inWeight: 0.33333334
        outWeight: 0.33333334
      - serializedVersion: 3
        time: 0.8333333
        value: 0.5514706
        inSlope: -1.8939074
        outSlope: -1.8939074
        tangentMode: 34
        weightedMode: 0
        inWeight: 0.33333334
        outWeight: 0.33333334
      - serializedVersion: 3
        time: 1
        value: 0
        inSlope: -3.308823
        outSlope: -3.308823
        tangentMode: 34
        weightedMode: 0
        inWeight: 0.33333334
        outWeight: 0.33333334
      m_PreInfinity: 2
      m_PostInfinity: 2
      m_RotationOrder: 4
    attribute: material._TintColor.b
    path: 
    classID: 23
    script: {fileID: 0}
  - curve:
      serializedVersion: 2
      m_Curve:
      - serializedVersion: 3
        time: 0.16666667
        value: 0
        inSlope: 9.970589
        outSlope: 9.970589
        tangentMode: 34
        weightedMode: 0
        inWeight: 0.33333334
        outWeight: 0.33333334
      - serializedVersion: 3
        time: 0.25
        value: 0.8308824
        inSlope: 4.7457986
        outSlope: 4.7457986
        tangentMode: 34
        weightedMode: 0
        inWeight: 0.33333334
        outWeight: 0.33333334
      - serializedVersion: 3
        time: 0.8333333
        value: 0.5514706
        inSlope: -1.8939074
        outSlope: -1.8939074
        tangentMode: 34
        weightedMode: 0
        inWeight: 0.33333334
        outWeight: 0.33333334
      - serializedVersion: 3
        time: 1
        value: 0
        inSlope: -3.308823
        outSlope: -3.308823
        tangentMode: 34
        weightedMode: 0
        inWeight: 0.33333334
        outWeight: 0.33333334
      m_PreInfinity: 2
      m_PostInfinity: 2
      m_RotationOrder: 4
    attribute: material._TintColor.g
    path: 
    classID: 23
    script: {fileID: 0}
  - curve:
      serializedVersion: 2
      m_Curve:
      - serializedVersion: 3
        time: 0.16666667
        value: 0
        inSlope: 9.970589
        outSlope: 9.970589
        tangentMode: 34
        weightedMode: 0
        inWeight: 0.33333334
        outWeight: 0.33333334
      - serializedVersion: 3
        time: 0.25
        value: 0.8308824
        inSlope: 4.7457986
        outSlope: 4.7457986
        tangentMode: 34
        weightedMode: 0
        inWeight: 0.33333334
        outWeight: 0.33333334
      - serializedVersion: 3
        time: 0.8333333
        value: 0.5514706
        inSlope: -1.8939074
        outSlope: -1.8939074
        tangentMode: 34
        weightedMode: 0
        inWeight: 0.33333334
        outWeight: 0.33333334
      - serializedVersion: 3
        time: 1
        value: 0
        inSlope: -3.308823
        outSlope: -3.308823
        tangentMode: 34
        weightedMode: 0
        inWeight: 0.33333334
        outWeight: 0.33333334
      m_PreInfinity: 2
      m_PostInfinity: 2
      m_RotationOrder: 4
    attribute: material._TintColor.r
    path: 
    classID: 23
    script: {fileID: 0}
  - curve:
      serializedVersion: 2
      m_Curve:
      - serializedVersion: 3
        time: 0.16666667
        value: 0.70710653
        inSlope: -0.05638719
        outSlope: -0.05638719
        tangentMode: 0
        weightedMode: 0
        inWeight: 0.33333334
        outWeight: 0.33333334
      - serializedVersion: 3
        time: 0.18333334
        value: 0.70616674
        inSlope: -0.11104346
        outSlope: -0.11104346
        tangentMode: 0
        weightedMode: 0
        inWeight: 0.33333334
        outWeight: 0.33333334
      - serializedVersion: 3
        time: 0.2
        value: 0.7034051
        inSlope: -0.22014323
        outSlope: -0.22014323
        tangentMode: 0
        weightedMode: 0
        inWeight: 0.33333334
        outWeight: 0.33333334
      - serializedVersion: 3
        time: 0.21666667
        value: 0.69882864
        inSlope: -0.32867077
        outSlope: -0.32867077
        tangentMode: 0
        weightedMode: 0
        inWeight: 0.33333334
        outWeight: 0.33333334
      - serializedVersion: 3
        time: 0.23333333
        value: 0.6924494
        inSlope: -0.43634894
        outSlope: -0.43634894
        tangentMode: 0
        weightedMode: 0
        inWeight: 0.33333334
        outWeight: 0.33333334
      - serializedVersion: 3
        time: 0.25
        value: 0.6842837
        inSlope: -0.5429021
        outSlope: -0.5429021
        tangentMode: 0
        weightedMode: 0
        inWeight: 0.33333334
        outWeight: 0.33333334
      - serializedVersion: 3
        time: 0.26666668
        value: 0.67435265
        inSlope: -0.64805514
        outSlope: -0.64805514
        tangentMode: 0
        weightedMode: 0
        inWeight: 0.33333334
        outWeight: 0.33333334
      - serializedVersion: 3
        time: 0.28333336
        value: 0.6626818
        inSlope: -0.75154006
        outSlope: -0.75154006
        tangentMode: 0
        weightedMode: 0
        inWeight: 0.33333334
        outWeight: 0.33333334
      - serializedVersion: 3
        time: 0.30000004
        value: 0.6493013
        inSlope: -0.8530812
        outSlope: -0.8530812
        tangentMode: 0
        weightedMode: 0
        inWeight: 0.33333334
        outWeight: 0.33333334
      - serializedVersion: 3
        time: 0.31666672
        value: 0.63424575
        inSlope: -0.9524212
        outSlope: -0.9524212
        tangentMode: 0
        weightedMode: 0
        inWeight: 0.33333334
        outWeight: 0.33333334
      - serializedVersion: 3
        time: 0.3333334
        value: 0.6175539
        inSlope: -1.0493097
        outSlope: -1.0493097
        tangentMode: 0
        weightedMode: 0
        inWeight: 0.33333334
        outWeight: 0.33333334
      - serializedVersion: 3
        time: 0.35000008
        value: 0.59926873
        inSlope: -1.1434855
        outSlope: -1.1434855
        tangentMode: 0
        weightedMode: 0
        inWeight: 0.33333334
        outWeight: 0.33333334
      - serializedVersion: 3
        time: 0.36666676
        value: 0.5794377
        inSlope: -1.2347128
        outSlope: -1.2347128
        tangentMode: 0
        weightedMode: 0
        inWeight: 0.33333334
        outWeight: 0.33333334
      - serializedVersion: 3
        time: 0.38333344
        value: 0.5581116
        inSlope: -1.322757
        outSlope: -1.322757
        tangentMode: 0
        weightedMode: 0
        inWeight: 0.33333334
        outWeight: 0.33333334
      - serializedVersion: 3
        time: 0.40000013
        value: 0.53534573
        inSlope: -1.4073843
        outSlope: -1.4073843
        tangentMode: 0
        weightedMode: 0
        inWeight: 0.33333334
        outWeight: 0.33333334
      - serializedVersion: 3
        time: 0.4166668
        value: 0.51119876
        inSlope: -1.4883852
        outSlope: -1.4883852
        tangentMode: 0
        weightedMode: 0
        inWeight: 0.33333334
        outWeight: 0.33333334
      - serializedVersion: 3
        time: 0.4333335
        value: 0.48573285
        inSlope: -1.5655433
        outSlope: -1.5655433
        tangentMode: 0
        weightedMode: 0
        inWeight: 0.33333334
        outWeight: 0.33333334
      - serializedVersion: 3
        time: 0.45000017
        value: 0.45901394
        inSlope: -1.6386629
        outSlope: -1.6386629
        tangentMode: 0
        weightedMode: 0
        inWeight: 0.33333334
        outWeight: 0.33333334
      - serializedVersion: 3
        time: 0.46666685
        value: 0.4311107
        inSlope: -1.7075562
        outSlope: -1.7075562
        tangentMode: 0
        weightedMode: 0
        inWeight: 0.33333334
        outWeight: 0.33333334
      - serializedVersion: 3
        time: 0.48333353
        value: 0.40209535
        inSlope: -1.7720418
        outSlope: -1.7720418
        tangentMode: 0
        weightedMode: 0
        inWeight: 0.33333334
        outWeight: 0.33333334
      - serializedVersion: 3
        time: 0.5000002
        value: 0.37204266
        inSlope: -1.8319595
        outSlope: -1.8319595
        tangentMode: 0
        weightedMode: 0
        inWeight: 0.33333334
        outWeight: 0.33333334
      - serializedVersion: 3
        time: 0.5166668
        value: 0.3410301
        inSlope: -1.8871468
        outSlope: -1.8871468
        tangentMode: 0
        weightedMode: 0
        inWeight: 0.33333334
        outWeight: 0.33333334
      - serializedVersion: 3
        time: 0.5333335
        value: 0.30913782
        inSlope: -1.937466
        outSlope: -1.937466
        tangentMode: 0
        weightedMode: 0
        inWeight: 0.33333334
        outWeight: 0.33333334
      - serializedVersion: 3
        time: 0.55000013
        value: 0.27644795
        inSlope: -1.9827901
        outSlope: -1.9827901
        tangentMode: 0
        weightedMode: 0
        inWeight: 0.33333334
        outWeight: 0.33333334
      - serializedVersion: 3
        time: 0.5666668
        value: 0.24304488
        inSlope: -2.0229974
        outSlope: -2.0229974
        tangentMode: 0
        weightedMode: 0
        inWeight: 0.33333334
        outWeight: 0.33333334
      - serializedVersion: 3
        time: 0.58333343
        value: 0.20901477
        inSlope: -2.0579858
        outSlope: -2.0579858
        tangentMode: 0
        weightedMode: 0
        inWeight: 0.33333334
        outWeight: 0.33333334
      - serializedVersion: 3
        time: 0.6000001
        value: 0.17444542
        inSlope: -2.0876641
        outSlope: -2.0876641
        tangentMode: 0
        weightedMode: 0
        inWeight: 0.33333334
        outWeight: 0.33333334
      - serializedVersion: 3
        time: 0.61666673
        value: 0.13942604
        inSlope: -2.1119561
        outSlope: -2.1119561
        tangentMode: 0
        weightedMode: 0
        inWeight: 0.33333334
        outWeight: 0.33333334
      - serializedVersion: 3
        time: 0.6333334
        value: 0.104046956
        inSlope: -2.1308002
        outSlope: -2.1308002
        tangentMode: 0
        weightedMode: 0
        inWeight: 0.33333334
        outWeight: 0.33333334
      - serializedVersion: 3
        time: 0.65000004
        value: 0.06839943
        inSlope: -2.1441472
        outSlope: -2.1441472
        tangentMode: 0
        weightedMode: 0
        inWeight: 0.33333334
        outWeight: 0.33333334
      - serializedVersion: 3
        time: 0.6666667
        value: 0.03257545
        inSlope: -2.151962
        outSlope: -2.151962
        tangentMode: 0
        weightedMode: 0
        inWeight: 0.33333334
        outWeight: 0.33333334
      - serializedVersion: 3
        time: 0.68333334
        value: -0.0033325697
        inSlope: -2.1542253
        outSlope: -2.1542253
        tangentMode: 0
        weightedMode: 0
        inWeight: 0.33333334
        outWeight: 0.33333334
      - serializedVersion: 3
        time: 0.7
        value: -0.039231993
        inSlope: -2.150931
        outSlope: -2.150931
        tangentMode: 0
        weightedMode: 0
        inWeight: 0.33333334
        outWeight: 0.33333334
      - serializedVersion: 3
        time: 0.71666664
        value: -0.0750302
        inSlope: -2.1420875
        outSlope: -2.1420875
        tangentMode: 0
        weightedMode: 0
        inWeight: 0.33333334
        outWeight: 0.33333334
      - serializedVersion: 3
        time: 0.7333333
        value: -0.11063484
        inSlope: -2.1277177
        outSlope: -2.1277177
        tangentMode: 0
        weightedMode: 0
        inWeight: 0.33333334
        outWeight: 0.33333334
      - serializedVersion: 3
        time: 0.74999994
        value: -0.14595406
        inSlope: -2.1078587
        outSlope: -2.1078587
        tangentMode: 0
        weightedMode: 0
        inWeight: 0.33333334
        outWeight: 0.33333334
      - serializedVersion: 3
        time: 0.7666666
        value: -0.18089673
        inSlope: -2.0825615
        outSlope: -2.0825615
        tangentMode: 0
        weightedMode: 0
        inWeight: 0.33333334
        outWeight: 0.33333334
      - serializedVersion: 3
        time: 0.78333324
        value: -0.21537271
        inSlope: -2.0518918
        outSlope: -2.0518918
        tangentMode: 0
        weightedMode: 0
        inWeight: 0.33333334
        outWeight: 0.33333334
      - serializedVersion: 3
        time: 0.7999999
        value: -0.24929306
        inSlope: -2.0159287
        outSlope: -2.0159287
        tangentMode: 0
        weightedMode: 0
        inWeight: 0.33333334
        outWeight: 0.33333334
      - serializedVersion: 3
        time: 0.81666654
        value: -0.28257027
        inSlope: -1.974764
        outSlope: -1.974764
        tangentMode: 0
        weightedMode: 0
        inWeight: 0.33333334
        outWeight: 0.33333334
      - serializedVersion: 3
        time: 0.8333332
        value: -0.31511846
        inSlope: -1.9285057
        outSlope: -1.9285057
        tangentMode: 0
        weightedMode: 0
        inWeight: 0.33333334
        outWeight: 0.33333334
      - serializedVersion: 3
        time: 0.84999985
        value: -0.34685373
        inSlope: -1.8772719
        outSlope: -1.8772719
        tangentMode: 0
        weightedMode: 0
        inWeight: 0.33333334
        outWeight: 0.33333334
      - serializedVersion: 3
        time: 0.8666665
        value: -0.37769413
        inSlope: -1.821193
        outSlope: -1.821193
        tangentMode: 0
        weightedMode: 0
        inWeight: 0.33333334
        outWeight: 0.33333334
      - serializedVersion: 3
        time: 0.88333315
        value: -0.4075601
        inSlope: -1.7604167
        outSlope: -1.7604167
        tangentMode: 0
        weightedMode: 0
        inWeight: 0.33333334
        outWeight: 0.33333334
      - serializedVersion: 3
        time: 0.8999998
        value: -0.43637463
        inSlope: -1.6950996
        outSlope: -1.6950996
        tangentMode: 0
        weightedMode: 0
        inWeight: 0.33333334
        outWeight: 0.33333334
      - serializedVersion: 3
        time: 0.91666645
        value: -0.46406338
        inSlope: -1.6254103
        outSlope: -1.6254103
        tangentMode: 0
        weightedMode: 0
        inWeight: 0.33333334
        outWeight: 0.33333334
      - serializedVersion: 3
        time: 0.9333331
        value: -0.49055493
        inSlope: -1.5515262
        outSlope: -1.5515262
        tangentMode: 0
        weightedMode: 0
        inWeight: 0.33333334
        outWeight: 0.33333334
      - serializedVersion: 3
        time: 0.94999975
        value: -0.51578087
        inSlope: -1.4736392
        outSlope: -1.4736392
        tangentMode: 0
        weightedMode: 0
        inWeight: 0.33333334
        outWeight: 0.33333334
      - serializedVersion: 3
        time: 0.9666664
        value: -0.5396762
        inSlope: -1.3919516
        outSlope: -1.3919516
        tangentMode: 0
        weightedMode: 0
        inWeight: 0.33333334
        outWeight: 0.33333334
      - serializedVersion: 3
        time: 0.98333305
        value: -0.5621792
        inSlope: -1.3066674
        outSlope: -1.3066674
        tangentMode: 0
        weightedMode: 0
        inWeight: 0.33333334
        outWeight: 0.33333334
      - serializedVersion: 3
        time: 1
        value: -0.5832321
        inSlope: -1.2631525
        outSlope: -1.2631525
        tangentMode: 0
        weightedMode: 0
        inWeight: 0.33333334
        outWeight: 0.33333334
      m_PreInfinity: 2
      m_PostInfinity: 2
      m_RotationOrder: 4
    attribute: m_LocalRotation.x
    path: 
    classID: 4
    script: {fileID: 0}
  - curve:
      serializedVersion: 2
      m_Curve:
      - serializedVersion: 3
        time: 0.16666667
        value: -0.000545922
        inSlope: -2.154206
        outSlope: -2.154206
        tangentMode: 0
        weightedMode: 0
        inWeight: 0.33333334
        outWeight: 0.33333334
      - serializedVersion: 3
        time: 0.18333334
        value: -0.036449354
        inSlope: -2.1513848
        outSlope: -2.1513848
        tangentMode: 0
        weightedMode: 0
        inWeight: 0.33333334
        outWeight: 0.33333334
      - serializedVersion: 3
        time: 0.2
        value: -0.07225875
        inSlope: -2.142971
        outSlope: -2.142971
        tangentMode: 0
        weightedMode: 0
        inWeight: 0.33333334
        outWeight: 0.33333334
      - serializedVersion: 3
        time: 0.21666667
        value: -0.10788172
        inSlope: -2.1290293
        outSlope: -2.1290293
        tangentMode: 0
        weightedMode: 0
        inWeight: 0.33333334
        outWeight: 0.33333334
      - serializedVersion: 3
        time: 0.23333333
        value: -0.14322639
        inSlope: -2.1095939
        outSlope: -2.1095939
        tangentMode: 0
        weightedMode: 0
        inWeight: 0.33333334
        outWeight: 0.33333334
      - serializedVersion: 3
        time: 0.25
        value: -0.17820151
        inSlope: -2.0847168
        outSlope: -2.0847168
        tangentMode: 0
        weightedMode: 0
        inWeight: 0.33333334
        outWeight: 0.33333334
      - serializedVersion: 3
        time: 0.26666668
        value: -0.21271697
        inSlope: -2.054462
        outSlope: -2.054462
        tangentMode: 0
        weightedMode: 0
        inWeight: 0.33333334
        outWeight: 0.33333334
      - serializedVersion: 3
        time: 0.28333336
        value: -0.24668363
        inSlope: -2.018906
        outSlope: -2.018906
        tangentMode: 0
        weightedMode: 0
        inWeight: 0.33333334
        outWeight: 0.33333334
      - serializedVersion: 3
        time: 0.30000004
        value: -0.2800139
        inSlope: -1.9781408
        outSlope: -1.9781408
        tangentMode: 0
        weightedMode: 0
        inWeight: 0.33333334
        outWeight: 0.33333334
      - serializedVersion: 3
        time: 0.31666672
        value: -0.3126217
        inSlope: -1.9322716
        outSlope: -1.9322716
        tangentMode: 0
        weightedMode: 0
        inWeight: 0.33333334
        outWeight: 0.33333334
      - serializedVersion: 3
        time: 0.3333334
        value: -0.344423
        inSlope: -1.8814197
        outSlope: -1.8814197
        tangentMode: 0
        weightedMode: 0
        inWeight: 0.33333334
        outWeight: 0.33333334
      - serializedVersion: 3
        time: 0.35000008
        value: -0.37533575
        inSlope: -1.8257138
        outSlope: -1.8257138
        tangentMode: 0
        weightedMode: 0
        inWeight: 0.33333334
        outWeight: 0.33333334
      - serializedVersion: 3
        time: 0.36666676
        value: -0.40528017
        inSlope: -1.7652962
        outSlope: -1.7652962
        tangentMode: 0
        weightedMode: 0
        inWeight: 0.33333334
        outWeight: 0.33333334
      - serializedVersion: 3
        time: 0.38333344
        value: -0.434179
        inSlope: -1.700325
        outSlope: -1.700325
        tangentMode: 0
        weightedMode: 0
        inWeight: 0.33333334
        outWeight: 0.33333334
      - serializedVersion: 3
        time: 0.40000013
        value: -0.46195772
        inSlope: -1.630966
        outSlope: -1.630966
        tangentMode: 0
        weightedMode: 0
        inWeight: 0.33333334
        outWeight: 0.33333334
      - serializedVersion: 3
        time: 0.4166668
        value: -0.48854458
        inSlope: -1.557401
        outSlope: -1.557401
        tangentMode: 0
        weightedMode: 0
        inWeight: 0.33333334
        outWeight: 0.33333334
      - serializedVersion: 3
        time: 0.4333335
        value: -0.51387113
        inSlope: -1.4798181
        outSlope: -1.4798181
        tangentMode: 0
        weightedMode: 0
        inWeight: 0.33333334
        outWeight: 0.33333334
      - serializedVersion: 3
        time: 0.45000017
        value: -0.5378719
        inSlope: -1.3984168
        outSlope: -1.3984168
        tangentMode: 0
        weightedMode: 0
        inWeight: 0.33333334
        outWeight: 0.33333334
      - serializedVersion: 3
        time: 0.46666685
        value: -0.56048506
        inSlope: -1.3134087
        outSlope: -1.3134087
        tangentMode: 0
        weightedMode: 0
        inWeight: 0.33333334
        outWeight: 0.33333334
      - serializedVersion: 3
        time: 0.48333353
        value: -0.5816522
        inSlope: -1.2250113
        outSlope: -1.2250113
        tangentMode: 0
        weightedMode: 0
        inWeight: 0.33333334
        outWeight: 0.33333334
      - serializedVersion: 3
        time: 0.5000002
        value: -0.6013188
        inSlope: -1.1334543
        outSlope: -1.1334543
        tangentMode: 0
        weightedMode: 0
        inWeight: 0.33333334
        outWeight: 0.33333334
      - serializedVersion: 3
        time: 0.5166668
        value: -0.619434
        inSlope: -1.0389707
        outSlope: -1.0389707
        tangentMode: 0
        weightedMode: 0
        inWeight: 0.33333334
        outWeight: 0.33333334
      - serializedVersion: 3
        time: 0.5333335
        value: -0.6359511
        inSlope: -0.9418085
        outSlope: -0.9418085
        tangentMode: 0
        weightedMode: 0
        inWeight: 0.33333334
        outWeight: 0.33333334
      - serializedVersion: 3
        time: 0.55000013
        value: -0.6508276
        inSlope: -0.84221625
        outSlope: -0.84221625
        tangentMode: 0
        weightedMode: 0
        inWeight: 0.33333334
        outWeight: 0.33333334
      - serializedVersion: 3
        time: 0.5666668
        value: -0.66402495
        inSlope: -0.74045134
        outSlope: -0.74045134
        tangentMode: 0
        weightedMode: 0
        inWeight: 0.33333334
        outWeight: 0.33333334
      - serializedVersion: 3
        time: 0.58333343
        value: -0.6755093
        inSlope: -0.6367785
        outSlope: -0.6367785
        tangentMode: 0
        weightedMode: 0
        inWeight: 0.33333334
        outWeight: 0.33333334
      - serializedVersion: 3
        time: 0.6000001
        value: -0.6852509
        inSlope: -0.5314605
        outSlope: -0.5314605
        tangentMode: 0
        weightedMode: 0
        inWeight: 0.33333334
        outWeight: 0.33333334
      - serializedVersion: 3
        time: 0.61666673
        value: -0.6932246
        inSlope: -0.42477113
        outSlope: -0.42477113
        tangentMode: 0
        weightedMode: 0
        inWeight: 0.33333334
        outWeight: 0.33333334
      - serializedVersion: 3
        time: 0.6333334
        value: -0.6994099
        inSlope: -0.31698734
        outSlope: -0.31698734
        tangentMode: 0
        weightedMode: 0
        inWeight: 0.33333334
        outWeight: 0.33333334
      - serializedVersion: 3
        time: 0.65000004
        value: -0.70379084
        inSlope: -0.2083828
        outSlope: -0.2083828
        tangentMode: 0
        weightedMode: 0
        inWeight: 0.33333334
        outWeight: 0.33333334
      - serializedVersion: 3
        time: 0.6666667
        value: -0.706356
        inSlope: -0.09924183
        outSlope: -0.09924183
        tangentMode: 0
        weightedMode: 0
        inWeight: 0.33333334
        outWeight: 0.33333334
      - serializedVersion: 3
        time: 0.68333334
        value: -0.7070989
        inSlope: 0.0101530645
        outSlope: 0.0101530645
        tangentMode: 0
        weightedMode: 0
        inWeight: 0.33333334
        outWeight: 0.33333334
      - serializedVersion: 3
        time: 0.7
        value: -0.70601755
        inSlope: 0.11952292
        outSlope: 0.11952292
        tangentMode: 0
        weightedMode: 0
        inWeight: 0.33333334
        outWeight: 0.33333334
      - serializedVersion: 3
        time: 0.71666664
        value: -0.7031148
        inSlope: 0.22858343
        outSlope: 0.22858343
        tangentMode: 0
        weightedMode: 0
        inWeight: 0.33333334
        outWeight: 0.33333334
      - serializedVersion: 3
        time: 0.7333333
        value: -0.6983981
        inSlope: 0.33705565
        outSlope: 0.33705565
        tangentMode: 0
        weightedMode: 0
        inWeight: 0.33333334
        outWeight: 0.33333334
      - serializedVersion: 3
        time: 0.74999994
        value: -0.69187963
        inSlope: 0.44465882
        outSlope: 0.44465882
        tangentMode: 0
        weightedMode: 0
        inWeight: 0.33333334
        outWeight: 0.33333334
      - serializedVersion: 3
        time: 0.7666666
        value: -0.68357617
        inSlope: 0.551114
        outSlope: 0.551114
        tangentMode: 0
        weightedMode: 0
        inWeight: 0.33333334
        outWeight: 0.33333334
      - serializedVersion: 3
        time: 0.78333324
        value: -0.6735092
        inSlope: 0.6561476
        outSlope: 0.6561476
        tangentMode: 0
        weightedMode: 0
        inWeight: 0.33333334
        outWeight: 0.33333334
      - serializedVersion: 3
        time: 0.7999999
        value: -0.6617046
        inSlope: 0.75948966
        outSlope: 0.75948966
        tangentMode: 0
        weightedMode: 0
        inWeight: 0.33333334
        outWeight: 0.33333334
      - serializedVersion: 3
        time: 0.81666654
        value: -0.6481929
        inSlope: 0.8608701
        outSlope: 0.8608701
        tangentMode: 0
        weightedMode: 0
        inWeight: 0.33333334
        outWeight: 0.33333334
      - serializedVersion: 3
        time: 0.8333332
        value: -0.63300896
        inSlope: 0.9600297
        outSlope: 0.9600297
        tangentMode: 0
        weightedMode: 0
        inWeight: 0.33333334
        outWeight: 0.33333334
      - serializedVersion: 3
        time: 0.84999985
        value: -0.6161919
        inSlope: 1.0567145
        outSlope: 1.0567145
        tangentMode: 0
        weightedMode: 0
        inWeight: 0.33333334
        outWeight: 0.33333334
      - serializedVersion: 3
        time: 0.8666665
        value: -0.5977852
        inSlope: 1.1506705
        outSlope: 1.1506705
        tangentMode: 0
        weightedMode: 0
        inWeight: 0.33333334
        outWeight: 0.33333334
      - serializedVersion: 3
        time: 0.88333315
        value: -0.5778363
        inSlope: 1.2416583
        outSlope: 1.2416583
        tangentMode: 0
        weightedMode: 0
        inWeight: 0.33333334
        outWeight: 0.33333334
      - serializedVersion: 3
        time: 0.8999998
        value: -0.5563966
        inSlope: 1.329447
        outSlope: 1.329447
        tangentMode: 0
        weightedMode: 0
        inWeight: 0.33333334
        outWeight: 0.33333334
      - serializedVersion: 3
        time: 0.91666645
        value: -0.5335214
        inSlope: 1.413801
        outSlope: 1.413801
        tangentMode: 0
        weightedMode: 0
        inWeight: 0.33333334
        outWeight: 0.33333334
      - serializedVersion: 3
        time: 0.9333331
        value: -0.50926995
        inSlope: 1.4945078
        outSlope: 1.4945078
        tangentMode: 0
        weightedMode: 0
        inWeight: 0.33333334
        outWeight: 0.33333334
      - serializedVersion: 3
        time: 0.94999975
        value: -0.48370454
        inSlope: 1.571362
        outSlope: 1.571362
        tangentMode: 0
        weightedMode: 0
        inWeight: 0.33333334
        outWeight: 0.33333334
      - serializedVersion: 3
        time: 0.9666664
        value: -0.45689127
        inSlope: 1.6441607
        outSlope: 1.6441607
        tangentMode: 0
        weightedMode: 0
        inWeight: 0.33333334
        outWeight: 0.33333334
      - serializedVersion: 3
        time: 0.98333305
        value: -0.42889923
        inSlope: 1.7127159
        outSlope: 1.7127159
        tangentMode: 0
        weightedMode: 0
        inWeight: 0.33333334
        outWeight: 0.33333334
      - serializedVersion: 3
        time: 1
        value: -0.39980027
        inSlope: 1.7459079
        outSlope: 1.7459079
        tangentMode: 0
        weightedMode: 0
        inWeight: 0.33333334
        outWeight: 0.33333334
      m_PreInfinity: 2
      m_PostInfinity: 2
      m_RotationOrder: 4
    attribute: m_LocalRotation.y
    path: 
    classID: 4
    script: {fileID: 0}
  - curve:
      serializedVersion: 2
      m_Curve:
      - serializedVersion: 3
        time: 0.16666667
        value: -0.000545922
        inSlope: -2.154206
        outSlope: -2.154206
        tangentMode: 0
        weightedMode: 0
        inWeight: 0.33333334
        outWeight: 0.33333334
      - serializedVersion: 3
        time: 0.18333334
        value: -0.036449354
        inSlope: -2.1513848
        outSlope: -2.1513848
        tangentMode: 0
        weightedMode: 0
        inWeight: 0.33333334
        outWeight: 0.33333334
      - serializedVersion: 3
        time: 0.2
        value: -0.07225875
        inSlope: -2.142971
        outSlope: -2.142971
        tangentMode: 0
        weightedMode: 0
        inWeight: 0.33333334
        outWeight: 0.33333334
      - serializedVersion: 3
        time: 0.21666667
        value: -0.10788172
        inSlope: -2.1290293
        outSlope: -2.1290293
        tangentMode: 0
        weightedMode: 0
        inWeight: 0.33333334
        outWeight: 0.33333334
      - serializedVersion: 3
        time: 0.23333333
        value: -0.14322639
        inSlope: -2.1095939
        outSlope: -2.1095939
        tangentMode: 0
        weightedMode: 0
        inWeight: 0.33333334
        outWeight: 0.33333334
      - serializedVersion: 3
        time: 0.25
        value: -0.17820151
        inSlope: -2.0847168
        outSlope: -2.0847168
        tangentMode: 0
        weightedMode: 0
        inWeight: 0.33333334
        outWeight: 0.33333334
      - serializedVersion: 3
        time: 0.26666668
        value: -0.21271697
        inSlope: -2.054462
        outSlope: -2.054462
        tangentMode: 0
        weightedMode: 0
        inWeight: 0.33333334
        outWeight: 0.33333334
      - serializedVersion: 3
        time: 0.28333336
        value: -0.24668363
        inSlope: -2.018906
        outSlope: -2.018906
        tangentMode: 0
        weightedMode: 0
        inWeight: 0.33333334
        outWeight: 0.33333334
      - serializedVersion: 3
        time: 0.30000004
        value: -0.2800139
        inSlope: -1.9781408
        outSlope: -1.9781408
        tangentMode: 0
        weightedMode: 0
        inWeight: 0.33333334
        outWeight: 0.33333334
      - serializedVersion: 3
        time: 0.31666672
        value: -0.3126217
        inSlope: -1.9322716
        outSlope: -1.9322716
        tangentMode: 0
        weightedMode: 0
        inWeight: 0.33333334
        outWeight: 0.33333334
      - serializedVersion: 3
        time: 0.3333334
        value: -0.344423
        inSlope: -1.8814197
        outSlope: -1.8814197
        tangentMode: 0
        weightedMode: 0
        inWeight: 0.33333334
        outWeight: 0.33333334
      - serializedVersion: 3
        time: 0.35000008
        value: -0.37533575
        inSlope: -1.8257138
        outSlope: -1.8257138
        tangentMode: 0
        weightedMode: 0
        inWeight: 0.33333334
        outWeight: 0.33333334
      - serializedVersion: 3
        time: 0.36666676
        value: -0.40528017
        inSlope: -1.7652962
        outSlope: -1.7652962
        tangentMode: 0
        weightedMode: 0
        inWeight: 0.33333334
        outWeight: 0.33333334
      - serializedVersion: 3
        time: 0.38333344
        value: -0.434179
        inSlope: -1.700325
        outSlope: -1.700325
        tangentMode: 0
        weightedMode: 0
        inWeight: 0.33333334
        outWeight: 0.33333334
      - serializedVersion: 3
        time: 0.40000013
        value: -0.46195772
        inSlope: -1.630966
        outSlope: -1.630966
        tangentMode: 0
        weightedMode: 0
        inWeight: 0.33333334
        outWeight: 0.33333334
      - serializedVersion: 3
        time: 0.4166668
        value: -0.48854458
        inSlope: -1.557401
        outSlope: -1.557401
        tangentMode: 0
        weightedMode: 0
        inWeight: 0.33333334
        outWeight: 0.33333334
      - serializedVersion: 3
        time: 0.4333335
        value: -0.51387113
        inSlope: -1.4798181
        outSlope: -1.4798181
        tangentMode: 0
        weightedMode: 0
        inWeight: 0.33333334
        outWeight: 0.33333334
      - serializedVersion: 3
        time: 0.45000017
        value: -0.5378719
        inSlope: -1.3984168
        outSlope: -1.3984168
        tangentMode: 0
        weightedMode: 0
        inWeight: 0.33333334
        outWeight: 0.33333334
      - serializedVersion: 3
        time: 0.46666685
        value: -0.56048506
        inSlope: -1.3134087
        outSlope: -1.3134087
        tangentMode: 0
        weightedMode: 0
        inWeight: 0.33333334
        outWeight: 0.33333334
      - serializedVersion: 3
        time: 0.48333353
        value: -0.5816522
        inSlope: -1.2250113
        outSlope: -1.2250113
        tangentMode: 0
        weightedMode: 0
        inWeight: 0.33333334
        outWeight: 0.33333334
      - serializedVersion: 3
        time: 0.5000002
        value: -0.6013188
        inSlope: -1.1334543
        outSlope: -1.1334543
        tangentMode: 0
        weightedMode: 0
        inWeight: 0.33333334
        outWeight: 0.33333334
      - serializedVersion: 3
        time: 0.5166668
        value: -0.619434
        inSlope: -1.0389707
        outSlope: -1.0389707
        tangentMode: 0
        weightedMode: 0
        inWeight: 0.33333334
        outWeight: 0.33333334
      - serializedVersion: 3
        time: 0.5333335
        value: -0.6359511
        inSlope: -0.9418085
        outSlope: -0.9418085
        tangentMode: 0
        weightedMode: 0
        inWeight: 0.33333334
        outWeight: 0.33333334
      - serializedVersion: 3
        time: 0.55000013
        value: -0.6508276
        inSlope: -0.84221625
        outSlope: -0.84221625
        tangentMode: 0
        weightedMode: 0
        inWeight: 0.33333334
        outWeight: 0.33333334
      - serializedVersion: 3
        time: 0.5666668
        value: -0.66402495
        inSlope: -0.74045134
        outSlope: -0.74045134
        tangentMode: 0
        weightedMode: 0
        inWeight: 0.33333334
        outWeight: 0.33333334
      - serializedVersion: 3
        time: 0.58333343
        value: -0.6755093
        inSlope: -0.6367785
        outSlope: -0.6367785
        tangentMode: 0
        weightedMode: 0
        inWeight: 0.33333334
        outWeight: 0.33333334
      - serializedVersion: 3
        time: 0.6000001
        value: -0.6852509
        inSlope: -0.5314605
        outSlope: -0.5314605
        tangentMode: 0
        weightedMode: 0
        inWeight: 0.33333334
        outWeight: 0.33333334
      - serializedVersion: 3
        time: 0.61666673
        value: -0.6932246
        inSlope: -0.42477113
        outSlope: -0.42477113
        tangentMode: 0
        weightedMode: 0
        inWeight: 0.33333334
        outWeight: 0.33333334
      - serializedVersion: 3
        time: 0.6333334
        value: -0.6994099
        inSlope: -0.31698734
        outSlope: -0.31698734
        tangentMode: 0
        weightedMode: 0
        inWeight: 0.33333334
        outWeight: 0.33333334
      - serializedVersion: 3
        time: 0.65000004
        value: -0.70379084
        inSlope: -0.2083828
        outSlope: -0.2083828
        tangentMode: 0
        weightedMode: 0
        inWeight: 0.33333334
        outWeight: 0.33333334
      - serializedVersion: 3
        time: 0.6666667
        value: -0.706356
        inSlope: -0.09924183
        outSlope: -0.09924183
        tangentMode: 0
        weightedMode: 0
        inWeight: 0.33333334
        outWeight: 0.33333334
      - serializedVersion: 3
        time: 0.68333334
        value: -0.7070989
        inSlope: 0.0101530645
        outSlope: 0.0101530645
        tangentMode: 0
        weightedMode: 0
        inWeight: 0.33333334
        outWeight: 0.33333334
      - serializedVersion: 3
        time: 0.7
        value: -0.70601755
        inSlope: 0.11952292
        outSlope: 0.11952292
        tangentMode: 0
        weightedMode: 0
        inWeight: 0.33333334
        outWeight: 0.33333334
      - serializedVersion: 3
        time: 0.71666664
        value: -0.7031148
        inSlope: 0.22858343
        outSlope: 0.22858343
        tangentMode: 0
        weightedMode: 0
        inWeight: 0.33333334
        outWeight: 0.33333334
      - serializedVersion: 3
        time: 0.7333333
        value: -0.6983981
        inSlope: 0.33705565
        outSlope: 0.33705565
        tangentMode: 0
        weightedMode: 0
        inWeight: 0.33333334
        outWeight: 0.33333334
      - serializedVersion: 3
        time: 0.74999994
        value: -0.69187963
        inSlope: 0.44465882
        outSlope: 0.44465882
        tangentMode: 0
        weightedMode: 0
        inWeight: 0.33333334
        outWeight: 0.33333334
      - serializedVersion: 3
        time: 0.7666666
        value: -0.68357617
        inSlope: 0.551114
        outSlope: 0.551114
        tangentMode: 0
        weightedMode: 0
        inWeight: 0.33333334
        outWeight: 0.33333334
      - serializedVersion: 3
        time: 0.78333324
        value: -0.6735092
        inSlope: 0.6561476
        outSlope: 0.6561476
        tangentMode: 0
        weightedMode: 0
        inWeight: 0.33333334
        outWeight: 0.33333334
      - serializedVersion: 3
        time: 0.7999999
        value: -0.6617046
        inSlope: 0.75948966
        outSlope: 0.75948966
        tangentMode: 0
        weightedMode: 0
        inWeight: 0.33333334
        outWeight: 0.33333334
      - serializedVersion: 3
        time: 0.81666654
        value: -0.6481929
        inSlope: 0.8608701
        outSlope: 0.8608701
        tangentMode: 0
        weightedMode: 0
        inWeight: 0.33333334
        outWeight: 0.33333334
      - serializedVersion: 3
        time: 0.8333332
        value: -0.63300896
        inSlope: 0.9600297
        outSlope: 0.9600297
        tangentMode: 0
        weightedMode: 0
        inWeight: 0.33333334
        outWeight: 0.33333334
      - serializedVersion: 3
        time: 0.84999985
        value: -0.6161919
        inSlope: 1.0567145
        outSlope: 1.0567145
        tangentMode: 0
        weightedMode: 0
        inWeight: 0.33333334
        outWeight: 0.33333334
      - serializedVersion: 3
        time: 0.8666665
        value: -0.5977852
        inSlope: 1.1506705
        outSlope: 1.1506705
        tangentMode: 0
        weightedMode: 0
        inWeight: 0.33333334
        outWeight: 0.33333334
      - serializedVersion: 3
        time: 0.88333315
        value: -0.5778363
        inSlope: 1.2416583
        outSlope: 1.2416583
        tangentMode: 0
        weightedMode: 0
        inWeight: 0.33333334
        outWeight: 0.33333334
      - serializedVersion: 3
        time: 0.8999998
        value: -0.5563966
        inSlope: 1.329447
        outSlope: 1.329447
        tangentMode: 0
        weightedMode: 0
        inWeight: 0.33333334
        outWeight: 0.33333334
      - serializedVersion: 3
        time: 0.91666645
        value: -0.5335214
        inSlope: 1.413801
        outSlope: 1.413801
        tangentMode: 0
        weightedMode: 0
        inWeight: 0.33333334
        outWeight: 0.33333334
      - serializedVersion: 3
        time: 0.9333331
        value: -0.50926995
        inSlope: 1.4945078
        outSlope: 1.4945078
        tangentMode: 0
        weightedMode: 0
        inWeight: 0.33333334
        outWeight: 0.33333334
      - serializedVersion: 3
        time: 0.94999975
        value: -0.48370454
        inSlope: 1.571362
        outSlope: 1.571362
        tangentMode: 0
        weightedMode: 0
        inWeight: 0.33333334
        outWeight: 0.33333334
      - serializedVersion: 3
        time: 0.9666664
        value: -0.45689127
        inSlope: 1.6441607
        outSlope: 1.6441607
        tangentMode: 0
        weightedMode: 0
        inWeight: 0.33333334
        outWeight: 0.33333334
      - serializedVersion: 3
        time: 0.98333305
        value: -0.42889923
        inSlope: 1.7127159
        outSlope: 1.7127159
        tangentMode: 0
        weightedMode: 0
        inWeight: 0.33333334
        outWeight: 0.33333334
      - serializedVersion: 3
        time: 1
        value: -0.39980027
        inSlope: 1.7459079
        outSlope: 1.7459079
        tangentMode: 0
        weightedMode: 0
        inWeight: 0.33333334
        outWeight: 0.33333334
      m_PreInfinity: 2
      m_PostInfinity: 2
      m_RotationOrder: 4
    attribute: m_LocalRotation.z
    path: 
    classID: 4
    script: {fileID: 0}
  - curve:
      serializedVersion: 2
      m_Curve:
      - serializedVersion: 3
        time: 0.16666667
        value: -0.70710653
        inSlope: 0.05638719
        outSlope: 0.05638719
        tangentMode: 0
        weightedMode: 0
        inWeight: 0.33333334
        outWeight: 0.33333334
      - serializedVersion: 3
        time: 0.18333334
        value: -0.70616674
        inSlope: 0.11104346
        outSlope: 0.11104346
        tangentMode: 0
        weightedMode: 0
        inWeight: 0.33333334
        outWeight: 0.33333334
      - serializedVersion: 3
        time: 0.2
        value: -0.7034051
        inSlope: 0.22014323
        outSlope: 0.22014323
        tangentMode: 0
        weightedMode: 0
        inWeight: 0.33333334
        outWeight: 0.33333334
      - serializedVersion: 3
        time: 0.21666667
        value: -0.69882864
        inSlope: 0.32867077
        outSlope: 0.32867077
        tangentMode: 0
        weightedMode: 0
        inWeight: 0.33333334
        outWeight: 0.33333334
      - serializedVersion: 3
        time: 0.23333333
        value: -0.6924494
        inSlope: 0.43634894
        outSlope: 0.43634894
        tangentMode: 0
        weightedMode: 0
        inWeight: 0.33333334
        outWeight: 0.33333334
      - serializedVersion: 3
        time: 0.25
        value: -0.6842837
        inSlope: 0.5429021
        outSlope: 0.5429021
        tangentMode: 0
        weightedMode: 0
        inWeight: 0.33333334
        outWeight: 0.33333334
      - serializedVersion: 3
        time: 0.26666668
        value: -0.67435265
        inSlope: 0.64805514
        outSlope: 0.64805514
        tangentMode: 0
        weightedMode: 0
        inWeight: 0.33333334
        outWeight: 0.33333334
      - serializedVersion: 3
        time: 0.28333336
        value: -0.6626818
        inSlope: 0.75154006
        outSlope: 0.75154006
        tangentMode: 0
        weightedMode: 0
        inWeight: 0.33333334
        outWeight: 0.33333334
      - serializedVersion: 3
        time: 0.30000004
        value: -0.6493013
        inSlope: 0.8530812
        outSlope: 0.8530812
        tangentMode: 0
        weightedMode: 0
        inWeight: 0.33333334
        outWeight: 0.33333334
      - serializedVersion: 3
        time: 0.31666672
        value: -0.63424575
        inSlope: 0.9524212
        outSlope: 0.9524212
        tangentMode: 0
        weightedMode: 0
        inWeight: 0.33333334
        outWeight: 0.33333334
      - serializedVersion: 3
        time: 0.3333334
        value: -0.6175539
        inSlope: 1.0493097
        outSlope: 1.0493097
        tangentMode: 0
        weightedMode: 0
        inWeight: 0.33333334
        outWeight: 0.33333334
      - serializedVersion: 3
        time: 0.35000008
        value: -0.59926873
        inSlope: 1.1434855
        outSlope: 1.1434855
        tangentMode: 0
        weightedMode: 0
        inWeight: 0.33333334
        outWeight: 0.33333334
      - serializedVersion: 3
        time: 0.36666676
        value: -0.5794377
        inSlope: 1.2347128
        outSlope: 1.2347128
        tangentMode: 0
        weightedMode: 0
        inWeight: 0.33333334
        outWeight: 0.33333334
      - serializedVersion: 3
        time: 0.38333344
        value: -0.5581116
        inSlope: 1.322757
        outSlope: 1.322757
        tangentMode: 0
        weightedMode: 0
        inWeight: 0.33333334
        outWeight: 0.33333334
      - serializedVersion: 3
        time: 0.40000013
        value: -0.53534573
        inSlope: 1.4073843
        outSlope: 1.4073843
        tangentMode: 0
        weightedMode: 0
        inWeight: 0.33333334
        outWeight: 0.33333334
      - serializedVersion: 3
        time: 0.4166668
        value: -0.51119876
        inSlope: 1.4883852
        outSlope: 1.4883852
        tangentMode: 0
        weightedMode: 0
        inWeight: 0.33333334
        outWeight: 0.33333334
      - serializedVersion: 3
        time: 0.4333335
        value: -0.48573285
        inSlope: 1.5655433
        outSlope: 1.5655433
        tangentMode: 0
        weightedMode: 0
        inWeight: 0.33333334
        outWeight: 0.33333334
      - serializedVersion: 3
        time: 0.45000017
        value: -0.45901394
        inSlope: 1.6386629
        outSlope: 1.6386629
        tangentMode: 0
        weightedMode: 0
        inWeight: 0.33333334
        outWeight: 0.33333334
      - serializedVersion: 3
        time: 0.46666685
        value: -0.4311107
        inSlope: 1.7075562
        outSlope: 1.7075562
        tangentMode: 0
        weightedMode: 0
        inWeight: 0.33333334
        outWeight: 0.33333334
      - serializedVersion: 3
        time: 0.48333353
        value: -0.40209535
        inSlope: 1.7720418
        outSlope: 1.7720418
        tangentMode: 0
        weightedMode: 0
        inWeight: 0.33333334
        outWeight: 0.33333334
      - serializedVersion: 3
        time: 0.5000002
        value: -0.37204266
        inSlope: 1.8319595
        outSlope: 1.8319595
        tangentMode: 0
        weightedMode: 0
        inWeight: 0.33333334
        outWeight: 0.33333334
      - serializedVersion: 3
        time: 0.5166668
        value: -0.3410301
        inSlope: 1.8871468
        outSlope: 1.8871468
        tangentMode: 0
        weightedMode: 0
        inWeight: 0.33333334
        outWeight: 0.33333334
      - serializedVersion: 3
        time: 0.5333335
        value: -0.30913782
        inSlope: 1.937466
        outSlope: 1.937466
        tangentMode: 0
        weightedMode: 0
        inWeight: 0.33333334
        outWeight: 0.33333334
      - serializedVersion: 3
        time: 0.55000013
        value: -0.27644795
        inSlope: 1.9827901
        outSlope: 1.9827901
        tangentMode: 0
        weightedMode: 0
        inWeight: 0.33333334
        outWeight: 0.33333334
      - serializedVersion: 3
        time: 0.5666668
        value: -0.24304488
        inSlope: 2.0229974
        outSlope: 2.0229974
        tangentMode: 0
        weightedMode: 0
        inWeight: 0.33333334
        outWeight: 0.33333334
      - serializedVersion: 3
        time: 0.58333343
        value: -0.20901477
        inSlope: 2.0579858
        outSlope: 2.0579858
        tangentMode: 0
        weightedMode: 0
        inWeight: 0.33333334
        outWeight: 0.33333334
      - serializedVersion: 3
        time: 0.6000001
        value: -0.17444542
        inSlope: 2.0876641
        outSlope: 2.0876641
        tangentMode: 0
        weightedMode: 0
        inWeight: 0.33333334
        outWeight: 0.33333334
      - serializedVersion: 3
        time: 0.61666673
        value: -0.13942604
        inSlope: 2.1119561
        outSlope: 2.1119561
        tangentMode: 0
        weightedMode: 0
        inWeight: 0.33333334
        outWeight: 0.33333334
      - serializedVersion: 3
        time: 0.6333334
        value: -0.104046956
        inSlope: 2.1308002
        outSlope: 2.1308002
        tangentMode: 0
        weightedMode: 0
        inWeight: 0.33333334
        outWeight: 0.33333334
      - serializedVersion: 3
        time: 0.65000004
        value: -0.06839943
        inSlope: 2.1441472
        outSlope: 2.1441472
        tangentMode: 0
        weightedMode: 0
        inWeight: 0.33333334
        outWeight: 0.33333334
      - serializedVersion: 3
        time: 0.6666667
        value: -0.03257545
        inSlope: 2.151962
        outSlope: 2.151962
        tangentMode: 0
        weightedMode: 0
        inWeight: 0.33333334
        outWeight: 0.33333334
      - serializedVersion: 3
        time: 0.68333334
        value: 0.0033325697
        inSlope: 2.1542253
        outSlope: 2.1542253
        tangentMode: 0
        weightedMode: 0
        inWeight: 0.33333334
        outWeight: 0.33333334
      - serializedVersion: 3
        time: 0.7
        value: 0.039231993
        inSlope: 2.150931
        outSlope: 2.150931
        tangentMode: 0
        weightedMode: 0
        inWeight: 0.33333334
        outWeight: 0.33333334
      - serializedVersion: 3
        time: 0.71666664
        value: 0.0750302
        inSlope: 2.1420875
        outSlope: 2.1420875
        tangentMode: 0
        weightedMode: 0
        inWeight: 0.33333334
        outWeight: 0.33333334
      - serializedVersion: 3
        time: 0.7333333
        value: 0.11063484
        inSlope: 2.1277177
        outSlope: 2.1277177
        tangentMode: 0
        weightedMode: 0
        inWeight: 0.33333334
        outWeight: 0.33333334
      - serializedVersion: 3
        time: 0.74999994
        value: 0.14595406
        inSlope: 2.1078587
        outSlope: 2.1078587
        tangentMode: 0
        weightedMode: 0
        inWeight: 0.33333334
        outWeight: 0.33333334
      - serializedVersion: 3
        time: 0.7666666
        value: 0.18089673
        inSlope: 2.0825615
        outSlope: 2.0825615
        tangentMode: 0
        weightedMode: 0
        inWeight: 0.33333334
        outWeight: 0.33333334
      - serializedVersion: 3
        time: 0.78333324
        value: 0.21537271
        inSlope: 2.0518918
        outSlope: 2.0518918
        tangentMode: 0
        weightedMode: 0
        inWeight: 0.33333334
        outWeight: 0.33333334
      - serializedVersion: 3
        time: 0.7999999
        value: 0.24929306
        inSlope: 2.0159287
        outSlope: 2.0159287
        tangentMode: 0
        weightedMode: 0
        inWeight: 0.33333334
        outWeight: 0.33333334
      - serializedVersion: 3
        time: 0.81666654
        value: 0.28257027
        inSlope: 1.974764
        outSlope: 1.974764
        tangentMode: 0
        weightedMode: 0
        inWeight: 0.33333334
        outWeight: 0.33333334
      - serializedVersion: 3
        time: 0.8333332
        value: 0.31511846
        inSlope: 1.9285057
        outSlope: 1.9285057
        tangentMode: 0
        weightedMode: 0
        inWeight: 0.33333334
        outWeight: 0.33333334
      - serializedVersion: 3
        time: 0.84999985
        value: 0.34685373
        inSlope: 1.8772719
        outSlope: 1.8772719
        tangentMode: 0
        weightedMode: 0
        inWeight: 0.33333334
        outWeight: 0.33333334
      - serializedVersion: 3
        time: 0.8666665
        value: 0.37769413
        inSlope: 1.821193
        outSlope: 1.821193
        tangentMode: 0
        weightedMode: 0
        inWeight: 0.33333334
        outWeight: 0.33333334
      - serializedVersion: 3
        time: 0.88333315
        value: 0.4075601
        inSlope: 1.7604167
        outSlope: 1.7604167
        tangentMode: 0
        weightedMode: 0
        inWeight: 0.33333334
        outWeight: 0.33333334
      - serializedVersion: 3
        time: 0.8999998
        value: 0.43637463
        inSlope: 1.6950996
        outSlope: 1.6950996
        tangentMode: 0
        weightedMode: 0
        inWeight: 0.33333334
        outWeight: 0.33333334
      - serializedVersion: 3
        time: 0.91666645
        value: 0.46406338
        inSlope: 1.6254103
        outSlope: 1.6254103
        tangentMode: 0
        weightedMode: 0
        inWeight: 0.33333334
        outWeight: 0.33333334
      - serializedVersion: 3
        time: 0.9333331
        value: 0.49055493
        inSlope: 1.5515262
        outSlope: 1.5515262
        tangentMode: 0
        weightedMode: 0
        inWeight: 0.33333334
        outWeight: 0.33333334
      - serializedVersion: 3
        time: 0.94999975
        value: 0.51578087
        inSlope: 1.4736392
        outSlope: 1.4736392
        tangentMode: 0
        weightedMode: 0
        inWeight: 0.33333334
        outWeight: 0.33333334
      - serializedVersion: 3
        time: 0.9666664
        value: 0.5396762
        inSlope: 1.3919516
        outSlope: 1.3919516
        tangentMode: 0
        weightedMode: 0
        inWeight: 0.33333334
        outWeight: 0.33333334
      - serializedVersion: 3
        time: 0.98333305
        value: 0.5621792
        inSlope: 1.3066674
        outSlope: 1.3066674
        tangentMode: 0
        weightedMode: 0
        inWeight: 0.33333334
        outWeight: 0.33333334
      - serializedVersion: 3
        time: 1
        value: 0.5832321
        inSlope: 1.2631525
        outSlope: 1.2631525
        tangentMode: 0
        weightedMode: 0
        inWeight: 0.33333334
        outWeight: 0.33333334
      m_PreInfinity: 2
      m_PostInfinity: 2
      m_RotationOrder: 4
    attribute: m_LocalRotation.w
    path: 
    classID: 4
    script: {fileID: 0}
  m_EulerEditorCurves:
  - curve:
      serializedVersion: 2
      m_Curve:
      - serializedVersion: 3
        time: 0.16666667
        value: -90
        inSlope: 0
        outSlope: 0
        tangentMode: 34
        weightedMode: 0
        inWeight: 0.33333334
        outWeight: 0.33333334
      - serializedVersion: 3
        time: 1
        value: -90
        inSlope: 0
        outSlope: 0
        tangentMode: 34
        weightedMode: 0
        inWeight: 0.33333334
        outWeight: 0.33333334
      m_PreInfinity: 2
      m_PostInfinity: 2
      m_RotationOrder: 4
    attribute: localEulerAnglesBaked.x
    path: 
    classID: 4
    script: {fileID: 0}
  - curve:
      serializedVersion: 2
      m_Curve:
      - serializedVersion: 3
        time: 0.16666667
        value: 0.08847046
        inSlope: 349.26117
        outSlope: 349.26117
        tangentMode: 34
        weightedMode: 0
        inWeight: 0.33333334
        outWeight: 0.33333334
      - serializedVersion: 3
        time: 1
        value: 291.13943
        inSlope: 349.26117
        outSlope: 349.26117
        tangentMode: 34
        weightedMode: 0
        inWeight: 0.33333334
        outWeight: 0.33333334
      m_PreInfinity: 2
      m_PostInfinity: 2
      m_RotationOrder: 4
    attribute: localEulerAnglesBaked.y
    path: 
    classID: 4
    script: {fileID: 0}
  - curve:
      serializedVersion: 2
      m_Curve:
      - serializedVersion: 3
        time: 0.16666667
        value: 0
        inSlope: 0
        outSlope: 0
        tangentMode: 34
        weightedMode: 0
        inWeight: 0.33333334
        outWeight: 0.33333334
      - serializedVersion: 3
        time: 1
        value: 0
        inSlope: 0
        outSlope: 0
        tangentMode: 34
        weightedMode: 0
        inWeight: 0.33333334
        outWeight: 0.33333334
      m_PreInfinity: 2
      m_PostInfinity: 2
      m_RotationOrder: 4
    attribute: localEulerAnglesBaked.z
    path: 
    classID: 4
    script: {fileID: 0}
  m_HasGenericRootTransform: 1
  m_HasMotionFloatCurves: 0
  m_GenerateMotionCurves: 0
  m_Events: []
