%YAML 1.1
%TAG !u! tag:unity3d.com,2011:
--- !u!74 &7400000
AnimationClip:
  m_ObjectHideFlags: 0
  m_CorrespondingSourceObject: {fileID: 0}
  m_PrefabInternal: {fileID: 0}
  m_Name: sj_adm01
  serializedVersion: 6
  m_Legacy: 0
  m_Compressed: 0
  m_UseHighQualityCurve: 1
  m_RotationCurves:
  - curve:
      serializedVersion: 2
      m_Curve:
      - serializedVersion: 3
        time: 0
        value: {x: 0.70710385, y: 0.0020428265, z: 0.0020428265, w: -0.70710385}
        inSlope: {x: -0.019015072, y: 1.15326, z: 1.15326, w: 0.019015072}
        outSlope: {x: -0.019015072, y: 1.15326, z: 1.15326, w: 0.019015072}
        tangentMode: 126298688
        weightedMode: 0
        inWeight: {x: 0.33333334, y: 0.33333334, z: 0.33333334, w: 0.33333334}
        outWeight: {x: 0.33333334, y: 0.33333334, z: 0.33333334, w: 0.33333334}
      - serializedVersion: 3
        time: 0.016666668
        value: {x: 0.70678693, y: 0.021263827, z: 0.021263827, w: -0.70678693}
        inSlope: {x: -0.034682747, y: 1.1527884, z: 1.1527884, w: 0.034682747}
        outSlope: {x: -0.034682747, y: 1.1527884, z: 1.1527884, w: 0.034682747}
        tangentMode: 185909316
        weightedMode: 0
        inWeight: {x: 0.33333334, y: 0.33333334, z: 0.33333334, w: 0.33333334}
        outWeight: {x: 0.33333334, y: 0.33333334, z: 0.33333334, w: 0.33333334}
      - serializedVersion: 3
        time: 0.033333335
        value: {x: 0.70594776, y: 0.04046911, z: 0.04046911, w: -0.70594776}
        inSlope: {x: -0.06600558, y: 1.1514196, z: 1.1514196, w: 0.06600558}
        outSlope: {x: -0.06600558, y: 1.1514196, z: 1.1514196, w: 0.06600558}
        tangentMode: 780906080
        weightedMode: 0
        inWeight: {x: 0.33333334, y: 0.33333334, z: 0.33333334, w: 0.33333334}
        outWeight: {x: 0.33333334, y: 0.33333334, z: 0.33333334, w: 0.33333334}
      - serializedVersion: 3
        time: 0.050000004
        value: {x: 0.70458674, y: 0.059644487, z: 0.059644487, w: -0.70458674}
        inSlope: {x: -0.09728193, y: 1.1492, z: 1.1492, w: 0.09728193}
        outSlope: {x: -0.09728193, y: 1.1492, z: 1.1492, w: 0.09728193}
        tangentMode: 126272996
        weightedMode: 0
        inWeight: {x: 0.33333334, y: 0.33333334, z: 0.33333334, w: 0.33333334}
        outWeight: {x: 0.33333334, y: 0.33333334, z: 0.33333334, w: 0.33333334}
      - serializedVersion: 3
        time: 0.06666667
        value: {x: 0.702705, y: 0.07877578, z: 0.07877578, w: -0.702705}
        inSlope: {x: -0.12848498, y: 1.1461307, z: 1.1461307, w: 0.12848498}
        outSlope: {x: -0.12848498, y: 1.1461307, z: 1.1461307, w: 0.12848498}
        tangentMode: 781880164
        weightedMode: 0
        inWeight: {x: 0.33333334, y: 0.33333334, z: 0.33333334, w: 0.33333334}
        outWeight: {x: 0.33333334, y: 0.33333334, z: 0.33333334, w: 0.33333334}
      - serializedVersion: 3
        time: 0.083333336
        value: {x: 0.7003039, y: 0.09784884, z: 0.09784884, w: -0.7003039}
        inSlope: {x: -0.15959503, y: 1.1422145, z: 1.1422145, w: 0.15959503}
        outSlope: {x: -0.15959503, y: 1.1422145, z: 1.1422145, w: 0.15959503}
        tangentMode: 185546468
        weightedMode: 0
        inWeight: {x: 0.33333334, y: 0.33333334, z: 0.33333334, w: 0.33333334}
        outWeight: {x: 0.33333334, y: 0.33333334, z: 0.33333334, w: 0.33333334}
      - serializedVersion: 3
        time: 0.1
        value: {x: 0.6973852, y: 0.116849594, z: 0.116849594, w: -0.6973852}
        inSlope: {x: -0.19058527, y: 1.137454, z: 1.137454, w: 0.19058527}
        outSlope: {x: -0.19058527, y: 1.137454, z: 1.137454, w: 0.19058527}
        tangentMode: 126289248
        weightedMode: 0
        inWeight: {x: 0.33333334, y: 0.33333334, z: 0.33333334, w: 0.33333334}
        outWeight: {x: 0.33333334, y: 0.33333334, z: 0.33333334, w: 0.33333334}
      - serializedVersion: 3
        time: 0.11666667
        value: {x: 0.6939511, y: 0.13576397, z: 0.13576397, w: -0.6939511}
        inSlope: {x: -0.22143242, y: 1.1318524, z: 1.1318524, w: 0.22143242}
        outSlope: {x: -0.22143242, y: 1.1318524, z: 1.1318524, w: 0.22143242}
        tangentMode: 126269344
        weightedMode: 0
        inWeight: {x: 0.33333334, y: 0.33333334, z: 0.33333334, w: 0.33333334}
        outWeight: {x: 0.33333334, y: 0.33333334, z: 0.33333334, w: 0.33333334}
      - serializedVersion: 3
        time: 0.13333334
        value: {x: 0.6900041, y: 0.15457802, z: 0.15457802, w: -0.6900041}
        inSlope: {x: -0.25212047, y: 1.1254153, z: 1.1254153, w: 0.25212047}
        outSlope: {x: -0.25212047, y: 1.1254153, z: 1.1254153, w: 0.25212047}
        tangentMode: 185567204
        weightedMode: 0
        inWeight: {x: 0.33333334, y: 0.33333334, z: 0.33333334, w: 0.33333334}
        outWeight: {x: 0.33333334, y: 0.33333334, z: 0.33333334, w: 0.33333334}
      - serializedVersion: 3
        time: 0.15
        value: {x: 0.68554705, y: 0.17327783, z: 0.17327783, w: -0.68554705}
        inSlope: {x: -0.2826226, y: 1.118146, z: 1.118146, w: 0.2826226}
        outSlope: {x: -0.2826226, y: 1.118146, z: 1.118146, w: 0.2826226}
        tangentMode: 185531232
        weightedMode: 0
        inWeight: {x: 0.33333334, y: 0.33333334, z: 0.33333334, w: 0.33333334}
        outWeight: {x: 0.33333334, y: 0.33333334, z: 0.33333334, w: 0.33333334}
      - serializedVersion: 3
        time: 0.16666667
        value: {x: 0.68058336, y: 0.19184954, z: 0.19184954, w: -0.68058336}
        inSlope: {x: -0.3129119, y: 1.1100497, z: 1.1100497, w: 0.3129119}
        outSlope: {x: -0.3129119, y: 1.1100497, z: 1.1100497, w: 0.3129119}
        tangentMode: 126303396
        weightedMode: 0
        inWeight: {x: 0.33333334, y: 0.33333334, z: 0.33333334, w: 0.33333334}
        outWeight: {x: 0.33333334, y: 0.33333334, z: 0.33333334, w: 0.33333334}
      - serializedVersion: 3
        time: 0.18333334
        value: {x: 0.67511666, y: 0.21027948, z: 0.21027948, w: -0.67511666}
        inSlope: {x: -0.34297052, y: 1.1011336, z: 1.1011336, w: 0.34297052}
        outSlope: {x: -0.34297052, y: 1.1011336, z: 1.1011336, w: 0.34297052}
        tangentMode: 185890848
        weightedMode: 0
        inWeight: {x: 0.33333334, y: 0.33333334, z: 0.33333334, w: 0.33333334}
        outWeight: {x: 0.33333334, y: 0.33333334, z: 0.33333334, w: 0.33333334}
      - serializedVersion: 3
        time: 0.2
        value: {x: 0.669151, y: 0.228554, z: 0.228554, w: -0.669151}
        inSlope: {x: -0.37277701, y: 1.0914025, z: 1.0914025, w: 0.37277701}
        outSlope: {x: -0.37277701, y: 1.0914025, z: 1.0914025, w: 0.37277701}
        tangentMode: 783080548
        weightedMode: 0
        inWeight: {x: 0.33333334, y: 0.33333334, z: 0.33333334, w: 0.33333334}
        outWeight: {x: 0.33333334, y: 0.33333334, z: 0.33333334, w: 0.33333334}
      - serializedVersion: 3
        time: 0.21666667
        value: {x: 0.66269076, y: 0.24665956, z: 0.24665956, w: -0.66269076}
        inSlope: {x: -0.40230814, y: 1.0808663, z: 1.0808663, w: 0.40230814}
        outSlope: {x: -0.40230814, y: 1.0808663, z: 1.0808663, w: 0.40230814}
        tangentMode: 783055364
        weightedMode: 0
        inWeight: {x: 0.33333334, y: 0.33333334, z: 0.33333334, w: 0.33333334}
        outWeight: {x: 0.33333334, y: 0.33333334, z: 0.33333334, w: 0.33333334}
      - serializedVersion: 3
        time: 0.23333333
        value: {x: 0.65574074, y: 0.26458287, z: 0.26458287, w: -0.65574074}
        inSlope: {x: -0.43154243, y: 1.0695305, z: 1.0695305, w: 0.43154243}
        outSlope: {x: -0.43154243, y: 1.0695305, z: 1.0695305, w: 0.43154243}
        tangentMode: 126301280
        weightedMode: 0
        inWeight: {x: 0.33333334, y: 0.33333334, z: 0.33333334, w: 0.33333334}
        outWeight: {x: 0.33333334, y: 0.33333334, z: 0.33333334, w: 0.33333334}
      - serializedVersion: 3
        time: 0.25
        value: {x: 0.648306, y: 0.28231058, z: 0.28231058, w: -0.648306}
        inSlope: {x: -0.46045643, y: 1.0574043, z: 1.0574043, w: 0.46045643}
        outSlope: {x: -0.46045643, y: 1.0574043, z: 1.0574043, w: 0.46045643}
        tangentMode: 781538532
        weightedMode: 0
        inWeight: {x: 0.33333334, y: 0.33333334, z: 0.33333334, w: 0.33333334}
        outWeight: {x: 0.33333334, y: 0.33333334, z: 0.33333334, w: 0.33333334}
      - serializedVersion: 3
        time: 0.26666668
        value: {x: 0.6403922, y: 0.2998297, z: 0.2998297, w: -0.6403922}
        inSlope: {x: -0.48903066, y: 1.044497, z: 1.044497, w: 0.48903066}
        outSlope: {x: -0.48903066, y: 1.044497, z: 1.044497, w: 0.48903066}
        tangentMode: 185787364
        weightedMode: 0
        inWeight: {x: 0.33333334, y: 0.33333334, z: 0.33333334, w: 0.33333334}
        outWeight: {x: 0.33333334, y: 0.33333334, z: 0.33333334, w: 0.33333334}
      - serializedVersion: 3
        time: 0.28333336
        value: {x: 0.632005, y: 0.31712717, z: 0.31712717, w: -0.632005}
        inSlope: {x: -0.51724213, y: 1.0308168, z: 1.0308168, w: 0.51724213}
        outSlope: {x: -0.51724213, y: 1.0308168, z: 1.0308168, w: 0.51724213}
        tangentMode: 185495872
        weightedMode: 0
        inWeight: {x: 0.33333334, y: 0.33333334, z: 0.33333334, w: 0.33333334}
        outWeight: {x: 0.33333334, y: 0.33333334, z: 0.33333334, w: 0.33333334}
      - serializedVersion: 3
        time: 0.30000004
        value: {x: 0.62315077, y: 0.33419028, z: 0.33419028, w: -0.62315077}
        inSlope: {x: -0.5450727, y: 1.0163758, z: 1.0163758, w: 0.5450727}
        outSlope: {x: -0.5450727, y: 1.0163758, z: 1.0163758, w: 0.5450727}
        tangentMode: 126316644
        weightedMode: 0
        inWeight: {x: 0.33333334, y: 0.33333334, z: 0.33333334, w: 0.33333334}
        outWeight: {x: 0.33333334, y: 0.33333334, z: 0.33333334, w: 0.33333334}
      - serializedVersion: 3
        time: 0.31666672
        value: {x: 0.6138359, y: 0.3510064, z: 0.3510064, w: -0.6138359}
        inSlope: {x: -0.57250273, y: 1.0011828, z: 1.0011828, w: 0.57250273}
        outSlope: {x: -0.57250273, y: 1.0011828, z: 1.0011828, w: 0.57250273}
        tangentMode: 185877956
        weightedMode: 0
        inWeight: {x: 0.33333334, y: 0.33333334, z: 0.33333334, w: 0.33333334}
        outWeight: {x: 0.33333334, y: 0.33333334, z: 0.33333334, w: 0.33333334}
      - serializedVersion: 3
        time: 0.3333334
        value: {x: 0.6040673, y: 0.36756307, z: 0.36756307, w: -0.6040673}
        inSlope: {x: -0.59950364, y: 0.98524964, z: 0.98524964, w: 0.59950364}
        outSlope: {x: -0.59950364, y: 0.98524964, z: 0.98524964, w: 0.59950364}
        tangentMode: 781264068
        weightedMode: 0
        inWeight: {x: 0.33333334, y: 0.33333334, z: 0.33333334, w: 0.33333334}
        outWeight: {x: 0.33333334, y: 0.33333334, z: 0.33333334, w: 0.33333334}
      - serializedVersion: 3
        time: 0.35000008
        value: {x: 0.5938524, y: 0.38384807, z: 0.38384807, w: -0.5938524}
        inSlope: {x: -0.6260664, y: 0.96858954, z: 0.96858954, w: 0.6260664}
        outSlope: {x: -0.6260664, y: 0.96858954, z: 0.96858954, w: 0.6260664}
        tangentMode: 782103264
        weightedMode: 0
        inWeight: {x: 0.33333334, y: 0.33333334, z: 0.33333334, w: 0.33333334}
        outWeight: {x: 0.33333334, y: 0.33333334, z: 0.33333334, w: 0.33333334}
      - serializedVersion: 3
        time: 0.36666676
        value: {x: 0.5831984, y: 0.3998494, z: 0.3998494, w: -0.5831984}
        inSlope: {x: -0.65216607, y: 0.95121247, z: 0.95121247, w: 0.65216607}
        outSlope: {x: -0.65216607, y: 0.95121247, z: 0.95121247, w: 0.65216607}
        tangentMode: 126296676
        weightedMode: 0
        inWeight: {x: 0.33333334, y: 0.33333334, z: 0.33333334, w: 0.33333334}
        outWeight: {x: 0.33333334, y: 0.33333334, z: 0.33333334, w: 0.33333334}
      - serializedVersion: 3
        time: 0.38333344
        value: {x: 0.5721135, y: 0.41555518, z: 0.41555518, w: -0.5721135}
        inSlope: {x: -0.6777811, y: 0.9331335, z: 0.9331335, w: 0.6777811}
        outSlope: {x: -0.6777811, y: 0.9331335, z: 0.9331335, w: 0.6777811}
        tangentMode: 185483360
        weightedMode: 0
        inWeight: {x: 0.33333334, y: 0.33333334, z: 0.33333334, w: 0.33333334}
        outWeight: {x: 0.33333334, y: 0.33333334, z: 0.33333334, w: 0.33333334}
      - serializedVersion: 3
        time: 0.40000013
        value: {x: 0.5606057, y: 0.4309539, z: 0.4309539, w: -0.5606057}
        inSlope: {x: -0.7028991, y: 0.9143643, z: 0.9143643, w: 0.7028991}
        outSlope: {x: -0.7028991, y: 0.9143643, z: 0.9143643, w: 0.7028991}
        tangentMode: 185509348
        weightedMode: 0
        inWeight: {x: 0.33333334, y: 0.33333334, z: 0.33333334, w: 0.33333334}
        outWeight: {x: 0.33333334, y: 0.33333334, z: 0.33333334, w: 0.33333334}
      - serializedVersion: 3
        time: 0.4166668
        value: {x: 0.5486835, y: 0.446034, z: 0.446034, w: -0.5486835}
        inSlope: {x: -0.72749317, y: 0.8949156, z: 0.8949156, w: 0.72749317}
        outSlope: {x: -0.72749317, y: 0.8949156, z: 0.8949156, w: 0.72749317}
        tangentMode: 185655008
        weightedMode: 0
        inWeight: {x: 0.33333334, y: 0.33333334, z: 0.33333334, w: 0.33333334}
        outWeight: {x: 0.33333334, y: 0.33333334, z: 0.33333334, w: 0.33333334}
      - serializedVersion: 3
        time: 0.4333335
        value: {x: 0.5363559, y: 0.46078444, z: 0.46078444, w: -0.5363559}
        inSlope: {x: -0.7515508, y: 0.8748098, z: 0.8748098, w: 0.7515508}
        outSlope: {x: -0.7515508, y: 0.8748098, z: 0.8748098, w: 0.7515508}
        tangentMode: 525991908
        weightedMode: 0
        inWeight: {x: 0.33333334, y: 0.33333334, z: 0.33333334, w: 0.33333334}
        outWeight: {x: 0.33333334, y: 0.33333334, z: 0.33333334, w: 0.33333334}
      - serializedVersion: 3
        time: 0.45000017
        value: {x: 0.5236318, y: 0.47519436, z: 0.47519436, w: -0.5236318}
        inSlope: {x: -0.77505404, y: 0.85405755, z: 0.85405755, w: 0.77505404}
        outSlope: {x: -0.77505404, y: 0.85405755, z: 0.85405755, w: 0.77505404}
        tangentMode: 780181440
        weightedMode: 0
        inWeight: {x: 0.33333334, y: 0.33333334, z: 0.33333334, w: 0.33333334}
        outWeight: {x: 0.33333334, y: 0.33333334, z: 0.33333334, w: 0.33333334}
      - serializedVersion: 3
        time: 0.46666685
        value: {x: 0.51052076, y: 0.48925304, z: 0.48925304, w: -0.51052076}
        inSlope: {x: -0.79798335, y: 0.8326723, z: 0.8326723, w: 0.79798335}
        outSlope: {x: -0.79798335, y: 0.8326723, z: 0.8326723, w: 0.79798335}
        tangentMode: 524990944
        weightedMode: 0
        inWeight: {x: 0.33333334, y: 0.33333334, z: 0.33333334, w: 0.33333334}
        outWeight: {x: 0.33333334, y: 0.33333334, z: 0.33333334, w: 0.33333334}
      - serializedVersion: 3
        time: 0.48333353
        value: {x: 0.49703234, y: 0.50295013, z: 0.50295013, w: -0.49703234}
        inSlope: {x: -0.820326, y: 0.81067264, z: 0.81067264, w: 0.820326}
        outSlope: {x: -0.820326, y: 0.81067264, z: 0.81067264, w: 0.820326}
        tangentMode: 185520612
        weightedMode: 0
        inWeight: {x: 0.33333334, y: 0.33333334, z: 0.33333334, w: 0.33333334}
        outWeight: {x: 0.33333334, y: 0.33333334, z: 0.33333334, w: 0.33333334}
      - serializedVersion: 3
        time: 0.5000002
        value: {x: 0.48317656, y: 0.51627547, z: 0.51627547, w: -0.48317656}
        inSlope: {x: -0.84205973, y: 0.78807485, z: 0.78807485, w: 0.84205973}
        outSlope: {x: -0.84205973, y: 0.78807485, z: 0.78807485, w: 0.84205973}
        tangentMode: 185555424
        weightedMode: 0
        inWeight: {x: 0.33333334, y: 0.33333334, z: 0.33333334, w: 0.33333334}
        outWeight: {x: 0.33333334, y: 0.33333334, z: 0.33333334, w: 0.33333334}
      - serializedVersion: 3
        time: 0.5166668
        value: {x: 0.4689637, y: 0.52921927, z: 0.52921927, w: -0.4689637}
        inSlope: {x: -0.86317146, y: 0.7648934, z: 0.7648934, w: 0.86317146}
        outSlope: {x: -0.86317146, y: 0.7648934, z: 0.7648934, w: 0.86317146}
        tangentMode: 516368864
        weightedMode: 0
        inWeight: {x: 0.33333334, y: 0.33333334, z: 0.33333334, w: 0.33333334}
        outWeight: {x: 0.33333334, y: 0.33333334, z: 0.33333334, w: 0.33333334}
      - serializedVersion: 3
        time: 0.5333335
        value: {x: 0.4544042, y: 0.5417719, z: 0.5417719, w: -0.4544042}
        inSlope: {x: -0.88364387, y: 0.74114335, z: 0.74114335, w: 0.88364387}
        outSlope: {x: -0.88364387, y: 0.74114335, z: 0.74114335, w: 0.88364387}
        tangentMode: 784048736
        weightedMode: 0
        inWeight: {x: 0.33333334, y: 0.33333334, z: 0.33333334, w: 0.33333334}
        outWeight: {x: 0.33333334, y: 0.33333334, z: 0.33333334, w: 0.33333334}
      - serializedVersion: 3
        time: 0.55000013
        value: {x: 0.43950894, y: 0.553924, z: 0.553924, w: -0.43950894}
        inSlope: {x: -0.9034654, y: 0.7168497, z: 0.7168497, w: 0.9034654}
        outSlope: {x: -0.9034654, y: 0.7168497, z: 0.7168497, w: 0.9034654}
        tangentMode: 185555936
        weightedMode: 0
        inWeight: {x: 0.33333334, y: 0.33333334, z: 0.33333334, w: 0.33333334}
        outWeight: {x: 0.33333334, y: 0.33333334, z: 0.33333334, w: 0.33333334}
      - serializedVersion: 3
        time: 0.5666668
        value: {x: 0.42428872, y: 0.56566685, z: 0.56566685, w: -0.42428872}
        inSlope: {x: -0.9226173, y: 0.69202846, z: 0.69202846, w: 0.9226173}
        outSlope: {x: -0.9226173, y: 0.69202846, z: 0.69202846, w: 0.9226173}
        tangentMode: 783114944
        weightedMode: 0
        inWeight: {x: 0.33333334, y: 0.33333334, z: 0.33333334, w: 0.33333334}
        outWeight: {x: 0.33333334, y: 0.33333334, z: 0.33333334, w: 0.33333334}
      - serializedVersion: 3
        time: 0.58333343
        value: {x: 0.40875506, y: 0.5769916, z: 0.5769916, w: -0.40875506}
        inSlope: {x: -0.941087, y: 0.66669047, z: 0.66669047, w: 0.941087}
        outSlope: {x: -0.941087, y: 0.66669047, z: 0.66669047, w: 0.941087}
        tangentMode: 185528132
        weightedMode: 0
        inWeight: {x: 0.33333334, y: 0.33333334, z: 0.33333334, w: 0.33333334}
        outWeight: {x: 0.33333334, y: 0.33333334, z: 0.33333334, w: 0.33333334}
      - serializedVersion: 3
        time: 0.6000001
        value: {x: 0.39291918, y: 0.58788985, z: 0.58788985, w: -0.39291918}
        inSlope: {x: -0.9588656, y: 0.6408626, z: 0.6408626, w: 0.9588656}
        outSlope: {x: -0.9588656, y: 0.6408626, z: 0.6408626, w: 0.9588656}
        tangentMode: 185653984
        weightedMode: 0
        inWeight: {x: 0.33333334, y: 0.33333334, z: 0.33333334, w: 0.33333334}
        outWeight: {x: 0.33333334, y: 0.33333334, z: 0.33333334, w: 0.33333334}
      - serializedVersion: 3
        time: 0.61666673
        value: {x: 0.3767929, y: 0.5983537, z: 0.5983537, w: -0.3767929}
        inSlope: {x: -0.97592986, y: 0.61456084, z: 0.61456084, w: 0.97592986}
        outSlope: {x: -0.97592986, y: 0.61456084, z: 0.61456084, w: 0.97592986}
        tangentMode: 781564768
        weightedMode: 0
        inWeight: {x: 0.33333334, y: 0.33333334, z: 0.33333334, w: 0.33333334}
        outWeight: {x: 0.33333334, y: 0.33333334, z: 0.33333334, w: 0.33333334}
      - serializedVersion: 3
        time: 0.6333334
        value: {x: 0.36038822, y: 0.6083752, z: 0.6083752, w: -0.36038822}
        inSlope: {x: -0.99227524, y: 0.58780134, z: 0.58780134, w: 0.99227524}
        outSlope: {x: -0.99227524, y: 0.58780134, z: 0.58780134, w: 0.99227524}
        tangentMode: 780941540
        weightedMode: 0
        inWeight: {x: 0.33333334, y: 0.33333334, z: 0.33333334, w: 0.33333334}
        outWeight: {x: 0.33333334, y: 0.33333334, z: 0.33333334, w: 0.33333334}
      - serializedVersion: 3
        time: 0.65000004
        value: {x: 0.3437171, y: 0.61794704, z: 0.61794704, w: -0.3437171}
        inSlope: {x: -1.007891, y: 0.5606126, z: 0.5606126, w: 1.007891}
        outSlope: {x: -1.007891, y: 0.5606126, z: 0.5606126, w: 1.007891}
        tangentMode: 185882336
        weightedMode: 0
        inWeight: {x: 0.33333334, y: 0.33333334, z: 0.33333334, w: 0.33333334}
        outWeight: {x: 0.33333334, y: 0.33333334, z: 0.33333334, w: 0.33333334}
      - serializedVersion: 3
        time: 0.6666667
        value: {x: 0.32679188, y: 0.62706226, z: 0.62706226, w: -0.32679188}
        inSlope: {x: -1.0227576, y: 0.53300726, z: 0.53300726, w: 1.0227576}
        outSlope: {x: -1.0227576, y: 0.53300726, z: 0.53300726, w: 1.0227576}
        tangentMode: 126261764
        weightedMode: 0
        inWeight: {x: 0.33333334, y: 0.33333334, z: 0.33333334, w: 0.33333334}
        outWeight: {x: 0.33333334, y: 0.33333334, z: 0.33333334, w: 0.33333334}
      - serializedVersion: 3
        time: 0.68333334
        value: {x: 0.3096252, y: 0.63571393, z: 0.63571393, w: -0.3096252}
        inSlope: {x: -1.0368643, y: 0.505005, z: 0.505005, w: 1.0368643}
        outSlope: {x: -1.0368643, y: 0.505005, z: 0.505005, w: 1.0368643}
        tangentMode: 185633732
        weightedMode: 0
        inWeight: {x: 0.33333334, y: 0.33333334, z: 0.33333334, w: 0.33333334}
        outWeight: {x: 0.33333334, y: 0.33333334, z: 0.33333334, w: 0.33333334}
      - serializedVersion: 3
        time: 0.7
        value: {x: 0.29222977, y: 0.64389575, z: 0.64389575, w: -0.29222977}
        inSlope: {x: -1.0502092, y: 0.4766326, z: 0.4766326, w: 1.0502092}
        outSlope: {x: -1.0502092, y: 0.4766326, z: 0.4766326, w: 1.0502092}
        tangentMode: 185861568
        weightedMode: 0
        inWeight: {x: 0.33333334, y: 0.33333334, z: 0.33333334, w: 0.33333334}
        outWeight: {x: 0.33333334, y: 0.33333334, z: 0.33333334, w: 0.33333334}
      - serializedVersion: 3
        time: 0.71666664
        value: {x: 0.27461827, y: 0.6516017, z: 0.6516017, w: -0.27461827}
        inSlope: {x: -1.0627825, y: 0.44790965, z: 0.44790965, w: 1.0627825}
        outSlope: {x: -1.0627825, y: 0.44790965, z: 0.44790965, w: 1.0627825}
        tangentMode: 125133120
        weightedMode: 0
        inWeight: {x: 0.33333334, y: 0.33333334, z: 0.33333334, w: 0.33333334}
        outWeight: {x: 0.33333334, y: 0.33333334, z: 0.33333334, w: 0.33333334}
      - serializedVersion: 3
        time: 0.7333333
        value: {x: 0.25680372, y: 0.65882605, z: 0.65882605, w: -0.25680372}
        inSlope: {x: -1.0745633, y: 0.41885597, z: 0.41885597, w: 1.0745633}
        outSlope: {x: -1.0745633, y: 0.41885597, z: 0.41885597, w: 1.0745633}
        tangentMode: 781557860
        weightedMode: 0
        inWeight: {x: 0.33333334, y: 0.33333334, z: 0.33333334, w: 0.33333334}
        outWeight: {x: 0.33333334, y: 0.33333334, z: 0.33333334, w: 0.33333334}
      - serializedVersion: 3
        time: 0.74999994
        value: {x: 0.23879953, y: 0.6655635, z: 0.6655635, w: -0.23879953}
        inSlope: {x: -1.0855496, y: 0.3894893, z: 0.3894893, w: 1.0855496}
        outSlope: {x: -1.0855496, y: 0.3894893, z: 0.3894893, w: 1.0855496}
        tangentMode: 185903968
        weightedMode: 0
        inWeight: {x: 0.33333334, y: 0.33333334, z: 0.33333334, w: 0.33333334}
        outWeight: {x: 0.33333334, y: 0.33333334, z: 0.33333334, w: 0.33333334}
      - serializedVersion: 3
        time: 0.7666666
        value: {x: 0.22061877, y: 0.671809, z: 0.671809, w: -0.22061877}
        inSlope: {x: -1.0957384, y: 0.3598348, z: 0.3598348, w: 1.0957384}
        outSlope: {x: -1.0957384, y: 0.3598348, z: 0.3598348, w: 1.0957384}
        tangentMode: 185929572
        weightedMode: 0
        inWeight: {x: 0.33333334, y: 0.33333334, z: 0.33333334, w: 0.33333334}
        outWeight: {x: 0.33333334, y: 0.33333334, z: 0.33333334, w: 0.33333334}
      - serializedVersion: 3
        time: 0.78333324
        value: {x: 0.20227495, y: 0.677558, z: 0.677558, w: -0.20227495}
        inSlope: {x: -1.1051154, y: 0.32991558, z: 0.32991558, w: 1.1051154}
        outSlope: {x: -1.1051154, y: 0.32991558, z: 0.32991558, w: 1.1051154}
        tangentMode: 185633508
        weightedMode: 0
        inWeight: {x: 0.33333334, y: 0.33333334, z: 0.33333334, w: 0.33333334}
        outWeight: {x: 0.33333334, y: 0.33333334, z: 0.33333334, w: 0.33333334}
      - serializedVersion: 3
        time: 0.7999999
        value: {x: 0.18378162, y: 0.6828062, z: 0.6828062, w: -0.18378162}
        inSlope: {x: -1.1136757, y: 0.29975325, z: 0.29975325, w: 1.1136757}
        outSlope: {x: -1.1136757, y: 0.29975325, z: 0.29975325, w: 1.1136757}
        tangentMode: 185526628
        weightedMode: 0
        inWeight: {x: 0.33333334, y: 0.33333334, z: 0.33333334, w: 0.33333334}
        outWeight: {x: 0.33333334, y: 0.33333334, z: 0.33333334, w: 0.33333334}
      - serializedVersion: 3
        time: 0.81666654
        value: {x: 0.16515246, y: 0.68754977, z: 0.68754977, w: -0.16515246}
        inSlope: {x: -1.1214107, y: 0.26936644, z: 0.26936644, w: 1.1214107}
        outSlope: {x: -1.1214107, y: 0.26936644, z: 0.26936644, w: 1.1214107}
        tangentMode: 621769700
        weightedMode: 0
        inWeight: {x: 0.33333334, y: 0.33333334, z: 0.33333334, w: 0.33333334}
        outWeight: {x: 0.33333334, y: 0.33333334, z: 0.33333334, w: 0.33333334}
      - serializedVersion: 3
        time: 0.8333333
        value: {x: 0.14640117, y: 0.6917851, z: 0.6917851, w: -0.14640117}
        inSlope: {x: -1.1250706, y: 0.25411806, z: 0.25411806, w: 1.1250706}
        outSlope: {x: -1.1250706, y: 0.25411806, z: 0.25411806, w: 1.1250706}
        tangentMode: 185566784
        weightedMode: 0
        inWeight: {x: 0.33333334, y: 0.33333334, z: 0.33333334, w: 0.33333334}
        outWeight: {x: 0.33333334, y: 0.33333334, z: 0.33333334, w: 0.33333334}
      m_PreInfinity: 2
      m_PostInfinity: 2
      m_RotationOrder: 4
    path: 
  m_CompressedRotationCurves: []
  m_EulerCurves: []
  m_PositionCurves: []
  m_ScaleCurves: []
  m_FloatCurves:
  - curve:
      serializedVersion: 2
      m_Curve:
      - serializedVersion: 3
        time: 0
        value: 0
        inSlope: 5.2941175
        outSlope: 5.2941175
        tangentMode: 34
        weightedMode: 0
        inWeight: 0.33333334
        outWeight: 0.33333334
      - serializedVersion: 3
        time: 0.083333336
        value: 0.44117647
        inSlope: 3.0882354
        outSlope: 3.0882354
        tangentMode: 34
        weightedMode: 0
        inWeight: 0.33333334
        outWeight: 0.33333334
      - serializedVersion: 3
        time: 0.33333334
        value: 0.66176474
        inSlope: -0.000000059604645
        outSlope: -0.000000059604645
        tangentMode: 34
        weightedMode: 0
        inWeight: 0.33333334
        outWeight: 0.33333334
      - serializedVersion: 3
        time: 0.5833333
        value: 0.44117647
        inSlope: -1.3235295
        outSlope: -1.3235295
        tangentMode: 34
        weightedMode: 0
        inWeight: 0.33333334
        outWeight: 0.33333334
      - serializedVersion: 3
        time: 0.8333333
        value: 0
        inSlope: -1.7647059
        outSlope: -1.7647059
        tangentMode: 34
        weightedMode: 0
        inWeight: 0.33333334
        outWeight: 0.33333334
      m_PreInfinity: 2
      m_PostInfinity: 2
      m_RotationOrder: 4
    attribute: material._TintColor.r
    path: 
    classID: 23
    script: {fileID: 0}
  - curve:
      serializedVersion: 2
      m_Curve:
      - serializedVersion: 3
        time: 0
        value: 0
        inSlope: 6.450304
        outSlope: 6.450304
        tangentMode: 34
        weightedMode: 0
        inWeight: 0.33333334
        outWeight: 0.33333334
      - serializedVersion: 3
        time: 0.083333336
        value: 0.53752536
        inSlope: 3.473631
        outSlope: 3.473631
        tangentMode: 34
        weightedMode: 0
        inWeight: 0.33333334
        outWeight: 0.33333334
      - serializedVersion: 3
        time: 0.33333334
        value: 0.66176474
        inSlope: 0.786207
        outSlope: 0.786207
        tangentMode: 34
        weightedMode: 0
        inWeight: 0.33333334
        outWeight: 0.33333334
      - serializedVersion: 3
        time: 0.5833333
        value: 0.93062884
        inSlope: -1.3235295
        outSlope: -1.3235295
        tangentMode: 34
        weightedMode: 0
        inWeight: 0.33333334
        outWeight: 0.33333334
      - serializedVersion: 3
        time: 0.8333333
        value: 0
        inSlope: -3.7225153
        outSlope: -3.7225153
        tangentMode: 34
        weightedMode: 0
        inWeight: 0.33333334
        outWeight: 0.33333334
      m_PreInfinity: 2
      m_PostInfinity: 2
      m_RotationOrder: 4
    attribute: material._TintColor.g
    path: 
    classID: 23
    script: {fileID: 0}
  - curve:
      serializedVersion: 2
      m_Curve:
      - serializedVersion: 3
        time: 0
        value: 0
        inSlope: 12
        outSlope: 12
        tangentMode: 34
        weightedMode: 0
        inWeight: 0.33333334
        outWeight: 0.33333334
      - serializedVersion: 3
        time: 0.083333336
        value: 1
        inSlope: 5.3235292
        outSlope: 5.3235292
        tangentMode: 34
        weightedMode: 0
        inWeight: 0.33333334
        outWeight: 0.33333334
      - serializedVersion: 3
        time: 0.33333334
        value: 0.66176474
        inSlope: 0.000000059604645
        outSlope: 0.000000059604645
        tangentMode: 34
        weightedMode: 0
        inWeight: 0.33333334
        outWeight: 0.33333334
      - serializedVersion: 3
        time: 0.5833333
        value: 1
        inSlope: -1.3235295
        outSlope: -1.3235295
        tangentMode: 34
        weightedMode: 0
        inWeight: 0.33333334
        outWeight: 0.33333334
      - serializedVersion: 3
        time: 0.8333333
        value: 0
        inSlope: -4
        outSlope: -4
        tangentMode: 34
        weightedMode: 0
        inWeight: 0.33333334
        outWeight: 0.33333334
      m_PreInfinity: 2
      m_PostInfinity: 2
      m_RotationOrder: 4
    attribute: material._TintColor.b
    path: 
    classID: 23
    script: {fileID: 0}
  - curve:
      serializedVersion: 2
      m_Curve:
      - serializedVersion: 3
        time: 0
        value: 0
        inSlope: 5.6470585
        outSlope: 5.6470585
        tangentMode: 34
        weightedMode: 0
        inWeight: 0.33333334
        outWeight: 0.33333334
      - serializedVersion: 3
        time: 0.083333336
        value: 0.47058824
        inSlope: 2.635294
        outSlope: 2.635294
        tangentMode: 34
        weightedMode: 0
        inWeight: 0.33333334
        outWeight: 0.33333334
      - serializedVersion: 3
        time: 0.33333334
        value: 0.3764706
        inSlope: -0.070588216
        outSlope: -0.070588216
        tangentMode: 34
        weightedMode: 0
        inWeight: 0.33333334
        outWeight: 0.33333334
      - serializedVersion: 3
        time: 0.5833333
        value: 0.43529412
        inSlope: -0.7529412
        outSlope: -0.7529412
        tangentMode: 34
        weightedMode: 0
        inWeight: 0.33333334
        outWeight: 0.33333334
      - serializedVersion: 3
        time: 0.8333333
        value: 0
        inSlope: -1.7411765
        outSlope: -1.7411765
        tangentMode: 34
        weightedMode: 0
        inWeight: 0.33333334
        outWeight: 0.33333334
      m_PreInfinity: 2
      m_PostInfinity: 2
      m_RotationOrder: 4
    attribute: material._TintColor.a
    path: 
    classID: 23
    script: {fileID: 0}
  m_PPtrCurves: []
  m_SampleRate: 60
  m_WrapMode: 0
  m_Bounds:
    m_Center: {x: 0, y: 0, z: 0}
    m_Extent: {x: 0, y: 0, z: 0}
  m_ClipBindingConstant:
    genericBindings:
    - serializedVersion: 2
      path: 0
      attribute: 2
      script: {fileID: 0}
      typeID: 4
      customType: 0
      isPPtrCurve: 0
    - serializedVersion: 2
      path: 0
      attribute: 1090582214
      script: {fileID: 0}
      typeID: 23
      customType: 22
      isPPtrCurve: 0
    - serializedVersion: 2
      path: 0
      attribute: 1359017670
      script: {fileID: 0}
      typeID: 23
      customType: 22
      isPPtrCurve: 0
    - serializedVersion: 2
      path: 0
      attribute: 1627453126
      script: {fileID: 0}
      typeID: 23
      customType: 22
      isPPtrCurve: 0
    - serializedVersion: 2
      path: 0
      attribute: 1895888582
      script: {fileID: 0}
      typeID: 23
      customType: 22
      isPPtrCurve: 0
    pptrCurveMapping: []
  m_AnimationClipSettings:
    serializedVersion: 2
    m_AdditiveReferencePoseClip: {fileID: 0}
    m_AdditiveReferencePoseTime: 0
    m_StartTime: 0
    m_StopTime: 0.8333333
    m_OrientationOffsetY: 0
    m_Level: 0
    m_CycleOffset: 0
    m_HasAdditiveReferencePose: 0
    m_LoopTime: 0
    m_LoopBlend: 0
    m_LoopBlendOrientation: 0
    m_LoopBlendPositionY: 0
    m_LoopBlendPositionXZ: 0
    m_KeepOriginalOrientation: 0
    m_KeepOriginalPositionY: 1
    m_KeepOriginalPositionXZ: 0
    m_HeightFromFeet: 0
    m_Mirror: 0
  m_EditorCurves:
  - curve:
      serializedVersion: 2
      m_Curve:
      - serializedVersion: 3
        time: 0
        value: 0
        inSlope: 5.2941175
        outSlope: 5.2941175
        tangentMode: 34
        weightedMode: 0
        inWeight: 0.33333334
        outWeight: 0.33333334
      - serializedVersion: 3
        time: 0.083333336
        value: 0.44117647
        inSlope: 3.0882354
        outSlope: 3.0882354
        tangentMode: 34
        weightedMode: 0
        inWeight: 0.33333334
        outWeight: 0.33333334
      - serializedVersion: 3
        time: 0.33333334
        value: 0.66176474
        inSlope: -0.000000059604645
        outSlope: -0.000000059604645
        tangentMode: 34
        weightedMode: 0
        inWeight: 0.33333334
        outWeight: 0.33333334
      - serializedVersion: 3
        time: 0.5833333
        value: 0.44117647
        inSlope: -1.3235295
        outSlope: -1.3235295
        tangentMode: 34
        weightedMode: 0
        inWeight: 0.33333334
        outWeight: 0.33333334
      - serializedVersion: 3
        time: 0.8333333
        value: 0
        inSlope: -1.7647059
        outSlope: -1.7647059
        tangentMode: 34
        weightedMode: 0
        inWeight: 0.33333334
        outWeight: 0.33333334
      m_PreInfinity: 2
      m_PostInfinity: 2
      m_RotationOrder: 4
    attribute: material._TintColor.r
    path: 
    classID: 23
    script: {fileID: 0}
  - curve:
      serializedVersion: 2
      m_Curve:
      - serializedVersion: 3
        time: 0
        value: 0
        inSlope: 6.450304
        outSlope: 6.450304
        tangentMode: 34
        weightedMode: 0
        inWeight: 0.33333334
        outWeight: 0.33333334
      - serializedVersion: 3
        time: 0.083333336
        value: 0.53752536
        inSlope: 3.473631
        outSlope: 3.473631
        tangentMode: 34
        weightedMode: 0
        inWeight: 0.33333334
        outWeight: 0.33333334
      - serializedVersion: 3
        time: 0.33333334
        value: 0.66176474
        inSlope: 0.786207
        outSlope: 0.786207
        tangentMode: 34
        weightedMode: 0
        inWeight: 0.33333334
        outWeight: 0.33333334
      - serializedVersion: 3
        time: 0.5833333
        value: 0.93062884
        inSlope: -1.3235295
        outSlope: -1.3235295
        tangentMode: 34
        weightedMode: 0
        inWeight: 0.33333334
        outWeight: 0.33333334
      - serializedVersion: 3
        time: 0.8333333
        value: 0
        inSlope: -3.7225153
        outSlope: -3.7225153
        tangentMode: 34
        weightedMode: 0
        inWeight: 0.33333334
        outWeight: 0.33333334
      m_PreInfinity: 2
      m_PostInfinity: 2
      m_RotationOrder: 4
    attribute: material._TintColor.g
    path: 
    classID: 23
    script: {fileID: 0}
  - curve:
      serializedVersion: 2
      m_Curve:
      - serializedVersion: 3
        time: 0
        value: 0
        inSlope: 12
        outSlope: 12
        tangentMode: 34
        weightedMode: 0
        inWeight: 0.33333334
        outWeight: 0.33333334
      - serializedVersion: 3
        time: 0.083333336
        value: 1
        inSlope: 5.3235292
        outSlope: 5.3235292
        tangentMode: 34
        weightedMode: 0
        inWeight: 0.33333334
        outWeight: 0.33333334
      - serializedVersion: 3
        time: 0.33333334
        value: 0.66176474
        inSlope: 0.000000059604645
        outSlope: 0.000000059604645
        tangentMode: 34
        weightedMode: 0
        inWeight: 0.33333334
        outWeight: 0.33333334
      - serializedVersion: 3
        time: 0.5833333
        value: 1
        inSlope: -1.3235295
        outSlope: -1.3235295
        tangentMode: 34
        weightedMode: 0
        inWeight: 0.33333334
        outWeight: 0.33333334
      - serializedVersion: 3
        time: 0.8333333
        value: 0
        inSlope: -4
        outSlope: -4
        tangentMode: 34
        weightedMode: 0
        inWeight: 0.33333334
        outWeight: 0.33333334
      m_PreInfinity: 2
      m_PostInfinity: 2
      m_RotationOrder: 4
    attribute: material._TintColor.b
    path: 
    classID: 23
    script: {fileID: 0}
  - curve:
      serializedVersion: 2
      m_Curve:
      - serializedVersion: 3
        time: 0
        value: 0
        inSlope: 5.6470585
        outSlope: 5.6470585
        tangentMode: 34
        weightedMode: 0
        inWeight: 0.33333334
        outWeight: 0.33333334
      - serializedVersion: 3
        time: 0.083333336
        value: 0.47058824
        inSlope: 2.635294
        outSlope: 2.635294
        tangentMode: 34
        weightedMode: 0
        inWeight: 0.33333334
        outWeight: 0.33333334
      - serializedVersion: 3
        time: 0.33333334
        value: 0.3764706
        inSlope: -0.070588216
        outSlope: -0.070588216
        tangentMode: 34
        weightedMode: 0
        inWeight: 0.33333334
        outWeight: 0.33333334
      - serializedVersion: 3
        time: 0.5833333
        value: 0.43529412
        inSlope: -0.7529412
        outSlope: -0.7529412
        tangentMode: 34
        weightedMode: 0
        inWeight: 0.33333334
        outWeight: 0.33333334
      - serializedVersion: 3
        time: 0.8333333
        value: 0
        inSlope: -1.7411765
        outSlope: -1.7411765
        tangentMode: 34
        weightedMode: 0
        inWeight: 0.33333334
        outWeight: 0.33333334
      m_PreInfinity: 2
      m_PostInfinity: 2
      m_RotationOrder: 4
    attribute: material._TintColor.a
    path: 
    classID: 23
    script: {fileID: 0}
  - curve:
      serializedVersion: 2
      m_Curve:
      - serializedVersion: 3
        time: 0
        value: 0.70710385
        inSlope: -0.019015072
        outSlope: -0.019015072
        tangentMode: 0
        weightedMode: 0
        inWeight: 0.33333334
        outWeight: 0.33333334
      - serializedVersion: 3
        time: 0.016666668
        value: 0.70678693
        inSlope: -0.034682747
        outSlope: -0.034682747
        tangentMode: 0
        weightedMode: 0
        inWeight: 0.33333334
        outWeight: 0.33333334
      - serializedVersion: 3
        time: 0.033333335
        value: 0.70594776
        inSlope: -0.06600558
        outSlope: -0.06600558
        tangentMode: 0
        weightedMode: 0
        inWeight: 0.33333334
        outWeight: 0.33333334
      - serializedVersion: 3
        time: 0.050000004
        value: 0.70458674
        inSlope: -0.09728193
        outSlope: -0.09728193
        tangentMode: 0
        weightedMode: 0
        inWeight: 0.33333334
        outWeight: 0.33333334
      - serializedVersion: 3
        time: 0.06666667
        value: 0.702705
        inSlope: -0.12848498
        outSlope: -0.12848498
        tangentMode: 0
        weightedMode: 0
        inWeight: 0.33333334
        outWeight: 0.33333334
      - serializedVersion: 3
        time: 0.083333336
        value: 0.7003039
        inSlope: -0.15959503
        outSlope: -0.15959503
        tangentMode: 0
        weightedMode: 0
        inWeight: 0.33333334
        outWeight: 0.33333334
      - serializedVersion: 3
        time: 0.1
        value: 0.6973852
        inSlope: -0.19058527
        outSlope: -0.19058527
        tangentMode: 0
        weightedMode: 0
        inWeight: 0.33333334
        outWeight: 0.33333334
      - serializedVersion: 3
        time: 0.11666667
        value: 0.6939511
        inSlope: -0.22143242
        outSlope: -0.22143242
        tangentMode: 0
        weightedMode: 0
        inWeight: 0.33333334
        outWeight: 0.33333334
      - serializedVersion: 3
        time: 0.13333334
        value: 0.6900041
        inSlope: -0.25212047
        outSlope: -0.25212047
        tangentMode: 0
        weightedMode: 0
        inWeight: 0.33333334
        outWeight: 0.33333334
      - serializedVersion: 3
        time: 0.15
        value: 0.68554705
        inSlope: -0.2826226
        outSlope: -0.2826226
        tangentMode: 0
        weightedMode: 0
        inWeight: 0.33333334
        outWeight: 0.33333334
      - serializedVersion: 3
        time: 0.16666667
        value: 0.68058336
        inSlope: -0.3129119
        outSlope: -0.3129119
        tangentMode: 0
        weightedMode: 0
        inWeight: 0.33333334
        outWeight: 0.33333334
      - serializedVersion: 3
        time: 0.18333334
        value: 0.67511666
        inSlope: -0.34297052
        outSlope: -0.34297052
        tangentMode: 0
        weightedMode: 0
        inWeight: 0.33333334
        outWeight: 0.33333334
      - serializedVersion: 3
        time: 0.2
        value: 0.669151
        inSlope: -0.37277701
        outSlope: -0.37277701
        tangentMode: 0
        weightedMode: 0
        inWeight: 0.33333334
        outWeight: 0.33333334
      - serializedVersion: 3
        time: 0.21666667
        value: 0.66269076
        inSlope: -0.40230814
        outSlope: -0.40230814
        tangentMode: 0
        weightedMode: 0
        inWeight: 0.33333334
        outWeight: 0.33333334
      - serializedVersion: 3
        time: 0.23333333
        value: 0.65574074
        inSlope: -0.43154243
        outSlope: -0.43154243
        tangentMode: 0
        weightedMode: 0
        inWeight: 0.33333334
        outWeight: 0.33333334
      - serializedVersion: 3
        time: 0.25
        value: 0.648306
        inSlope: -0.46045643
        outSlope: -0.46045643
        tangentMode: 0
        weightedMode: 0
        inWeight: 0.33333334
        outWeight: 0.33333334
      - serializedVersion: 3
        time: 0.26666668
        value: 0.6403922
        inSlope: -0.48903066
        outSlope: -0.48903066
        tangentMode: 0
        weightedMode: 0
        inWeight: 0.33333334
        outWeight: 0.33333334
      - serializedVersion: 3
        time: 0.28333336
        value: 0.632005
        inSlope: -0.51724213
        outSlope: -0.51724213
        tangentMode: 0
        weightedMode: 0
        inWeight: 0.33333334
        outWeight: 0.33333334
      - serializedVersion: 3
        time: 0.30000004
        value: 0.62315077
        inSlope: -0.5450727
        outSlope: -0.5450727
        tangentMode: 0
        weightedMode: 0
        inWeight: 0.33333334
        outWeight: 0.33333334
      - serializedVersion: 3
        time: 0.31666672
        value: 0.6138359
        inSlope: -0.57250273
        outSlope: -0.57250273
        tangentMode: 0
        weightedMode: 0
        inWeight: 0.33333334
        outWeight: 0.33333334
      - serializedVersion: 3
        time: 0.3333334
        value: 0.6040673
        inSlope: -0.59950364
        outSlope: -0.59950364
        tangentMode: 0
        weightedMode: 0
        inWeight: 0.33333334
        outWeight: 0.33333334
      - serializedVersion: 3
        time: 0.35000008
        value: 0.5938524
        inSlope: -0.6260664
        outSlope: -0.6260664
        tangentMode: 0
        weightedMode: 0
        inWeight: 0.33333334
        outWeight: 0.33333334
      - serializedVersion: 3
        time: 0.36666676
        value: 0.5831984
        inSlope: -0.65216607
        outSlope: -0.65216607
        tangentMode: 0
        weightedMode: 0
        inWeight: 0.33333334
        outWeight: 0.33333334
      - serializedVersion: 3
        time: 0.38333344
        value: 0.5721135
        inSlope: -0.6777811
        outSlope: -0.6777811
        tangentMode: 0
        weightedMode: 0
        inWeight: 0.33333334
        outWeight: 0.33333334
      - serializedVersion: 3
        time: 0.40000013
        value: 0.5606057
        inSlope: -0.7028991
        outSlope: -0.7028991
        tangentMode: 0
        weightedMode: 0
        inWeight: 0.33333334
        outWeight: 0.33333334
      - serializedVersion: 3
        time: 0.4166668
        value: 0.5486835
        inSlope: -0.72749317
        outSlope: -0.72749317
        tangentMode: 0
        weightedMode: 0
        inWeight: 0.33333334
        outWeight: 0.33333334
      - serializedVersion: 3
        time: 0.4333335
        value: 0.5363559
        inSlope: -0.7515508
        outSlope: -0.7515508
        tangentMode: 0
        weightedMode: 0
        inWeight: 0.33333334
        outWeight: 0.33333334
      - serializedVersion: 3
        time: 0.45000017
        value: 0.5236318
        inSlope: -0.77505404
        outSlope: -0.77505404
        tangentMode: 0
        weightedMode: 0
        inWeight: 0.33333334
        outWeight: 0.33333334
      - serializedVersion: 3
        time: 0.46666685
        value: 0.51052076
        inSlope: -0.79798335
        outSlope: -0.79798335
        tangentMode: 0
        weightedMode: 0
        inWeight: 0.33333334
        outWeight: 0.33333334
      - serializedVersion: 3
        time: 0.48333353
        value: 0.49703234
        inSlope: -0.820326
        outSlope: -0.820326
        tangentMode: 0
        weightedMode: 0
        inWeight: 0.33333334
        outWeight: 0.33333334
      - serializedVersion: 3
        time: 0.5000002
        value: 0.48317656
        inSlope: -0.84205973
        outSlope: -0.84205973
        tangentMode: 0
        weightedMode: 0
        inWeight: 0.33333334
        outWeight: 0.33333334
      - serializedVersion: 3
        time: 0.5166668
        value: 0.4689637
        inSlope: -0.86317146
        outSlope: -0.86317146
        tangentMode: 0
        weightedMode: 0
        inWeight: 0.33333334
        outWeight: 0.33333334
      - serializedVersion: 3
        time: 0.5333335
        value: 0.4544042
        inSlope: -0.88364387
        outSlope: -0.88364387
        tangentMode: 0
        weightedMode: 0
        inWeight: 0.33333334
        outWeight: 0.33333334
      - serializedVersion: 3
        time: 0.55000013
        value: 0.43950894
        inSlope: -0.9034654
        outSlope: -0.9034654
        tangentMode: 0
        weightedMode: 0
        inWeight: 0.33333334
        outWeight: 0.33333334
      - serializedVersion: 3
        time: 0.5666668
        value: 0.42428872
        inSlope: -0.9226173
        outSlope: -0.9226173
        tangentMode: 0
        weightedMode: 0
        inWeight: 0.33333334
        outWeight: 0.33333334
      - serializedVersion: 3
        time: 0.58333343
        value: 0.40875506
        inSlope: -0.941087
        outSlope: -0.941087
        tangentMode: 0
        weightedMode: 0
        inWeight: 0.33333334
        outWeight: 0.33333334
      - serializedVersion: 3
        time: 0.6000001
        value: 0.39291918
        inSlope: -0.9588656
        outSlope: -0.9588656
        tangentMode: 0
        weightedMode: 0
        inWeight: 0.33333334
        outWeight: 0.33333334
      - serializedVersion: 3
        time: 0.61666673
        value: 0.3767929
        inSlope: -0.97592986
        outSlope: -0.97592986
        tangentMode: 0
        weightedMode: 0
        inWeight: 0.33333334
        outWeight: 0.33333334
      - serializedVersion: 3
        time: 0.6333334
        value: 0.36038822
        inSlope: -0.99227524
        outSlope: -0.99227524
        tangentMode: 0
        weightedMode: 0
        inWeight: 0.33333334
        outWeight: 0.33333334
      - serializedVersion: 3
        time: 0.65000004
        value: 0.3437171
        inSlope: -1.007891
        outSlope: -1.007891
        tangentMode: 0
        weightedMode: 0
        inWeight: 0.33333334
        outWeight: 0.33333334
      - serializedVersion: 3
        time: 0.6666667
        value: 0.32679188
        inSlope: -1.0227576
        outSlope: -1.0227576
        tangentMode: 0
        weightedMode: 0
        inWeight: 0.33333334
        outWeight: 0.33333334
      - serializedVersion: 3
        time: 0.68333334
        value: 0.3096252
        inSlope: -1.0368643
        outSlope: -1.0368643
        tangentMode: 0
        weightedMode: 0
        inWeight: 0.33333334
        outWeight: 0.33333334
      - serializedVersion: 3
        time: 0.7
        value: 0.29222977
        inSlope: -1.0502092
        outSlope: -1.0502092
        tangentMode: 0
        weightedMode: 0
        inWeight: 0.33333334
        outWeight: 0.33333334
      - serializedVersion: 3
        time: 0.71666664
        value: 0.27461827
        inSlope: -1.0627825
        outSlope: -1.0627825
        tangentMode: 0
        weightedMode: 0
        inWeight: 0.33333334
        outWeight: 0.33333334
      - serializedVersion: 3
        time: 0.7333333
        value: 0.25680372
        inSlope: -1.0745633
        outSlope: -1.0745633
        tangentMode: 0
        weightedMode: 0
        inWeight: 0.33333334
        outWeight: 0.33333334
      - serializedVersion: 3
        time: 0.74999994
        value: 0.23879953
        inSlope: -1.0855496
        outSlope: -1.0855496
        tangentMode: 0
        weightedMode: 0
        inWeight: 0.33333334
        outWeight: 0.33333334
      - serializedVersion: 3
        time: 0.7666666
        value: 0.22061877
        inSlope: -1.0957384
        outSlope: -1.0957384
        tangentMode: 0
        weightedMode: 0
        inWeight: 0.33333334
        outWeight: 0.33333334
      - serializedVersion: 3
        time: 0.78333324
        value: 0.20227495
        inSlope: -1.1051154
        outSlope: -1.1051154
        tangentMode: 0
        weightedMode: 0
        inWeight: 0.33333334
        outWeight: 0.33333334
      - serializedVersion: 3
        time: 0.7999999
        value: 0.18378162
        inSlope: -1.1136757
        outSlope: -1.1136757
        tangentMode: 0
        weightedMode: 0
        inWeight: 0.33333334
        outWeight: 0.33333334
      - serializedVersion: 3
        time: 0.81666654
        value: 0.16515246
        inSlope: -1.1214107
        outSlope: -1.1214107
        tangentMode: 0
        weightedMode: 0
        inWeight: 0.33333334
        outWeight: 0.33333334
      - serializedVersion: 3
        time: 0.8333333
        value: 0.14640117
        inSlope: -1.1250706
        outSlope: -1.1250706
        tangentMode: 0
        weightedMode: 0
        inWeight: 0.33333334
        outWeight: 0.33333334
      m_PreInfinity: 2
      m_PostInfinity: 2
      m_RotationOrder: 4
    attribute: m_LocalRotation.x
    path: 
    classID: 4
    script: {fileID: 0}
  - curve:
      serializedVersion: 2
      m_Curve:
      - serializedVersion: 3
        time: 0
        value: 0.0020428265
        inSlope: 1.15326
        outSlope: 1.15326
        tangentMode: 0
        weightedMode: 0
        inWeight: 0.33333334
        outWeight: 0.33333334
      - serializedVersion: 3
        time: 0.016666668
        value: 0.021263827
        inSlope: 1.1527884
        outSlope: 1.1527884
        tangentMode: 0
        weightedMode: 0
        inWeight: 0.33333334
        outWeight: 0.33333334
      - serializedVersion: 3
        time: 0.033333335
        value: 0.04046911
        inSlope: 1.1514196
        outSlope: 1.1514196
        tangentMode: 0
        weightedMode: 0
        inWeight: 0.33333334
        outWeight: 0.33333334
      - serializedVersion: 3
        time: 0.050000004
        value: 0.059644487
        inSlope: 1.1492
        outSlope: 1.1492
        tangentMode: 0
        weightedMode: 0
        inWeight: 0.33333334
        outWeight: 0.33333334
      - serializedVersion: 3
        time: 0.06666667
        value: 0.07877578
        inSlope: 1.1461307
        outSlope: 1.1461307
        tangentMode: 0
        weightedMode: 0
        inWeight: 0.33333334
        outWeight: 0.33333334
      - serializedVersion: 3
        time: 0.083333336
        value: 0.09784884
        inSlope: 1.1422145
        outSlope: 1.1422145
        tangentMode: 0
        weightedMode: 0
        inWeight: 0.33333334
        outWeight: 0.33333334
      - serializedVersion: 3
        time: 0.1
        value: 0.116849594
        inSlope: 1.137454
        outSlope: 1.137454
        tangentMode: 0
        weightedMode: 0
        inWeight: 0.33333334
        outWeight: 0.33333334
      - serializedVersion: 3
        time: 0.11666667
        value: 0.13576397
        inSlope: 1.1318524
        outSlope: 1.1318524
        tangentMode: 0
        weightedMode: 0
        inWeight: 0.33333334
        outWeight: 0.33333334
      - serializedVersion: 3
        time: 0.13333334
        value: 0.15457802
        inSlope: 1.1254153
        outSlope: 1.1254153
        tangentMode: 0
        weightedMode: 0
        inWeight: 0.33333334
        outWeight: 0.33333334
      - serializedVersion: 3
        time: 0.15
        value: 0.17327783
        inSlope: 1.118146
        outSlope: 1.118146
        tangentMode: 0
        weightedMode: 0
        inWeight: 0.33333334
        outWeight: 0.33333334
      - serializedVersion: 3
        time: 0.16666667
        value: 0.19184954
        inSlope: 1.1100497
        outSlope: 1.1100497
        tangentMode: 0
        weightedMode: 0
        inWeight: 0.33333334
        outWeight: 0.33333334
      - serializedVersion: 3
        time: 0.18333334
        value: 0.21027948
        inSlope: 1.1011336
        outSlope: 1.1011336
        tangentMode: 0
        weightedMode: 0
        inWeight: 0.33333334
        outWeight: 0.33333334
      - serializedVersion: 3
        time: 0.2
        value: 0.228554
        inSlope: 1.0914025
        outSlope: 1.0914025
        tangentMode: 0
        weightedMode: 0
        inWeight: 0.33333334
        outWeight: 0.33333334
      - serializedVersion: 3
        time: 0.21666667
        value: 0.24665956
        inSlope: 1.0808663
        outSlope: 1.0808663
        tangentMode: 0
        weightedMode: 0
        inWeight: 0.33333334
        outWeight: 0.33333334
      - serializedVersion: 3
        time: 0.23333333
        value: 0.26458287
        inSlope: 1.0695305
        outSlope: 1.0695305
        tangentMode: 0
        weightedMode: 0
        inWeight: 0.33333334
        outWeight: 0.33333334
      - serializedVersion: 3
        time: 0.25
        value: 0.28231058
        inSlope: 1.0574043
        outSlope: 1.0574043
        tangentMode: 0
        weightedMode: 0
        inWeight: 0.33333334
        outWeight: 0.33333334
      - serializedVersion: 3
        time: 0.26666668
        value: 0.2998297
        inSlope: 1.044497
        outSlope: 1.044497
        tangentMode: 0
        weightedMode: 0
        inWeight: 0.33333334
        outWeight: 0.33333334
      - serializedVersion: 3
        time: 0.28333336
        value: 0.31712717
        inSlope: 1.0308168
        outSlope: 1.0308168
        tangentMode: 0
        weightedMode: 0
        inWeight: 0.33333334
        outWeight: 0.33333334
      - serializedVersion: 3
        time: 0.30000004
        value: 0.33419028
        inSlope: 1.0163758
        outSlope: 1.0163758
        tangentMode: 0
        weightedMode: 0
        inWeight: 0.33333334
        outWeight: 0.33333334
      - serializedVersion: 3
        time: 0.31666672
        value: 0.3510064
        inSlope: 1.0011828
        outSlope: 1.0011828
        tangentMode: 0
        weightedMode: 0
        inWeight: 0.33333334
        outWeight: 0.33333334
      - serializedVersion: 3
        time: 0.3333334
        value: 0.36756307
        inSlope: 0.98524964
        outSlope: 0.98524964
        tangentMode: 0
        weightedMode: 0
        inWeight: 0.33333334
        outWeight: 0.33333334
      - serializedVersion: 3
        time: 0.35000008
        value: 0.38384807
        inSlope: 0.96858954
        outSlope: 0.96858954
        tangentMode: 0
        weightedMode: 0
        inWeight: 0.33333334
        outWeight: 0.33333334
      - serializedVersion: 3
        time: 0.36666676
        value: 0.3998494
        inSlope: 0.95121247
        outSlope: 0.95121247
        tangentMode: 0
        weightedMode: 0
        inWeight: 0.33333334
        outWeight: 0.33333334
      - serializedVersion: 3
        time: 0.38333344
        value: 0.41555518
        inSlope: 0.9331335
        outSlope: 0.9331335
        tangentMode: 0
        weightedMode: 0
        inWeight: 0.33333334
        outWeight: 0.33333334
      - serializedVersion: 3
        time: 0.40000013
        value: 0.4309539
        inSlope: 0.9143643
        outSlope: 0.9143643
        tangentMode: 0
        weightedMode: 0
        inWeight: 0.33333334
        outWeight: 0.33333334
      - serializedVersion: 3
        time: 0.4166668
        value: 0.446034
        inSlope: 0.8949156
        outSlope: 0.8949156
        tangentMode: 0
        weightedMode: 0
        inWeight: 0.33333334
        outWeight: 0.33333334
      - serializedVersion: 3
        time: 0.4333335
        value: 0.46078444
        inSlope: 0.8748098
        outSlope: 0.8748098
        tangentMode: 0
        weightedMode: 0
        inWeight: 0.33333334
        outWeight: 0.33333334
      - serializedVersion: 3
        time: 0.45000017
        value: 0.47519436
        inSlope: 0.85405755
        outSlope: 0.85405755
        tangentMode: 0
        weightedMode: 0
        inWeight: 0.33333334
        outWeight: 0.33333334
      - serializedVersion: 3
        time: 0.46666685
        value: 0.48925304
        inSlope: 0.8326723
        outSlope: 0.8326723
        tangentMode: 0
        weightedMode: 0
        inWeight: 0.33333334
        outWeight: 0.33333334
      - serializedVersion: 3
        time: 0.48333353
        value: 0.50295013
        inSlope: 0.81067264
        outSlope: 0.81067264
        tangentMode: 0
        weightedMode: 0
        inWeight: 0.33333334
        outWeight: 0.33333334
      - serializedVersion: 3
        time: 0.5000002
        value: 0.51627547
        inSlope: 0.78807485
        outSlope: 0.78807485
        tangentMode: 0
        weightedMode: 0
        inWeight: 0.33333334
        outWeight: 0.33333334
      - serializedVersion: 3
        time: 0.5166668
        value: 0.52921927
        inSlope: 0.7648934
        outSlope: 0.7648934
        tangentMode: 0
        weightedMode: 0
        inWeight: 0.33333334
        outWeight: 0.33333334
      - serializedVersion: 3
        time: 0.5333335
        value: 0.5417719
        inSlope: 0.74114335
        outSlope: 0.74114335
        tangentMode: 0
        weightedMode: 0
        inWeight: 0.33333334
        outWeight: 0.33333334
      - serializedVersion: 3
        time: 0.55000013
        value: 0.553924
        inSlope: 0.7168497
        outSlope: 0.7168497
        tangentMode: 0
        weightedMode: 0
        inWeight: 0.33333334
        outWeight: 0.33333334
      - serializedVersion: 3
        time: 0.5666668
        value: 0.56566685
        inSlope: 0.69202846
        outSlope: 0.69202846
        tangentMode: 0
        weightedMode: 0
        inWeight: 0.33333334
        outWeight: 0.33333334
      - serializedVersion: 3
        time: 0.58333343
        value: 0.5769916
        inSlope: 0.66669047
        outSlope: 0.66669047
        tangentMode: 0
        weightedMode: 0
        inWeight: 0.33333334
        outWeight: 0.33333334
      - serializedVersion: 3
        time: 0.6000001
        value: 0.58788985
        inSlope: 0.6408626
        outSlope: 0.6408626
        tangentMode: 0
        weightedMode: 0
        inWeight: 0.33333334
        outWeight: 0.33333334
      - serializedVersion: 3
        time: 0.61666673
        value: 0.5983537
        inSlope: 0.61456084
        outSlope: 0.61456084
        tangentMode: 0
        weightedMode: 0
        inWeight: 0.33333334
        outWeight: 0.33333334
      - serializedVersion: 3
        time: 0.6333334
        value: 0.6083752
        inSlope: 0.58780134
        outSlope: 0.58780134
        tangentMode: 0
        weightedMode: 0
        inWeight: 0.33333334
        outWeight: 0.33333334
      - serializedVersion: 3
        time: 0.65000004
        value: 0.61794704
        inSlope: 0.5606126
        outSlope: 0.5606126
        tangentMode: 0
        weightedMode: 0
        inWeight: 0.33333334
        outWeight: 0.33333334
      - serializedVersion: 3
        time: 0.6666667
        value: 0.62706226
        inSlope: 0.53300726
        outSlope: 0.53300726
        tangentMode: 0
        weightedMode: 0
        inWeight: 0.33333334
        outWeight: 0.33333334
      - serializedVersion: 3
        time: 0.68333334
        value: 0.63571393
        inSlope: 0.505005
        outSlope: 0.505005
        tangentMode: 0
        weightedMode: 0
        inWeight: 0.33333334
        outWeight: 0.33333334
      - serializedVersion: 3
        time: 0.7
        value: 0.64389575
        inSlope: 0.4766326
        outSlope: 0.4766326
        tangentMode: 0
        weightedMode: 0
        inWeight: 0.33333334
        outWeight: 0.33333334
      - serializedVersion: 3
        time: 0.71666664
        value: 0.6516017
        inSlope: 0.44790965
        outSlope: 0.44790965
        tangentMode: 0
        weightedMode: 0
        inWeight: 0.33333334
        outWeight: 0.33333334
      - serializedVersion: 3
        time: 0.7333333
        value: 0.65882605
        inSlope: 0.41885597
        outSlope: 0.41885597
        tangentMode: 0
        weightedMode: 0
        inWeight: 0.33333334
        outWeight: 0.33333334
      - serializedVersion: 3
        time: 0.74999994
        value: 0.6655635
        inSlope: 0.3894893
        outSlope: 0.3894893
        tangentMode: 0
        weightedMode: 0
        inWeight: 0.33333334
        outWeight: 0.33333334
      - serializedVersion: 3
        time: 0.7666666
        value: 0.671809
        inSlope: 0.3598348
        outSlope: 0.3598348
        tangentMode: 0
        weightedMode: 0
        inWeight: 0.33333334
        outWeight: 0.33333334
      - serializedVersion: 3
        time: 0.78333324
        value: 0.677558
        inSlope: 0.32991558
        outSlope: 0.32991558
        tangentMode: 0
        weightedMode: 0
        inWeight: 0.33333334
        outWeight: 0.33333334
      - serializedVersion: 3
        time: 0.7999999
        value: 0.6828062
        inSlope: 0.29975325
        outSlope: 0.29975325
        tangentMode: 0
        weightedMode: 0
        inWeight: 0.33333334
        outWeight: 0.33333334
      - serializedVersion: 3
        time: 0.81666654
        value: 0.68754977
        inSlope: 0.26936644
        outSlope: 0.26936644
        tangentMode: 0
        weightedMode: 0
        inWeight: 0.33333334
        outWeight: 0.33333334
      - serializedVersion: 3
        time: 0.8333333
        value: 0.6917851
        inSlope: 0.25411806
        outSlope: 0.25411806
        tangentMode: 0
        weightedMode: 0
        inWeight: 0.33333334
        outWeight: 0.33333334
      m_PreInfinity: 2
      m_PostInfinity: 2
      m_RotationOrder: 4
    attribute: m_LocalRotation.y
    path: 
    classID: 4
    script: {fileID: 0}
  - curve:
      serializedVersion: 2
      m_Curve:
      - serializedVersion: 3
        time: 0
        value: 0.0020428265
        inSlope: 1.15326
        outSlope: 1.15326
        tangentMode: 0
        weightedMode: 0
        inWeight: 0.33333334
        outWeight: 0.33333334
      - serializedVersion: 3
        time: 0.016666668
        value: 0.021263827
        inSlope: 1.1527884
        outSlope: 1.1527884
        tangentMode: 0
        weightedMode: 0
        inWeight: 0.33333334
        outWeight: 0.33333334
      - serializedVersion: 3
        time: 0.033333335
        value: 0.04046911
        inSlope: 1.1514196
        outSlope: 1.1514196
        tangentMode: 0
        weightedMode: 0
        inWeight: 0.33333334
        outWeight: 0.33333334
      - serializedVersion: 3
        time: 0.050000004
        value: 0.059644487
        inSlope: 1.1492
        outSlope: 1.1492
        tangentMode: 0
        weightedMode: 0
        inWeight: 0.33333334
        outWeight: 0.33333334
      - serializedVersion: 3
        time: 0.06666667
        value: 0.07877578
        inSlope: 1.1461307
        outSlope: 1.1461307
        tangentMode: 0
        weightedMode: 0
        inWeight: 0.33333334
        outWeight: 0.33333334
      - serializedVersion: 3
        time: 0.083333336
        value: 0.09784884
        inSlope: 1.1422145
        outSlope: 1.1422145
        tangentMode: 0
        weightedMode: 0
        inWeight: 0.33333334
        outWeight: 0.33333334
      - serializedVersion: 3
        time: 0.1
        value: 0.116849594
        inSlope: 1.137454
        outSlope: 1.137454
        tangentMode: 0
        weightedMode: 0
        inWeight: 0.33333334
        outWeight: 0.33333334
      - serializedVersion: 3
        time: 0.11666667
        value: 0.13576397
        inSlope: 1.1318524
        outSlope: 1.1318524
        tangentMode: 0
        weightedMode: 0
        inWeight: 0.33333334
        outWeight: 0.33333334
      - serializedVersion: 3
        time: 0.13333334
        value: 0.15457802
        inSlope: 1.1254153
        outSlope: 1.1254153
        tangentMode: 0
        weightedMode: 0
        inWeight: 0.33333334
        outWeight: 0.33333334
      - serializedVersion: 3
        time: 0.15
        value: 0.17327783
        inSlope: 1.118146
        outSlope: 1.118146
        tangentMode: 0
        weightedMode: 0
        inWeight: 0.33333334
        outWeight: 0.33333334
      - serializedVersion: 3
        time: 0.16666667
        value: 0.19184954
        inSlope: 1.1100497
        outSlope: 1.1100497
        tangentMode: 0
        weightedMode: 0
        inWeight: 0.33333334
        outWeight: 0.33333334
      - serializedVersion: 3
        time: 0.18333334
        value: 0.21027948
        inSlope: 1.1011336
        outSlope: 1.1011336
        tangentMode: 0
        weightedMode: 0
        inWeight: 0.33333334
        outWeight: 0.33333334
      - serializedVersion: 3
        time: 0.2
        value: 0.228554
        inSlope: 1.0914025
        outSlope: 1.0914025
        tangentMode: 0
        weightedMode: 0
        inWeight: 0.33333334
        outWeight: 0.33333334
      - serializedVersion: 3
        time: 0.21666667
        value: 0.24665956
        inSlope: 1.0808663
        outSlope: 1.0808663
        tangentMode: 0
        weightedMode: 0
        inWeight: 0.33333334
        outWeight: 0.33333334
      - serializedVersion: 3
        time: 0.23333333
        value: 0.26458287
        inSlope: 1.0695305
        outSlope: 1.0695305
        tangentMode: 0
        weightedMode: 0
        inWeight: 0.33333334
        outWeight: 0.33333334
      - serializedVersion: 3
        time: 0.25
        value: 0.28231058
        inSlope: 1.0574043
        outSlope: 1.0574043
        tangentMode: 0
        weightedMode: 0
        inWeight: 0.33333334
        outWeight: 0.33333334
      - serializedVersion: 3
        time: 0.26666668
        value: 0.2998297
        inSlope: 1.044497
        outSlope: 1.044497
        tangentMode: 0
        weightedMode: 0
        inWeight: 0.33333334
        outWeight: 0.33333334
      - serializedVersion: 3
        time: 0.28333336
        value: 0.31712717
        inSlope: 1.0308168
        outSlope: 1.0308168
        tangentMode: 0
        weightedMode: 0
        inWeight: 0.33333334
        outWeight: 0.33333334
      - serializedVersion: 3
        time: 0.30000004
        value: 0.33419028
        inSlope: 1.0163758
        outSlope: 1.0163758
        tangentMode: 0
        weightedMode: 0
        inWeight: 0.33333334
        outWeight: 0.33333334
      - serializedVersion: 3
        time: 0.31666672
        value: 0.3510064
        inSlope: 1.0011828
        outSlope: 1.0011828
        tangentMode: 0
        weightedMode: 0
        inWeight: 0.33333334
        outWeight: 0.33333334
      - serializedVersion: 3
        time: 0.3333334
        value: 0.36756307
        inSlope: 0.98524964
        outSlope: 0.98524964
        tangentMode: 0
        weightedMode: 0
        inWeight: 0.33333334
        outWeight: 0.33333334
      - serializedVersion: 3
        time: 0.35000008
        value: 0.38384807
        inSlope: 0.96858954
        outSlope: 0.96858954
        tangentMode: 0
        weightedMode: 0
        inWeight: 0.33333334
        outWeight: 0.33333334
      - serializedVersion: 3
        time: 0.36666676
        value: 0.3998494
        inSlope: 0.95121247
        outSlope: 0.95121247
        tangentMode: 0
        weightedMode: 0
        inWeight: 0.33333334
        outWeight: 0.33333334
      - serializedVersion: 3
        time: 0.38333344
        value: 0.41555518
        inSlope: 0.9331335
        outSlope: 0.9331335
        tangentMode: 0
        weightedMode: 0
        inWeight: 0.33333334
        outWeight: 0.33333334
      - serializedVersion: 3
        time: 0.40000013
        value: 0.4309539
        inSlope: 0.9143643
        outSlope: 0.9143643
        tangentMode: 0
        weightedMode: 0
        inWeight: 0.33333334
        outWeight: 0.33333334
      - serializedVersion: 3
        time: 0.4166668
        value: 0.446034
        inSlope: 0.8949156
        outSlope: 0.8949156
        tangentMode: 0
        weightedMode: 0
        inWeight: 0.33333334
        outWeight: 0.33333334
      - serializedVersion: 3
        time: 0.4333335
        value: 0.46078444
        inSlope: 0.8748098
        outSlope: 0.8748098
        tangentMode: 0
        weightedMode: 0
        inWeight: 0.33333334
        outWeight: 0.33333334
      - serializedVersion: 3
        time: 0.45000017
        value: 0.47519436
        inSlope: 0.85405755
        outSlope: 0.85405755
        tangentMode: 0
        weightedMode: 0
        inWeight: 0.33333334
        outWeight: 0.33333334
      - serializedVersion: 3
        time: 0.46666685
        value: 0.48925304
        inSlope: 0.8326723
        outSlope: 0.8326723
        tangentMode: 0
        weightedMode: 0
        inWeight: 0.33333334
        outWeight: 0.33333334
      - serializedVersion: 3
        time: 0.48333353
        value: 0.50295013
        inSlope: 0.81067264
        outSlope: 0.81067264
        tangentMode: 0
        weightedMode: 0
        inWeight: 0.33333334
        outWeight: 0.33333334
      - serializedVersion: 3
        time: 0.5000002
        value: 0.51627547
        inSlope: 0.78807485
        outSlope: 0.78807485
        tangentMode: 0
        weightedMode: 0
        inWeight: 0.33333334
        outWeight: 0.33333334
      - serializedVersion: 3
        time: 0.5166668
        value: 0.52921927
        inSlope: 0.7648934
        outSlope: 0.7648934
        tangentMode: 0
        weightedMode: 0
        inWeight: 0.33333334
        outWeight: 0.33333334
      - serializedVersion: 3
        time: 0.5333335
        value: 0.5417719
        inSlope: 0.74114335
        outSlope: 0.74114335
        tangentMode: 0
        weightedMode: 0
        inWeight: 0.33333334
        outWeight: 0.33333334
      - serializedVersion: 3
        time: 0.55000013
        value: 0.553924
        inSlope: 0.7168497
        outSlope: 0.7168497
        tangentMode: 0
        weightedMode: 0
        inWeight: 0.33333334
        outWeight: 0.33333334
      - serializedVersion: 3
        time: 0.5666668
        value: 0.56566685
        inSlope: 0.69202846
        outSlope: 0.69202846
        tangentMode: 0
        weightedMode: 0
        inWeight: 0.33333334
        outWeight: 0.33333334
      - serializedVersion: 3
        time: 0.58333343
        value: 0.5769916
        inSlope: 0.66669047
        outSlope: 0.66669047
        tangentMode: 0
        weightedMode: 0
        inWeight: 0.33333334
        outWeight: 0.33333334
      - serializedVersion: 3
        time: 0.6000001
        value: 0.58788985
        inSlope: 0.6408626
        outSlope: 0.6408626
        tangentMode: 0
        weightedMode: 0
        inWeight: 0.33333334
        outWeight: 0.33333334
      - serializedVersion: 3
        time: 0.61666673
        value: 0.5983537
        inSlope: 0.61456084
        outSlope: 0.61456084
        tangentMode: 0
        weightedMode: 0
        inWeight: 0.33333334
        outWeight: 0.33333334
      - serializedVersion: 3
        time: 0.6333334
        value: 0.6083752
        inSlope: 0.58780134
        outSlope: 0.58780134
        tangentMode: 0
        weightedMode: 0
        inWeight: 0.33333334
        outWeight: 0.33333334
      - serializedVersion: 3
        time: 0.65000004
        value: 0.61794704
        inSlope: 0.5606126
        outSlope: 0.5606126
        tangentMode: 0
        weightedMode: 0
        inWeight: 0.33333334
        outWeight: 0.33333334
      - serializedVersion: 3
        time: 0.6666667
        value: 0.62706226
        inSlope: 0.53300726
        outSlope: 0.53300726
        tangentMode: 0
        weightedMode: 0
        inWeight: 0.33333334
        outWeight: 0.33333334
      - serializedVersion: 3
        time: 0.68333334
        value: 0.63571393
        inSlope: 0.505005
        outSlope: 0.505005
        tangentMode: 0
        weightedMode: 0
        inWeight: 0.33333334
        outWeight: 0.33333334
      - serializedVersion: 3
        time: 0.7
        value: 0.64389575
        inSlope: 0.4766326
        outSlope: 0.4766326
        tangentMode: 0
        weightedMode: 0
        inWeight: 0.33333334
        outWeight: 0.33333334
      - serializedVersion: 3
        time: 0.71666664
        value: 0.6516017
        inSlope: 0.44790965
        outSlope: 0.44790965
        tangentMode: 0
        weightedMode: 0
        inWeight: 0.33333334
        outWeight: 0.33333334
      - serializedVersion: 3
        time: 0.7333333
        value: 0.65882605
        inSlope: 0.41885597
        outSlope: 0.41885597
        tangentMode: 0
        weightedMode: 0
        inWeight: 0.33333334
        outWeight: 0.33333334
      - serializedVersion: 3
        time: 0.74999994
        value: 0.6655635
        inSlope: 0.3894893
        outSlope: 0.3894893
        tangentMode: 0
        weightedMode: 0
        inWeight: 0.33333334
        outWeight: 0.33333334
      - serializedVersion: 3
        time: 0.7666666
        value: 0.671809
        inSlope: 0.3598348
        outSlope: 0.3598348
        tangentMode: 0
        weightedMode: 0
        inWeight: 0.33333334
        outWeight: 0.33333334
      - serializedVersion: 3
        time: 0.78333324
        value: 0.677558
        inSlope: 0.32991558
        outSlope: 0.32991558
        tangentMode: 0
        weightedMode: 0
        inWeight: 0.33333334
        outWeight: 0.33333334
      - serializedVersion: 3
        time: 0.7999999
        value: 0.6828062
        inSlope: 0.29975325
        outSlope: 0.29975325
        tangentMode: 0
        weightedMode: 0
        inWeight: 0.33333334
        outWeight: 0.33333334
      - serializedVersion: 3
        time: 0.81666654
        value: 0.68754977
        inSlope: 0.26936644
        outSlope: 0.26936644
        tangentMode: 0
        weightedMode: 0
        inWeight: 0.33333334
        outWeight: 0.33333334
      - serializedVersion: 3
        time: 0.8333333
        value: 0.6917851
        inSlope: 0.25411806
        outSlope: 0.25411806
        tangentMode: 0
        weightedMode: 0
        inWeight: 0.33333334
        outWeight: 0.33333334
      m_PreInfinity: 2
      m_PostInfinity: 2
      m_RotationOrder: 4
    attribute: m_LocalRotation.z
    path: 
    classID: 4
    script: {fileID: 0}
  - curve:
      serializedVersion: 2
      m_Curve:
      - serializedVersion: 3
        time: 0
        value: -0.70710385
        inSlope: 0.019015072
        outSlope: 0.019015072
        tangentMode: 0
        weightedMode: 0
        inWeight: 0.33333334
        outWeight: 0.33333334
      - serializedVersion: 3
        time: 0.016666668
        value: -0.70678693
        inSlope: 0.034682747
        outSlope: 0.034682747
        tangentMode: 0
        weightedMode: 0
        inWeight: 0.33333334
        outWeight: 0.33333334
      - serializedVersion: 3
        time: 0.033333335
        value: -0.70594776
        inSlope: 0.06600558
        outSlope: 0.06600558
        tangentMode: 0
        weightedMode: 0
        inWeight: 0.33333334
        outWeight: 0.33333334
      - serializedVersion: 3
        time: 0.050000004
        value: -0.70458674
        inSlope: 0.09728193
        outSlope: 0.09728193
        tangentMode: 0
        weightedMode: 0
        inWeight: 0.33333334
        outWeight: 0.33333334
      - serializedVersion: 3
        time: 0.06666667
        value: -0.702705
        inSlope: 0.12848498
        outSlope: 0.12848498
        tangentMode: 0
        weightedMode: 0
        inWeight: 0.33333334
        outWeight: 0.33333334
      - serializedVersion: 3
        time: 0.083333336
        value: -0.7003039
        inSlope: 0.15959503
        outSlope: 0.15959503
        tangentMode: 0
        weightedMode: 0
        inWeight: 0.33333334
        outWeight: 0.33333334
      - serializedVersion: 3
        time: 0.1
        value: -0.6973852
        inSlope: 0.19058527
        outSlope: 0.19058527
        tangentMode: 0
        weightedMode: 0
        inWeight: 0.33333334
        outWeight: 0.33333334
      - serializedVersion: 3
        time: 0.11666667
        value: -0.6939511
        inSlope: 0.22143242
        outSlope: 0.22143242
        tangentMode: 0
        weightedMode: 0
        inWeight: 0.33333334
        outWeight: 0.33333334
      - serializedVersion: 3
        time: 0.13333334
        value: -0.6900041
        inSlope: 0.25212047
        outSlope: 0.25212047
        tangentMode: 0
        weightedMode: 0
        inWeight: 0.33333334
        outWeight: 0.33333334
      - serializedVersion: 3
        time: 0.15
        value: -0.68554705
        inSlope: 0.2826226
        outSlope: 0.2826226
        tangentMode: 0
        weightedMode: 0
        inWeight: 0.33333334
        outWeight: 0.33333334
      - serializedVersion: 3
        time: 0.16666667
        value: -0.68058336
        inSlope: 0.3129119
        outSlope: 0.3129119
        tangentMode: 0
        weightedMode: 0
        inWeight: 0.33333334
        outWeight: 0.33333334
      - serializedVersion: 3
        time: 0.18333334
        value: -0.67511666
        inSlope: 0.34297052
        outSlope: 0.34297052
        tangentMode: 0
        weightedMode: 0
        inWeight: 0.33333334
        outWeight: 0.33333334
      - serializedVersion: 3
        time: 0.2
        value: -0.669151
        inSlope: 0.37277701
        outSlope: 0.37277701
        tangentMode: 0
        weightedMode: 0
        inWeight: 0.33333334
        outWeight: 0.33333334
      - serializedVersion: 3
        time: 0.21666667
        value: -0.66269076
        inSlope: 0.40230814
        outSlope: 0.40230814
        tangentMode: 0
        weightedMode: 0
        inWeight: 0.33333334
        outWeight: 0.33333334
      - serializedVersion: 3
        time: 0.23333333
        value: -0.65574074
        inSlope: 0.43154243
        outSlope: 0.43154243
        tangentMode: 0
        weightedMode: 0
        inWeight: 0.33333334
        outWeight: 0.33333334
      - serializedVersion: 3
        time: 0.25
        value: -0.648306
        inSlope: 0.46045643
        outSlope: 0.46045643
        tangentMode: 0
        weightedMode: 0
        inWeight: 0.33333334
        outWeight: 0.33333334
      - serializedVersion: 3
        time: 0.26666668
        value: -0.6403922
        inSlope: 0.48903066
        outSlope: 0.48903066
        tangentMode: 0
        weightedMode: 0
        inWeight: 0.33333334
        outWeight: 0.33333334
      - serializedVersion: 3
        time: 0.28333336
        value: -0.632005
        inSlope: 0.51724213
        outSlope: 0.51724213
        tangentMode: 0
        weightedMode: 0
        inWeight: 0.33333334
        outWeight: 0.33333334
      - serializedVersion: 3
        time: 0.30000004
        value: -0.62315077
        inSlope: 0.5450727
        outSlope: 0.5450727
        tangentMode: 0
        weightedMode: 0
        inWeight: 0.33333334
        outWeight: 0.33333334
      - serializedVersion: 3
        time: 0.31666672
        value: -0.6138359
        inSlope: 0.57250273
        outSlope: 0.57250273
        tangentMode: 0
        weightedMode: 0
        inWeight: 0.33333334
        outWeight: 0.33333334
      - serializedVersion: 3
        time: 0.3333334
        value: -0.6040673
        inSlope: 0.59950364
        outSlope: 0.59950364
        tangentMode: 0
        weightedMode: 0
        inWeight: 0.33333334
        outWeight: 0.33333334
      - serializedVersion: 3
        time: 0.35000008
        value: -0.5938524
        inSlope: 0.6260664
        outSlope: 0.6260664
        tangentMode: 0
        weightedMode: 0
        inWeight: 0.33333334
        outWeight: 0.33333334
      - serializedVersion: 3
        time: 0.36666676
        value: -0.5831984
        inSlope: 0.65216607
        outSlope: 0.65216607
        tangentMode: 0
        weightedMode: 0
        inWeight: 0.33333334
        outWeight: 0.33333334
      - serializedVersion: 3
        time: 0.38333344
        value: -0.5721135
        inSlope: 0.6777811
        outSlope: 0.6777811
        tangentMode: 0
        weightedMode: 0
        inWeight: 0.33333334
        outWeight: 0.33333334
      - serializedVersion: 3
        time: 0.40000013
        value: -0.5606057
        inSlope: 0.7028991
        outSlope: 0.7028991
        tangentMode: 0
        weightedMode: 0
        inWeight: 0.33333334
        outWeight: 0.33333334
      - serializedVersion: 3
        time: 0.4166668
        value: -0.5486835
        inSlope: 0.72749317
        outSlope: 0.72749317
        tangentMode: 0
        weightedMode: 0
        inWeight: 0.33333334
        outWeight: 0.33333334
      - serializedVersion: 3
        time: 0.4333335
        value: -0.5363559
        inSlope: 0.7515508
        outSlope: 0.7515508
        tangentMode: 0
        weightedMode: 0
        inWeight: 0.33333334
        outWeight: 0.33333334
      - serializedVersion: 3
        time: 0.45000017
        value: -0.5236318
        inSlope: 0.77505404
        outSlope: 0.77505404
        tangentMode: 0
        weightedMode: 0
        inWeight: 0.33333334
        outWeight: 0.33333334
      - serializedVersion: 3
        time: 0.46666685
        value: -0.51052076
        inSlope: 0.79798335
        outSlope: 0.79798335
        tangentMode: 0
        weightedMode: 0
        inWeight: 0.33333334
        outWeight: 0.33333334
      - serializedVersion: 3
        time: 0.48333353
        value: -0.49703234
        inSlope: 0.820326
        outSlope: 0.820326
        tangentMode: 0
        weightedMode: 0
        inWeight: 0.33333334
        outWeight: 0.33333334
      - serializedVersion: 3
        time: 0.5000002
        value: -0.48317656
        inSlope: 0.84205973
        outSlope: 0.84205973
        tangentMode: 0
        weightedMode: 0
        inWeight: 0.33333334
        outWeight: 0.33333334
      - serializedVersion: 3
        time: 0.5166668
        value: -0.4689637
        inSlope: 0.86317146
        outSlope: 0.86317146
        tangentMode: 0
        weightedMode: 0
        inWeight: 0.33333334
        outWeight: 0.33333334
      - serializedVersion: 3
        time: 0.5333335
        value: -0.4544042
        inSlope: 0.88364387
        outSlope: 0.88364387
        tangentMode: 0
        weightedMode: 0
        inWeight: 0.33333334
        outWeight: 0.33333334
      - serializedVersion: 3
        time: 0.55000013
        value: -0.43950894
        inSlope: 0.9034654
        outSlope: 0.9034654
        tangentMode: 0
        weightedMode: 0
        inWeight: 0.33333334
        outWeight: 0.33333334
      - serializedVersion: 3
        time: 0.5666668
        value: -0.42428872
        inSlope: 0.9226173
        outSlope: 0.9226173
        tangentMode: 0
        weightedMode: 0
        inWeight: 0.33333334
        outWeight: 0.33333334
      - serializedVersion: 3
        time: 0.58333343
        value: -0.40875506
        inSlope: 0.941087
        outSlope: 0.941087
        tangentMode: 0
        weightedMode: 0
        inWeight: 0.33333334
        outWeight: 0.33333334
      - serializedVersion: 3
        time: 0.6000001
        value: -0.39291918
        inSlope: 0.9588656
        outSlope: 0.9588656
        tangentMode: 0
        weightedMode: 0
        inWeight: 0.33333334
        outWeight: 0.33333334
      - serializedVersion: 3
        time: 0.61666673
        value: -0.3767929
        inSlope: 0.97592986
        outSlope: 0.97592986
        tangentMode: 0
        weightedMode: 0
        inWeight: 0.33333334
        outWeight: 0.33333334
      - serializedVersion: 3
        time: 0.6333334
        value: -0.36038822
        inSlope: 0.99227524
        outSlope: 0.99227524
        tangentMode: 0
        weightedMode: 0
        inWeight: 0.33333334
        outWeight: 0.33333334
      - serializedVersion: 3
        time: 0.65000004
        value: -0.3437171
        inSlope: 1.007891
        outSlope: 1.007891
        tangentMode: 0
        weightedMode: 0
        inWeight: 0.33333334
        outWeight: 0.33333334
      - serializedVersion: 3
        time: 0.6666667
        value: -0.32679188
        inSlope: 1.0227576
        outSlope: 1.0227576
        tangentMode: 0
        weightedMode: 0
        inWeight: 0.33333334
        outWeight: 0.33333334
      - serializedVersion: 3
        time: 0.68333334
        value: -0.3096252
        inSlope: 1.0368643
        outSlope: 1.0368643
        tangentMode: 0
        weightedMode: 0
        inWeight: 0.33333334
        outWeight: 0.33333334
      - serializedVersion: 3
        time: 0.7
        value: -0.29222977
        inSlope: 1.0502092
        outSlope: 1.0502092
        tangentMode: 0
        weightedMode: 0
        inWeight: 0.33333334
        outWeight: 0.33333334
      - serializedVersion: 3
        time: 0.71666664
        value: -0.27461827
        inSlope: 1.0627825
        outSlope: 1.0627825
        tangentMode: 0
        weightedMode: 0
        inWeight: 0.33333334
        outWeight: 0.33333334
      - serializedVersion: 3
        time: 0.7333333
        value: -0.25680372
        inSlope: 1.0745633
        outSlope: 1.0745633
        tangentMode: 0
        weightedMode: 0
        inWeight: 0.33333334
        outWeight: 0.33333334
      - serializedVersion: 3
        time: 0.74999994
        value: -0.23879953
        inSlope: 1.0855496
        outSlope: 1.0855496
        tangentMode: 0
        weightedMode: 0
        inWeight: 0.33333334
        outWeight: 0.33333334
      - serializedVersion: 3
        time: 0.7666666
        value: -0.22061877
        inSlope: 1.0957384
        outSlope: 1.0957384
        tangentMode: 0
        weightedMode: 0
        inWeight: 0.33333334
        outWeight: 0.33333334
      - serializedVersion: 3
        time: 0.78333324
        value: -0.20227495
        inSlope: 1.1051154
        outSlope: 1.1051154
        tangentMode: 0
        weightedMode: 0
        inWeight: 0.33333334
        outWeight: 0.33333334
      - serializedVersion: 3
        time: 0.7999999
        value: -0.18378162
        inSlope: 1.1136757
        outSlope: 1.1136757
        tangentMode: 0
        weightedMode: 0
        inWeight: 0.33333334
        outWeight: 0.33333334
      - serializedVersion: 3
        time: 0.81666654
        value: -0.16515246
        inSlope: 1.1214107
        outSlope: 1.1214107
        tangentMode: 0
        weightedMode: 0
        inWeight: 0.33333334
        outWeight: 0.33333334
      - serializedVersion: 3
        time: 0.8333333
        value: -0.14640117
        inSlope: 1.1250706
        outSlope: 1.1250706
        tangentMode: 0
        weightedMode: 0
        inWeight: 0.33333334
        outWeight: 0.33333334
      m_PreInfinity: 2
      m_PostInfinity: 2
      m_RotationOrder: 4
    attribute: m_LocalRotation.w
    path: 
    classID: 4
    script: {fileID: 0}
  m_EulerEditorCurves:
  - curve:
      serializedVersion: 2
      m_Curve:
      - serializedVersion: 3
        time: 0
        value: 270
        inSlope: 0
        outSlope: 0
        tangentMode: 34
        weightedMode: 0
        inWeight: 0.33333334
        outWeight: 0.33333334
      - serializedVersion: 3
        time: 0.33333334
        value: 270
        inSlope: 0
        outSlope: 0
        tangentMode: 34
        weightedMode: 0
        inWeight: 0.33333334
        outWeight: 0.33333334
      m_PreInfinity: 2
      m_PostInfinity: 2
      m_RotationOrder: 4
    attribute: localEulerAnglesBaked.x
    path: 
    classID: 4
    script: {fileID: 0}
  - curve:
      serializedVersion: 2
      m_Curve:
      - serializedVersion: 3
        time: 0
        value: -0.3310547
        inSlope: -186.92493
        outSlope: -186.92493
        tangentMode: 34
        weightedMode: 0
        inWeight: 0.33333334
        outWeight: 0.33333334
      - serializedVersion: 3
        time: 0.8333333
        value: -156.10182
        inSlope: -186.92493
        outSlope: -186.92493
        tangentMode: 34
        weightedMode: 0
        inWeight: 0.33333334
        outWeight: 0.33333334
      m_PreInfinity: 2
      m_PostInfinity: 2
      m_RotationOrder: 4
    attribute: localEulerAnglesBaked.y
    path: 
    classID: 4
    script: {fileID: 0}
  - curve:
      serializedVersion: 2
      m_Curve:
      - serializedVersion: 3
        time: 0
        value: 0
        inSlope: 0
        outSlope: 0
        tangentMode: 34
        weightedMode: 0
        inWeight: 0.33333334
        outWeight: 0.33333334
      - serializedVersion: 3
        time: 0.33333334
        value: 0
        inSlope: 0
        outSlope: 0
        tangentMode: 34
        weightedMode: 0
        inWeight: 0.33333334
        outWeight: 0.33333334
      m_PreInfinity: 2
      m_PostInfinity: 2
      m_RotationOrder: 4
    attribute: localEulerAnglesBaked.z
    path: 
    classID: 4
    script: {fileID: 0}
  m_HasGenericRootTransform: 1
  m_HasMotionFloatCurves: 0
  m_GenerateMotionCurves: 0
  m_Events: []
