%YAML 1.1
%TAG !u! tag:unity3d.com,2011:
--- !u!21 &2100000
Material:
  serializedVersion: 6
  m_ObjectHideFlags: 0
  m_CorrespondingSourceObject: {fileID: 0}
  m_PrefabInternal: {fileID: 0}
  m_Name: a04
  m_Shader: {fileID: 200, guid: 0000000000000000f000000000000000, type: 0}
  m_ShaderKeywords: _ANIMVERTEXALPHA_ON
  m_LightmapFlags: 4
  m_EnableInstancingVariants: 0
  m_DoubleSidedGI: 0
  m_CustomRenderQueue: -1
  stringTagMap: {}
  disabledShaderPasses: []
  m_SavedProperties:
    serializedVersion: 3
    m_TexEnvs:
    - _Alpha01:
        m_Texture: {fileID: 0}
        m_Scale: {x: 1, y: 1}
        m_Offset: {x: 0, y: 0}
    - _Alpha02:
        m_Texture: {fileID: 0}
        m_Scale: {x: 1, y: 1}
        m_Offset: {x: 0, y: 0}
    - _AlphaTex:
        m_Texture: {fileID: 0}
        m_Scale: {x: 1, y: 1}
        m_Offset: {x: 0, y: 0}
    - _D01:
        m_Texture: {fileID: 0}
        m_Scale: {x: 1, y: 1}
        m_Offset: {x: 0, y: 0}
    - _DisE01:
        m_Texture: {fileID: 0}
        m_Scale: {x: 1, y: 1}
        m_Offset: {x: 0, y: 0}
    - _DisEmiss:
        m_Texture: {fileID: 0}
        m_Scale: {x: 1, y: 1}
        m_Offset: {x: 0, y: 0}
    - _E01:
        m_Texture: {fileID: 2800000, guid: 5fa21ff78b511c148bcdf1c90e441075, type: 3}
        m_Scale: {x: 1, y: 1}
        m_Offset: {x: 0, y: 0}
    - _E02:
        m_Texture: {fileID: 0}
        m_Scale: {x: 1, y: 1}
        m_Offset: {x: 0, y: 0}
    - _MainTex:
        m_Texture: {fileID: 2800000, guid: 26f662dde9e8f264bb2276863aa72101, type: 3}
        m_Scale: {x: 1, y: 1}
        m_Offset: {x: 0, y: 0}
    - _MaskE01:
        m_Texture: {fileID: 0}
        m_Scale: {x: 1, y: 1}
        m_Offset: {x: 0, y: 0}
    m_Floats:
    - _Alpha01_Bright: 1
    - _Alpha01_UVangle: 0
    - _AlphaClip: 0.05
    - _Alpha_Bright: 1
    - _AnimVertexAlpha: 1
    - _Cutoff: 0.5
    - _DisE01_UVpan: 0
    - _DisE01_UVpan_Speed: 0
    - _DisE01_Value: 0
    - _DisE01_value: 0
    - _DisE02_Value: 0
    - _Dissovle_Bright: 0
    - _Dissovle_Time: 1
    - _Dissovle_Width: 0.002
    - _E01_Bright: 0.60714287
    - _E01_UVangle: 0
    - _E01_UVpan: 0
    - _E01_UVpan_Speed: 1
    - _E01_UVpan_TimeVertexAlpha: 0
    - _E02_UVangle: 0
    - _E02_UVpan: 0
    - _E02_UVpan_Speed: 1
    - _Glow_Brght: 0
    - _Glow_Bright: 1
    - _InvFade: 1
    - _MaskE01_UVangle: 0
    - _RimPower_max: 1
    - _RimPower_min: 0
    - _Tex_Power: 1
    - _Tex_power: 1
    m_Colors:
    - _Color: {r: 1, g: 1, b: 1, a: 1}
    - _Dissovle_Color: {r: 1, g: 1, b: 1, a: 1}
    - _E01_Color: {r: 1, g: 1, b: 1, a: 1}
    - _E02_Color: {r: 1, g: 1, b: 1, a: 1}
    - _HSV: {r: 1, g: 1, b: 1, a: 1}
    - _RimColor: {r: 1, g: 1, b: 1, a: 1}
    - _TintColor: {r: 1, g: 1, b: 1, a: 0.5019608}
