%YAML 1.1
%TAG !u! tag:unity3d.com,2011:
--- !u!21 &2100000
Material:
  serializedVersion: 6
  m_ObjectHideFlags: 0
  m_CorrespondingSourceObject: {fileID: 0}
  m_PrefabInternal: {fileID: 0}
  m_Name: ribbon10_B_Toon 1
  m_Shader: {fileID: 4800000, guid: 39724c96a1f38cd4ba13337cd9d6dab1, type: 3}
  m_ShaderKeywords: _DISE01_UVPAN_ON
  m_LightmapFlags: 4
  m_EnableInstancingVariants: 0
  m_DoubleSidedGI: 0
  m_CustomRenderQueue: -1
  stringTagMap: {}
  disabledShaderPasses: []
  m_SavedProperties:
    serializedVersion: 3
    m_TexEnvs:
    - _Alpha01:
        m_Texture: {fileID: 2800000, guid: 29766d498666ab7479091fef5e7f138e, type: 3}
        m_Scale: {x: 1, y: 2}
        m_Offset: {x: 0, y: 0}
    - _DisE01:
        m_Texture: {fileID: 0}
        m_Scale: {x: 0, y: 1}
        m_Offset: {x: 0, y: 0}
    - _E01:
        m_Texture: {fileID: 2800000, guid: 8d75f58e43d8a8e4dae5045ef8d86c1d, type: 3}
        m_Scale: {x: 1, y: 1}
        m_Offset: {x: 0, y: 0}
    - _MainTex:
        m_Texture: {fileID: 0}
        m_Scale: {x: 1, y: 1}
        m_Offset: {x: 0, y: 0}
    - _MaskE01:
        m_Texture: {fileID: 2800000, guid: a3de474356606594493c3c344cbf0f8f, type: 3}
        m_Scale: {x: 1, y: 1}
        m_Offset: {x: 0, y: 0}
    m_Floats:
    - _Alpha01_Bright: 1
    - _Alpha01_UVangle: 0
    - _AlphaClip: 0.01
    - _Cutoff: 0.5
    - _DisE01_UVpan: 1
    - _DisE01_UVpan_Speed: 0.1
    - _DisE01_value: 0
    - _E01_Bright: 10
    - _E01_UVangle: 0.5
    - _E01_UVpan: 0
    - _E01_UVpan_Speed: 1
    - _E01_UVpan_TimeVertexAlpha: 0
    - _Glow_Brght: 1
    - _Glow_Bright: 3
    - _MaskE01_UVangle: 0
    - _Opacity_ONOff: 0
    m_Colors:
    - _Color: {r: 1, g: 1, b: 1, a: 1}
    - _E01_Color: {r: 1, g: 1, b: 1, a: 1}
