%YAML 1.1
%TAG !u! tag:unity3d.com,2011:
--- !u!21 &2100000
Material:
  serializedVersion: 6
  m_ObjectHideFlags: 0
  m_CorrespondingSourceObject: {fileID: 0}
  m_PrefabInternal: {fileID: 0}
  m_Name: triangle 1
  m_Shader: {fileID: 4800000, guid: 35a4fe577cd891345b99e0b49e883115, type: 3}
  m_ShaderKeywords: _E01_UVPAN_ON
  m_LightmapFlags: 4
  m_EnableInstancingVariants: 0
  m_DoubleSidedGI: 0
  m_CustomRenderQueue: -1
  stringTagMap: {}
  disabledShaderPasses: []
  m_SavedProperties:
    serializedVersion: 3
    m_TexEnvs:
    - _DisE01:
        m_Texture: {fileID: 2800000, guid: c04ff96383ef54c4493409512680fa18, type: 3}
        m_Scale: {x: 0.5, y: 2}
        m_Offset: {x: 0, y: 0}
    - _E01:
        m_Texture: {fileID: 2800000, guid: e0555e697afedfe4ebd70810832ad6dc, type: 3}
        m_Scale: {x: 1, y: 1}
        m_Offset: {x: 0, y: 0}
    - _MainTex:
        m_Texture: {fileID: 0}
        m_Scale: {x: 1, y: 1}
        m_Offset: {x: 0, y: 0}
    - _MaskE01:
        m_Texture: {fileID: 2800000, guid: 08ff5e137df79be48b7c90aaaca36d96, type: 3}
        m_Scale: {x: 1, y: 1}
        m_Offset: {x: 0, y: 0}
    m_Floats:
    - _Cutoff: 0.5
    - _DisE01_value: 0.3
    - _E01_Bright: 1
    - _E01_UVangle: -0.5
    - _E01_UVpan: 1
    - _E01_UVpan_Speed: 0
    - _E01_UVpan_TimeVertexAlpha: 0
    - _MaskE01_UVangle: -0.5
    m_Colors:
    - _Color: {r: 1, g: 1, b: 1, a: 1}
    - _E01_Color: {r: 1, g: 1, b: 1, a: 1}
